%!PS-Adobe-2.0
%%Creator: Graphviz version 2.12 (Mon Nov 16 18:34:03 UTC 2009)
%%For: (vtamara) Vladimir
%%Title: G
%%Pages: (atend)
%%BoundingBox: (atend)
%%EndComments
save
%%BeginProlog
/DotDict 200 dict def
DotDict begin

/setupLatin1 {
mark
/EncodingVector 256 array def
 EncodingVector 0

ISOLatin1Encoding 0 255 getinterval putinterval
EncodingVector 45 /hyphen put

% Set up ISO Latin 1 character encoding
/starnetISO {
        dup dup findfont dup length dict begin
        { 1 index /FID ne { def }{ pop pop } ifelse
        } forall
        /Encoding EncodingVector def
        currentdict end definefont
} def
/Times-Roman starnetISO def
/Times-Italic starnetISO def
/Times-Bold starnetISO def
/Times-BoldItalic starnetISO def
/Helvetica starnetISO def
/Helvetica-Oblique starnetISO def
/Helvetica-Bold starnetISO def
/Helvetica-BoldOblique starnetISO def
/Courier starnetISO def
/Courier-Oblique starnetISO def
/Courier-Bold starnetISO def
/Courier-BoldOblique starnetISO def
cleartomark
} bind def

%%BeginResource: procset graphviz 0 0
/coord-font-family /Times-Roman def
/default-font-family /Times-Roman def
/coordfont coord-font-family findfont 8 scalefont def

/InvScaleFactor 1.0 def
/set_scale {
       dup 1 exch div /InvScaleFactor exch def
       scale
} bind def

% styles
/solid { [] 0 setdash } bind def
/dashed { [9 InvScaleFactor mul dup ] 0 setdash } bind def
/dotted { [1 InvScaleFactor mul 6 InvScaleFactor mul] 0 setdash } bind def
/invis {/fill {newpath} def /stroke {newpath} def /show {pop newpath} def} bind def
/bold { 2 setlinewidth } bind def
/filled { } bind def
/unfilled { } bind def
/rounded { } bind def
/diagonals { } bind def

% hooks for setting color 
/nodecolor { sethsbcolor } bind def
/edgecolor { sethsbcolor } bind def
/graphcolor { sethsbcolor } bind def
/nopcolor {pop pop pop} bind def

/beginpage {	% i j npages
	/npages exch def
	/j exch def
	/i exch def
	/str 10 string def
	npages 1 gt {
		gsave
			coordfont setfont
			0 0 moveto
			(\() show i str cvs show (,) show j str cvs show (\)) show
		grestore
	} if
} bind def

/set_font {
	findfont exch
	scalefont setfont
} def

% draw aligned label in bounding box aligned to current point
/alignedtext {			% width adj text
	/text exch def
	/adj exch def
	/width exch def
	gsave
		width 0 gt {
			text stringwidth pop adj mul 0 rmoveto
		} if
		[] 0 setdash
		text show
	grestore
} def

/boxprim {				% xcorner ycorner xsize ysize
		4 2 roll
		moveto
		2 copy
		exch 0 rlineto
		0 exch rlineto
		pop neg 0 rlineto
		closepath
} bind def

/ellipse_path {
	/ry exch def
	/rx exch def
	/y exch def
	/x exch def
	matrix currentmatrix
	newpath
	x y translate
	rx ry scale
	0 0 1 0 360 arc
	setmatrix
} bind def

/endpage { showpage } bind def
/showpage { } def

/layercolorseq
	[	% layer color sequence - darkest to lightest
		[0 0 0]
		[.2 .8 .8]
		[.4 .8 .8]
		[.6 .8 .8]
		[.8 .8 .8]
	]
def

/layerlen layercolorseq length def

/setlayer {/maxlayer exch def /curlayer exch def
	layercolorseq curlayer 1 sub layerlen mod get
	aload pop sethsbcolor
	/nodecolor {nopcolor} def
	/edgecolor {nopcolor} def
	/graphcolor {nopcolor} def
} bind def

/onlayer { curlayer ne {invis} if } def

/onlayers {
	/myupper exch def
	/mylower exch def
	curlayer mylower lt
	curlayer myupper gt
	or
	{invis} if
} def

/curlayer 0 def

%%EndResource
%%EndProlog
%%BeginSetup
14 default-font-family set_font
1 setmiterlimit
% /arrowlength 10 def
% /arrowwidth 5 def

% make sure pdfmark is harmless for PS-interpreters other than Distiller
/pdfmark where {pop} {userdict /pdfmark /cleartomark load put} ifelse
% make '<<' and '>>' safe on PS Level 1 devices
/languagelevel where {pop languagelevel}{1} ifelse
2 lt {
    userdict (<<) cvn ([) cvn load put
    userdict (>>) cvn ([) cvn load put
} if

%%EndSetup
setupLatin1
%%Page: 1 1
%%PageBoundingBox: 36 36 698 368
%%PageOrientation: Portrait
gsave
36 36 698 368 boxprim clip newpath
0 0 1 beginpage
1 1 set_scale 0 rotate 40 40 translate
% Node1
gsave
0.000 0.000 0.749 nodecolor
newpath 1 94 moveto
1 115 lineto
108 115 lineto
108 94 lineto
closepath fill
1 setlinewidth
filled
0.000 0.000 0.000 nodecolor
newpath 1 94 moveto
1 115 lineto
108 115 lineto
108 94 lineto
closepath stroke
0.000 0.000 0.000 nodecolor
10.00 /FreeSans.ttf set_font
54 101 moveto 91 -0.5 (realizaBusqueda) alignedtext
grestore
% Node2
gsave
[ /Rect [ 144 247 262 267 ]
  /Border [ 0 0 0 ]
  /Action << /Subtype /URI /URI ($TrieSDisco_8cpp.html#1281c095bc817935769ceb3707a089d4) >>
  /Subtype /Link
/ANN pdfmark
[ /Rect [ 144 247 262 267 ]
  /Border [ 0 0 0 ]
  /Action << /Subtype /URI /URI ($TrieSDisco_8cpp.html#1281c095bc817935769ceb3707a089d4) >>
  /Subtype /Link
/ANN pdfmark
1 setlinewidth
0.000 0.000 0.000 nodecolor
newpath 144 246 moveto
144 267 lineto
262 267 lineto
262 246 lineto
closepath stroke
0.000 0.000 0.000 nodecolor
10.00 /FreeSans.ttf set_font
203 253 moveto 102 -0.5 (buscaPlanoStream) alignedtext
grestore
% Node1->Node2
gsave
1 setlinewidth
solid
0.667 0.776 0.439 edgecolor
newpath 64 115 moveto
89 141 153 206 185 238 curveto
stroke
0.667 0.776 0.439 edgecolor
newpath 182.781 240.779 moveto
192 246 lineto
188.049 236.169 lineto
closepath fill
1 setlinewidth
solid
0.667 0.776 0.439 edgecolor
newpath 182.781 240.779 moveto
192 246 lineto
188.049 236.169 lineto
closepath stroke
grestore
% Node4
gsave
[ /Rect [ 566 171 654 191 ]
  /Border [ 0 0 0 ]
  /Action << /Subtype /URI /URI ($comun_8cpp.html#88ffeb20e447cad877c37bb473033590) >>
  /Subtype /Link
/ANN pdfmark
[ /Rect [ 566 171 654 191 ]
  /Border [ 0 0 0 ]
  /Action << /Subtype /URI /URI ($comun_8cpp.html#88ffeb20e447cad877c37bb473033590) >>
  /Subtype /Link
/ANN pdfmark
1 setlinewidth
0.000 0.000 0.000 nodecolor
newpath 566 170 moveto
566 191 lineto
654 191 lineto
654 170 lineto
closepath stroke
0.000 0.000 0.000 nodecolor
10.00 /FreeSans.ttf set_font
610 177 moveto 72 -0.5 (errorFormato) alignedtext
grestore
% Node1->Node4
gsave
1 setlinewidth
solid
0.667 0.776 0.439 edgecolor
newpath 73 115 moveto
91 124 119 136 144 143 curveto
220 161 450 174 556 179 curveto
stroke
0.667 0.776 0.439 edgecolor
newpath 556 182.5 moveto
566 179 lineto
556 175.5 lineto
closepath fill
1 setlinewidth
solid
0.667 0.776 0.439 edgecolor
newpath 556 182.5 moveto
566 179 lineto
556 175.5 lineto
closepath stroke
grestore
% Node9
gsave
[ /Rect [ 177 114 229 134 ]
  /Border [ 0 0 0 ]
  /Action << /Subtype /URI /URI ($comun_8cpp.html#e156c1dd4bf7eda3abfcdf5d86cb85aa) >>
  /Subtype /Link
/ANN pdfmark
[ /Rect [ 177 114 229 134 ]
  /Border [ 0 0 0 ]
  /Action << /Subtype /URI /URI ($comun_8cpp.html#e156c1dd4bf7eda3abfcdf5d86cb85aa) >>
  /Subtype /Link
/ANN pdfmark
1 setlinewidth
0.000 0.000 0.000 nodecolor
newpath 177 113 moveto
177 134 lineto
229 134 lineto
229 113 lineto
closepath stroke
0.000 0.000 0.000 nodecolor
10.00 /FreeSans.ttf set_font
203 120 moveto 36 -0.5 (estalla) alignedtext
grestore
% Node1->Node9
gsave
1 setlinewidth
solid
0.667 0.776 0.439 edgecolor
newpath 108 112 moveto
128 114 149 117 167 119 curveto
stroke
0.667 0.776 0.439 edgecolor
newpath 166.508 122.471 moveto
177 121 lineto
167.881 115.607 lineto
closepath fill
1 setlinewidth
solid
0.667 0.776 0.439 edgecolor
newpath 166.508 122.471 moveto
177 121 lineto
167.881 115.607 lineto
closepath stroke
grestore
% Node10
gsave
[ /Rect [ 303 76 383 96 ]
  /Border [ 0 0 0 ]
  /Action << /Subtype /URI /URI ($TrieSDisco_8cpp.html#acdb9639784b2fb341e069b1f54c3455) >>
  /Subtype /Link
/ANN pdfmark
[ /Rect [ 303 76 383 96 ]
  /Border [ 0 0 0 ]
  /Action << /Subtype /URI /URI ($TrieSDisco_8cpp.html#acdb9639784b2fb341e069b1f54c3455) >>
  /Subtype /Link
/ANN pdfmark
1 setlinewidth
0.000 0.000 0.000 nodecolor
newpath 303 75 moveto
303 96 lineto
383 96 lineto
383 75 lineto
closepath stroke
0.000 0.000 0.000 nodecolor
10.00 /FreeSans.ttf set_font
343 82 moveto 64 -0.5 (leeRelacion) alignedtext
grestore
% Node1->Node10
gsave
1 setlinewidth
solid
0.667 0.776 0.439 edgecolor
newpath 108 101 moveto
161 98 241 93 293 90 curveto
stroke
0.667 0.776 0.439 edgecolor
newpath 293.398 93.4778 moveto
303 89 lineto
292.701 86.5125 lineto
closepath fill
1 setlinewidth
solid
0.667 0.776 0.439 edgecolor
newpath 293.398 93.4778 moveto
303 89 lineto
292.701 86.5125 lineto
closepath stroke
grestore
% Node12
gsave
[ /Rect [ 299 38 387 58 ]
  /Border [ 0 0 0 ]
  /Action << /Subtype /URI /URI ($TrieSDisco_8cpp.html#3b55801abcb3987a49125a0ddc9ff76c) >>
  /Subtype /Link
/ANN pdfmark
[ /Rect [ 299 38 387 58 ]
  /Border [ 0 0 0 ]
  /Action << /Subtype /URI /URI ($TrieSDisco_8cpp.html#3b55801abcb3987a49125a0ddc9ff76c) >>
  /Subtype /Link
/ANN pdfmark
1 setlinewidth
0.000 0.000 0.000 nodecolor
newpath 299 37 moveto
299 58 lineto
388 58 lineto
388 37 lineto
closepath stroke
0.000 0.000 0.000 nodecolor
10.00 /FreeSans.ttf set_font
343 44 moveto 73 -0.5 (verificaIndice) alignedtext
grestore
% Node1->Node12
gsave
1 setlinewidth
solid
0.667 0.776 0.439 edgecolor
newpath 105 94 moveto
118 91 131 89 144 86 curveto
194 76 249 66 289 58 curveto
stroke
0.667 0.776 0.439 edgecolor
newpath 289.881 61.3933 moveto
299 56 lineto
288.508 54.5292 lineto
closepath fill
1 setlinewidth
solid
0.667 0.776 0.439 edgecolor
newpath 289.881 61.3933 moveto
299 56 lineto
288.508 54.5292 lineto
closepath stroke
grestore
% Node13
gsave
[ /Rect [ 153 0 253 20 ]
  /Border [ 0 0 0 ]
  /Action << /Subtype /URI /URI ($comun_8cpp.html#ecd3ce9c133c650ebb919dcce6f77003) >>
  /Subtype /Link
/ANN pdfmark
[ /Rect [ 153 0 253 20 ]
  /Border [ 0 0 0 ]
  /Action << /Subtype /URI /URI ($comun_8cpp.html#ecd3ce9c133c650ebb919dcce6f77003) >>
  /Subtype /Link
/ANN pdfmark
1 setlinewidth
0.000 0.000 0.000 nodecolor
newpath 153 -1 moveto
153 20 lineto
253 20 lineto
253 -1 lineto
closepath stroke
0.000 0.000 0.000 nodecolor
10.00 /FreeSans.ttf set_font
203 6 moveto 84 -0.5 (verificaNombre) alignedtext
grestore
% Node1->Node13
gsave
1 setlinewidth
solid
0.667 0.776 0.439 edgecolor
newpath 66 94 moveto
82 79 114 51 144 34 curveto
151 31 158 27 165 24 curveto
stroke
0.667 0.776 0.439 edgecolor
newpath 166.283 27.2598 moveto
174 20 lineto
163.44 20.8631 lineto
closepath fill
1 setlinewidth
solid
0.667 0.776 0.439 edgecolor
newpath 166.283 27.2598 moveto
174 20 lineto
163.44 20.8631 lineto
closepath stroke
grestore
% Node2->Node2
gsave
1 setlinewidth
solid
0.667 0.776 0.439 edgecolor
newpath 159 267 moveto
139 276 154 285 203 285 curveto
241 285 258 280 255 273 curveto
stroke
0.667 0.776 0.439 edgecolor
newpath 257.1 270.2 moveto
247 267 lineto
252.9 275.8 lineto
closepath fill
1 setlinewidth
solid
0.667 0.776 0.439 edgecolor
newpath 257.1 270.2 moveto
247 267 lineto
252.9 275.8 lineto
closepath stroke
grestore
% Node3
gsave
[ /Rect [ 450 304 504 324 ]
  /Border [ 0 0 0 ]
  /Action << /Subtype /URI /URI ($comun_8cpp.html#4a359aa93f2dd4e34badd70c0e1f7082) >>
  /Subtype /Link
/ANN pdfmark
[ /Rect [ 450 304 504 324 ]
  /Border [ 0 0 0 ]
  /Action << /Subtype /URI /URI ($comun_8cpp.html#4a359aa93f2dd4e34badd70c0e1f7082) >>
  /Subtype /Link
/ANN pdfmark
1 setlinewidth
0.000 0.000 0.000 nodecolor
newpath 450 303 moveto
450 324 lineto
505 324 lineto
505 303 lineto
closepath stroke
0.000 0.000 0.000 nodecolor
10.00 /FreeSans.ttf set_font
477 310 moveto 39 -0.5 (leeCad) alignedtext
grestore
% Node2->Node3
gsave
1 setlinewidth
solid
0.667 0.776 0.439 edgecolor
newpath 224 267 moveto
243 276 272 288 298 295 curveto
346 307 404 311 440 313 curveto
stroke
0.667 0.776 0.439 edgecolor
newpath 440 316.5 moveto
450 313 lineto
440 309.5 lineto
closepath fill
1 setlinewidth
solid
0.667 0.776 0.439 edgecolor
newpath 440 316.5 moveto
450 313 lineto
440 309.5 lineto
closepath stroke
grestore
% Node5
gsave
[ /Rect [ 309 266 377 286 ]
  /Border [ 0 0 0 ]
  /Action << /Subtype /URI /URI ($comun_8hpp.html#9871d7357fc245ec5b7a227a9a62eb36) >>
  /Subtype /Link
/ANN pdfmark
[ /Rect [ 309 266 377 286 ]
  /Border [ 0 0 0 ]
  /Action << /Subtype /URI /URI ($comun_8hpp.html#9871d7357fc245ec5b7a227a9a62eb36) >>
  /Subtype /Link
/ANN pdfmark
1 setlinewidth
0.000 0.000 0.000 nodecolor
newpath 309 265 moveto
309 286 lineto
377 286 lineto
377 265 lineto
closepath stroke
0.000 0.000 0.000 nodecolor
10.00 /FreeSans.ttf set_font
343 272 moveto 52 -0.5 (leeNDesp) alignedtext
grestore
% Node2->Node5
gsave
1 setlinewidth
solid
0.667 0.776 0.439 edgecolor
newpath 262 265 moveto
274 267 287 268 299 270 curveto
stroke
0.667 0.776 0.439 edgecolor
newpath 298.701 273.488 moveto
309 271 lineto
299.398 266.522 lineto
closepath fill
1 setlinewidth
solid
0.667 0.776 0.439 edgecolor
newpath 298.701 273.488 moveto
309 271 lineto
299.398 266.522 lineto
closepath stroke
grestore
% Node7
gsave
[ /Rect [ 318 228 368 248 ]
  /Border [ 0 0 0 ]
  /Action << /Subtype /URI /URI ($Pos_8cpp.html#36b67a50cba6dc1789825a3111bee9d2) >>
  /Subtype /Link
/ANN pdfmark
[ /Rect [ 318 228 368 248 ]
  /Border [ 0 0 0 ]
  /Action << /Subtype /URI /URI ($Pos_8cpp.html#36b67a50cba6dc1789825a3111bee9d2) >>
  /Subtype /Link
/ANN pdfmark
1 setlinewidth
0.000 0.000 0.000 nodecolor
newpath 318 227 moveto
318 248 lineto
369 248 lineto
369 227 lineto
closepath stroke
0.000 0.000 0.000 nodecolor
10.00 /FreeSans.ttf set_font
343 234 moveto 35 -0.5 (leePos) alignedtext
grestore
% Node2->Node7
gsave
1 setlinewidth
solid
0.667 0.776 0.439 edgecolor
newpath 262 249 moveto
278 247 294 245 308 243 curveto
stroke
0.667 0.776 0.439 edgecolor
newpath 308.398 246.478 moveto
318 242 lineto
307.701 239.512 lineto
closepath fill
1 setlinewidth
solid
0.667 0.776 0.439 edgecolor
newpath 308.398 246.478 moveto
318 242 lineto
307.701 239.512 lineto
closepath stroke
grestore
% Node3->Node4
gsave
1 setlinewidth
solid
0.667 0.776 0.439 edgecolor
newpath 505 308 moveto
514 305 523 301 530 295 curveto
564 269 589 225 602 200 curveto
stroke
0.667 0.776 0.439 edgecolor
newpath 605.137 201.56 moveto
606 191 lineto
598.74 198.717 lineto
closepath fill
1 setlinewidth
solid
0.667 0.776 0.439 edgecolor
newpath 605.137 201.56 moveto
606 191 lineto
598.74 198.717 lineto
closepath stroke
grestore
% Node6
gsave
[ /Rect [ 447 266 507 286 ]
  /Border [ 0 0 0 ]
  /Action << /Subtype /URI /URI ($comun_8cpp.html#c7bf9e68bbdccea36ce786b806244ea1) >>
  /Subtype /Link
/ANN pdfmark
[ /Rect [ 447 266 507 286 ]
  /Border [ 0 0 0 ]
  /Action << /Subtype /URI /URI ($comun_8cpp.html#c7bf9e68bbdccea36ce786b806244ea1) >>
  /Subtype /Link
/ANN pdfmark
1 setlinewidth
0.000 0.000 0.000 nodecolor
newpath 447 265 moveto
447 286 lineto
507 286 lineto
507 265 lineto
closepath stroke
0.000 0.000 0.000 nodecolor
10.00 /FreeSans.ttf set_font
477 272 moveto 44 -0.5 (lee128b) alignedtext
grestore
% Node5->Node6
gsave
1 setlinewidth
solid
0.667 0.776 0.439 edgecolor
newpath 377 276 moveto
396 276 418 276 437 276 curveto
stroke
0.667 0.776 0.439 edgecolor
newpath 437 279.5 moveto
447 276 lineto
437 272.5 lineto
closepath fill
1 setlinewidth
solid
0.667 0.776 0.439 edgecolor
newpath 437 279.5 moveto
447 276 lineto
437 272.5 lineto
closepath stroke
grestore
% Node6->Node4
gsave
1 setlinewidth
solid
0.667 0.776 0.439 edgecolor
newpath 506 265 moveto
514 261 523 257 530 252 curveto
554 237 578 214 593 198 curveto
stroke
0.667 0.776 0.439 edgecolor
newpath 595.404 200.546 moveto
600 191 lineto
590.454 195.596 lineto
closepath fill
1 setlinewidth
solid
0.667 0.776 0.439 edgecolor
newpath 595.404 200.546 moveto
600 191 lineto
590.454 195.596 lineto
closepath stroke
grestore
% Node7->Node4
gsave
1 setlinewidth
solid
0.667 0.776 0.439 edgecolor
newpath 369 238 moveto
406 238 474 234 530 219 curveto
549 213 569 204 584 196 curveto
stroke
0.667 0.776 0.439 edgecolor
newpath 585.958 198.916 moveto
593 191 lineto
582.559 192.797 lineto
closepath fill
1 setlinewidth
solid
0.667 0.776 0.439 edgecolor
newpath 585.958 198.916 moveto
593 191 lineto
582.559 192.797 lineto
closepath stroke
grestore
% Node8
gsave
[ /Rect [ 424 190 530 210 ]
  /Border [ 0 0 0 ]
  /Action << /Subtype /URI /URI ($Elias_8cpp.html#95ee5a0ffb91f203612d2ce9d063ec36) >>
  /Subtype /Link
/ANN pdfmark
[ /Rect [ 424 190 530 210 ]
  /Border [ 0 0 0 ]
  /Action << /Subtype /URI /URI ($Elias_8cpp.html#95ee5a0ffb91f203612d2ce9d063ec36) >>
  /Subtype /Link
/ANN pdfmark
1 setlinewidth
0.000 0.000 0.000 nodecolor
newpath 424 189 moveto
424 210 lineto
530 210 lineto
530 189 lineto
closepath stroke
0.000 0.000 0.000 nodecolor
10.00 /FreeSans.ttf set_font
477 196 moveto 90 -0.5 (lee_elias_gama2) alignedtext
grestore
% Node7->Node8
gsave
1 setlinewidth
solid
0.667 0.776 0.439 edgecolor
newpath 369 231 moveto
387 226 411 219 432 213 curveto
stroke
0.667 0.776 0.439 edgecolor
newpath 433.427 216.226 moveto
442 210 lineto
431.416 209.521 lineto
closepath fill
1 setlinewidth
solid
0.667 0.776 0.439 edgecolor
newpath 433.427 216.226 moveto
442 210 lineto
431.416 209.521 lineto
closepath stroke
grestore
% Node8->Node4
gsave
1 setlinewidth
solid
0.667 0.776 0.439 edgecolor
newpath 530 192 moveto
539 191 547 190 556 188 curveto
stroke
0.667 0.776 0.439 edgecolor
newpath 556.398 191.478 moveto
566 187 lineto
555.701 184.512 lineto
closepath fill
1 setlinewidth
solid
0.667 0.776 0.439 edgecolor
newpath 556.398 191.478 moveto
566 187 lineto
555.701 184.512 lineto
closepath stroke
grestore
% Node10->Node4
gsave
1 setlinewidth
solid
0.667 0.776 0.439 edgecolor
newpath 376 96 moveto
414 108 477 128 530 148 curveto
545 154 562 160 576 166 curveto
stroke
0.667 0.776 0.439 edgecolor
newpath 574.44 169.137 moveto
585 170 lineto
577.283 162.74 lineto
closepath fill
1 setlinewidth
solid
0.667 0.776 0.439 edgecolor
newpath 574.44 169.137 moveto
585 170 lineto
577.283 162.74 lineto
closepath stroke
grestore
% Node11
gsave
[ /Rect [ 448 76 506 96 ]
  /Border [ 0 0 0 ]
  /Action << /Subtype /URI /URI ($Doc_8cpp.html#e4bfd9bdedc0dd4fe00bf5f17f8f9e23) >>
  /Subtype /Link
/ANN pdfmark
[ /Rect [ 448 76 506 96 ]
  /Border [ 0 0 0 ]
  /Action << /Subtype /URI /URI ($Doc_8cpp.html#e4bfd9bdedc0dd4fe00bf5f17f8f9e23) >>
  /Subtype /Link
/ANN pdfmark
1 setlinewidth
0.000 0.000 0.000 nodecolor
newpath 448 75 moveto
448 96 lineto
507 96 lineto
507 75 lineto
closepath stroke
0.000 0.000 0.000 nodecolor
10.00 /FreeSans.ttf set_font
477 82 moveto 43 -0.5 (leeDocs) alignedtext
grestore
% Node10->Node11
gsave
1 setlinewidth
solid
0.667 0.776 0.439 edgecolor
newpath 383 86 moveto
400 86 421 86 438 86 curveto
stroke
0.667 0.776 0.439 edgecolor
newpath 438 89.5001 moveto
448 86 lineto
438 82.5001 lineto
closepath fill
1 setlinewidth
solid
0.667 0.776 0.439 edgecolor
newpath 438 89.5001 moveto
448 86 lineto
438 82.5001 lineto
closepath stroke
grestore
% Node11->Node4
gsave
1 setlinewidth
solid
0.667 0.776 0.439 edgecolor
newpath 505 96 moveto
513 100 522 104 530 110 curveto
554 124 577 147 593 163 curveto
stroke
0.667 0.776 0.439 edgecolor
newpath 590.454 165.404 moveto
600 170 lineto
595.404 160.454 lineto
closepath fill
1 setlinewidth
solid
0.667 0.776 0.439 edgecolor
newpath 590.454 165.404 moveto
600 170 lineto
595.404 160.454 lineto
closepath stroke
grestore
% Node12->Node4
gsave
1 setlinewidth
solid
0.667 0.776 0.439 edgecolor
newpath 388 43 moveto
428 40 487 42 530 67 curveto
567 88 591 134 602 160 curveto
stroke
0.667 0.776 0.439 edgecolor
newpath 599.036 162.015 moveto
606 170 lineto
605.536 159.415 lineto
closepath fill
1 setlinewidth
solid
0.667 0.776 0.439 edgecolor
newpath 599.036 162.015 moveto
606 170 lineto
605.536 159.415 lineto
closepath stroke
grestore
endpage
showpage
grestore
%%PageTrailer
%%EndPage: 1
%%Trailer
%%Pages: 1
%%BoundingBox: 36 36 698 368
end
restore
%%EOF
