%!PS-Adobe-2.0
%%Creator: Graphviz version 2.12 (Mon Nov 16 18:34:03 UTC 2009)
%%For: (vtamara) Vladimir
%%Title: G
%%Pages: (atend)
%%BoundingBox: (atend)
%%EndComments
save
%%BeginProlog
/DotDict 200 dict def
DotDict begin

/setupLatin1 {
mark
/EncodingVector 256 array def
 EncodingVector 0

ISOLatin1Encoding 0 255 getinterval putinterval
EncodingVector 45 /hyphen put

% Set up ISO Latin 1 character encoding
/starnetISO {
        dup dup findfont dup length dict begin
        { 1 index /FID ne { def }{ pop pop } ifelse
        } forall
        /Encoding EncodingVector def
        currentdict end definefont
} def
/Times-Roman starnetISO def
/Times-Italic starnetISO def
/Times-Bold starnetISO def
/Times-BoldItalic starnetISO def
/Helvetica starnetISO def
/Helvetica-Oblique starnetISO def
/Helvetica-Bold starnetISO def
/Helvetica-BoldOblique starnetISO def
/Courier starnetISO def
/Courier-Oblique starnetISO def
/Courier-Bold starnetISO def
/Courier-BoldOblique starnetISO def
cleartomark
} bind def

%%BeginResource: procset graphviz 0 0
/coord-font-family /Times-Roman def
/default-font-family /Times-Roman def
/coordfont coord-font-family findfont 8 scalefont def

/InvScaleFactor 1.0 def
/set_scale {
       dup 1 exch div /InvScaleFactor exch def
       scale
} bind def

% styles
/solid { [] 0 setdash } bind def
/dashed { [9 InvScaleFactor mul dup ] 0 setdash } bind def
/dotted { [1 InvScaleFactor mul 6 InvScaleFactor mul] 0 setdash } bind def
/invis {/fill {newpath} def /stroke {newpath} def /show {pop newpath} def} bind def
/bold { 2 setlinewidth } bind def
/filled { } bind def
/unfilled { } bind def
/rounded { } bind def
/diagonals { } bind def

% hooks for setting color 
/nodecolor { sethsbcolor } bind def
/edgecolor { sethsbcolor } bind def
/graphcolor { sethsbcolor } bind def
/nopcolor {pop pop pop} bind def

/beginpage {	% i j npages
	/npages exch def
	/j exch def
	/i exch def
	/str 10 string def
	npages 1 gt {
		gsave
			coordfont setfont
			0 0 moveto
			(\() show i str cvs show (,) show j str cvs show (\)) show
		grestore
	} if
} bind def

/set_font {
	findfont exch
	scalefont setfont
} def

% draw aligned label in bounding box aligned to current point
/alignedtext {			% width adj text
	/text exch def
	/adj exch def
	/width exch def
	gsave
		width 0 gt {
			text stringwidth pop adj mul 0 rmoveto
		} if
		[] 0 setdash
		text show
	grestore
} def

/boxprim {				% xcorner ycorner xsize ysize
		4 2 roll
		moveto
		2 copy
		exch 0 rlineto
		0 exch rlineto
		pop neg 0 rlineto
		closepath
} bind def

/ellipse_path {
	/ry exch def
	/rx exch def
	/y exch def
	/x exch def
	matrix currentmatrix
	newpath
	x y translate
	rx ry scale
	0 0 1 0 360 arc
	setmatrix
} bind def

/endpage { showpage } bind def
/showpage { } def

/layercolorseq
	[	% layer color sequence - darkest to lightest
		[0 0 0]
		[.2 .8 .8]
		[.4 .8 .8]
		[.6 .8 .8]
		[.8 .8 .8]
	]
def

/layerlen layercolorseq length def

/setlayer {/maxlayer exch def /curlayer exch def
	layercolorseq curlayer 1 sub layerlen mod get
	aload pop sethsbcolor
	/nodecolor {nopcolor} def
	/edgecolor {nopcolor} def
	/graphcolor {nopcolor} def
} bind def

/onlayer { curlayer ne {invis} if } def

/onlayers {
	/myupper exch def
	/mylower exch def
	curlayer mylower lt
	curlayer myupper gt
	or
	{invis} if
} def

/curlayer 0 def

%%EndResource
%%EndProlog
%%BeginSetup
14 default-font-family set_font
1 setmiterlimit
% /arrowlength 10 def
% /arrowwidth 5 def

% make sure pdfmark is harmless for PS-interpreters other than Distiller
/pdfmark where {pop} {userdict /pdfmark /cleartomark load put} ifelse
% make '<<' and '>>' safe on PS Level 1 devices
/languagelevel where {pop languagelevel}{1} ifelse
2 lt {
    userdict (<<) cvn ([) cvn load put
    userdict (>>) cvn ([) cvn load put
} if

%%EndSetup
setupLatin1
%%Page: 1 1
%%PageBoundingBox: 36 36 824 444
%%PageOrientation: Portrait
gsave
36 36 824 444 boxprim clip newpath
0 0 1 beginpage
1 1 set_scale 0 rotate 40 40 translate
% Node1
gsave
0.000 0.000 0.749 nodecolor
newpath 0 75 moveto
0 96 lineto
44 96 lineto
44 75 lineto
closepath fill
1 setlinewidth
filled
0.000 0.000 0.000 nodecolor
newpath 0 75 moveto
0 96 lineto
44 96 lineto
44 75 lineto
closepath stroke
0.000 0.000 0.000 nodecolor
10.00 /FreeSans.ttf set_font
22 82 moveto 28 -0.5 (main) alignedtext
grestore
% Node2
gsave
[ /Rect [ 91 114 195 134 ]
  /Border [ 0 0 0 ]
  /Action << /Subtype /URI /URI ($buscador_8cpp.html#f879f3b79252dc9d55caae918948be9e) >>
  /Subtype /Link
/ANN pdfmark
[ /Rect [ 91 114 195 134 ]
  /Border [ 0 0 0 ]
  /Action << /Subtype /URI /URI ($buscador_8cpp.html#f879f3b79252dc9d55caae918948be9e) >>
  /Subtype /Link
/ANN pdfmark
1 setlinewidth
0.000 0.000 0.000 nodecolor
newpath 91 113 moveto
91 134 lineto
195 134 lineto
195 113 lineto
closepath stroke
0.000 0.000 0.000 nodecolor
10.00 /FreeSans.ttf set_font
143 120 moveto 88 -0.5 (analizaConsulta) alignedtext
grestore
% Node1->Node2
gsave
1 setlinewidth
solid
0.667 0.776 0.439 edgecolor
newpath 44 93 moveto
55 96 68 101 80 105 curveto
86 107 92 108 97 110 curveto
stroke
0.667 0.776 0.439 edgecolor
newpath 96.416 113.479 moveto
107 113 lineto
98.4275 106.774 lineto
closepath fill
1 setlinewidth
solid
0.667 0.776 0.439 edgecolor
newpath 96.416 113.479 moveto
107 113 lineto
98.4275 106.774 lineto
closepath stroke
grestore
% Node6
gsave
[ /Rect [ 109 76 177 96 ]
  /Border [ 0 0 0 ]
  /Action << /Subtype /URI /URI ($buscador_8cpp.html#b42f2792a26170e1c6c95b6d3092d40a) >>
  /Subtype /Link
/ANN pdfmark
[ /Rect [ 109 76 177 96 ]
  /Border [ 0 0 0 ]
  /Action << /Subtype /URI /URI ($buscador_8cpp.html#b42f2792a26170e1c6c95b6d3092d40a) >>
  /Subtype /Link
/ANN pdfmark
1 setlinewidth
0.000 0.000 0.000 nodecolor
newpath 109 75 moveto
109 96 lineto
178 96 lineto
178 75 lineto
closepath stroke
0.000 0.000 0.000 nodecolor
10.00 /FreeSans.ttf set_font
143 82 moveto 53 -0.5 (escalafon) alignedtext
grestore
% Node1->Node6
gsave
1 setlinewidth
solid
0.667 0.776 0.439 edgecolor
newpath 44 86 moveto
59 86 80 86 99 86 curveto
stroke
0.667 0.776 0.439 edgecolor
newpath 99 89.5001 moveto
109 86 lineto
99 82.5001 lineto
closepath fill
1 setlinewidth
solid
0.667 0.776 0.439 edgecolor
newpath 99 89.5001 moveto
109 86 lineto
99 82.5001 lineto
closepath stroke
grestore
% Node7
gsave
[ /Rect [ 116 38 170 58 ]
  /Border [ 0 0 0 ]
  /Action << /Subtype /URI /URI ($buscador_8cpp.html#59e2f61c50efc879a55c1dd857bfc238) >>
  /Subtype /Link
/ANN pdfmark
[ /Rect [ 116 38 170 58 ]
  /Border [ 0 0 0 ]
  /Action << /Subtype /URI /URI ($buscador_8cpp.html#59e2f61c50efc879a55c1dd857bfc238) >>
  /Subtype /Link
/ANN pdfmark
1 setlinewidth
0.000 0.000 0.000 nodecolor
newpath 116 37 moveto
116 58 lineto
171 58 lineto
171 37 lineto
closepath stroke
0.000 0.000 0.000 nodecolor
10.00 /FreeSans.ttf set_font
143 44 moveto 39 -0.5 (escapa) alignedtext
grestore
% Node1->Node7
gsave
1 setlinewidth
solid
0.667 0.776 0.439 edgecolor
newpath 44 79 moveto
55 76 68 71 80 67 curveto
89 65 98 62 106 59 curveto
stroke
0.667 0.776 0.439 edgecolor
newpath 107.427 62.2259 moveto
116 56 lineto
105.416 55.5212 lineto
closepath fill
1 setlinewidth
solid
0.667 0.776 0.439 edgecolor
newpath 107.427 62.2259 moveto
116 56 lineto
105.416 55.5212 lineto
closepath stroke
grestore
% Node9
gsave
[ /Rect [ 80 0 206 20 ]
  /Border [ 0 0 0 ]
  /Action << /Subtype /URI /URI ($buscador_8cpp.html#903309d43cc13793c9d5de255db5acd8) >>
  /Subtype /Link
/ANN pdfmark
[ /Rect [ 80 0 206 20 ]
  /Border [ 0 0 0 ]
  /Action << /Subtype /URI /URI ($buscador_8cpp.html#903309d43cc13793c9d5de255db5acd8) >>
  /Subtype /Link
/ANN pdfmark
1 setlinewidth
0.000 0.000 0.000 nodecolor
newpath 80 -1 moveto
80 20 lineto
206 20 lineto
206 -1 lineto
closepath stroke
0.000 0.000 0.000 nodecolor
10.00 /FreeSans.ttf set_font
143 6 moveto 110 -0.5 (nombra_resconsulta) alignedtext
grestore
% Node1->Node9
gsave
1 setlinewidth
solid
0.667 0.776 0.439 edgecolor
newpath 31 75 moveto
41 62 60 41 80 29 curveto
84 27 88 25 91 23 curveto
stroke
0.667 0.776 0.439 edgecolor
newpath 92.4275 26.2259 moveto
101 20 lineto
90.416 19.5212 lineto
closepath fill
1 setlinewidth
solid
0.667 0.776 0.439 edgecolor
newpath 92.4275 26.2259 moveto
101 20 lineto
90.416 19.5212 lineto
closepath stroke
grestore
% Node10
gsave
[ /Rect [ 90 190 196 210 ]
  /Border [ 0 0 0 ]
  /Action << /Subtype /URI /URI ($buscador_8cpp.html#7c1b4b57da470bd1379054f9df60d911) >>
  /Subtype /Link
/ANN pdfmark
[ /Rect [ 90 190 196 210 ]
  /Border [ 0 0 0 ]
  /Action << /Subtype /URI /URI ($buscador_8cpp.html#7c1b4b57da470bd1379054f9df60d911) >>
  /Subtype /Link
/ANN pdfmark
1 setlinewidth
0.000 0.000 0.000 nodecolor
newpath 90 189 moveto
90 210 lineto
197 210 lineto
197 189 lineto
closepath stroke
0.000 0.000 0.000 nodecolor
10.00 /FreeSans.ttf set_font
143 196 moveto 91 -0.5 (realizaBusqueda) alignedtext
grestore
% Node1->Node10
gsave
1 setlinewidth
solid
0.667 0.776 0.439 edgecolor
newpath 32 96 moveto
44 108 63 127 80 143 curveto
95 156 111 171 123 182 curveto
stroke
0.667 0.776 0.439 edgecolor
newpath 121.169 185.049 moveto
131 189 lineto
125.779 179.781 lineto
closepath fill
1 setlinewidth
solid
0.667 0.776 0.439 edgecolor
newpath 121.169 185.049 moveto
131 189 lineto
125.779 179.781 lineto
closepath stroke
grestore
% Node3
gsave
[ /Rect [ 275 114 327 134 ]
  /Border [ 0 0 0 ]
  /Action << /Subtype /URI /URI ($comun_8cpp.html#e156c1dd4bf7eda3abfcdf5d86cb85aa) >>
  /Subtype /Link
/ANN pdfmark
[ /Rect [ 275 114 327 134 ]
  /Border [ 0 0 0 ]
  /Action << /Subtype /URI /URI ($comun_8cpp.html#e156c1dd4bf7eda3abfcdf5d86cb85aa) >>
  /Subtype /Link
/ANN pdfmark
1 setlinewidth
0.000 0.000 0.000 nodecolor
newpath 275 113 moveto
275 134 lineto
327 134 lineto
327 113 lineto
closepath stroke
0.000 0.000 0.000 nodecolor
10.00 /FreeSans.ttf set_font
301 120 moveto 36 -0.5 (estalla) alignedtext
grestore
% Node2->Node3
gsave
1 setlinewidth
solid
0.667 0.776 0.439 edgecolor
newpath 195 124 moveto
218 124 244 124 265 124 curveto
stroke
0.667 0.776 0.439 edgecolor
newpath 265 127.5 moveto
275 124 lineto
265 120.5 lineto
closepath fill
1 setlinewidth
solid
0.667 0.776 0.439 edgecolor
newpath 265 127.5 moveto
275 124 lineto
265 120.5 lineto
closepath stroke
grestore
% Node4
gsave
[ /Rect [ 266 76 336 96 ]
  /Border [ 0 0 0 ]
  /Action << /Subtype /URI /URI ($comun_8cpp.html#1f33d728a35dd4b43d2622c5471f5157) >>
  /Subtype /Link
/ANN pdfmark
[ /Rect [ 266 76 336 96 ]
  /Border [ 0 0 0 ]
  /Action << /Subtype /URI /URI ($comun_8cpp.html#1f33d728a35dd4b43d2622c5471f5157) >>
  /Subtype /Link
/ANN pdfmark
1 setlinewidth
0.000 0.000 0.000 nodecolor
newpath 266 75 moveto
266 96 lineto
337 96 lineto
337 75 lineto
closepath stroke
0.000 0.000 0.000 nodecolor
10.00 /FreeSans.ttf set_font
301 82 moveto 55 -0.5 (normaliza) alignedtext
grestore
% Node2->Node4
gsave
1 setlinewidth
solid
0.667 0.776 0.439 edgecolor
newpath 189 113 moveto
210 108 235 102 256 97 curveto
stroke
0.667 0.776 0.439 edgecolor
newpath 256.881 100.393 moveto
266 95 lineto
255.508 93.5292 lineto
closepath fill
1 setlinewidth
solid
0.667 0.776 0.439 edgecolor
newpath 256.881 100.393 moveto
266 95 lineto
255.508 93.5292 lineto
closepath stroke
grestore
% Node5
gsave
[ /Rect [ 396 76 514 96 ]
  /Border [ 0 0 0 ]
  /Action << /Subtype /URI /URI ($comun_8cpp.html#bc69e612ecd81636d091e0b60fdf327e) >>
  /Subtype /Link
/ANN pdfmark
[ /Rect [ 396 76 514 96 ]
  /Border [ 0 0 0 ]
  /Action << /Subtype /URI /URI ($comun_8cpp.html#bc69e612ecd81636d091e0b60fdf327e) >>
  /Subtype /Link
/ANN pdfmark
1 setlinewidth
0.000 0.000 0.000 nodecolor
newpath 396 75 moveto
396 96 lineto
514 96 lineto
514 75 lineto
closepath stroke
0.000 0.000 0.000 nodecolor
10.00 /FreeSans.ttf set_font
455 82 moveto 102 -0.5 (normalizaCaracter) alignedtext
grestore
% Node4->Node5
gsave
1 setlinewidth
solid
0.667 0.776 0.439 edgecolor
newpath 337 86 moveto
352 86 369 86 386 86 curveto
stroke
0.667 0.776 0.439 edgecolor
newpath 386 89.5001 moveto
396 86 lineto
386 82.5001 lineto
closepath fill
1 setlinewidth
solid
0.667 0.776 0.439 edgecolor
newpath 386 89.5001 moveto
396 86 lineto
386 82.5001 lineto
closepath stroke
grestore
% Node8
gsave
[ /Rect [ 255 38 347 58 ]
  /Border [ 0 0 0 ]
  /Action << /Subtype /URI /URI ($buscador_8cpp.html#44599e46861ef185d8e573adf36dfff7) >>
  /Subtype /Link
/ANN pdfmark
[ /Rect [ 255 38 347 58 ]
  /Border [ 0 0 0 ]
  /Action << /Subtype /URI /URI ($buscador_8cpp.html#44599e46861ef185d8e573adf36dfff7) >>
  /Subtype /Link
/ANN pdfmark
1 setlinewidth
0.000 0.000 0.000 nodecolor
newpath 255 37 moveto
255 58 lineto
348 58 lineto
348 37 lineto
closepath stroke
0.000 0.000 0.000 nodecolor
10.00 /FreeSans.ttf set_font
301 44 moveto 77 -0.5 (cad_remplaza) alignedtext
grestore
% Node7->Node8
gsave
1 setlinewidth
solid
0.667 0.776 0.439 edgecolor
newpath 171 48 moveto
191 48 220 48 245 48 curveto
stroke
0.667 0.776 0.439 edgecolor
newpath 245 51.5001 moveto
255 48 lineto
245 44.5001 lineto
closepath fill
1 setlinewidth
solid
0.667 0.776 0.439 edgecolor
newpath 245 51.5001 moveto
255 48 lineto
245 44.5001 lineto
closepath stroke
grestore
% Node10->Node3
gsave
1 setlinewidth
solid
0.667 0.776 0.439 edgecolor
newpath 160 189 moveto
179 176 212 156 242 143 curveto
250 140 258 137 265 134 curveto
stroke
0.667 0.776 0.439 edgecolor
newpath 266.427 137.226 moveto
275 131 lineto
264.416 130.521 lineto
closepath fill
1 setlinewidth
solid
0.667 0.776 0.439 edgecolor
newpath 266.427 137.226 moveto
275 131 lineto
264.416 130.521 lineto
closepath stroke
grestore
% Node11
gsave
[ /Rect [ 242 285 360 305 ]
  /Border [ 0 0 0 ]
  /Action << /Subtype /URI /URI ($TrieSDisco_8cpp.html#1281c095bc817935769ceb3707a089d4) >>
  /Subtype /Link
/ANN pdfmark
[ /Rect [ 242 285 360 305 ]
  /Border [ 0 0 0 ]
  /Action << /Subtype /URI /URI ($TrieSDisco_8cpp.html#1281c095bc817935769ceb3707a089d4) >>
  /Subtype /Link
/ANN pdfmark
1 setlinewidth
0.000 0.000 0.000 nodecolor
newpath 242 284 moveto
242 305 lineto
360 305 lineto
360 284 lineto
closepath stroke
0.000 0.000 0.000 nodecolor
10.00 /FreeSans.ttf set_font
301 291 moveto 102 -0.5 (buscaPlanoStream) alignedtext
grestore
% Node10->Node11
gsave
1 setlinewidth
solid
0.667 0.776 0.439 edgecolor
newpath 160 210 moveto
187 226 241 259 273 279 curveto
stroke
0.667 0.776 0.439 edgecolor
newpath 271.559 282.203 moveto
282 284 lineto
274.958 276.084 lineto
closepath fill
1 setlinewidth
solid
0.667 0.776 0.439 edgecolor
newpath 271.559 282.203 moveto
282 284 lineto
274.958 276.084 lineto
closepath stroke
grestore
% Node13
gsave
[ /Rect [ 692 242 780 262 ]
  /Border [ 0 0 0 ]
  /Action << /Subtype /URI /URI ($comun_8cpp.html#88ffeb20e447cad877c37bb473033590) >>
  /Subtype /Link
/ANN pdfmark
[ /Rect [ 692 242 780 262 ]
  /Border [ 0 0 0 ]
  /Action << /Subtype /URI /URI ($comun_8cpp.html#88ffeb20e447cad877c37bb473033590) >>
  /Subtype /Link
/ANN pdfmark
1 setlinewidth
0.000 0.000 0.000 nodecolor
newpath 692 241 moveto
692 262 lineto
780 262 lineto
780 241 lineto
closepath stroke
0.000 0.000 0.000 nodecolor
10.00 /FreeSans.ttf set_font
736 248 moveto 72 -0.5 (errorFormato) alignedtext
grestore
% Node10->Node13
gsave
1 setlinewidth
solid
0.667 0.776 0.439 edgecolor
newpath 147 210 moveto
158 236 192 302 242 332 curveto
362 400 413 358 550 366 curveto
598 368 615 387 656 366 curveto
694 346 718 298 729 271 curveto
stroke
0.667 0.776 0.439 edgecolor
newpath 732.137 272.56 moveto
733 262 lineto
725.74 269.717 lineto
closepath fill
1 setlinewidth
solid
0.667 0.776 0.439 edgecolor
newpath 732.137 272.56 moveto
733 262 lineto
725.74 269.717 lineto
closepath stroke
grestore
% Node18
gsave
[ /Rect [ 415 185 495 205 ]
  /Border [ 0 0 0 ]
  /Action << /Subtype /URI /URI ($TrieSDisco_8cpp.html#acdb9639784b2fb341e069b1f54c3455) >>
  /Subtype /Link
/ANN pdfmark
[ /Rect [ 415 185 495 205 ]
  /Border [ 0 0 0 ]
  /Action << /Subtype /URI /URI ($TrieSDisco_8cpp.html#acdb9639784b2fb341e069b1f54c3455) >>
  /Subtype /Link
/ANN pdfmark
1 setlinewidth
0.000 0.000 0.000 nodecolor
newpath 415 184 moveto
415 205 lineto
495 205 lineto
495 184 lineto
closepath stroke
0.000 0.000 0.000 nodecolor
10.00 /FreeSans.ttf set_font
455 191 moveto 64 -0.5 (leeRelacion) alignedtext
grestore
% Node10->Node18
gsave
1 setlinewidth
solid
0.667 0.776 0.439 edgecolor
newpath 197 209 moveto
212 211 227 213 242 214 curveto
295 217 308 219 360 214 curveto
375 212 391 209 405 207 curveto
stroke
0.667 0.776 0.439 edgecolor
newpath 405.881 210.393 moveto
415 205 lineto
404.508 203.529 lineto
closepath fill
1 setlinewidth
solid
0.667 0.776 0.439 edgecolor
newpath 405.881 210.393 moveto
415 205 lineto
404.508 203.529 lineto
closepath stroke
grestore
% Node20
gsave
[ /Rect [ 411 123 499 143 ]
  /Border [ 0 0 0 ]
  /Action << /Subtype /URI /URI ($TrieSDisco_8cpp.html#3b55801abcb3987a49125a0ddc9ff76c) >>
  /Subtype /Link
/ANN pdfmark
[ /Rect [ 411 123 499 143 ]
  /Border [ 0 0 0 ]
  /Action << /Subtype /URI /URI ($TrieSDisco_8cpp.html#3b55801abcb3987a49125a0ddc9ff76c) >>
  /Subtype /Link
/ANN pdfmark
1 setlinewidth
0.000 0.000 0.000 nodecolor
newpath 411 122 moveto
411 143 lineto
500 143 lineto
500 122 lineto
closepath stroke
0.000 0.000 0.000 nodecolor
10.00 /FreeSans.ttf set_font
455 129 moveto 73 -0.5 (verificaIndice) alignedtext
grestore
% Node10->Node20
gsave
1 setlinewidth
solid
0.667 0.776 0.439 edgecolor
newpath 197 201 moveto
242 200 306 196 360 181 curveto
386 173 413 159 431 148 curveto
stroke
0.667 0.776 0.439 edgecolor
newpath 432.958 150.916 moveto
440 143 lineto
429.559 144.797 lineto
closepath fill
1 setlinewidth
solid
0.667 0.776 0.439 edgecolor
newpath 432.958 150.916 moveto
440 143 lineto
429.559 144.797 lineto
closepath stroke
grestore
% Node21
gsave
[ /Rect [ 251 152 351 172 ]
  /Border [ 0 0 0 ]
  /Action << /Subtype /URI /URI ($comun_8cpp.html#ecd3ce9c133c650ebb919dcce6f77003) >>
  /Subtype /Link
/ANN pdfmark
[ /Rect [ 251 152 351 172 ]
  /Border [ 0 0 0 ]
  /Action << /Subtype /URI /URI ($comun_8cpp.html#ecd3ce9c133c650ebb919dcce6f77003) >>
  /Subtype /Link
/ANN pdfmark
1 setlinewidth
0.000 0.000 0.000 nodecolor
newpath 251 151 moveto
251 172 lineto
351 172 lineto
351 151 lineto
closepath stroke
0.000 0.000 0.000 nodecolor
10.00 /FreeSans.ttf set_font
301 158 moveto 84 -0.5 (verificaNombre) alignedtext
grestore
% Node10->Node21
gsave
1 setlinewidth
solid
0.667 0.776 0.439 edgecolor
newpath 189 189 moveto
209 185 231 179 250 174 curveto
stroke
0.667 0.776 0.439 edgecolor
newpath 250.881 177.393 moveto
260 172 lineto
249.508 170.529 lineto
closepath fill
1 setlinewidth
solid
0.667 0.776 0.439 edgecolor
newpath 250.881 177.393 moveto
260 172 lineto
249.508 170.529 lineto
closepath stroke
grestore
% Node11->Node11
gsave
1 setlinewidth
solid
0.667 0.776 0.439 edgecolor
newpath 252 305 moveto
231 314 247 323 301 323 curveto
343 323 362 318 358 311 curveto
stroke
0.667 0.776 0.439 edgecolor
newpath 360.1 308.2 moveto
350 305 lineto
355.9 313.8 lineto
closepath fill
1 setlinewidth
solid
0.667 0.776 0.439 edgecolor
newpath 360.1 308.2 moveto
350 305 lineto
355.9 313.8 lineto
closepath stroke
grestore
% Node12
gsave
[ /Rect [ 576 337 630 357 ]
  /Border [ 0 0 0 ]
  /Action << /Subtype /URI /URI ($comun_8cpp.html#4a359aa93f2dd4e34badd70c0e1f7082) >>
  /Subtype /Link
/ANN pdfmark
[ /Rect [ 576 337 630 357 ]
  /Border [ 0 0 0 ]
  /Action << /Subtype /URI /URI ($comun_8cpp.html#4a359aa93f2dd4e34badd70c0e1f7082) >>
  /Subtype /Link
/ANN pdfmark
1 setlinewidth
0.000 0.000 0.000 nodecolor
newpath 576 336 moveto
576 357 lineto
631 357 lineto
631 336 lineto
closepath stroke
0.000 0.000 0.000 nodecolor
10.00 /FreeSans.ttf set_font
603 343 moveto 39 -0.5 (leeCad) alignedtext
grestore
% Node11->Node12
gsave
1 setlinewidth
solid
0.667 0.776 0.439 edgecolor
newpath 325 305 moveto
344 313 372 322 396 328 curveto
455 340 524 344 566 346 curveto
stroke
0.667 0.776 0.439 edgecolor
newpath 566 349.5 moveto
576 346 lineto
566 342.5 lineto
closepath fill
1 setlinewidth
solid
0.667 0.776 0.439 edgecolor
newpath 566 349.5 moveto
576 346 lineto
566 342.5 lineto
closepath stroke
grestore
% Node14
gsave
[ /Rect [ 421 299 489 319 ]
  /Border [ 0 0 0 ]
  /Action << /Subtype /URI /URI ($comun_8hpp.html#9871d7357fc245ec5b7a227a9a62eb36) >>
  /Subtype /Link
/ANN pdfmark
[ /Rect [ 421 299 489 319 ]
  /Border [ 0 0 0 ]
  /Action << /Subtype /URI /URI ($comun_8hpp.html#9871d7357fc245ec5b7a227a9a62eb36) >>
  /Subtype /Link
/ANN pdfmark
1 setlinewidth
0.000 0.000 0.000 nodecolor
newpath 421 298 moveto
421 319 lineto
489 319 lineto
489 298 lineto
closepath stroke
0.000 0.000 0.000 nodecolor
10.00 /FreeSans.ttf set_font
455 305 moveto 52 -0.5 (leeNDesp) alignedtext
grestore
% Node11->Node14
gsave
1 setlinewidth
solid
0.667 0.776 0.439 edgecolor
newpath 360 300 moveto
377 302 395 303 411 305 curveto
stroke
0.667 0.776 0.439 edgecolor
newpath 410.701 308.488 moveto
421 306 lineto
411.398 301.522 lineto
closepath fill
1 setlinewidth
solid
0.667 0.776 0.439 edgecolor
newpath 410.701 308.488 moveto
421 306 lineto
411.398 301.522 lineto
closepath stroke
grestore
% Node16
gsave
[ /Rect [ 430 261 480 281 ]
  /Border [ 0 0 0 ]
  /Action << /Subtype /URI /URI ($Pos_8cpp.html#36b67a50cba6dc1789825a3111bee9d2) >>
  /Subtype /Link
/ANN pdfmark
[ /Rect [ 430 261 480 281 ]
  /Border [ 0 0 0 ]
  /Action << /Subtype /URI /URI ($Pos_8cpp.html#36b67a50cba6dc1789825a3111bee9d2) >>
  /Subtype /Link
/ANN pdfmark
1 setlinewidth
0.000 0.000 0.000 nodecolor
newpath 430 260 moveto
430 281 lineto
481 281 lineto
481 260 lineto
closepath stroke
0.000 0.000 0.000 nodecolor
10.00 /FreeSans.ttf set_font
455 267 moveto 35 -0.5 (leePos) alignedtext
grestore
% Node11->Node16
gsave
1 setlinewidth
solid
0.667 0.776 0.439 edgecolor
newpath 360 286 moveto
380 283 402 279 420 277 curveto
stroke
0.667 0.776 0.439 edgecolor
newpath 420.881 280.393 moveto
430 275 lineto
419.508 273.529 lineto
closepath fill
1 setlinewidth
solid
0.667 0.776 0.439 edgecolor
newpath 420.881 280.393 moveto
430 275 lineto
419.508 273.529 lineto
closepath stroke
grestore
% Node12->Node13
gsave
1 setlinewidth
solid
0.667 0.776 0.439 edgecolor
newpath 631 339 moveto
639 336 648 333 656 328 curveto
682 312 706 286 721 270 curveto
stroke
0.667 0.776 0.439 edgecolor
newpath 724.049 271.831 moveto
728 262 lineto
718.781 267.221 lineto
closepath fill
1 setlinewidth
solid
0.667 0.776 0.439 edgecolor
newpath 724.049 271.831 moveto
728 262 lineto
718.781 267.221 lineto
closepath stroke
grestore
% Node15
gsave
[ /Rect [ 573 299 633 319 ]
  /Border [ 0 0 0 ]
  /Action << /Subtype /URI /URI ($comun_8cpp.html#c7bf9e68bbdccea36ce786b806244ea1) >>
  /Subtype /Link
/ANN pdfmark
[ /Rect [ 573 299 633 319 ]
  /Border [ 0 0 0 ]
  /Action << /Subtype /URI /URI ($comun_8cpp.html#c7bf9e68bbdccea36ce786b806244ea1) >>
  /Subtype /Link
/ANN pdfmark
1 setlinewidth
0.000 0.000 0.000 nodecolor
newpath 573 298 moveto
573 319 lineto
633 319 lineto
633 298 lineto
closepath stroke
0.000 0.000 0.000 nodecolor
10.00 /FreeSans.ttf set_font
603 305 moveto 44 -0.5 (lee128b) alignedtext
grestore
% Node14->Node15
gsave
1 setlinewidth
solid
0.667 0.776 0.439 edgecolor
newpath 489 309 moveto
511 309 540 309 563 309 curveto
stroke
0.667 0.776 0.439 edgecolor
newpath 563 312.5 moveto
573 309 lineto
563 305.5 lineto
closepath fill
1 setlinewidth
solid
0.667 0.776 0.439 edgecolor
newpath 563 312.5 moveto
573 309 lineto
563 305.5 lineto
closepath stroke
grestore
% Node15->Node13
gsave
1 setlinewidth
solid
0.667 0.776 0.439 edgecolor
newpath 629 298 moveto
650 288 680 276 703 266 curveto
stroke
0.667 0.776 0.439 edgecolor
newpath 704.283 269.26 moveto
712 262 lineto
701.44 262.863 lineto
closepath fill
1 setlinewidth
solid
0.667 0.776 0.439 edgecolor
newpath 704.283 269.26 moveto
712 262 lineto
701.44 262.863 lineto
closepath stroke
grestore
% Node16->Node13
gsave
1 setlinewidth
solid
0.667 0.776 0.439 edgecolor
newpath 481 269 moveto
526 266 622 260 682 256 curveto
stroke
0.667 0.776 0.439 edgecolor
newpath 682.398 259.478 moveto
692 255 lineto
681.701 252.512 lineto
closepath fill
1 setlinewidth
solid
0.667 0.776 0.439 edgecolor
newpath 682.398 259.478 moveto
692 255 lineto
681.701 252.512 lineto
closepath stroke
grestore
% Node17
gsave
[ /Rect [ 550 223 656 243 ]
  /Border [ 0 0 0 ]
  /Action << /Subtype /URI /URI ($Elias_8cpp.html#95ee5a0ffb91f203612d2ce9d063ec36) >>
  /Subtype /Link
/ANN pdfmark
[ /Rect [ 550 223 656 243 ]
  /Border [ 0 0 0 ]
  /Action << /Subtype /URI /URI ($Elias_8cpp.html#95ee5a0ffb91f203612d2ce9d063ec36) >>
  /Subtype /Link
/ANN pdfmark
1 setlinewidth
0.000 0.000 0.000 nodecolor
newpath 550 222 moveto
550 243 lineto
656 243 lineto
656 222 lineto
closepath stroke
0.000 0.000 0.000 nodecolor
10.00 /FreeSans.ttf set_font
603 229 moveto 90 -0.5 (lee_elias_gama2) alignedtext
grestore
% Node16->Node17
gsave
1 setlinewidth
solid
0.667 0.776 0.439 edgecolor
newpath 481 264 moveto
501 259 529 252 553 246 curveto
stroke
0.667 0.776 0.439 edgecolor
newpath 554.427 249.226 moveto
563 243 lineto
552.416 242.521 lineto
closepath fill
1 setlinewidth
solid
0.667 0.776 0.439 edgecolor
newpath 554.427 249.226 moveto
563 243 lineto
552.416 242.521 lineto
closepath stroke
grestore
% Node17->Node13
gsave
1 setlinewidth
solid
0.667 0.776 0.439 edgecolor
newpath 656 241 moveto
665 242 673 243 682 245 curveto
stroke
0.667 0.776 0.439 edgecolor
newpath 681.701 248.488 moveto
692 246 lineto
682.398 241.522 lineto
closepath fill
1 setlinewidth
solid
0.667 0.776 0.439 edgecolor
newpath 681.701 248.488 moveto
692 246 lineto
682.398 241.522 lineto
closepath stroke
grestore
% Node18->Node13
gsave
1 setlinewidth
solid
0.667 0.776 0.439 edgecolor
newpath 495 195 moveto
536 195 602 199 656 214 curveto
674 219 694 228 709 236 curveto
stroke
0.667 0.776 0.439 edgecolor
newpath 707.559 239.203 moveto
718 241 lineto
710.958 233.084 lineto
closepath fill
1 setlinewidth
solid
0.667 0.776 0.439 edgecolor
newpath 707.559 239.203 moveto
718 241 lineto
710.958 233.084 lineto
closepath stroke
grestore
% Node19
gsave
[ /Rect [ 574 147 632 167 ]
  /Border [ 0 0 0 ]
  /Action << /Subtype /URI /URI ($Doc_8cpp.html#e4bfd9bdedc0dd4fe00bf5f17f8f9e23) >>
  /Subtype /Link
/ANN pdfmark
[ /Rect [ 574 147 632 167 ]
  /Border [ 0 0 0 ]
  /Action << /Subtype /URI /URI ($Doc_8cpp.html#e4bfd9bdedc0dd4fe00bf5f17f8f9e23) >>
  /Subtype /Link
/ANN pdfmark
1 setlinewidth
0.000 0.000 0.000 nodecolor
newpath 574 146 moveto
574 167 lineto
633 167 lineto
633 146 lineto
closepath stroke
0.000 0.000 0.000 nodecolor
10.00 /FreeSans.ttf set_font
603 153 moveto 43 -0.5 (leeDocs) alignedtext
grestore
% Node18->Node19
gsave
1 setlinewidth
solid
0.667 0.776 0.439 edgecolor
newpath 495 185 moveto
517 179 543 172 564 167 curveto
stroke
0.667 0.776 0.439 edgecolor
newpath 565.427 170.226 moveto
574 164 lineto
563.416 163.521 lineto
closepath fill
1 setlinewidth
solid
0.667 0.776 0.439 edgecolor
newpath 565.427 170.226 moveto
574 164 lineto
563.416 163.521 lineto
closepath stroke
grestore
% Node19->Node13
gsave
1 setlinewidth
solid
0.667 0.776 0.439 edgecolor
newpath 631 167 moveto
639 171 648 175 656 181 curveto
680 195 703 218 719 234 curveto
stroke
0.667 0.776 0.439 edgecolor
newpath 716.454 236.404 moveto
726 241 lineto
721.404 231.454 lineto
closepath fill
1 setlinewidth
solid
0.667 0.776 0.439 edgecolor
newpath 716.454 236.404 moveto
726 241 lineto
721.404 231.454 lineto
closepath stroke
grestore
% Node20->Node13
gsave
1 setlinewidth
solid
0.667 0.776 0.439 edgecolor
newpath 500 123 moveto
543 116 608 112 656 138 curveto
694 158 717 204 728 231 curveto
stroke
0.667 0.776 0.439 edgecolor
newpath 725.036 233.015 moveto
732 241 lineto
731.536 230.415 lineto
closepath fill
1 setlinewidth
solid
0.667 0.776 0.439 edgecolor
newpath 725.036 233.015 moveto
732 241 lineto
731.536 230.415 lineto
closepath stroke
grestore
endpage
showpage
grestore
%%PageTrailer
%%EndPage: 1
%%Trailer
%%Pages: 1
%%BoundingBox: 36 36 824 444
end
restore
%%EOF
