%!PS-Adobe-2.0
%%Creator: Graphviz version 2.12 (Mon Nov 16 18:34:03 UTC 2009)
%%For: (vtamara) Vladimir
%%Title: G
%%Pages: (atend)
%%BoundingBox: (atend)
%%EndComments
save
%%BeginProlog
/DotDict 200 dict def
DotDict begin

/setupLatin1 {
mark
/EncodingVector 256 array def
 EncodingVector 0

ISOLatin1Encoding 0 255 getinterval putinterval
EncodingVector 45 /hyphen put

% Set up ISO Latin 1 character encoding
/starnetISO {
        dup dup findfont dup length dict begin
        { 1 index /FID ne { def }{ pop pop } ifelse
        } forall
        /Encoding EncodingVector def
        currentdict end definefont
} def
/Times-Roman starnetISO def
/Times-Italic starnetISO def
/Times-Bold starnetISO def
/Times-BoldItalic starnetISO def
/Helvetica starnetISO def
/Helvetica-Oblique starnetISO def
/Helvetica-Bold starnetISO def
/Helvetica-BoldOblique starnetISO def
/Courier starnetISO def
/Courier-Oblique starnetISO def
/Courier-Bold starnetISO def
/Courier-BoldOblique starnetISO def
cleartomark
} bind def

%%BeginResource: procset graphviz 0 0
/coord-font-family /Times-Roman def
/default-font-family /Times-Roman def
/coordfont coord-font-family findfont 8 scalefont def

/InvScaleFactor 1.0 def
/set_scale {
       dup 1 exch div /InvScaleFactor exch def
       scale
} bind def

% styles
/solid { [] 0 setdash } bind def
/dashed { [9 InvScaleFactor mul dup ] 0 setdash } bind def
/dotted { [1 InvScaleFactor mul 6 InvScaleFactor mul] 0 setdash } bind def
/invis {/fill {newpath} def /stroke {newpath} def /show {pop newpath} def} bind def
/bold { 2 setlinewidth } bind def
/filled { } bind def
/unfilled { } bind def
/rounded { } bind def
/diagonals { } bind def

% hooks for setting color 
/nodecolor { sethsbcolor } bind def
/edgecolor { sethsbcolor } bind def
/graphcolor { sethsbcolor } bind def
/nopcolor {pop pop pop} bind def

/beginpage {	% i j npages
	/npages exch def
	/j exch def
	/i exch def
	/str 10 string def
	npages 1 gt {
		gsave
			coordfont setfont
			0 0 moveto
			(\() show i str cvs show (,) show j str cvs show (\)) show
		grestore
	} if
} bind def

/set_font {
	findfont exch
	scalefont setfont
} def

% draw aligned label in bounding box aligned to current point
/alignedtext {			% width adj text
	/text exch def
	/adj exch def
	/width exch def
	gsave
		width 0 gt {
			text stringwidth pop adj mul 0 rmoveto
		} if
		[] 0 setdash
		text show
	grestore
} def

/boxprim {				% xcorner ycorner xsize ysize
		4 2 roll
		moveto
		2 copy
		exch 0 rlineto
		0 exch rlineto
		pop neg 0 rlineto
		closepath
} bind def

/ellipse_path {
	/ry exch def
	/rx exch def
	/y exch def
	/x exch def
	matrix currentmatrix
	newpath
	x y translate
	rx ry scale
	0 0 1 0 360 arc
	setmatrix
} bind def

/endpage { showpage } bind def
/showpage { } def

/layercolorseq
	[	% layer color sequence - darkest to lightest
		[0 0 0]
		[.2 .8 .8]
		[.4 .8 .8]
		[.6 .8 .8]
		[.8 .8 .8]
	]
def

/layerlen layercolorseq length def

/setlayer {/maxlayer exch def /curlayer exch def
	layercolorseq curlayer 1 sub layerlen mod get
	aload pop sethsbcolor
	/nodecolor {nopcolor} def
	/edgecolor {nopcolor} def
	/graphcolor {nopcolor} def
} bind def

/onlayer { curlayer ne {invis} if } def

/onlayers {
	/myupper exch def
	/mylower exch def
	curlayer mylower lt
	curlayer myupper gt
	or
	{invis} if
} def

/curlayer 0 def

%%EndResource
%%EndProlog
%%BeginSetup
14 default-font-family set_font
1 setmiterlimit
% /arrowlength 10 def
% /arrowwidth 5 def

% make sure pdfmark is harmless for PS-interpreters other than Distiller
/pdfmark where {pop} {userdict /pdfmark /cleartomark load put} ifelse
% make '<<' and '>>' safe on PS Level 1 devices
/languagelevel where {pop languagelevel}{1} ifelse
2 lt {
    userdict (<<) cvn ([) cvn load put
    userdict (>>) cvn ([) cvn load put
} if

%%EndSetup
setupLatin1
%%Page: 1 1
%%PageBoundingBox: 36 36 1240 220
%%PageOrientation: Portrait
gsave
36 36 1240 220 boxprim clip newpath
0 0 1 beginpage
1 1 set_scale 0 rotate 40 40 translate
% Node1
gsave
0.000 0.000 0.749 nodecolor
newpath 0 51 moveto
0 72 lineto
58 72 lineto
58 51 lineto
closepath fill
1 setlinewidth
filled
0.000 0.000 0.000 nodecolor
newpath 0 51 moveto
0 72 lineto
58 72 lineto
58 51 lineto
closepath stroke
0.000 0.000 0.000 nodecolor
10.00 /FreeSans.ttf set_font
29 58 moveto 42 -0.5 (llena_ss) alignedtext
grestore
% Node2
gsave
[ /Rect [ 95 52 219 72 ]
  /Border [ 0 0 0 ]
  /Action << /Subtype /URI /URI ($RamDisco_8cpp.html#f0c232886a7851d8db3a647add9ae455) >>
  /Subtype /Link
/ANN pdfmark
[ /Rect [ 95 52 219 72 ]
  /Border [ 0 0 0 ]
  /Action << /Subtype /URI /URI ($RamDisco_8cpp.html#f0c232886a7851d8db3a647add9ae455) >>
  /Subtype /Link
/ANN pdfmark
1 setlinewidth
0.000 0.000 0.000 nodecolor
newpath 95 51 moveto
95 72 lineto
220 72 lineto
220 51 lineto
closepath stroke
0.000 0.000 0.000 nodecolor
10.00 /FreeSans.ttf set_font
157 58 moveto 109 -0.5 (escribePlanoStream) alignedtext
grestore
% Node1->Node2
gsave
1 setlinewidth
solid
0.667 0.776 0.439 edgecolor
newpath 58 62 moveto
66 62 75 62 85 62 curveto
stroke
0.667 0.776 0.439 edgecolor
newpath 85 65.5001 moveto
95 62 lineto
85 58.5001 lineto
closepath fill
1 setlinewidth
solid
0.667 0.776 0.439 edgecolor
newpath 85 65.5001 moveto
95 62 lineto
85 58.5001 lineto
closepath stroke
grestore
% Node3
gsave
[ /Rect [ 469 118 553 138 ]
  /Border [ 0 0 0 ]
  /Action << /Subtype /URI /URI ($TrieSDisco_8cpp.html#95dfc28ebaa02e82d3d1ffce08251628) >>
  /Subtype /Link
/ANN pdfmark
[ /Rect [ 469 118 553 138 ]
  /Border [ 0 0 0 ]
  /Action << /Subtype /URI /URI ($TrieSDisco_8cpp.html#95dfc28ebaa02e82d3d1ffce08251628) >>
  /Subtype /Link
/ANN pdfmark
1 setlinewidth
0.000 0.000 0.000 nodecolor
newpath 469 117 moveto
469 138 lineto
553 138 lineto
553 117 lineto
closepath stroke
0.000 0.000 0.000 nodecolor
10.00 /FreeSans.ttf set_font
511 124 moveto 68 -0.5 (escribeNodo) alignedtext
grestore
% Node2->Node3
gsave
1 setlinewidth
solid
0.667 0.776 0.439 edgecolor
newpath 176 72 moveto
196 82 227 97 256 104 curveto
325 121 407 126 459 128 curveto
stroke
0.667 0.776 0.439 edgecolor
newpath 459 131.5 moveto
469 128 lineto
459 124.5 lineto
closepath fill
1 setlinewidth
solid
0.667 0.776 0.439 edgecolor
newpath 459 131.5 moveto
469 128 lineto
459 124.5 lineto
closepath stroke
grestore
% Node9
gsave
[ /Rect [ 648 80 804 100 ]
  /Border [ 0 0 0 ]
  /Action << /Subtype /URI /URI ($TrieSDisco_8cpp.html#453b277936104f13edb4f8158e015eba) >>
  /Subtype /Link
/ANN pdfmark
[ /Rect [ 648 80 804 100 ]
  /Border [ 0 0 0 ]
  /Action << /Subtype /URI /URI ($TrieSDisco_8cpp.html#453b277936104f13edb4f8158e015eba) >>
  /Subtype /Link
/ANN pdfmark
1 setlinewidth
0.000 0.000 0.000 nodecolor
newpath 648 79 moveto
648 100 lineto
804 100 lineto
804 79 lineto
closepath stroke
0.000 0.000 0.000 nodecolor
10.00 /FreeSans.ttf set_font
726 86 moveto 140 -0.5 (precalcula_escribe_actual) alignedtext
grestore
% Node2->Node9
gsave
1 setlinewidth
solid
0.667 0.776 0.439 edgecolor
newpath 220 68 moveto
232 69 244 70 256 71 curveto
389 80 544 85 638 88 curveto
stroke
0.667 0.776 0.439 edgecolor
newpath 638 91.5001 moveto
648 88 lineto
638 84.5001 lineto
closepath fill
1 setlinewidth
solid
0.667 0.776 0.439 edgecolor
newpath 638 91.5001 moveto
648 88 lineto
638 84.5001 lineto
closepath stroke
grestore
% Node13
gsave
[ /Rect [ 257 24 373 44 ]
  /Border [ 0 0 0 ]
  /Action << /Subtype /URI /URI ($RamDisco_8cpp.html#6b1b44682de6eb9fccd3df71e404154a) >>
  /Subtype /Link
/ANN pdfmark
[ /Rect [ 257 24 373 44 ]
  /Border [ 0 0 0 ]
  /Action << /Subtype /URI /URI ($RamDisco_8cpp.html#6b1b44682de6eb9fccd3df71e404154a) >>
  /Subtype /Link
/ANN pdfmark
1 setlinewidth
0.000 0.000 0.000 nodecolor
newpath 257 23 moveto
257 44 lineto
374 44 lineto
374 23 lineto
closepath stroke
0.000 0.000 0.000 nodecolor
10.00 /FreeSans.ttf set_font
315 30 moveto 101 -0.5 (precalcula_escribe) alignedtext
grestore
% Node2->Node13
gsave
1 setlinewidth
solid
0.667 0.776 0.439 edgecolor
newpath 219 51 moveto
229 50 239 48 248 46 curveto
stroke
0.667 0.776 0.439 edgecolor
newpath 248.881 49.3933 moveto
258 44 lineto
247.508 42.5292 lineto
closepath fill
1 setlinewidth
solid
0.667 0.776 0.439 edgecolor
newpath 248.881 49.3933 moveto
258 44 lineto
247.508 42.5292 lineto
closepath stroke
grestore
% Node14
gsave
[ /Rect [ 410 24 612 44 ]
  /Border [ 0 0 0 ]
  /Action << /Subtype /URI /URI ($RamDisco_8cpp.html#5b79fc3f073aeb2481fb1d51274a52a6) >>
  /Subtype /Link
/ANN pdfmark
[ /Rect [ 410 24 612 44 ]
  /Border [ 0 0 0 ]
  /Action << /Subtype /URI /URI ($RamDisco_8cpp.html#5b79fc3f073aeb2481fb1d51274a52a6) >>
  /Subtype /Link
/ANN pdfmark
1 setlinewidth
0.000 0.000 0.000 nodecolor
newpath 410 23 moveto
410 44 lineto
612 44 lineto
612 23 lineto
closepath stroke
0.000 0.000 0.000 nodecolor
10.00 /FreeSans.ttf set_font
511 30 moveto 186 -0.5 (precalcula_escribe_con_hermanos) alignedtext
grestore
% Node2->Node14
gsave
1 setlinewidth
solid
0.667 0.776 0.439 edgecolor
newpath 175 51 moveto
194 39 226 22 256 15 curveto
324 0 404 11 456 21 curveto
stroke
0.667 0.776 0.439 edgecolor
newpath 455.508 24.4708 moveto
466 23 lineto
456.881 17.6067 lineto
closepath fill
1 setlinewidth
solid
0.667 0.776 0.439 edgecolor
newpath 455.508 24.4708 moveto
466 23 lineto
456.881 17.6067 lineto
closepath stroke
grestore
% Node4
gsave
[ /Rect [ 681 156 771 176 ]
  /Border [ 0 0 0 ]
  /Action << /Subtype /URI /URI ($comun_8hpp.html#96402bda6527bf98dd8e49d62ae182f8) >>
  /Subtype /Link
/ANN pdfmark
[ /Rect [ 681 156 771 176 ]
  /Border [ 0 0 0 ]
  /Action << /Subtype /URI /URI ($comun_8hpp.html#96402bda6527bf98dd8e49d62ae182f8) >>
  /Subtype /Link
/ANN pdfmark
1 setlinewidth
0.000 0.000 0.000 nodecolor
newpath 681 155 moveto
681 176 lineto
771 176 lineto
771 155 lineto
closepath stroke
0.000 0.000 0.000 nodecolor
10.00 /FreeSans.ttf set_font
726 162 moveto 74 -0.5 (escribeNDesp) alignedtext
grestore
% Node3->Node4
gsave
1 setlinewidth
solid
0.667 0.776 0.439 edgecolor
newpath 553 135 moveto
587 141 634 150 671 156 curveto
stroke
0.667 0.776 0.439 edgecolor
newpath 670.508 159.471 moveto
681 158 lineto
671.881 152.607 lineto
closepath fill
1 setlinewidth
solid
0.667 0.776 0.439 edgecolor
newpath 670.508 159.471 moveto
681 158 lineto
671.881 152.607 lineto
closepath stroke
grestore
% Node6
gsave
[ /Rect [ 690 118 762 138 ]
  /Border [ 0 0 0 ]
  /Action << /Subtype /URI /URI ($Pos_8cpp.html#42c2daaa880eeb397c024b6ffa22c8cf) >>
  /Subtype /Link
/ANN pdfmark
[ /Rect [ 690 118 762 138 ]
  /Border [ 0 0 0 ]
  /Action << /Subtype /URI /URI ($Pos_8cpp.html#42c2daaa880eeb397c024b6ffa22c8cf) >>
  /Subtype /Link
/ANN pdfmark
1 setlinewidth
0.000 0.000 0.000 nodecolor
newpath 690 117 moveto
690 138 lineto
763 138 lineto
763 117 lineto
closepath stroke
0.000 0.000 0.000 nodecolor
10.00 /FreeSans.ttf set_font
726 124 moveto 57 -0.5 (escribePos) alignedtext
grestore
% Node3->Node6
gsave
1 setlinewidth
solid
0.667 0.776 0.439 edgecolor
newpath 553 128 moveto
590 128 642 128 680 128 curveto
stroke
0.667 0.776 0.439 edgecolor
newpath 680 131.5 moveto
690 128 lineto
680 124.5 lineto
closepath fill
1 setlinewidth
solid
0.667 0.776 0.439 edgecolor
newpath 680 131.5 moveto
690 128 lineto
680 124.5 lineto
closepath stroke
grestore
% Node3->Node9
gsave
1 setlinewidth
solid
0.667 0.776 0.439 edgecolor
newpath 553 121 moveto
583 116 624 108 658 102 curveto
stroke
0.667 0.776 0.439 edgecolor
newpath 658.881 105.393 moveto
668 100 lineto
657.508 98.5292 lineto
closepath fill
1 setlinewidth
solid
0.667 0.776 0.439 edgecolor
newpath 658.881 105.393 moveto
668 100 lineto
657.508 98.5292 lineto
closepath stroke
grestore
% Node5
gsave
[ /Rect [ 840 156 922 176 ]
  /Border [ 0 0 0 ]
  /Action << /Subtype /URI /URI ($comun_8cpp.html#b5388a972300b0a3d2e70c16097a3781) >>
  /Subtype /Link
/ANN pdfmark
[ /Rect [ 840 156 922 176 ]
  /Border [ 0 0 0 ]
  /Action << /Subtype /URI /URI ($comun_8cpp.html#b5388a972300b0a3d2e70c16097a3781) >>
  /Subtype /Link
/ANN pdfmark
1 setlinewidth
0.000 0.000 0.000 nodecolor
newpath 840 155 moveto
840 176 lineto
922 176 lineto
922 155 lineto
closepath stroke
0.000 0.000 0.000 nodecolor
10.00 /FreeSans.ttf set_font
881 162 moveto 66 -0.5 (escribe128b) alignedtext
grestore
% Node4->Node5
gsave
1 setlinewidth
solid
0.667 0.776 0.439 edgecolor
newpath 771 166 moveto
790 166 811 166 830 166 curveto
stroke
0.667 0.776 0.439 edgecolor
newpath 830 169.5 moveto
840 166 lineto
830 162.5 lineto
closepath fill
1 setlinewidth
solid
0.667 0.776 0.439 edgecolor
newpath 830 169.5 moveto
840 166 lineto
830 162.5 lineto
closepath stroke
grestore
% Node7
gsave
[ /Rect [ 958 108 1086 128 ]
  /Border [ 0 0 0 ]
  /Action << /Subtype /URI /URI ($Elias_8cpp.html#59732ce42a1e75fbbb382a6964ef4620) >>
  /Subtype /Link
/ANN pdfmark
[ /Rect [ 958 108 1086 128 ]
  /Border [ 0 0 0 ]
  /Action << /Subtype /URI /URI ($Elias_8cpp.html#59732ce42a1e75fbbb382a6964ef4620) >>
  /Subtype /Link
/ANN pdfmark
1 setlinewidth
0.000 0.000 0.000 nodecolor
newpath 958 107 moveto
958 128 lineto
1086 128 lineto
1086 107 lineto
closepath stroke
0.000 0.000 0.000 nodecolor
10.00 /FreeSans.ttf set_font
1022 114 moveto 112 -0.5 (escribe_elias_gama2) alignedtext
grestore
% Node6->Node7
gsave
1 setlinewidth
solid
0.667 0.776 0.439 edgecolor
newpath 763 127 moveto
809 125 889 122 948 120 curveto
stroke
0.667 0.776 0.439 edgecolor
newpath 948 123.5 moveto
958 120 lineto
948 116.5 lineto
closepath fill
1 setlinewidth
solid
0.667 0.776 0.439 edgecolor
newpath 948 123.5 moveto
958 120 lineto
948 116.5 lineto
closepath stroke
grestore
% Node8
gsave
[ /Rect [ 1123 84 1195 104 ]
  /Border [ 0 0 0 ]
  /Action << /Subtype /URI /URI ($Elias_8cpp.html#7127ec8dff13cc2ad873693ca8933d38) >>
  /Subtype /Link
/ANN pdfmark
[ /Rect [ 1123 84 1195 104 ]
  /Border [ 0 0 0 ]
  /Action << /Subtype /URI /URI ($Elias_8cpp.html#7127ec8dff13cc2ad873693ca8933d38) >>
  /Subtype /Link
/ANN pdfmark
1 setlinewidth
0.000 0.000 0.000 nodecolor
newpath 1123 83 moveto
1123 104 lineto
1196 104 lineto
1196 83 lineto
closepath stroke
0.000 0.000 0.000 nodecolor
10.00 /FreeSans.ttf set_font
1159 90 moveto 57 -0.5 (piso_logb2) alignedtext
grestore
% Node7->Node8
gsave
1 setlinewidth
solid
0.667 0.776 0.439 edgecolor
newpath 1085 107 moveto
1094 106 1104 104 1113 103 curveto
stroke
0.667 0.776 0.439 edgecolor
newpath 1113.88 106.393 moveto
1123 101 lineto
1112.51 99.5292 lineto
closepath fill
1 setlinewidth
solid
0.667 0.776 0.439 edgecolor
newpath 1113.88 106.393 moveto
1123 101 lineto
1112.51 99.5292 lineto
closepath stroke
grestore
% Node10
gsave
[ /Rect [ 844 80 918 100 ]
  /Border [ 0 0 0 ]
  /Action << /Subtype /URI /URI ($comun_8hpp.html#3f1f97c70ac3ffba1584b0fc02661cab) >>
  /Subtype /Link
/ANN pdfmark
[ /Rect [ 844 80 918 100 ]
  /Border [ 0 0 0 ]
  /Action << /Subtype /URI /URI ($comun_8hpp.html#3f1f97c70ac3ffba1584b0fc02661cab) >>
  /Subtype /Link
/ANN pdfmark
1 setlinewidth
0.000 0.000 0.000 nodecolor
newpath 844 79 moveto
844 100 lineto
919 100 lineto
919 79 lineto
closepath stroke
0.000 0.000 0.000 nodecolor
10.00 /FreeSans.ttf set_font
881 86 moveto 59 -0.5 (longNDesp) alignedtext
grestore
% Node9->Node10
gsave
1 setlinewidth
solid
0.667 0.776 0.439 edgecolor
newpath 804 90 moveto
814 90 824 90 834 90 curveto
stroke
0.667 0.776 0.439 edgecolor
newpath 834 93.5001 moveto
844 90 lineto
834 86.5001 lineto
closepath fill
1 setlinewidth
solid
0.667 0.776 0.439 edgecolor
newpath 834 93.5001 moveto
844 90 lineto
834 86.5001 lineto
closepath stroke
grestore
% Node11
gsave
[ /Rect [ 852 42 910 62 ]
  /Border [ 0 0 0 ]
  /Action << /Subtype /URI /URI ($Pos_8cpp.html#ad8740377e9e19836d654491a170ac9a) >>
  /Subtype /Link
/ANN pdfmark
[ /Rect [ 852 42 910 62 ]
  /Border [ 0 0 0 ]
  /Action << /Subtype /URI /URI ($Pos_8cpp.html#ad8740377e9e19836d654491a170ac9a) >>
  /Subtype /Link
/ANN pdfmark
1 setlinewidth
0.000 0.000 0.000 nodecolor
newpath 852 41 moveto
852 62 lineto
910 62 lineto
910 41 lineto
closepath stroke
0.000 0.000 0.000 nodecolor
10.00 /FreeSans.ttf set_font
881 48 moveto 42 -0.5 (longPos) alignedtext
grestore
% Node9->Node11
gsave
1 setlinewidth
solid
0.667 0.776 0.439 edgecolor
newpath 771 79 moveto
793 74 820 67 842 62 curveto
stroke
0.667 0.776 0.439 edgecolor
newpath 843.427 65.2259 moveto
852 59 lineto
841.416 58.5212 lineto
closepath fill
1 setlinewidth
solid
0.667 0.776 0.439 edgecolor
newpath 843.427 65.2259 moveto
852 59 lineto
841.416 58.5212 lineto
closepath stroke
grestore
% Node12
gsave
[ /Rect [ 969 61 1075 81 ]
  /Border [ 0 0 0 ]
  /Action << /Subtype /URI /URI ($Elias_8cpp.html#214c4fd6adcbe1fe7de47c4ba521198a) >>
  /Subtype /Link
/ANN pdfmark
[ /Rect [ 969 61 1075 81 ]
  /Border [ 0 0 0 ]
  /Action << /Subtype /URI /URI ($Elias_8cpp.html#214c4fd6adcbe1fe7de47c4ba521198a) >>
  /Subtype /Link
/ANN pdfmark
1 setlinewidth
0.000 0.000 0.000 nodecolor
newpath 969 60 moveto
969 81 lineto
1076 81 lineto
1076 60 lineto
closepath stroke
0.000 0.000 0.000 nodecolor
10.00 /FreeSans.ttf set_font
1022 67 moveto 91 -0.5 (long_elias_gama) alignedtext
grestore
% Node11->Node12
gsave
1 setlinewidth
solid
0.667 0.776 0.439 edgecolor
newpath 910 56 moveto
924 58 942 60 959 63 curveto
stroke
0.667 0.776 0.439 edgecolor
newpath 958.701 66.4875 moveto
969 64 lineto
959.398 59.5222 lineto
closepath fill
1 setlinewidth
solid
0.667 0.776 0.439 edgecolor
newpath 958.701 66.4875 moveto
969 64 lineto
959.398 59.5222 lineto
closepath stroke
grestore
% Node12->Node8
gsave
1 setlinewidth
solid
0.667 0.776 0.439 edgecolor
newpath 1076 80 moveto
1088 82 1101 85 1113 87 curveto
stroke
0.667 0.776 0.439 edgecolor
newpath 1112.7 90.4875 moveto
1123 88 lineto
1113.4 83.5222 lineto
closepath fill
1 setlinewidth
solid
0.667 0.776 0.439 edgecolor
newpath 1112.7 90.4875 moveto
1123 88 lineto
1113.4 83.5222 lineto
closepath stroke
grestore
% Node13->Node13
gsave
1 setlinewidth
solid
0.667 0.776 0.439 edgecolor
newpath 265 44 moveto
243 53 260 62 315 62 curveto
359 62 379 56 374 49 curveto
stroke
0.667 0.776 0.439 edgecolor
newpath 375.441 45.7969 moveto
365 44 lineto
372.042 51.916 lineto
closepath fill
1 setlinewidth
solid
0.667 0.776 0.439 edgecolor
newpath 375.441 45.7969 moveto
365 44 lineto
372.042 51.916 lineto
closepath stroke
grestore
% Node13->Node14
gsave
1 setlinewidth
solid
0.667 0.776 0.439 edgecolor
newpath 374 34 moveto
382 34 391 34 400 34 curveto
stroke
0.667 0.776 0.439 edgecolor
newpath 400 37.5001 moveto
410 34 lineto
400 30.5001 lineto
closepath fill
1 setlinewidth
solid
0.667 0.776 0.439 edgecolor
newpath 400 37.5001 moveto
410 34 lineto
400 30.5001 lineto
closepath stroke
grestore
% Node14->Node9
gsave
1 setlinewidth
solid
0.667 0.776 0.439 edgecolor
newpath 549 44 moveto
584 53 636 67 674 76 curveto
stroke
0.667 0.776 0.439 edgecolor
newpath 673.416 79.4788 moveto
684 79 lineto
675.427 72.7741 lineto
closepath fill
1 setlinewidth
solid
0.667 0.776 0.439 edgecolor
newpath 673.416 79.4788 moveto
684 79 lineto
675.427 72.7741 lineto
closepath stroke
grestore
endpage
showpage
grestore
%%PageTrailer
%%EndPage: 1
%%Trailer
%%Pages: 1
%%BoundingBox: 36 36 1240 220
end
restore
%%EOF
