%!PS-Adobe-2.0
%%Creator: Graphviz version 2.12 (Mon Nov 16 18:34:03 UTC 2009)
%%For: (vtamara) Vladimir
%%Title: G
%%Pages: (atend)
%%BoundingBox: (atend)
%%EndComments
save
%%BeginProlog
/DotDict 200 dict def
DotDict begin

/setupLatin1 {
mark
/EncodingVector 256 array def
 EncodingVector 0

ISOLatin1Encoding 0 255 getinterval putinterval
EncodingVector 45 /hyphen put

% Set up ISO Latin 1 character encoding
/starnetISO {
        dup dup findfont dup length dict begin
        { 1 index /FID ne { def }{ pop pop } ifelse
        } forall
        /Encoding EncodingVector def
        currentdict end definefont
} def
/Times-Roman starnetISO def
/Times-Italic starnetISO def
/Times-Bold starnetISO def
/Times-BoldItalic starnetISO def
/Helvetica starnetISO def
/Helvetica-Oblique starnetISO def
/Helvetica-Bold starnetISO def
/Helvetica-BoldOblique starnetISO def
/Courier starnetISO def
/Courier-Oblique starnetISO def
/Courier-Bold starnetISO def
/Courier-BoldOblique starnetISO def
cleartomark
} bind def

%%BeginResource: procset graphviz 0 0
/coord-font-family /Times-Roman def
/default-font-family /Times-Roman def
/coordfont coord-font-family findfont 8 scalefont def

/InvScaleFactor 1.0 def
/set_scale {
       dup 1 exch div /InvScaleFactor exch def
       scale
} bind def

% styles
/solid { [] 0 setdash } bind def
/dashed { [9 InvScaleFactor mul dup ] 0 setdash } bind def
/dotted { [1 InvScaleFactor mul 6 InvScaleFactor mul] 0 setdash } bind def
/invis {/fill {newpath} def /stroke {newpath} def /show {pop newpath} def} bind def
/bold { 2 setlinewidth } bind def
/filled { } bind def
/unfilled { } bind def
/rounded { } bind def
/diagonals { } bind def

% hooks for setting color 
/nodecolor { sethsbcolor } bind def
/edgecolor { sethsbcolor } bind def
/graphcolor { sethsbcolor } bind def
/nopcolor {pop pop pop} bind def

/beginpage {	% i j npages
	/npages exch def
	/j exch def
	/i exch def
	/str 10 string def
	npages 1 gt {
		gsave
			coordfont setfont
			0 0 moveto
			(\() show i str cvs show (,) show j str cvs show (\)) show
		grestore
	} if
} bind def

/set_font {
	findfont exch
	scalefont setfont
} def

% draw aligned label in bounding box aligned to current point
/alignedtext {			% width adj text
	/text exch def
	/adj exch def
	/width exch def
	gsave
		width 0 gt {
			text stringwidth pop adj mul 0 rmoveto
		} if
		[] 0 setdash
		text show
	grestore
} def

/boxprim {				% xcorner ycorner xsize ysize
		4 2 roll
		moveto
		2 copy
		exch 0 rlineto
		0 exch rlineto
		pop neg 0 rlineto
		closepath
} bind def

/ellipse_path {
	/ry exch def
	/rx exch def
	/y exch def
	/x exch def
	matrix currentmatrix
	newpath
	x y translate
	rx ry scale
	0 0 1 0 360 arc
	setmatrix
} bind def

/endpage { showpage } bind def
/showpage { } def

/layercolorseq
	[	% layer color sequence - darkest to lightest
		[0 0 0]
		[.2 .8 .8]
		[.4 .8 .8]
		[.6 .8 .8]
		[.8 .8 .8]
	]
def

/layerlen layercolorseq length def

/setlayer {/maxlayer exch def /curlayer exch def
	layercolorseq curlayer 1 sub layerlen mod get
	aload pop sethsbcolor
	/nodecolor {nopcolor} def
	/edgecolor {nopcolor} def
	/graphcolor {nopcolor} def
} bind def

/onlayer { curlayer ne {invis} if } def

/onlayers {
	/myupper exch def
	/mylower exch def
	curlayer mylower lt
	curlayer myupper gt
	or
	{invis} if
} def

/curlayer 0 def

%%EndResource
%%EndProlog
%%BeginSetup
14 default-font-family set_font
1 setmiterlimit
% /arrowlength 10 def
% /arrowwidth 5 def

% make sure pdfmark is harmless for PS-interpreters other than Distiller
/pdfmark where {pop} {userdict /pdfmark /cleartomark load put} ifelse
% make '<<' and '>>' safe on PS Level 1 devices
/languagelevel where {pop languagelevel}{1} ifelse
2 lt {
    userdict (<<) cvn ([) cvn load put
    userdict (>>) cvn ([) cvn load put
} if

%%EndSetup
setupLatin1
%%Page: 1 1
%%PageBoundingBox: 36 36 1528 340
%%PageOrientation: Portrait
gsave
36 36 1528 340 boxprim clip newpath
0 0 1 beginpage
1 1 set_scale 0 rotate 40 40 translate
% Node1
gsave
0.000 0.000 0.749 nodecolor
newpath 0 151 moveto
0 172 lineto
162 172 lineto
162 151 lineto
closepath fill
1 setlinewidth
filled
0.000 0.000 0.000 nodecolor
newpath 0 151 moveto
0 172 lineto
162 172 lineto
162 151 lineto
closepath stroke
0.000 0.000 0.000 nodecolor
10.00 /FreeSans.ttf set_font
81 158 moveto 146 -0.5 (prueba_buscaPlanoStream) alignedtext
grestore
% Node2
gsave
[ /Rect [ 198 219 316 239 ]
  /Border [ 0 0 0 ]
  /Action << /Subtype /URI /URI ($TrieSDisco_8cpp.html#1281c095bc817935769ceb3707a089d4) >>
  /Subtype /Link
/ANN pdfmark
[ /Rect [ 198 219 316 239 ]
  /Border [ 0 0 0 ]
  /Action << /Subtype /URI /URI ($TrieSDisco_8cpp.html#1281c095bc817935769ceb3707a089d4) >>
  /Subtype /Link
/ANN pdfmark
1 setlinewidth
0.000 0.000 0.000 nodecolor
newpath 198 218 moveto
198 239 lineto
316 239 lineto
316 218 lineto
closepath stroke
0.000 0.000 0.000 nodecolor
10.00 /FreeSans.ttf set_font
257 225 moveto 102 -0.5 (buscaPlanoStream) alignedtext
grestore
% Node1->Node2
gsave
1 setlinewidth
solid
0.667 0.776 0.439 edgecolor
newpath 107 172 moveto
136 184 184 201 218 214 curveto
stroke
0.667 0.776 0.439 edgecolor
newpath 217.415 217.536 moveto
228 218 lineto
220.015 211.036 lineto
closepath fill
1 setlinewidth
solid
0.667 0.776 0.439 edgecolor
newpath 217.415 217.536 moveto
228 218 lineto
220.015 211.036 lineto
closepath stroke
grestore
% Node9
gsave
[ /Rect [ 200 152 314 172 ]
  /Border [ 0 0 0 ]
  /Action << /Subtype /URI /URI ($classNodoTrieS.html#2fc30ff9fad0ba7dff585e913f34cc84) >>
  /Subtype /Link
/ANN pdfmark
[ /Rect [ 200 152 314 172 ]
  /Border [ 0 0 0 ]
  /Action << /Subtype /URI /URI ($classNodoTrieS.html#2fc30ff9fad0ba7dff585e913f34cc84) >>
  /Subtype /Link
/ANN pdfmark
1 setlinewidth
0.000 0.000 0.000 nodecolor
newpath 200 151 moveto
200 172 lineto
315 172 lineto
315 151 lineto
closepath stroke
0.000 0.000 0.000 nodecolor
10.00 /FreeSans.ttf set_font
257 158 moveto 99 -0.5 (NodoTrieS::inserta) alignedtext
grestore
% Node1->Node9
gsave
1 setlinewidth
solid
0.667 0.776 0.439 edgecolor
newpath 162 162 moveto
171 162 181 162 190 162 curveto
stroke
0.667 0.776 0.439 edgecolor
newpath 190 165.5 moveto
200 162 lineto
190 158.5 lineto
closepath fill
1 setlinewidth
solid
0.667 0.776 0.439 edgecolor
newpath 190 165.5 moveto
200 162 lineto
190 158.5 lineto
closepath stroke
grestore
% Node12
gsave
[ /Rect [ 228 95 286 115 ]
  /Border [ 0 0 0 ]
  /Action << /Subtype /URI /URI ($CasosPrueba_8hpp.html#9d3e570cd9f7040235c0162eaaadb70c) >>
  /Subtype /Link
/ANN pdfmark
[ /Rect [ 228 95 286 115 ]
  /Border [ 0 0 0 ]
  /Action << /Subtype /URI /URI ($CasosPrueba_8hpp.html#9d3e570cd9f7040235c0162eaaadb70c) >>
  /Subtype /Link
/ANN pdfmark
1 setlinewidth
0.000 0.000 0.000 nodecolor
newpath 228 94 moveto
228 115 lineto
286 115 lineto
286 94 lineto
closepath stroke
0.000 0.000 0.000 nodecolor
10.00 /FreeSans.ttf set_font
257 101 moveto 42 -0.5 (llena_ss) alignedtext
grestore
% Node1->Node12
gsave
1 setlinewidth
solid
0.667 0.776 0.439 edgecolor
newpath 115 151 moveto
145 141 188 127 218 117 curveto
stroke
0.667 0.776 0.439 edgecolor
newpath 219.427 120.226 moveto
228 114 lineto
217.416 113.521 lineto
closepath fill
1 setlinewidth
solid
0.667 0.776 0.439 edgecolor
newpath 219.427 120.226 moveto
228 114 lineto
217.416 113.521 lineto
closepath stroke
grestore
% Node2->Node2
gsave
1 setlinewidth
solid
0.667 0.776 0.439 edgecolor
newpath 203 239 moveto
179 248 197 257 257 257 curveto
306 257 327 251 320 244 curveto
stroke
0.667 0.776 0.439 edgecolor
newpath 321.441 240.797 moveto
311 239 lineto
318.042 246.916 lineto
closepath fill
1 setlinewidth
solid
0.667 0.776 0.439 edgecolor
newpath 321.441 240.797 moveto
311 239 lineto
318.042 246.916 lineto
closepath stroke
grestore
% Node3
gsave
[ /Rect [ 576 276 630 296 ]
  /Border [ 0 0 0 ]
  /Action << /Subtype /URI /URI ($comun_8cpp.html#4a359aa93f2dd4e34badd70c0e1f7082) >>
  /Subtype /Link
/ANN pdfmark
[ /Rect [ 576 276 630 296 ]
  /Border [ 0 0 0 ]
  /Action << /Subtype /URI /URI ($comun_8cpp.html#4a359aa93f2dd4e34badd70c0e1f7082) >>
  /Subtype /Link
/ANN pdfmark
1 setlinewidth
0.000 0.000 0.000 nodecolor
newpath 576 275 moveto
576 296 lineto
631 296 lineto
631 275 lineto
closepath stroke
0.000 0.000 0.000 nodecolor
10.00 /FreeSans.ttf set_font
603 282 moveto 39 -0.5 (leeCad) alignedtext
grestore
% Node2->Node3
gsave
1 setlinewidth
solid
0.667 0.776 0.439 edgecolor
newpath 278 239 moveto
297 248 326 260 352 267 curveto
427 284 516 287 566 287 curveto
stroke
0.667 0.776 0.439 edgecolor
newpath 566 290.5 moveto
576 287 lineto
566 283.5 lineto
closepath fill
1 setlinewidth
solid
0.667 0.776 0.439 edgecolor
newpath 566 290.5 moveto
576 287 lineto
566 283.5 lineto
closepath stroke
grestore
% Node5
gsave
[ /Rect [ 396 238 464 258 ]
  /Border [ 0 0 0 ]
  /Action << /Subtype /URI /URI ($comun_8hpp.html#9871d7357fc245ec5b7a227a9a62eb36) >>
  /Subtype /Link
/ANN pdfmark
[ /Rect [ 396 238 464 258 ]
  /Border [ 0 0 0 ]
  /Action << /Subtype /URI /URI ($comun_8hpp.html#9871d7357fc245ec5b7a227a9a62eb36) >>
  /Subtype /Link
/ANN pdfmark
1 setlinewidth
0.000 0.000 0.000 nodecolor
newpath 396 237 moveto
396 258 lineto
464 258 lineto
464 237 lineto
closepath stroke
0.000 0.000 0.000 nodecolor
10.00 /FreeSans.ttf set_font
430 244 moveto 52 -0.5 (leeNDesp) alignedtext
grestore
% Node2->Node5
gsave
1 setlinewidth
solid
0.667 0.776 0.439 edgecolor
newpath 316 235 moveto
339 238 365 241 386 243 curveto
stroke
0.667 0.776 0.439 edgecolor
newpath 385.701 246.488 moveto
396 244 lineto
386.398 239.522 lineto
closepath fill
1 setlinewidth
solid
0.667 0.776 0.439 edgecolor
newpath 385.701 246.488 moveto
396 244 lineto
386.398 239.522 lineto
closepath stroke
grestore
% Node7
gsave
[ /Rect [ 405 200 455 220 ]
  /Border [ 0 0 0 ]
  /Action << /Subtype /URI /URI ($Pos_8cpp.html#36b67a50cba6dc1789825a3111bee9d2) >>
  /Subtype /Link
/ANN pdfmark
[ /Rect [ 405 200 455 220 ]
  /Border [ 0 0 0 ]
  /Action << /Subtype /URI /URI ($Pos_8cpp.html#36b67a50cba6dc1789825a3111bee9d2) >>
  /Subtype /Link
/ANN pdfmark
1 setlinewidth
0.000 0.000 0.000 nodecolor
newpath 405 199 moveto
405 220 lineto
456 220 lineto
456 199 lineto
closepath stroke
0.000 0.000 0.000 nodecolor
10.00 /FreeSans.ttf set_font
430 206 moveto 35 -0.5 (leePos) alignedtext
grestore
% Node2->Node7
gsave
1 setlinewidth
solid
0.667 0.776 0.439 edgecolor
newpath 316 223 moveto
342 220 372 216 395 214 curveto
stroke
0.667 0.776 0.439 edgecolor
newpath 395.398 217.478 moveto
405 213 lineto
394.701 210.512 lineto
closepath fill
1 setlinewidth
solid
0.667 0.776 0.439 edgecolor
newpath 395.398 217.478 moveto
405 213 lineto
394.701 210.512 lineto
closepath stroke
grestore
% Node4
gsave
[ /Rect [ 755 219 843 239 ]
  /Border [ 0 0 0 ]
  /Action << /Subtype /URI /URI ($comun_8cpp.html#88ffeb20e447cad877c37bb473033590) >>
  /Subtype /Link
/ANN pdfmark
[ /Rect [ 755 219 843 239 ]
  /Border [ 0 0 0 ]
  /Action << /Subtype /URI /URI ($comun_8cpp.html#88ffeb20e447cad877c37bb473033590) >>
  /Subtype /Link
/ANN pdfmark
1 setlinewidth
0.000 0.000 0.000 nodecolor
newpath 755 218 moveto
755 239 lineto
843 239 lineto
843 218 lineto
closepath stroke
0.000 0.000 0.000 nodecolor
10.00 /FreeSans.ttf set_font
799 225 moveto 72 -0.5 (errorFormato) alignedtext
grestore
% Node3->Node4
gsave
1 setlinewidth
solid
0.667 0.776 0.439 edgecolor
newpath 631 278 moveto
663 269 716 253 754 242 curveto
stroke
0.667 0.776 0.439 edgecolor
newpath 755.427 245.226 moveto
764 239 lineto
753.416 238.521 lineto
closepath fill
1 setlinewidth
solid
0.667 0.776 0.439 edgecolor
newpath 755.427 245.226 moveto
764 239 lineto
753.416 238.521 lineto
closepath stroke
grestore
% Node6
gsave
[ /Rect [ 573 238 633 258 ]
  /Border [ 0 0 0 ]
  /Action << /Subtype /URI /URI ($comun_8cpp.html#c7bf9e68bbdccea36ce786b806244ea1) >>
  /Subtype /Link
/ANN pdfmark
[ /Rect [ 573 238 633 258 ]
  /Border [ 0 0 0 ]
  /Action << /Subtype /URI /URI ($comun_8cpp.html#c7bf9e68bbdccea36ce786b806244ea1) >>
  /Subtype /Link
/ANN pdfmark
1 setlinewidth
0.000 0.000 0.000 nodecolor
newpath 573 237 moveto
573 258 lineto
633 258 lineto
633 237 lineto
closepath stroke
0.000 0.000 0.000 nodecolor
10.00 /FreeSans.ttf set_font
603 244 moveto 44 -0.5 (lee128b) alignedtext
grestore
% Node5->Node6
gsave
1 setlinewidth
solid
0.667 0.776 0.439 edgecolor
newpath 464 248 moveto
493 248 532 248 563 248 curveto
stroke
0.667 0.776 0.439 edgecolor
newpath 563 251.5 moveto
573 248 lineto
563 244.5 lineto
closepath fill
1 setlinewidth
solid
0.667 0.776 0.439 edgecolor
newpath 563 251.5 moveto
573 248 lineto
563 244.5 lineto
closepath stroke
grestore
% Node6->Node4
gsave
1 setlinewidth
solid
0.667 0.776 0.439 edgecolor
newpath 633 245 moveto
663 242 709 238 745 234 curveto
stroke
0.667 0.776 0.439 edgecolor
newpath 745.398 237.478 moveto
755 233 lineto
744.701 230.512 lineto
closepath fill
1 setlinewidth
solid
0.667 0.776 0.439 edgecolor
newpath 745.398 237.478 moveto
755 233 lineto
744.701 230.512 lineto
closepath stroke
grestore
% Node7->Node4
gsave
1 setlinewidth
solid
0.667 0.776 0.439 edgecolor
newpath 456 211 moveto
516 215 664 222 745 226 curveto
stroke
0.667 0.776 0.439 edgecolor
newpath 744.701 229.488 moveto
755 227 lineto
745.398 222.522 lineto
closepath fill
1 setlinewidth
solid
0.667 0.776 0.439 edgecolor
newpath 744.701 229.488 moveto
755 227 lineto
745.398 222.522 lineto
closepath stroke
grestore
% Node8
gsave
[ /Rect [ 550 162 656 182 ]
  /Border [ 0 0 0 ]
  /Action << /Subtype /URI /URI ($Elias_8cpp.html#95ee5a0ffb91f203612d2ce9d063ec36) >>
  /Subtype /Link
/ANN pdfmark
[ /Rect [ 550 162 656 182 ]
  /Border [ 0 0 0 ]
  /Action << /Subtype /URI /URI ($Elias_8cpp.html#95ee5a0ffb91f203612d2ce9d063ec36) >>
  /Subtype /Link
/ANN pdfmark
1 setlinewidth
0.000 0.000 0.000 nodecolor
newpath 550 161 moveto
550 182 lineto
656 182 lineto
656 161 lineto
closepath stroke
0.000 0.000 0.000 nodecolor
10.00 /FreeSans.ttf set_font
603 168 moveto 90 -0.5 (lee_elias_gama2) alignedtext
grestore
% Node7->Node8
gsave
1 setlinewidth
solid
0.667 0.776 0.439 edgecolor
newpath 456 204 moveto
480 199 517 191 548 184 curveto
stroke
0.667 0.776 0.439 edgecolor
newpath 548.881 187.393 moveto
558 182 lineto
547.508 180.529 lineto
closepath fill
1 setlinewidth
solid
0.667 0.776 0.439 edgecolor
newpath 548.881 187.393 moveto
558 182 lineto
547.508 180.529 lineto
closepath stroke
grestore
% Node8->Node4
gsave
1 setlinewidth
solid
0.667 0.776 0.439 edgecolor
newpath 638 182 moveto
670 191 717 204 751 215 curveto
stroke
0.667 0.776 0.439 edgecolor
newpath 750.416 218.479 moveto
761 218 lineto
752.427 211.774 lineto
closepath fill
1 setlinewidth
solid
0.667 0.776 0.439 edgecolor
newpath 750.416 218.479 moveto
761 218 lineto
752.427 211.774 lineto
closepath stroke
grestore
% Node9->Node9
gsave
1 setlinewidth
solid
0.667 0.776 0.439 edgecolor
newpath 203 172 moveto
179 181 197 190 257 190 curveto
306 190 327 184 320 177 curveto
stroke
0.667 0.776 0.439 edgecolor
newpath 321.441 173.797 moveto
311 172 lineto
318.042 179.916 lineto
closepath fill
1 setlinewidth
solid
0.667 0.776 0.439 edgecolor
newpath 321.441 173.797 moveto
311 172 lineto
318.042 179.916 lineto
closepath stroke
grestore
% Node10
gsave
[ /Rect [ 363 162 497 182 ]
  /Border [ 0 0 0 ]
  /Action << /Subtype /URI /URI ($classNodoTrieS.html#4f1525cf7f147f71e7be74c15d4f87a0) >>
  /Subtype /Link
/ANN pdfmark
[ /Rect [ 363 162 497 182 ]
  /Border [ 0 0 0 ]
  /Action << /Subtype /URI /URI ($classNodoTrieS.html#4f1525cf7f147f71e7be74c15d4f87a0) >>
  /Subtype /Link
/ANN pdfmark
1 setlinewidth
0.000 0.000 0.000 nodecolor
newpath 363 161 moveto
363 182 lineto
497 182 lineto
497 161 lineto
closepath stroke
0.000 0.000 0.000 nodecolor
10.00 /FreeSans.ttf set_font
430 168 moveto 118 -0.5 (NodoTrieS::NodoTrieS) alignedtext
grestore
% Node9->Node10
gsave
1 setlinewidth
solid
0.667 0.776 0.439 edgecolor
newpath 315 165 moveto
327 166 340 167 353 167 curveto
stroke
0.667 0.776 0.439 edgecolor
newpath 352.701 170.488 moveto
363 168 lineto
353.398 163.522 lineto
closepath fill
1 setlinewidth
solid
0.667 0.776 0.439 edgecolor
newpath 352.701 170.488 moveto
363 168 lineto
353.398 163.522 lineto
closepath stroke
grestore
% Node11
gsave
[ /Rect [ 353 124 507 144 ]
  /Border [ 0 0 0 ]
  /Action << /Subtype /URI /URI ($comun_8cpp.html#c74356d5b37d454e0ddce0de8fac34f8) >>
  /Subtype /Link
/ANN pdfmark
[ /Rect [ 353 124 507 144 ]
  /Border [ 0 0 0 ]
  /Action << /Subtype /URI /URI ($comun_8cpp.html#c74356d5b37d454e0ddce0de8fac34f8) >>
  /Subtype /Link
/ANN pdfmark
1 setlinewidth
0.000 0.000 0.000 nodecolor
newpath 353 123 moveto
353 144 lineto
508 144 lineto
508 123 lineto
closepath stroke
0.000 0.000 0.000 nodecolor
10.00 /FreeSans.ttf set_font
430 130 moveto 139 -0.5 (prefijo_comun_mas_largo) alignedtext
grestore
% Node9->Node11
gsave
1 setlinewidth
solid
0.667 0.776 0.439 edgecolor
newpath 315 153 moveto
329 151 343 148 357 146 curveto
stroke
0.667 0.776 0.439 edgecolor
newpath 357.881 149.393 moveto
367 144 lineto
356.508 142.529 lineto
closepath fill
1 setlinewidth
solid
0.667 0.776 0.439 edgecolor
newpath 357.881 149.393 moveto
367 144 lineto
356.508 142.529 lineto
closepath stroke
grestore
% Node13
gsave
[ /Rect [ 368 86 492 106 ]
  /Border [ 0 0 0 ]
  /Action << /Subtype /URI /URI ($RamDisco_8cpp.html#f0c232886a7851d8db3a647add9ae455) >>
  /Subtype /Link
/ANN pdfmark
[ /Rect [ 368 86 492 106 ]
  /Border [ 0 0 0 ]
  /Action << /Subtype /URI /URI ($RamDisco_8cpp.html#f0c232886a7851d8db3a647add9ae455) >>
  /Subtype /Link
/ANN pdfmark
1 setlinewidth
0.000 0.000 0.000 nodecolor
newpath 368 85 moveto
368 106 lineto
493 106 lineto
493 85 lineto
closepath stroke
0.000 0.000 0.000 nodecolor
10.00 /FreeSans.ttf set_font
430 92 moveto 109 -0.5 (escribePlanoStream) alignedtext
grestore
% Node12->Node13
gsave
1 setlinewidth
solid
0.667 0.776 0.439 edgecolor
newpath 286 103 moveto
306 102 333 101 358 100 curveto
stroke
0.667 0.776 0.439 edgecolor
newpath 358.398 103.478 moveto
368 99 lineto
357.701 96.5125 lineto
closepath fill
1 setlinewidth
solid
0.667 0.776 0.439 edgecolor
newpath 358.398 103.478 moveto
368 99 lineto
357.701 96.5125 lineto
closepath stroke
grestore
% Node14
gsave
[ /Rect [ 757 124 841 144 ]
  /Border [ 0 0 0 ]
  /Action << /Subtype /URI /URI ($TrieSDisco_8cpp.html#95dfc28ebaa02e82d3d1ffce08251628) >>
  /Subtype /Link
/ANN pdfmark
[ /Rect [ 757 124 841 144 ]
  /Border [ 0 0 0 ]
  /Action << /Subtype /URI /URI ($TrieSDisco_8cpp.html#95dfc28ebaa02e82d3d1ffce08251628) >>
  /Subtype /Link
/ANN pdfmark
1 setlinewidth
0.000 0.000 0.000 nodecolor
newpath 757 123 moveto
757 144 lineto
841 144 lineto
841 123 lineto
closepath stroke
0.000 0.000 0.000 nodecolor
10.00 /FreeSans.ttf set_font
799 130 moveto 68 -0.5 (escribeNodo) alignedtext
grestore
% Node13->Node14
gsave
1 setlinewidth
solid
0.667 0.776 0.439 edgecolor
newpath 493 104 moveto
510 106 528 108 544 110 curveto
614 118 695 125 747 129 curveto
stroke
0.667 0.776 0.439 edgecolor
newpath 746.701 132.488 moveto
757 130 lineto
747.398 125.522 lineto
closepath fill
1 setlinewidth
solid
0.667 0.776 0.439 edgecolor
newpath 746.701 132.488 moveto
757 130 lineto
747.398 125.522 lineto
closepath stroke
grestore
% Node20
gsave
[ /Rect [ 936 86 1092 106 ]
  /Border [ 0 0 0 ]
  /Action << /Subtype /URI /URI ($TrieSDisco_8cpp.html#453b277936104f13edb4f8158e015eba) >>
  /Subtype /Link
/ANN pdfmark
[ /Rect [ 936 86 1092 106 ]
  /Border [ 0 0 0 ]
  /Action << /Subtype /URI /URI ($TrieSDisco_8cpp.html#453b277936104f13edb4f8158e015eba) >>
  /Subtype /Link
/ANN pdfmark
1 setlinewidth
0.000 0.000 0.000 nodecolor
newpath 936 85 moveto
936 106 lineto
1092 106 lineto
1092 85 lineto
closepath stroke
0.000 0.000 0.000 nodecolor
10.00 /FreeSans.ttf set_font
1014 92 moveto 140 -0.5 (precalcula_escribe_actual) alignedtext
grestore
% Node13->Node20
gsave
1 setlinewidth
solid
0.667 0.776 0.439 edgecolor
newpath 493 96 moveto
597 96 807 96 926 96 curveto
stroke
0.667 0.776 0.439 edgecolor
newpath 926 99.5001 moveto
936 96 lineto
926 92.5001 lineto
closepath fill
1 setlinewidth
solid
0.667 0.776 0.439 edgecolor
newpath 926 99.5001 moveto
936 96 lineto
926 92.5001 lineto
closepath stroke
grestore
% Node24
gsave
[ /Rect [ 545 30 661 50 ]
  /Border [ 0 0 0 ]
  /Action << /Subtype /URI /URI ($RamDisco_8cpp.html#6b1b44682de6eb9fccd3df71e404154a) >>
  /Subtype /Link
/ANN pdfmark
[ /Rect [ 545 30 661 50 ]
  /Border [ 0 0 0 ]
  /Action << /Subtype /URI /URI ($RamDisco_8cpp.html#6b1b44682de6eb9fccd3df71e404154a) >>
  /Subtype /Link
/ANN pdfmark
1 setlinewidth
0.000 0.000 0.000 nodecolor
newpath 545 29 moveto
545 50 lineto
662 50 lineto
662 29 lineto
closepath stroke
0.000 0.000 0.000 nodecolor
10.00 /FreeSans.ttf set_font
603 36 moveto 101 -0.5 (precalcula_escribe) alignedtext
grestore
% Node13->Node24
gsave
1 setlinewidth
solid
0.667 0.776 0.439 edgecolor
newpath 464 85 moveto
493 76 533 63 562 53 curveto
stroke
0.667 0.776 0.439 edgecolor
newpath 563.427 56.2259 moveto
572 50 lineto
561.416 49.5212 lineto
closepath fill
1 setlinewidth
solid
0.667 0.776 0.439 edgecolor
newpath 563.427 56.2259 moveto
572 50 lineto
561.416 49.5212 lineto
closepath stroke
grestore
% Node25
gsave
[ /Rect [ 698 30 900 50 ]
  /Border [ 0 0 0 ]
  /Action << /Subtype /URI /URI ($RamDisco_8cpp.html#5b79fc3f073aeb2481fb1d51274a52a6) >>
  /Subtype /Link
/ANN pdfmark
[ /Rect [ 698 30 900 50 ]
  /Border [ 0 0 0 ]
  /Action << /Subtype /URI /URI ($RamDisco_8cpp.html#5b79fc3f073aeb2481fb1d51274a52a6) >>
  /Subtype /Link
/ANN pdfmark
1 setlinewidth
0.000 0.000 0.000 nodecolor
newpath 698 29 moveto
698 50 lineto
900 50 lineto
900 29 lineto
closepath stroke
0.000 0.000 0.000 nodecolor
10.00 /FreeSans.ttf set_font
799 36 moveto 186 -0.5 (precalcula_escribe_con_hermanos) alignedtext
grestore
% Node13->Node25
gsave
1 setlinewidth
solid
0.667 0.776 0.439 edgecolor
newpath 442 85 moveto
461 67 502 34 544 21 curveto
614 0 699 14 751 27 curveto
stroke
0.667 0.776 0.439 edgecolor
newpath 750.508 30.4708 moveto
761 29 lineto
751.881 23.6067 lineto
closepath fill
1 setlinewidth
solid
0.667 0.776 0.439 edgecolor
newpath 750.508 30.4708 moveto
761 29 lineto
751.881 23.6067 lineto
closepath stroke
grestore
% Node15
gsave
[ /Rect [ 969 162 1059 182 ]
  /Border [ 0 0 0 ]
  /Action << /Subtype /URI /URI ($comun_8hpp.html#96402bda6527bf98dd8e49d62ae182f8) >>
  /Subtype /Link
/ANN pdfmark
[ /Rect [ 969 162 1059 182 ]
  /Border [ 0 0 0 ]
  /Action << /Subtype /URI /URI ($comun_8hpp.html#96402bda6527bf98dd8e49d62ae182f8) >>
  /Subtype /Link
/ANN pdfmark
1 setlinewidth
0.000 0.000 0.000 nodecolor
newpath 969 161 moveto
969 182 lineto
1059 182 lineto
1059 161 lineto
closepath stroke
0.000 0.000 0.000 nodecolor
10.00 /FreeSans.ttf set_font
1014 168 moveto 74 -0.5 (escribeNDesp) alignedtext
grestore
% Node14->Node15
gsave
1 setlinewidth
solid
0.667 0.776 0.439 edgecolor
newpath 841 141 moveto
875 147 922 156 959 162 curveto
stroke
0.667 0.776 0.439 edgecolor
newpath 958.508 165.471 moveto
969 164 lineto
959.881 158.607 lineto
closepath fill
1 setlinewidth
solid
0.667 0.776 0.439 edgecolor
newpath 958.508 165.471 moveto
969 164 lineto
959.881 158.607 lineto
closepath stroke
grestore
% Node17
gsave
[ /Rect [ 978 124 1050 144 ]
  /Border [ 0 0 0 ]
  /Action << /Subtype /URI /URI ($Pos_8cpp.html#42c2daaa880eeb397c024b6ffa22c8cf) >>
  /Subtype /Link
/ANN pdfmark
[ /Rect [ 978 124 1050 144 ]
  /Border [ 0 0 0 ]
  /Action << /Subtype /URI /URI ($Pos_8cpp.html#42c2daaa880eeb397c024b6ffa22c8cf) >>
  /Subtype /Link
/ANN pdfmark
1 setlinewidth
0.000 0.000 0.000 nodecolor
newpath 978 123 moveto
978 144 lineto
1051 144 lineto
1051 123 lineto
closepath stroke
0.000 0.000 0.000 nodecolor
10.00 /FreeSans.ttf set_font
1014 130 moveto 57 -0.5 (escribePos) alignedtext
grestore
% Node14->Node17
gsave
1 setlinewidth
solid
0.667 0.776 0.439 edgecolor
newpath 841 134 moveto
878 134 930 134 968 134 curveto
stroke
0.667 0.776 0.439 edgecolor
newpath 968 137.5 moveto
978 134 lineto
968 130.5 lineto
closepath fill
1 setlinewidth
solid
0.667 0.776 0.439 edgecolor
newpath 968 137.5 moveto
978 134 lineto
968 130.5 lineto
closepath stroke
grestore
% Node14->Node20
gsave
1 setlinewidth
solid
0.667 0.776 0.439 edgecolor
newpath 841 127 moveto
871 122 912 114 946 108 curveto
stroke
0.667 0.776 0.439 edgecolor
newpath 946.881 111.393 moveto
956 106 lineto
945.508 104.529 lineto
closepath fill
1 setlinewidth
solid
0.667 0.776 0.439 edgecolor
newpath 946.881 111.393 moveto
956 106 lineto
945.508 104.529 lineto
closepath stroke
grestore
% Node16
gsave
[ /Rect [ 1128 162 1210 182 ]
  /Border [ 0 0 0 ]
  /Action << /Subtype /URI /URI ($comun_8cpp.html#b5388a972300b0a3d2e70c16097a3781) >>
  /Subtype /Link
/ANN pdfmark
[ /Rect [ 1128 162 1210 182 ]
  /Border [ 0 0 0 ]
  /Action << /Subtype /URI /URI ($comun_8cpp.html#b5388a972300b0a3d2e70c16097a3781) >>
  /Subtype /Link
/ANN pdfmark
1 setlinewidth
0.000 0.000 0.000 nodecolor
newpath 1128 161 moveto
1128 182 lineto
1210 182 lineto
1210 161 lineto
closepath stroke
0.000 0.000 0.000 nodecolor
10.00 /FreeSans.ttf set_font
1169 168 moveto 66 -0.5 (escribe128b) alignedtext
grestore
% Node15->Node16
gsave
1 setlinewidth
solid
0.667 0.776 0.439 edgecolor
newpath 1059 172 moveto
1078 172 1099 172 1118 172 curveto
stroke
0.667 0.776 0.439 edgecolor
newpath 1118 175.5 moveto
1128 172 lineto
1118 168.5 lineto
closepath fill
1 setlinewidth
solid
0.667 0.776 0.439 edgecolor
newpath 1118 175.5 moveto
1128 172 lineto
1118 168.5 lineto
closepath stroke
grestore
% Node18
gsave
[ /Rect [ 1246 114 1374 134 ]
  /Border [ 0 0 0 ]
  /Action << /Subtype /URI /URI ($Elias_8cpp.html#59732ce42a1e75fbbb382a6964ef4620) >>
  /Subtype /Link
/ANN pdfmark
[ /Rect [ 1246 114 1374 134 ]
  /Border [ 0 0 0 ]
  /Action << /Subtype /URI /URI ($Elias_8cpp.html#59732ce42a1e75fbbb382a6964ef4620) >>
  /Subtype /Link
/ANN pdfmark
1 setlinewidth
0.000 0.000 0.000 nodecolor
newpath 1246 113 moveto
1246 134 lineto
1374 134 lineto
1374 113 lineto
closepath stroke
0.000 0.000 0.000 nodecolor
10.00 /FreeSans.ttf set_font
1310 120 moveto 112 -0.5 (escribe_elias_gama2) alignedtext
grestore
% Node17->Node18
gsave
1 setlinewidth
solid
0.667 0.776 0.439 edgecolor
newpath 1051 133 moveto
1097 131 1177 128 1236 126 curveto
stroke
0.667 0.776 0.439 edgecolor
newpath 1236 129.5 moveto
1246 126 lineto
1236 122.5 lineto
closepath fill
1 setlinewidth
solid
0.667 0.776 0.439 edgecolor
newpath 1236 129.5 moveto
1246 126 lineto
1236 122.5 lineto
closepath stroke
grestore
% Node19
gsave
[ /Rect [ 1411 90 1483 110 ]
  /Border [ 0 0 0 ]
  /Action << /Subtype /URI /URI ($Elias_8cpp.html#7127ec8dff13cc2ad873693ca8933d38) >>
  /Subtype /Link
/ANN pdfmark
[ /Rect [ 1411 90 1483 110 ]
  /Border [ 0 0 0 ]
  /Action << /Subtype /URI /URI ($Elias_8cpp.html#7127ec8dff13cc2ad873693ca8933d38) >>
  /Subtype /Link
/ANN pdfmark
1 setlinewidth
0.000 0.000 0.000 nodecolor
newpath 1411 89 moveto
1411 110 lineto
1484 110 lineto
1484 89 lineto
closepath stroke
0.000 0.000 0.000 nodecolor
10.00 /FreeSans.ttf set_font
1447 96 moveto 57 -0.5 (piso_logb2) alignedtext
grestore
% Node18->Node19
gsave
1 setlinewidth
solid
0.667 0.776 0.439 edgecolor
newpath 1373 113 moveto
1382 112 1392 110 1401 109 curveto
stroke
0.667 0.776 0.439 edgecolor
newpath 1401.88 112.393 moveto
1411 107 lineto
1400.51 105.529 lineto
closepath fill
1 setlinewidth
solid
0.667 0.776 0.439 edgecolor
newpath 1401.88 112.393 moveto
1411 107 lineto
1400.51 105.529 lineto
closepath stroke
grestore
% Node21
gsave
[ /Rect [ 1132 86 1206 106 ]
  /Border [ 0 0 0 ]
  /Action << /Subtype /URI /URI ($comun_8hpp.html#3f1f97c70ac3ffba1584b0fc02661cab) >>
  /Subtype /Link
/ANN pdfmark
[ /Rect [ 1132 86 1206 106 ]
  /Border [ 0 0 0 ]
  /Action << /Subtype /URI /URI ($comun_8hpp.html#3f1f97c70ac3ffba1584b0fc02661cab) >>
  /Subtype /Link
/ANN pdfmark
1 setlinewidth
0.000 0.000 0.000 nodecolor
newpath 1132 85 moveto
1132 106 lineto
1207 106 lineto
1207 85 lineto
closepath stroke
0.000 0.000 0.000 nodecolor
10.00 /FreeSans.ttf set_font
1169 92 moveto 59 -0.5 (longNDesp) alignedtext
grestore
% Node20->Node21
gsave
1 setlinewidth
solid
0.667 0.776 0.439 edgecolor
newpath 1092 96 moveto
1102 96 1112 96 1122 96 curveto
stroke
0.667 0.776 0.439 edgecolor
newpath 1122 99.5001 moveto
1132 96 lineto
1122 92.5001 lineto
closepath fill
1 setlinewidth
solid
0.667 0.776 0.439 edgecolor
newpath 1122 99.5001 moveto
1132 96 lineto
1122 92.5001 lineto
closepath stroke
grestore
% Node22
gsave
[ /Rect [ 1140 48 1198 68 ]
  /Border [ 0 0 0 ]
  /Action << /Subtype /URI /URI ($Pos_8cpp.html#ad8740377e9e19836d654491a170ac9a) >>
  /Subtype /Link
/ANN pdfmark
[ /Rect [ 1140 48 1198 68 ]
  /Border [ 0 0 0 ]
  /Action << /Subtype /URI /URI ($Pos_8cpp.html#ad8740377e9e19836d654491a170ac9a) >>
  /Subtype /Link
/ANN pdfmark
1 setlinewidth
0.000 0.000 0.000 nodecolor
newpath 1140 47 moveto
1140 68 lineto
1198 68 lineto
1198 47 lineto
closepath stroke
0.000 0.000 0.000 nodecolor
10.00 /FreeSans.ttf set_font
1169 54 moveto 42 -0.5 (longPos) alignedtext
grestore
% Node20->Node22
gsave
1 setlinewidth
solid
0.667 0.776 0.439 edgecolor
newpath 1059 85 moveto
1081 80 1108 73 1130 68 curveto
stroke
0.667 0.776 0.439 edgecolor
newpath 1131.43 71.2259 moveto
1140 65 lineto
1129.42 64.5212 lineto
closepath fill
1 setlinewidth
solid
0.667 0.776 0.439 edgecolor
newpath 1131.43 71.2259 moveto
1140 65 lineto
1129.42 64.5212 lineto
closepath stroke
grestore
% Node23
gsave
[ /Rect [ 1257 67 1363 87 ]
  /Border [ 0 0 0 ]
  /Action << /Subtype /URI /URI ($Elias_8cpp.html#214c4fd6adcbe1fe7de47c4ba521198a) >>
  /Subtype /Link
/ANN pdfmark
[ /Rect [ 1257 67 1363 87 ]
  /Border [ 0 0 0 ]
  /Action << /Subtype /URI /URI ($Elias_8cpp.html#214c4fd6adcbe1fe7de47c4ba521198a) >>
  /Subtype /Link
/ANN pdfmark
1 setlinewidth
0.000 0.000 0.000 nodecolor
newpath 1257 66 moveto
1257 87 lineto
1364 87 lineto
1364 66 lineto
closepath stroke
0.000 0.000 0.000 nodecolor
10.00 /FreeSans.ttf set_font
1310 73 moveto 91 -0.5 (long_elias_gama) alignedtext
grestore
% Node22->Node23
gsave
1 setlinewidth
solid
0.667 0.776 0.439 edgecolor
newpath 1198 62 moveto
1212 64 1230 66 1247 69 curveto
stroke
0.667 0.776 0.439 edgecolor
newpath 1246.7 72.4875 moveto
1257 70 lineto
1247.4 65.5222 lineto
closepath fill
1 setlinewidth
solid
0.667 0.776 0.439 edgecolor
newpath 1246.7 72.4875 moveto
1257 70 lineto
1247.4 65.5222 lineto
closepath stroke
grestore
% Node23->Node19
gsave
1 setlinewidth
solid
0.667 0.776 0.439 edgecolor
newpath 1364 86 moveto
1376 88 1389 91 1401 93 curveto
stroke
0.667 0.776 0.439 edgecolor
newpath 1400.7 96.4875 moveto
1411 94 lineto
1401.4 89.5222 lineto
closepath fill
1 setlinewidth
solid
0.667 0.776 0.439 edgecolor
newpath 1400.7 96.4875 moveto
1411 94 lineto
1401.4 89.5222 lineto
closepath stroke
grestore
% Node24->Node24
gsave
1 setlinewidth
solid
0.667 0.776 0.439 edgecolor
newpath 549 50 moveto
525 59 543 68 603 68 curveto
652 68 673 62 666 55 curveto
stroke
0.667 0.776 0.439 edgecolor
newpath 667.441 51.7969 moveto
657 50 lineto
664.042 57.916 lineto
closepath fill
1 setlinewidth
solid
0.667 0.776 0.439 edgecolor
newpath 667.441 51.7969 moveto
657 50 lineto
664.042 57.916 lineto
closepath stroke
grestore
% Node24->Node25
gsave
1 setlinewidth
solid
0.667 0.776 0.439 edgecolor
newpath 662 40 moveto
670 40 679 40 688 40 curveto
stroke
0.667 0.776 0.439 edgecolor
newpath 688 43.5001 moveto
698 40 lineto
688 36.5001 lineto
closepath fill
1 setlinewidth
solid
0.667 0.776 0.439 edgecolor
newpath 688 43.5001 moveto
698 40 lineto
688 36.5001 lineto
closepath stroke
grestore
% Node25->Node20
gsave
1 setlinewidth
solid
0.667 0.776 0.439 edgecolor
newpath 837 50 moveto
872 59 924 73 962 82 curveto
stroke
0.667 0.776 0.439 edgecolor
newpath 961.416 85.4788 moveto
972 85 lineto
963.427 78.7741 lineto
closepath fill
1 setlinewidth
solid
0.667 0.776 0.439 edgecolor
newpath 961.416 85.4788 moveto
972 85 lineto
963.427 78.7741 lineto
closepath stroke
grestore
endpage
showpage
grestore
%%PageTrailer
%%EndPage: 1
%%Trailer
%%Pages: 1
%%BoundingBox: 36 36 1528 340
end
restore
%%EOF
