%!PS-Adobe-2.0
%%Creator: Graphviz version 2.12 (Mon Nov 16 18:34:03 UTC 2009)
%%For: (vtamara) Vladimir
%%Title: G
%%Pages: (atend)
%%BoundingBox: (atend)
%%EndComments
save
%%BeginProlog
/DotDict 200 dict def
DotDict begin

/setupLatin1 {
mark
/EncodingVector 256 array def
 EncodingVector 0

ISOLatin1Encoding 0 255 getinterval putinterval
EncodingVector 45 /hyphen put

% Set up ISO Latin 1 character encoding
/starnetISO {
        dup dup findfont dup length dict begin
        { 1 index /FID ne { def }{ pop pop } ifelse
        } forall
        /Encoding EncodingVector def
        currentdict end definefont
} def
/Times-Roman starnetISO def
/Times-Italic starnetISO def
/Times-Bold starnetISO def
/Times-BoldItalic starnetISO def
/Helvetica starnetISO def
/Helvetica-Oblique starnetISO def
/Helvetica-Bold starnetISO def
/Helvetica-BoldOblique starnetISO def
/Courier starnetISO def
/Courier-Oblique starnetISO def
/Courier-Bold starnetISO def
/Courier-BoldOblique starnetISO def
cleartomark
} bind def

%%BeginResource: procset graphviz 0 0
/coord-font-family /Times-Roman def
/default-font-family /Times-Roman def
/coordfont coord-font-family findfont 8 scalefont def

/InvScaleFactor 1.0 def
/set_scale {
       dup 1 exch div /InvScaleFactor exch def
       scale
} bind def

% styles
/solid { [] 0 setdash } bind def
/dashed { [9 InvScaleFactor mul dup ] 0 setdash } bind def
/dotted { [1 InvScaleFactor mul 6 InvScaleFactor mul] 0 setdash } bind def
/invis {/fill {newpath} def /stroke {newpath} def /show {pop newpath} def} bind def
/bold { 2 setlinewidth } bind def
/filled { } bind def
/unfilled { } bind def
/rounded { } bind def
/diagonals { } bind def

% hooks for setting color 
/nodecolor { sethsbcolor } bind def
/edgecolor { sethsbcolor } bind def
/graphcolor { sethsbcolor } bind def
/nopcolor {pop pop pop} bind def

/beginpage {	% i j npages
	/npages exch def
	/j exch def
	/i exch def
	/str 10 string def
	npages 1 gt {
		gsave
			coordfont setfont
			0 0 moveto
			(\() show i str cvs show (,) show j str cvs show (\)) show
		grestore
	} if
} bind def

/set_font {
	findfont exch
	scalefont setfont
} def

% draw aligned label in bounding box aligned to current point
/alignedtext {			% width adj text
	/text exch def
	/adj exch def
	/width exch def
	gsave
		width 0 gt {
			text stringwidth pop adj mul 0 rmoveto
		} if
		[] 0 setdash
		text show
	grestore
} def

/boxprim {				% xcorner ycorner xsize ysize
		4 2 roll
		moveto
		2 copy
		exch 0 rlineto
		0 exch rlineto
		pop neg 0 rlineto
		closepath
} bind def

/ellipse_path {
	/ry exch def
	/rx exch def
	/y exch def
	/x exch def
	matrix currentmatrix
	newpath
	x y translate
	rx ry scale
	0 0 1 0 360 arc
	setmatrix
} bind def

/endpage { showpage } bind def
/showpage { } def

/layercolorseq
	[	% layer color sequence - darkest to lightest
		[0 0 0]
		[.2 .8 .8]
		[.4 .8 .8]
		[.6 .8 .8]
		[.8 .8 .8]
	]
def

/layerlen layercolorseq length def

/setlayer {/maxlayer exch def /curlayer exch def
	layercolorseq curlayer 1 sub layerlen mod get
	aload pop sethsbcolor
	/nodecolor {nopcolor} def
	/edgecolor {nopcolor} def
	/graphcolor {nopcolor} def
} bind def

/onlayer { curlayer ne {invis} if } def

/onlayers {
	/myupper exch def
	/mylower exch def
	curlayer mylower lt
	curlayer myupper gt
	or
	{invis} if
} def

/curlayer 0 def

%%EndResource
%%EndProlog
%%BeginSetup
14 default-font-family set_font
1 setmiterlimit
% /arrowlength 10 def
% /arrowwidth 5 def

% make sure pdfmark is harmless for PS-interpreters other than Distiller
/pdfmark where {pop} {userdict /pdfmark /cleartomark load put} ifelse
% make '<<' and '>>' safe on PS Level 1 devices
/languagelevel where {pop languagelevel}{1} ifelse
2 lt {
    userdict (<<) cvn ([) cvn load put
    userdict (>>) cvn ([) cvn load put
} if

%%EndSetup
setupLatin1
%%Page: 1 1
%%PageBoundingBox: 36 36 1528 441
%%PageOrientation: Portrait
gsave
36 36 1528 441 boxprim clip newpath
0 0 1 beginpage
1 1 set_scale 0 rotate 40 40 translate
% Node1
gsave
0.000 0.000 0.749 nodecolor
newpath 0 146 moveto
0 167 lineto
180 167 lineto
180 146 lineto
closepath fill
1 setlinewidth
filled
0.000 0.000 0.000 nodecolor
newpath 0 146 moveto
0 167 lineto
180 167 lineto
180 146 lineto
closepath stroke
0.000 0.000 0.000 nodecolor
10.00 /FreeSans.ttf set_font
90 153 moveto 164 -0.5 (prueba_escribeCopiaSubarbol) alignedtext
grestore
% Node2
gsave
[ /Rect [ 229 241 339 261 ]
  /Border [ 0 0 0 ]
  /Action << /Subtype /URI /URI ($classNodoTrieS.html#721fc27d7f6e4cfd26f4931fe6a9b70d) >>
  /Subtype /Link
/ANN pdfmark
[ /Rect [ 229 241 339 261 ]
  /Border [ 0 0 0 ]
  /Action << /Subtype /URI /URI ($classNodoTrieS.html#721fc27d7f6e4cfd26f4931fe6a9b70d) >>
  /Subtype /Link
/ANN pdfmark
1 setlinewidth
0.000 0.000 0.000 nodecolor
newpath 229 240 moveto
229 261 lineto
339 261 lineto
339 240 lineto
closepath stroke
0.000 0.000 0.000 nodecolor
10.00 /FreeSans.ttf set_font
284 247 moveto 94 -0.5 (NodoTrieS::busca) alignedtext
grestore
% Node1->Node2
gsave
1 setlinewidth
solid
0.667 0.776 0.439 edgecolor
newpath 104 167 moveto
127 183 174 213 216 232 curveto
220 234 224 235 228 237 curveto
stroke
0.667 0.776 0.439 edgecolor
newpath 227.416 240.479 moveto
238 240 lineto
229.427 233.774 lineto
closepath fill
1 setlinewidth
solid
0.667 0.776 0.439 edgecolor
newpath 227.416 240.479 moveto
238 240 lineto
229.427 233.774 lineto
closepath stroke
grestore
% Node3
gsave
[ /Rect [ 216 147 352 167 ]
  /Border [ 0 0 0 ]
  /Action << /Subtype /URI /URI ($TrieSDisco_8cpp.html#485d02d9d7ec4ae0114122861420c1d1) >>
  /Subtype /Link
/ANN pdfmark
[ /Rect [ 216 147 352 167 ]
  /Border [ 0 0 0 ]
  /Action << /Subtype /URI /URI ($TrieSDisco_8cpp.html#485d02d9d7ec4ae0114122861420c1d1) >>
  /Subtype /Link
/ANN pdfmark
1 setlinewidth
0.000 0.000 0.000 nodecolor
newpath 216 146 moveto
216 167 lineto
352 167 lineto
352 146 lineto
closepath stroke
0.000 0.000 0.000 nodecolor
10.00 /FreeSans.ttf set_font
284 153 moveto 120 -0.5 (escribeCopiaSubarbol) alignedtext
grestore
% Node1->Node3
gsave
1 setlinewidth
solid
0.667 0.776 0.439 edgecolor
newpath 180 157 moveto
189 157 197 157 206 157 curveto
stroke
0.667 0.776 0.439 edgecolor
newpath 206 160.5 moveto
216 157 lineto
206 153.5 lineto
closepath fill
1 setlinewidth
solid
0.667 0.776 0.439 edgecolor
newpath 206 160.5 moveto
216 157 lineto
206 153.5 lineto
closepath stroke
grestore
% Node20
gsave
[ /Rect [ 233 91 335 111 ]
  /Border [ 0 0 0 ]
  /Action << /Subtype /URI /URI ($RamDisco_8cpp.html#6629a007f761319a91a329f1071896fa) >>
  /Subtype /Link
/ANN pdfmark
[ /Rect [ 233 91 335 111 ]
  /Border [ 0 0 0 ]
  /Action << /Subtype /URI /URI ($RamDisco_8cpp.html#6629a007f761319a91a329f1071896fa) >>
  /Subtype /Link
/ANN pdfmark
1 setlinewidth
0.000 0.000 0.000 nodecolor
newpath 233 90 moveto
233 111 lineto
336 111 lineto
336 90 lineto
closepath stroke
0.000 0.000 0.000 nodecolor
10.00 /FreeSans.ttf set_font
284 97 moveto 87 -0.5 (leePlanoStream) alignedtext
grestore
% Node1->Node20
gsave
1 setlinewidth
solid
0.667 0.776 0.439 edgecolor
newpath 128 146 moveto
161 137 206 124 240 114 curveto
stroke
0.667 0.776 0.439 edgecolor
newpath 241.427 117.226 moveto
250 111 lineto
239.416 110.521 lineto
closepath fill
1 setlinewidth
solid
0.667 0.776 0.439 edgecolor
newpath 241.427 117.226 moveto
250 111 lineto
239.416 110.521 lineto
closepath stroke
grestore
% Node21
gsave
[ /Rect [ 255 203 313 223 ]
  /Border [ 0 0 0 ]
  /Action << /Subtype /URI /URI ($CasosPrueba_8hpp.html#9d3e570cd9f7040235c0162eaaadb70c) >>
  /Subtype /Link
/ANN pdfmark
[ /Rect [ 255 203 313 223 ]
  /Border [ 0 0 0 ]
  /Action << /Subtype /URI /URI ($CasosPrueba_8hpp.html#9d3e570cd9f7040235c0162eaaadb70c) >>
  /Subtype /Link
/ANN pdfmark
1 setlinewidth
0.000 0.000 0.000 nodecolor
newpath 255 202 moveto
255 223 lineto
313 223 lineto
313 202 lineto
closepath stroke
0.000 0.000 0.000 nodecolor
10.00 /FreeSans.ttf set_font
284 209 moveto 42 -0.5 (llena_ss) alignedtext
grestore
% Node1->Node21
gsave
1 setlinewidth
solid
0.667 0.776 0.439 edgecolor
newpath 125 167 moveto
150 174 185 185 216 194 curveto
226 196 236 199 245 202 curveto
stroke
0.667 0.776 0.439 edgecolor
newpath 244.416 205.479 moveto
255 205 lineto
246.427 198.774 lineto
closepath fill
1 setlinewidth
solid
0.667 0.776 0.439 edgecolor
newpath 244.416 205.479 moveto
255 205 lineto
246.427 198.774 lineto
closepath stroke
grestore
% Node25
gsave
[ /Rect [ 220 35 348 55 ]
  /Border [ 0 0 0 ]
  /Action << /Subtype /URI /URI ($classNodoTrieS.html#0943f6f1a9dea1f46e2e525a0736bbc8) >>
  /Subtype /Link
/ANN pdfmark
[ /Rect [ 220 35 348 55 ]
  /Border [ 0 0 0 ]
  /Action << /Subtype /URI /URI ($classNodoTrieS.html#0943f6f1a9dea1f46e2e525a0736bbc8) >>
  /Subtype /Link
/ANN pdfmark
1 setlinewidth
0.000 0.000 0.000 nodecolor
newpath 220 34 moveto
220 55 lineto
348 55 lineto
348 34 lineto
closepath stroke
0.000 0.000 0.000 nodecolor
10.00 /FreeSans.ttf set_font
284 41 moveto 112 -0.5 (NodoTrieS::preorden) alignedtext
grestore
% Node1->Node25
gsave
1 setlinewidth
solid
0.667 0.776 0.439 edgecolor
newpath 109 146 moveto
133 131 178 104 216 82 curveto
230 75 244 66 256 60 curveto
stroke
0.667 0.776 0.439 edgecolor
newpath 257.958 62.916 moveto
265 55 lineto
254.559 56.7969 lineto
closepath fill
1 setlinewidth
solid
0.667 0.776 0.439 edgecolor
newpath 257.958 62.916 moveto
265 55 lineto
254.559 56.7969 lineto
closepath stroke
grestore
% Node2->Node2
gsave
1 setlinewidth
solid
0.667 0.776 0.439 edgecolor
newpath 232 261 moveto
209 270 226 279 284 279 curveto
331 279 351 273 345 266 curveto
stroke
0.667 0.776 0.439 edgecolor
newpath 346.441 262.797 moveto
336 261 lineto
343.042 268.916 lineto
closepath fill
1 setlinewidth
solid
0.667 0.776 0.439 edgecolor
newpath 346.441 262.797 moveto
336 261 lineto
343.042 268.916 lineto
closepath stroke
grestore
% Node3->Node3
gsave
1 setlinewidth
solid
0.667 0.776 0.439 edgecolor
newpath 232 167 moveto
209 176 226 185 284 185 curveto
331 185 351 179 345 172 curveto
stroke
0.667 0.776 0.439 edgecolor
newpath 346.441 168.797 moveto
336 167 lineto
343.042 174.916 lineto
closepath fill
1 setlinewidth
solid
0.667 0.776 0.439 edgecolor
newpath 346.441 168.797 moveto
336 167 lineto
343.042 174.916 lineto
closepath stroke
grestore
% Node4
gsave
[ /Rect [ 760 185 850 205 ]
  /Border [ 0 0 0 ]
  /Action << /Subtype /URI /URI ($comun_8hpp.html#96402bda6527bf98dd8e49d62ae182f8) >>
  /Subtype /Link
/ANN pdfmark
[ /Rect [ 760 185 850 205 ]
  /Border [ 0 0 0 ]
  /Action << /Subtype /URI /URI ($comun_8hpp.html#96402bda6527bf98dd8e49d62ae182f8) >>
  /Subtype /Link
/ANN pdfmark
1 setlinewidth
0.000 0.000 0.000 nodecolor
newpath 760 184 moveto
760 205 lineto
850 205 lineto
850 184 lineto
closepath stroke
0.000 0.000 0.000 nodecolor
10.00 /FreeSans.ttf set_font
805 191 moveto 74 -0.5 (escribeNDesp) alignedtext
grestore
% Node3->Node4
gsave
1 setlinewidth
solid
0.667 0.776 0.439 edgecolor
newpath 333 167 moveto
350 170 370 174 388 176 curveto
517 190 669 194 750 195 curveto
stroke
0.667 0.776 0.439 edgecolor
newpath 750 198.5 moveto
760 195 lineto
750 191.5 lineto
closepath fill
1 setlinewidth
solid
0.667 0.776 0.439 edgecolor
newpath 750 198.5 moveto
760 195 lineto
750 191.5 lineto
closepath stroke
grestore
% Node6
gsave
[ /Rect [ 567 223 651 243 ]
  /Border [ 0 0 0 ]
  /Action << /Subtype /URI /URI ($TrieSDisco_8cpp.html#95dfc28ebaa02e82d3d1ffce08251628) >>
  /Subtype /Link
/ANN pdfmark
[ /Rect [ 567 223 651 243 ]
  /Border [ 0 0 0 ]
  /Action << /Subtype /URI /URI ($TrieSDisco_8cpp.html#95dfc28ebaa02e82d3d1ffce08251628) >>
  /Subtype /Link
/ANN pdfmark
1 setlinewidth
0.000 0.000 0.000 nodecolor
newpath 567 222 moveto
567 243 lineto
651 243 lineto
651 222 lineto
closepath stroke
0.000 0.000 0.000 nodecolor
10.00 /FreeSans.ttf set_font
609 229 moveto 68 -0.5 (escribeNodo) alignedtext
grestore
% Node3->Node6
gsave
1 setlinewidth
solid
0.667 0.776 0.439 edgecolor
newpath 303 167 moveto
328 181 371 203 388 209 curveto
444 225 511 230 557 233 curveto
stroke
0.667 0.776 0.439 edgecolor
newpath 557 236.5 moveto
567 233 lineto
557 229.5 lineto
closepath fill
1 setlinewidth
solid
0.667 0.776 0.439 edgecolor
newpath 557 236.5 moveto
567 233 lineto
557 229.5 lineto
closepath stroke
grestore
% Node14
gsave
[ /Rect [ 424 147 478 167 ]
  /Border [ 0 0 0 ]
  /Action << /Subtype /URI /URI ($comun_8cpp.html#4a359aa93f2dd4e34badd70c0e1f7082) >>
  /Subtype /Link
/ANN pdfmark
[ /Rect [ 424 147 478 167 ]
  /Border [ 0 0 0 ]
  /Action << /Subtype /URI /URI ($comun_8cpp.html#4a359aa93f2dd4e34badd70c0e1f7082) >>
  /Subtype /Link
/ANN pdfmark
1 setlinewidth
0.000 0.000 0.000 nodecolor
newpath 424 146 moveto
424 167 lineto
479 167 lineto
479 146 lineto
closepath stroke
0.000 0.000 0.000 nodecolor
10.00 /FreeSans.ttf set_font
451 153 moveto 39 -0.5 (leeCad) alignedtext
grestore
% Node3->Node14
gsave
1 setlinewidth
solid
0.667 0.776 0.439 edgecolor
newpath 352 157 moveto
374 157 396 157 414 157 curveto
stroke
0.667 0.776 0.439 edgecolor
newpath 414 160.5 moveto
424 157 lineto
414 153.5 lineto
closepath fill
1 setlinewidth
solid
0.667 0.776 0.439 edgecolor
newpath 414 160.5 moveto
424 157 lineto
414 153.5 lineto
closepath stroke
grestore
% Node16
gsave
[ /Rect [ 417 71 485 91 ]
  /Border [ 0 0 0 ]
  /Action << /Subtype /URI /URI ($comun_8hpp.html#9871d7357fc245ec5b7a227a9a62eb36) >>
  /Subtype /Link
/ANN pdfmark
[ /Rect [ 417 71 485 91 ]
  /Border [ 0 0 0 ]
  /Action << /Subtype /URI /URI ($comun_8hpp.html#9871d7357fc245ec5b7a227a9a62eb36) >>
  /Subtype /Link
/ANN pdfmark
1 setlinewidth
0.000 0.000 0.000 nodecolor
newpath 417 70 moveto
417 91 lineto
485 91 lineto
485 70 lineto
closepath stroke
0.000 0.000 0.000 nodecolor
10.00 /FreeSans.ttf set_font
451 77 moveto 52 -0.5 (leeNDesp) alignedtext
grestore
% Node3->Node16
gsave
1 setlinewidth
solid
0.667 0.776 0.439 edgecolor
newpath 335 146 moveto
341 144 347 141 352 138 curveto
372 125 369 113 388 100 curveto
394 97 401 94 407 91 curveto
stroke
0.667 0.776 0.439 edgecolor
newpath 408.427 94.2259 moveto
417 88 lineto
406.416 87.5212 lineto
closepath fill
1 setlinewidth
solid
0.667 0.776 0.439 edgecolor
newpath 408.427 94.2259 moveto
417 88 lineto
406.416 87.5212 lineto
closepath stroke
grestore
% Node18
gsave
[ /Rect [ 426 109 476 129 ]
  /Border [ 0 0 0 ]
  /Action << /Subtype /URI /URI ($Pos_8cpp.html#36b67a50cba6dc1789825a3111bee9d2) >>
  /Subtype /Link
/ANN pdfmark
[ /Rect [ 426 109 476 129 ]
  /Border [ 0 0 0 ]
  /Action << /Subtype /URI /URI ($Pos_8cpp.html#36b67a50cba6dc1789825a3111bee9d2) >>
  /Subtype /Link
/ANN pdfmark
1 setlinewidth
0.000 0.000 0.000 nodecolor
newpath 426 108 moveto
426 129 lineto
477 129 lineto
477 108 lineto
closepath stroke
0.000 0.000 0.000 nodecolor
10.00 /FreeSans.ttf set_font
451 115 moveto 35 -0.5 (leePos) alignedtext
grestore
% Node3->Node18
gsave
1 setlinewidth
solid
0.667 0.776 0.439 edgecolor
newpath 333 146 moveto
359 140 392 133 416 127 curveto
stroke
0.667 0.776 0.439 edgecolor
newpath 416.881 130.393 moveto
426 125 lineto
415.508 123.529 lineto
closepath fill
1 setlinewidth
solid
0.667 0.776 0.439 edgecolor
newpath 416.881 130.393 moveto
426 125 lineto
415.508 123.529 lineto
closepath stroke
grestore
% Node5
gsave
[ /Rect [ 979 185 1061 205 ]
  /Border [ 0 0 0 ]
  /Action << /Subtype /URI /URI ($comun_8cpp.html#b5388a972300b0a3d2e70c16097a3781) >>
  /Subtype /Link
/ANN pdfmark
[ /Rect [ 979 185 1061 205 ]
  /Border [ 0 0 0 ]
  /Action << /Subtype /URI /URI ($comun_8cpp.html#b5388a972300b0a3d2e70c16097a3781) >>
  /Subtype /Link
/ANN pdfmark
1 setlinewidth
0.000 0.000 0.000 nodecolor
newpath 979 184 moveto
979 205 lineto
1061 205 lineto
1061 184 lineto
closepath stroke
0.000 0.000 0.000 nodecolor
10.00 /FreeSans.ttf set_font
1020 191 moveto 66 -0.5 (escribe128b) alignedtext
grestore
% Node4->Node5
gsave
1 setlinewidth
solid
0.667 0.776 0.439 edgecolor
newpath 850 195 moveto
885 195 932 195 969 195 curveto
stroke
0.667 0.776 0.439 edgecolor
newpath 969 198.5 moveto
979 195 lineto
969 191.5 lineto
closepath fill
1 setlinewidth
solid
0.667 0.776 0.439 edgecolor
newpath 969 198.5 moveto
979 195 lineto
969 191.5 lineto
closepath stroke
grestore
% Node6->Node4
gsave
1 setlinewidth
solid
0.667 0.776 0.439 edgecolor
newpath 651 224 moveto
668 221 687 217 704 214 curveto
719 211 735 208 750 205 curveto
stroke
0.667 0.776 0.439 edgecolor
newpath 750.881 208.393 moveto
760 203 lineto
749.508 201.529 lineto
closepath fill
1 setlinewidth
solid
0.667 0.776 0.439 edgecolor
newpath 750.881 208.393 moveto
760 203 lineto
749.508 201.529 lineto
closepath stroke
grestore
% Node7
gsave
[ /Rect [ 769 223 841 243 ]
  /Border [ 0 0 0 ]
  /Action << /Subtype /URI /URI ($Pos_8cpp.html#42c2daaa880eeb397c024b6ffa22c8cf) >>
  /Subtype /Link
/ANN pdfmark
[ /Rect [ 769 223 841 243 ]
  /Border [ 0 0 0 ]
  /Action << /Subtype /URI /URI ($Pos_8cpp.html#42c2daaa880eeb397c024b6ffa22c8cf) >>
  /Subtype /Link
/ANN pdfmark
1 setlinewidth
0.000 0.000 0.000 nodecolor
newpath 769 222 moveto
769 243 lineto
842 243 lineto
842 222 lineto
closepath stroke
0.000 0.000 0.000 nodecolor
10.00 /FreeSans.ttf set_font
805 229 moveto 57 -0.5 (escribePos) alignedtext
grestore
% Node6->Node7
gsave
1 setlinewidth
solid
0.667 0.776 0.439 edgecolor
newpath 651 233 moveto
683 233 726 233 759 233 curveto
stroke
0.667 0.776 0.439 edgecolor
newpath 759 236.5 moveto
769 233 lineto
759 229.5 lineto
closepath fill
1 setlinewidth
solid
0.667 0.776 0.439 edgecolor
newpath 759 236.5 moveto
769 233 lineto
759 229.5 lineto
closepath stroke
grestore
% Node10
gsave
[ /Rect [ 942 299 1098 319 ]
  /Border [ 0 0 0 ]
  /Action << /Subtype /URI /URI ($TrieSDisco_8cpp.html#453b277936104f13edb4f8158e015eba) >>
  /Subtype /Link
/ANN pdfmark
[ /Rect [ 942 299 1098 319 ]
  /Border [ 0 0 0 ]
  /Action << /Subtype /URI /URI ($TrieSDisco_8cpp.html#453b277936104f13edb4f8158e015eba) >>
  /Subtype /Link
/ANN pdfmark
1 setlinewidth
0.000 0.000 0.000 nodecolor
newpath 942 298 moveto
942 319 lineto
1098 319 lineto
1098 298 lineto
closepath stroke
0.000 0.000 0.000 nodecolor
10.00 /FreeSans.ttf set_font
1020 305 moveto 140 -0.5 (precalcula_escribe_actual) alignedtext
grestore
% Node6->Node10
gsave
1 setlinewidth
solid
0.667 0.776 0.439 edgecolor
newpath 651 241 moveto
668 244 687 248 704 252 curveto
788 267 884 285 948 296 curveto
stroke
0.667 0.776 0.439 edgecolor
newpath 947.508 299.471 moveto
958 298 lineto
948.881 292.607 lineto
closepath fill
1 setlinewidth
solid
0.667 0.776 0.439 edgecolor
newpath 947.508 299.471 moveto
958 298 lineto
948.881 292.607 lineto
closepath stroke
grestore
% Node8
gsave
[ /Rect [ 1246 223 1374 243 ]
  /Border [ 0 0 0 ]
  /Action << /Subtype /URI /URI ($Elias_8cpp.html#59732ce42a1e75fbbb382a6964ef4620) >>
  /Subtype /Link
/ANN pdfmark
[ /Rect [ 1246 223 1374 243 ]
  /Border [ 0 0 0 ]
  /Action << /Subtype /URI /URI ($Elias_8cpp.html#59732ce42a1e75fbbb382a6964ef4620) >>
  /Subtype /Link
/ANN pdfmark
1 setlinewidth
0.000 0.000 0.000 nodecolor
newpath 1246 222 moveto
1246 243 lineto
1374 243 lineto
1374 222 lineto
closepath stroke
0.000 0.000 0.000 nodecolor
10.00 /FreeSans.ttf set_font
1310 229 moveto 112 -0.5 (escribe_elias_gama2) alignedtext
grestore
% Node7->Node8
gsave
1 setlinewidth
solid
0.667 0.776 0.439 edgecolor
newpath 842 233 moveto
925 233 1126 233 1236 233 curveto
stroke
0.667 0.776 0.439 edgecolor
newpath 1236 236.5 moveto
1246 233 lineto
1236 229.5 lineto
closepath fill
1 setlinewidth
solid
0.667 0.776 0.439 edgecolor
newpath 1236 236.5 moveto
1246 233 lineto
1236 229.5 lineto
closepath stroke
grestore
% Node9
gsave
[ /Rect [ 1411 242 1483 262 ]
  /Border [ 0 0 0 ]
  /Action << /Subtype /URI /URI ($Elias_8cpp.html#7127ec8dff13cc2ad873693ca8933d38) >>
  /Subtype /Link
/ANN pdfmark
[ /Rect [ 1411 242 1483 262 ]
  /Border [ 0 0 0 ]
  /Action << /Subtype /URI /URI ($Elias_8cpp.html#7127ec8dff13cc2ad873693ca8933d38) >>
  /Subtype /Link
/ANN pdfmark
1 setlinewidth
0.000 0.000 0.000 nodecolor
newpath 1411 241 moveto
1411 262 lineto
1484 262 lineto
1484 241 lineto
closepath stroke
0.000 0.000 0.000 nodecolor
10.00 /FreeSans.ttf set_font
1447 248 moveto 57 -0.5 (piso_logb2) alignedtext
grestore
% Node8->Node9
gsave
1 setlinewidth
solid
0.667 0.776 0.439 edgecolor
newpath 1374 242 moveto
1383 243 1392 245 1401 246 curveto
stroke
0.667 0.776 0.439 edgecolor
newpath 1400.7 249.488 moveto
1411 247 lineto
1401.4 242.522 lineto
closepath fill
1 setlinewidth
solid
0.667 0.776 0.439 edgecolor
newpath 1400.7 249.488 moveto
1411 247 lineto
1401.4 242.522 lineto
closepath stroke
grestore
% Node11
gsave
[ /Rect [ 1135 299 1209 319 ]
  /Border [ 0 0 0 ]
  /Action << /Subtype /URI /URI ($comun_8hpp.html#3f1f97c70ac3ffba1584b0fc02661cab) >>
  /Subtype /Link
/ANN pdfmark
[ /Rect [ 1135 299 1209 319 ]
  /Border [ 0 0 0 ]
  /Action << /Subtype /URI /URI ($comun_8hpp.html#3f1f97c70ac3ffba1584b0fc02661cab) >>
  /Subtype /Link
/ANN pdfmark
1 setlinewidth
0.000 0.000 0.000 nodecolor
newpath 1135 298 moveto
1135 319 lineto
1210 319 lineto
1210 298 lineto
closepath stroke
0.000 0.000 0.000 nodecolor
10.00 /FreeSans.ttf set_font
1172 305 moveto 59 -0.5 (longNDesp) alignedtext
grestore
% Node10->Node11
gsave
1 setlinewidth
solid
0.667 0.776 0.439 edgecolor
newpath 1098 309 moveto
1107 309 1116 309 1125 309 curveto
stroke
0.667 0.776 0.439 edgecolor
newpath 1125 312.5 moveto
1135 309 lineto
1125 305.5 lineto
closepath fill
1 setlinewidth
solid
0.667 0.776 0.439 edgecolor
newpath 1125 312.5 moveto
1135 309 lineto
1125 305.5 lineto
closepath stroke
grestore
% Node12
gsave
[ /Rect [ 1143 261 1201 281 ]
  /Border [ 0 0 0 ]
  /Action << /Subtype /URI /URI ($Pos_8cpp.html#ad8740377e9e19836d654491a170ac9a) >>
  /Subtype /Link
/ANN pdfmark
[ /Rect [ 1143 261 1201 281 ]
  /Border [ 0 0 0 ]
  /Action << /Subtype /URI /URI ($Pos_8cpp.html#ad8740377e9e19836d654491a170ac9a) >>
  /Subtype /Link
/ANN pdfmark
1 setlinewidth
0.000 0.000 0.000 nodecolor
newpath 1143 260 moveto
1143 281 lineto
1201 281 lineto
1201 260 lineto
closepath stroke
0.000 0.000 0.000 nodecolor
10.00 /FreeSans.ttf set_font
1172 267 moveto 42 -0.5 (longPos) alignedtext
grestore
% Node10->Node12
gsave
1 setlinewidth
solid
0.667 0.776 0.439 edgecolor
newpath 1064 298 moveto
1086 293 1112 286 1133 281 curveto
stroke
0.667 0.776 0.439 edgecolor
newpath 1134.43 284.226 moveto
1143 278 lineto
1132.42 277.521 lineto
closepath fill
1 setlinewidth
solid
0.667 0.776 0.439 edgecolor
newpath 1134.43 284.226 moveto
1143 278 lineto
1132.42 277.521 lineto
closepath stroke
grestore
% Node13
gsave
[ /Rect [ 1257 261 1363 281 ]
  /Border [ 0 0 0 ]
  /Action << /Subtype /URI /URI ($Elias_8cpp.html#214c4fd6adcbe1fe7de47c4ba521198a) >>
  /Subtype /Link
/ANN pdfmark
[ /Rect [ 1257 261 1363 281 ]
  /Border [ 0 0 0 ]
  /Action << /Subtype /URI /URI ($Elias_8cpp.html#214c4fd6adcbe1fe7de47c4ba521198a) >>
  /Subtype /Link
/ANN pdfmark
1 setlinewidth
0.000 0.000 0.000 nodecolor
newpath 1257 260 moveto
1257 281 lineto
1364 281 lineto
1364 260 lineto
closepath stroke
0.000 0.000 0.000 nodecolor
10.00 /FreeSans.ttf set_font
1310 267 moveto 91 -0.5 (long_elias_gama) alignedtext
grestore
% Node12->Node13
gsave
1 setlinewidth
solid
0.667 0.776 0.439 edgecolor
newpath 1201 271 moveto
1214 271 1231 271 1247 271 curveto
stroke
0.667 0.776 0.439 edgecolor
newpath 1247 274.5 moveto
1257 271 lineto
1247 267.5 lineto
closepath fill
1 setlinewidth
solid
0.667 0.776 0.439 edgecolor
newpath 1247 274.5 moveto
1257 271 lineto
1247 267.5 lineto
closepath stroke
grestore
% Node13->Node9
gsave
1 setlinewidth
solid
0.667 0.776 0.439 edgecolor
newpath 1364 263 moveto
1376 261 1389 260 1401 258 curveto
stroke
0.667 0.776 0.439 edgecolor
newpath 1401.4 261.478 moveto
1411 257 lineto
1400.7 254.512 lineto
closepath fill
1 setlinewidth
solid
0.667 0.776 0.439 edgecolor
newpath 1401.4 261.478 moveto
1411 257 lineto
1400.7 254.512 lineto
closepath stroke
grestore
% Node15
gsave
[ /Rect [ 761 71 849 91 ]
  /Border [ 0 0 0 ]
  /Action << /Subtype /URI /URI ($comun_8cpp.html#88ffeb20e447cad877c37bb473033590) >>
  /Subtype /Link
/ANN pdfmark
[ /Rect [ 761 71 849 91 ]
  /Border [ 0 0 0 ]
  /Action << /Subtype /URI /URI ($comun_8cpp.html#88ffeb20e447cad877c37bb473033590) >>
  /Subtype /Link
/ANN pdfmark
1 setlinewidth
0.000 0.000 0.000 nodecolor
newpath 761 70 moveto
761 91 lineto
849 91 lineto
849 70 lineto
closepath stroke
0.000 0.000 0.000 nodecolor
10.00 /FreeSans.ttf set_font
805 77 moveto 72 -0.5 (errorFormato) alignedtext
grestore
% Node14->Node15
gsave
1 setlinewidth
solid
0.667 0.776 0.439 edgecolor
newpath 479 157 moveto
521 157 602 154 668 138 curveto
707 128 750 109 777 96 curveto
stroke
0.667 0.776 0.439 edgecolor
newpath 778.958 98.916 moveto
786 91 lineto
775.559 92.7969 lineto
closepath fill
1 setlinewidth
solid
0.667 0.776 0.439 edgecolor
newpath 778.958 98.916 moveto
786 91 lineto
775.559 92.7969 lineto
closepath stroke
grestore
% Node17
gsave
[ /Rect [ 579 33 639 53 ]
  /Border [ 0 0 0 ]
  /Action << /Subtype /URI /URI ($comun_8cpp.html#c7bf9e68bbdccea36ce786b806244ea1) >>
  /Subtype /Link
/ANN pdfmark
[ /Rect [ 579 33 639 53 ]
  /Border [ 0 0 0 ]
  /Action << /Subtype /URI /URI ($comun_8cpp.html#c7bf9e68bbdccea36ce786b806244ea1) >>
  /Subtype /Link
/ANN pdfmark
1 setlinewidth
0.000 0.000 0.000 nodecolor
newpath 579 32 moveto
579 53 lineto
639 53 lineto
639 32 lineto
closepath stroke
0.000 0.000 0.000 nodecolor
10.00 /FreeSans.ttf set_font
609 39 moveto 44 -0.5 (lee128b) alignedtext
grestore
% Node16->Node17
gsave
1 setlinewidth
solid
0.667 0.776 0.439 edgecolor
newpath 485 73 moveto
510 67 543 59 569 53 curveto
stroke
0.667 0.776 0.439 edgecolor
newpath 570.427 56.2259 moveto
579 50 lineto
568.416 49.5212 lineto
closepath fill
1 setlinewidth
solid
0.667 0.776 0.439 edgecolor
newpath 570.427 56.2259 moveto
579 50 lineto
568.416 49.5212 lineto
closepath stroke
grestore
% Node17->Node15
gsave
1 setlinewidth
solid
0.667 0.776 0.439 edgecolor
newpath 639 49 moveto
669 55 715 64 751 71 curveto
stroke
0.667 0.776 0.439 edgecolor
newpath 750.508 74.4708 moveto
761 73 lineto
751.881 67.6067 lineto
closepath fill
1 setlinewidth
solid
0.667 0.776 0.439 edgecolor
newpath 750.508 74.4708 moveto
761 73 lineto
751.881 67.6067 lineto
closepath stroke
grestore
% Node18->Node15
gsave
1 setlinewidth
solid
0.667 0.776 0.439 edgecolor
newpath 477 113 moveto
497 109 525 103 550 100 curveto
619 92 699 87 751 84 curveto
stroke
0.667 0.776 0.439 edgecolor
newpath 751.398 87.4778 moveto
761 83 lineto
750.701 80.5125 lineto
closepath fill
1 setlinewidth
solid
0.667 0.776 0.439 edgecolor
newpath 751.398 87.4778 moveto
761 83 lineto
750.701 80.5125 lineto
closepath stroke
grestore
% Node19
gsave
[ /Rect [ 556 109 662 129 ]
  /Border [ 0 0 0 ]
  /Action << /Subtype /URI /URI ($Elias_8cpp.html#95ee5a0ffb91f203612d2ce9d063ec36) >>
  /Subtype /Link
/ANN pdfmark
[ /Rect [ 556 109 662 129 ]
  /Border [ 0 0 0 ]
  /Action << /Subtype /URI /URI ($Elias_8cpp.html#95ee5a0ffb91f203612d2ce9d063ec36) >>
  /Subtype /Link
/ANN pdfmark
1 setlinewidth
0.000 0.000 0.000 nodecolor
newpath 556 108 moveto
556 129 lineto
662 129 lineto
662 108 lineto
closepath stroke
0.000 0.000 0.000 nodecolor
10.00 /FreeSans.ttf set_font
609 115 moveto 90 -0.5 (lee_elias_gama2) alignedtext
grestore
% Node18->Node19
gsave
1 setlinewidth
solid
0.667 0.776 0.439 edgecolor
newpath 477 119 moveto
495 119 521 119 546 119 curveto
stroke
0.667 0.776 0.439 edgecolor
newpath 546 122.5 moveto
556 119 lineto
546 115.5 lineto
closepath fill
1 setlinewidth
solid
0.667 0.776 0.439 edgecolor
newpath 546 122.5 moveto
556 119 lineto
546 115.5 lineto
closepath stroke
grestore
% Node19->Node15
gsave
1 setlinewidth
solid
0.667 0.776 0.439 edgecolor
newpath 662 109 moveto
690 104 724 97 751 91 curveto
stroke
0.667 0.776 0.439 edgecolor
newpath 751.881 94.3933 moveto
761 89 lineto
750.508 87.5292 lineto
closepath fill
1 setlinewidth
solid
0.667 0.776 0.439 edgecolor
newpath 751.881 94.3933 moveto
761 89 lineto
750.508 87.5292 lineto
closepath stroke
grestore
% Node20->Node15
gsave
1 setlinewidth
solid
0.667 0.776 0.439 edgecolor
newpath 330 90 moveto
337 88 345 85 352 82 curveto
369 76 371 69 388 62 curveto
506 17 545 0 668 24 curveto
707 32 750 51 776 65 curveto
stroke
0.667 0.776 0.439 edgecolor
newpath 774.559 68.2031 moveto
785 70 lineto
777.958 62.084 lineto
closepath fill
1 setlinewidth
solid
0.667 0.776 0.439 edgecolor
newpath 774.559 68.2031 moveto
785 70 lineto
777.958 62.084 lineto
closepath stroke
grestore
% Node20->Node16
gsave
1 setlinewidth
solid
0.667 0.776 0.439 edgecolor
newpath 336 95 moveto
358 92 385 89 407 86 curveto
stroke
0.667 0.776 0.439 edgecolor
newpath 407.398 89.4778 moveto
417 85 lineto
406.701 82.5125 lineto
closepath fill
1 setlinewidth
solid
0.667 0.776 0.439 edgecolor
newpath 407.398 89.4778 moveto
417 85 lineto
406.701 82.5125 lineto
closepath stroke
grestore
% Node20->Node18
gsave
1 setlinewidth
solid
0.667 0.776 0.439 edgecolor
newpath 336 107 moveto
362 110 393 113 416 115 curveto
stroke
0.667 0.776 0.439 edgecolor
newpath 415.701 118.488 moveto
426 116 lineto
416.398 111.522 lineto
closepath fill
1 setlinewidth
solid
0.667 0.776 0.439 edgecolor
newpath 415.701 118.488 moveto
426 116 lineto
416.398 111.522 lineto
closepath stroke
grestore
% Node20->Node20
gsave
1 setlinewidth
solid
0.667 0.776 0.439 edgecolor
newpath 233 111 moveto
208 119 225 129 284 129 curveto
331 129 351 123 345 116 curveto
stroke
0.667 0.776 0.439 edgecolor
newpath 346.441 112.797 moveto
336 111 lineto
343.042 118.916 lineto
closepath fill
1 setlinewidth
solid
0.667 0.776 0.439 edgecolor
newpath 346.441 112.797 moveto
336 111 lineto
343.042 118.916 lineto
closepath stroke
grestore
% Node22
gsave
[ /Rect [ 389 261 513 281 ]
  /Border [ 0 0 0 ]
  /Action << /Subtype /URI /URI ($RamDisco_8cpp.html#f0c232886a7851d8db3a647add9ae455) >>
  /Subtype /Link
/ANN pdfmark
[ /Rect [ 389 261 513 281 ]
  /Border [ 0 0 0 ]
  /Action << /Subtype /URI /URI ($RamDisco_8cpp.html#f0c232886a7851d8db3a647add9ae455) >>
  /Subtype /Link
/ANN pdfmark
1 setlinewidth
0.000 0.000 0.000 nodecolor
newpath 389 260 moveto
389 281 lineto
514 281 lineto
514 260 lineto
closepath stroke
0.000 0.000 0.000 nodecolor
10.00 /FreeSans.ttf set_font
451 267 moveto 109 -0.5 (escribePlanoStream) alignedtext
grestore
% Node21->Node22
gsave
1 setlinewidth
solid
0.667 0.776 0.439 edgecolor
newpath 313 220 moveto
325 223 340 227 352 232 curveto
369 237 372 240 388 247 curveto
396 250 404 253 413 256 curveto
stroke
0.667 0.776 0.439 edgecolor
newpath 411.44 259.137 moveto
422 260 lineto
414.283 252.74 lineto
closepath fill
1 setlinewidth
solid
0.667 0.776 0.439 edgecolor
newpath 411.44 259.137 moveto
422 260 lineto
414.283 252.74 lineto
closepath stroke
grestore
% Node22->Node6
gsave
1 setlinewidth
solid
0.667 0.776 0.439 edgecolor
newpath 497 260 moveto
517 256 539 250 558 245 curveto
stroke
0.667 0.776 0.439 edgecolor
newpath 558.881 248.393 moveto
568 243 lineto
557.508 241.529 lineto
closepath fill
1 setlinewidth
solid
0.667 0.776 0.439 edgecolor
newpath 558.881 248.393 moveto
568 243 lineto
557.508 241.529 lineto
closepath stroke
grestore
% Node22->Node10
gsave
1 setlinewidth
solid
0.667 0.776 0.439 edgecolor
newpath 460 281 moveto
476 299 512 333 550 346 curveto
704 397 899 347 981 322 curveto
stroke
0.667 0.776 0.439 edgecolor
newpath 982.427 325.226 moveto
991 319 lineto
980.416 318.521 lineto
closepath fill
1 setlinewidth
solid
0.667 0.776 0.439 edgecolor
newpath 982.427 325.226 moveto
991 319 lineto
980.416 318.521 lineto
closepath stroke
grestore
% Node23
gsave
[ /Rect [ 551 299 667 319 ]
  /Border [ 0 0 0 ]
  /Action << /Subtype /URI /URI ($RamDisco_8cpp.html#6b1b44682de6eb9fccd3df71e404154a) >>
  /Subtype /Link
/ANN pdfmark
[ /Rect [ 551 299 667 319 ]
  /Border [ 0 0 0 ]
  /Action << /Subtype /URI /URI ($RamDisco_8cpp.html#6b1b44682de6eb9fccd3df71e404154a) >>
  /Subtype /Link
/ANN pdfmark
1 setlinewidth
0.000 0.000 0.000 nodecolor
newpath 551 298 moveto
551 319 lineto
668 319 lineto
668 298 lineto
closepath stroke
0.000 0.000 0.000 nodecolor
10.00 /FreeSans.ttf set_font
609 305 moveto 101 -0.5 (precalcula_escribe) alignedtext
grestore
% Node22->Node23
gsave
1 setlinewidth
solid
0.667 0.776 0.439 edgecolor
newpath 493 281 moveto
512 285 534 291 554 296 curveto
stroke
0.667 0.776 0.439 edgecolor
newpath 553.508 299.471 moveto
564 298 lineto
554.881 292.607 lineto
closepath fill
1 setlinewidth
solid
0.667 0.776 0.439 edgecolor
newpath 553.508 299.471 moveto
564 298 lineto
554.881 292.607 lineto
closepath stroke
grestore
% Node24
gsave
[ /Rect [ 704 299 906 319 ]
  /Border [ 0 0 0 ]
  /Action << /Subtype /URI /URI ($RamDisco_8cpp.html#5b79fc3f073aeb2481fb1d51274a52a6) >>
  /Subtype /Link
/ANN pdfmark
[ /Rect [ 704 299 906 319 ]
  /Border [ 0 0 0 ]
  /Action << /Subtype /URI /URI ($RamDisco_8cpp.html#5b79fc3f073aeb2481fb1d51274a52a6) >>
  /Subtype /Link
/ANN pdfmark
1 setlinewidth
0.000 0.000 0.000 nodecolor
newpath 704 298 moveto
704 319 lineto
906 319 lineto
906 298 lineto
closepath stroke
0.000 0.000 0.000 nodecolor
10.00 /FreeSans.ttf set_font
805 305 moveto 186 -0.5 (precalcula_escribe_con_hermanos) alignedtext
grestore
% Node22->Node24
gsave
1 setlinewidth
solid
0.667 0.776 0.439 edgecolor
newpath 514 276 moveto
558 279 616 284 668 290 curveto
687 292 706 294 724 297 curveto
stroke
0.667 0.776 0.439 edgecolor
newpath 723.701 300.488 moveto
734 298 lineto
724.398 293.522 lineto
closepath fill
1 setlinewidth
solid
0.667 0.776 0.439 edgecolor
newpath 723.701 300.488 moveto
734 298 lineto
724.398 293.522 lineto
closepath stroke
grestore
% Node23->Node23
gsave
1 setlinewidth
solid
0.667 0.776 0.439 edgecolor
newpath 559 319 moveto
537 328 554 337 609 337 curveto
653 337 673 331 668 324 curveto
stroke
0.667 0.776 0.439 edgecolor
newpath 669.441 320.797 moveto
659 319 lineto
666.042 326.916 lineto
closepath fill
1 setlinewidth
solid
0.667 0.776 0.439 edgecolor
newpath 669.441 320.797 moveto
659 319 lineto
666.042 326.916 lineto
closepath stroke
grestore
% Node23->Node24
gsave
1 setlinewidth
solid
0.667 0.776 0.439 edgecolor
newpath 668 309 moveto
676 309 685 309 694 309 curveto
stroke
0.667 0.776 0.439 edgecolor
newpath 694 312.5 moveto
704 309 lineto
694 305.5 lineto
closepath fill
1 setlinewidth
solid
0.667 0.776 0.439 edgecolor
newpath 694 312.5 moveto
704 309 lineto
694 305.5 lineto
closepath stroke
grestore
% Node24->Node10
gsave
1 setlinewidth
solid
0.667 0.776 0.439 edgecolor
newpath 906 309 moveto
915 309 923 309 932 309 curveto
stroke
0.667 0.776 0.439 edgecolor
newpath 932 312.5 moveto
942 309 lineto
932 305.5 lineto
closepath fill
1 setlinewidth
solid
0.667 0.776 0.439 edgecolor
newpath 932 312.5 moveto
942 309 lineto
932 305.5 lineto
closepath stroke
grestore
% Node25->Node25
gsave
1 setlinewidth
solid
0.667 0.776 0.439 edgecolor
newpath 232 55 moveto
209 64 226 73 284 73 curveto
331 73 351 67 345 60 curveto
stroke
0.667 0.776 0.439 edgecolor
newpath 346.441 56.7969 moveto
336 55 lineto
343.042 62.916 lineto
closepath fill
1 setlinewidth
solid
0.667 0.776 0.439 edgecolor
newpath 346.441 56.7969 moveto
336 55 lineto
343.042 62.916 lineto
closepath stroke
grestore
endpage
showpage
grestore
%%PageTrailer
%%EndPage: 1
%%Trailer
%%Pages: 1
%%BoundingBox: 36 36 1528 441
end
restore
%%EOF
