%!PS-Adobe-2.0
%%Creator: Graphviz version 2.12 (Mon Nov 16 18:34:03 UTC 2009)
%%For: (vtamara) Vladimir
%%Title: G
%%Pages: (atend)
%%BoundingBox: (atend)
%%EndComments
save
%%BeginProlog
/DotDict 200 dict def
DotDict begin

/setupLatin1 {
mark
/EncodingVector 256 array def
 EncodingVector 0

ISOLatin1Encoding 0 255 getinterval putinterval
EncodingVector 45 /hyphen put

% Set up ISO Latin 1 character encoding
/starnetISO {
        dup dup findfont dup length dict begin
        { 1 index /FID ne { def }{ pop pop } ifelse
        } forall
        /Encoding EncodingVector def
        currentdict end definefont
} def
/Times-Roman starnetISO def
/Times-Italic starnetISO def
/Times-Bold starnetISO def
/Times-BoldItalic starnetISO def
/Helvetica starnetISO def
/Helvetica-Oblique starnetISO def
/Helvetica-Bold starnetISO def
/Helvetica-BoldOblique starnetISO def
/Courier starnetISO def
/Courier-Oblique starnetISO def
/Courier-Bold starnetISO def
/Courier-BoldOblique starnetISO def
cleartomark
} bind def

%%BeginResource: procset graphviz 0 0
/coord-font-family /Times-Roman def
/default-font-family /Times-Roman def
/coordfont coord-font-family findfont 8 scalefont def

/InvScaleFactor 1.0 def
/set_scale {
       dup 1 exch div /InvScaleFactor exch def
       scale
} bind def

% styles
/solid { [] 0 setdash } bind def
/dashed { [9 InvScaleFactor mul dup ] 0 setdash } bind def
/dotted { [1 InvScaleFactor mul 6 InvScaleFactor mul] 0 setdash } bind def
/invis {/fill {newpath} def /stroke {newpath} def /show {pop newpath} def} bind def
/bold { 2 setlinewidth } bind def
/filled { } bind def
/unfilled { } bind def
/rounded { } bind def
/diagonals { } bind def

% hooks for setting color 
/nodecolor { sethsbcolor } bind def
/edgecolor { sethsbcolor } bind def
/graphcolor { sethsbcolor } bind def
/nopcolor {pop pop pop} bind def

/beginpage {	% i j npages
	/npages exch def
	/j exch def
	/i exch def
	/str 10 string def
	npages 1 gt {
		gsave
			coordfont setfont
			0 0 moveto
			(\() show i str cvs show (,) show j str cvs show (\)) show
		grestore
	} if
} bind def

/set_font {
	findfont exch
	scalefont setfont
} def

% draw aligned label in bounding box aligned to current point
/alignedtext {			% width adj text
	/text exch def
	/adj exch def
	/width exch def
	gsave
		width 0 gt {
			text stringwidth pop adj mul 0 rmoveto
		} if
		[] 0 setdash
		text show
	grestore
} def

/boxprim {				% xcorner ycorner xsize ysize
		4 2 roll
		moveto
		2 copy
		exch 0 rlineto
		0 exch rlineto
		pop neg 0 rlineto
		closepath
} bind def

/ellipse_path {
	/ry exch def
	/rx exch def
	/y exch def
	/x exch def
	matrix currentmatrix
	newpath
	x y translate
	rx ry scale
	0 0 1 0 360 arc
	setmatrix
} bind def

/endpage { showpage } bind def
/showpage { } def

/layercolorseq
	[	% layer color sequence - darkest to lightest
		[0 0 0]
		[.2 .8 .8]
		[.4 .8 .8]
		[.6 .8 .8]
		[.8 .8 .8]
	]
def

/layerlen layercolorseq length def

/setlayer {/maxlayer exch def /curlayer exch def
	layercolorseq curlayer 1 sub layerlen mod get
	aload pop sethsbcolor
	/nodecolor {nopcolor} def
	/edgecolor {nopcolor} def
	/graphcolor {nopcolor} def
} bind def

/onlayer { curlayer ne {invis} if } def

/onlayers {
	/myupper exch def
	/mylower exch def
	curlayer mylower lt
	curlayer myupper gt
	or
	{invis} if
} def

/curlayer 0 def

%%EndResource
%%EndProlog
%%BeginSetup
14 default-font-family set_font
1 setmiterlimit
% /arrowlength 10 def
% /arrowwidth 5 def

% make sure pdfmark is harmless for PS-interpreters other than Distiller
/pdfmark where {pop} {userdict /pdfmark /cleartomark load put} ifelse
% make '<<' and '>>' safe on PS Level 1 devices
/languagelevel where {pop languagelevel}{1} ifelse
2 lt {
    userdict (<<) cvn ([) cvn load put
    userdict (>>) cvn ([) cvn load put
} if

%%EndSetup
setupLatin1
%%Page: 1 1
%%PageBoundingBox: 36 36 822 201
%%PageOrientation: Portrait
gsave
36 36 822 201 boxprim clip newpath
0 0 1 beginpage
1 1 set_scale 0 rotate 40 40 translate
% Node1
gsave
0.000 0.000 0.749 nodecolor
newpath 1 56 moveto
1 77 lineto
96 77 lineto
96 56 lineto
closepath fill
1 setlinewidth
filled
0.000 0.000 0.000 nodecolor
newpath 1 56 moveto
1 77 lineto
96 77 lineto
96 56 lineto
closepath stroke
0.000 0.000 0.000 nodecolor
10.00 /FreeSans.ttf set_font
48 63 moveto 79 -0.5 (prueba_leePos) alignedtext
grestore
% Node2
gsave
[ /Rect [ 150 123 222 143 ]
  /Border [ 0 0 0 ]
  /Action << /Subtype /URI /URI ($Pos_8cpp.html#42c2daaa880eeb397c024b6ffa22c8cf) >>
  /Subtype /Link
/ANN pdfmark
[ /Rect [ 150 123 222 143 ]
  /Border [ 0 0 0 ]
  /Action << /Subtype /URI /URI ($Pos_8cpp.html#42c2daaa880eeb397c024b6ffa22c8cf) >>
  /Subtype /Link
/ANN pdfmark
1 setlinewidth
0.000 0.000 0.000 nodecolor
newpath 150 122 moveto
150 143 lineto
223 143 lineto
223 122 lineto
closepath stroke
0.000 0.000 0.000 nodecolor
10.00 /FreeSans.ttf set_font
186 129 moveto 57 -0.5 (escribePos) alignedtext
grestore
% Node1->Node2
gsave
1 setlinewidth
solid
0.667 0.776 0.439 edgecolor
newpath 69 77 moveto
92 88 128 105 154 118 curveto
stroke
0.667 0.776 0.439 edgecolor
newpath 152.44 121.137 moveto
163 122 lineto
155.283 114.74 lineto
closepath fill
1 setlinewidth
solid
0.667 0.776 0.439 edgecolor
newpath 152.44 121.137 moveto
163 122 lineto
155.283 114.74 lineto
closepath stroke
grestore
% Node5
gsave
[ /Rect [ 161 76 211 96 ]
  /Border [ 0 0 0 ]
  /Action << /Subtype /URI /URI ($Pos_8cpp.html#36b67a50cba6dc1789825a3111bee9d2) >>
  /Subtype /Link
/ANN pdfmark
[ /Rect [ 161 76 211 96 ]
  /Border [ 0 0 0 ]
  /Action << /Subtype /URI /URI ($Pos_8cpp.html#36b67a50cba6dc1789825a3111bee9d2) >>
  /Subtype /Link
/ANN pdfmark
1 setlinewidth
0.000 0.000 0.000 nodecolor
newpath 161 75 moveto
161 96 lineto
212 96 lineto
212 75 lineto
closepath stroke
0.000 0.000 0.000 nodecolor
10.00 /FreeSans.ttf set_font
186 82 moveto 35 -0.5 (leePos) alignedtext
grestore
% Node1->Node5
gsave
1 setlinewidth
solid
0.667 0.776 0.439 edgecolor
newpath 96 74 moveto
114 76 134 79 151 81 curveto
stroke
0.667 0.776 0.439 edgecolor
newpath 150.508 84.4708 moveto
161 83 lineto
151.881 77.6067 lineto
closepath fill
1 setlinewidth
solid
0.667 0.776 0.439 edgecolor
newpath 150.508 84.4708 moveto
161 83 lineto
151.881 77.6067 lineto
closepath stroke
grestore
% Node8
gsave
[ /Rect [ 162 38 210 58 ]
  /Border [ 0 0 0 ]
  /Action << /Subtype /URI /URI ($PosCasoPrueba_8cpp.html#b42ceeabd5568b9858676b952fabbdd7) >>
  /Subtype /Link
/ANN pdfmark
[ /Rect [ 162 38 210 58 ]
  /Border [ 0 0 0 ]
  /Action << /Subtype /URI /URI ($PosCasoPrueba_8cpp.html#b42ceeabd5568b9858676b952fabbdd7) >>
  /Subtype /Link
/ANN pdfmark
1 setlinewidth
0.000 0.000 0.000 nodecolor
newpath 162 37 moveto
162 58 lineto
211 58 lineto
211 37 lineto
closepath stroke
0.000 0.000 0.000 nodecolor
10.00 /FreeSans.ttf set_font
186 44 moveto 33 -0.5 (numC) alignedtext
grestore
% Node1->Node8
gsave
1 setlinewidth
solid
0.667 0.776 0.439 edgecolor
newpath 96 60 moveto
114 58 135 55 152 53 curveto
stroke
0.667 0.776 0.439 edgecolor
newpath 152.881 56.3933 moveto
162 51 lineto
151.508 49.5292 lineto
closepath fill
1 setlinewidth
solid
0.667 0.776 0.439 edgecolor
newpath 152.881 56.3933 moveto
162 51 lineto
151.508 49.5292 lineto
closepath stroke
grestore
% Node14
gsave
[ /Rect [ 132 0 240 20 ]
  /Border [ 0 0 0 ]
  /Action << /Subtype /URI /URI ($PosCasoPrueba_8cpp.html#6eba9ea107be1e319b7bf3e0b9b1ade4) >>
  /Subtype /Link
/ANN pdfmark
[ /Rect [ 132 0 240 20 ]
  /Border [ 0 0 0 ]
  /Action << /Subtype /URI /URI ($PosCasoPrueba_8cpp.html#6eba9ea107be1e319b7bf3e0b9b1ade4) >>
  /Subtype /Link
/ANN pdfmark
1 setlinewidth
0.000 0.000 0.000 nodecolor
newpath 132 -1 moveto
132 20 lineto
240 20 lineto
240 -1 lineto
closepath stroke
0.000 0.000 0.000 nodecolor
10.00 /FreeSans.ttf set_font
186 6 moveto 92 -0.5 (posAstringYBorra) alignedtext
grestore
% Node1->Node14
gsave
1 setlinewidth
solid
0.667 0.776 0.439 edgecolor
newpath 71 56 moveto
88 48 111 37 132 29 curveto
137 27 142 25 147 24 curveto
stroke
0.667 0.776 0.439 edgecolor
newpath 149.015 26.9636 moveto
157 20 lineto
146.415 20.4643 lineto
closepath fill
1 setlinewidth
solid
0.667 0.776 0.439 edgecolor
newpath 149.015 26.9636 moveto
157 20 lineto
146.415 20.4643 lineto
closepath stroke
grestore
% Node3
gsave
[ /Rect [ 434 137 562 157 ]
  /Border [ 0 0 0 ]
  /Action << /Subtype /URI /URI ($Elias_8cpp.html#59732ce42a1e75fbbb382a6964ef4620) >>
  /Subtype /Link
/ANN pdfmark
[ /Rect [ 434 137 562 157 ]
  /Border [ 0 0 0 ]
  /Action << /Subtype /URI /URI ($Elias_8cpp.html#59732ce42a1e75fbbb382a6964ef4620) >>
  /Subtype /Link
/ANN pdfmark
1 setlinewidth
0.000 0.000 0.000 nodecolor
newpath 434 136 moveto
434 157 lineto
562 157 lineto
562 136 lineto
closepath stroke
0.000 0.000 0.000 nodecolor
10.00 /FreeSans.ttf set_font
498 143 moveto 112 -0.5 (escribe_elias_gama2) alignedtext
grestore
% Node2->Node3
gsave
1 setlinewidth
solid
0.667 0.776 0.439 edgecolor
newpath 223 135 moveto
272 137 360 141 424 144 curveto
stroke
0.667 0.776 0.439 edgecolor
newpath 424 147.5 moveto
434 144 lineto
424 140.5 lineto
closepath fill
1 setlinewidth
solid
0.667 0.776 0.439 edgecolor
newpath 424 147.5 moveto
434 144 lineto
424 140.5 lineto
closepath stroke
grestore
% Node4
gsave
[ /Rect [ 614 128 686 148 ]
  /Border [ 0 0 0 ]
  /Action << /Subtype /URI /URI ($Elias_8cpp.html#7127ec8dff13cc2ad873693ca8933d38) >>
  /Subtype /Link
/ANN pdfmark
[ /Rect [ 614 128 686 148 ]
  /Border [ 0 0 0 ]
  /Action << /Subtype /URI /URI ($Elias_8cpp.html#7127ec8dff13cc2ad873693ca8933d38) >>
  /Subtype /Link
/ANN pdfmark
1 setlinewidth
0.000 0.000 0.000 nodecolor
newpath 614 127 moveto
614 148 lineto
687 148 lineto
687 127 lineto
closepath stroke
0.000 0.000 0.000 nodecolor
10.00 /FreeSans.ttf set_font
650 134 moveto 57 -0.5 (piso_logb2) alignedtext
grestore
% Node3->Node4
gsave
1 setlinewidth
solid
0.667 0.776 0.439 edgecolor
newpath 562 143 moveto
576 142 590 141 604 141 curveto
stroke
0.667 0.776 0.439 edgecolor
newpath 604.398 144.478 moveto
614 140 lineto
603.701 137.512 lineto
closepath fill
1 setlinewidth
solid
0.667 0.776 0.439 edgecolor
newpath 604.398 144.478 moveto
614 140 lineto
603.701 137.512 lineto
closepath stroke
grestore
% Node6
gsave
[ /Rect [ 454 99 542 119 ]
  /Border [ 0 0 0 ]
  /Action << /Subtype /URI /URI ($comun_8cpp.html#88ffeb20e447cad877c37bb473033590) >>
  /Subtype /Link
/ANN pdfmark
[ /Rect [ 454 99 542 119 ]
  /Border [ 0 0 0 ]
  /Action << /Subtype /URI /URI ($comun_8cpp.html#88ffeb20e447cad877c37bb473033590) >>
  /Subtype /Link
/ANN pdfmark
1 setlinewidth
0.000 0.000 0.000 nodecolor
newpath 454 98 moveto
454 119 lineto
542 119 lineto
542 98 lineto
closepath stroke
0.000 0.000 0.000 nodecolor
10.00 /FreeSans.ttf set_font
498 105 moveto 72 -0.5 (errorFormato) alignedtext
grestore
% Node5->Node6
gsave
1 setlinewidth
solid
0.667 0.776 0.439 edgecolor
newpath 212 89 moveto
230 90 255 93 276 95 curveto
334 100 399 103 444 106 curveto
stroke
0.667 0.776 0.439 edgecolor
newpath 443.701 109.488 moveto
454 107 lineto
444.398 102.522 lineto
closepath fill
1 setlinewidth
solid
0.667 0.776 0.439 edgecolor
newpath 443.701 109.488 moveto
454 107 lineto
444.398 102.522 lineto
closepath stroke
grestore
% Node7
gsave
[ /Rect [ 284 66 390 86 ]
  /Border [ 0 0 0 ]
  /Action << /Subtype /URI /URI ($Elias_8cpp.html#95ee5a0ffb91f203612d2ce9d063ec36) >>
  /Subtype /Link
/ANN pdfmark
[ /Rect [ 284 66 390 86 ]
  /Border [ 0 0 0 ]
  /Action << /Subtype /URI /URI ($Elias_8cpp.html#95ee5a0ffb91f203612d2ce9d063ec36) >>
  /Subtype /Link
/ANN pdfmark
1 setlinewidth
0.000 0.000 0.000 nodecolor
newpath 284 65 moveto
284 86 lineto
390 86 lineto
390 65 lineto
closepath stroke
0.000 0.000 0.000 nodecolor
10.00 /FreeSans.ttf set_font
337 72 moveto 90 -0.5 (lee_elias_gama2) alignedtext
grestore
% Node5->Node7
gsave
1 setlinewidth
solid
0.667 0.776 0.439 edgecolor
newpath 212 84 moveto
229 83 252 82 274 80 curveto
stroke
0.667 0.776 0.439 edgecolor
newpath 274.398 83.4778 moveto
284 79 lineto
273.701 76.5125 lineto
closepath fill
1 setlinewidth
solid
0.667 0.776 0.439 edgecolor
newpath 274.398 83.4778 moveto
284 79 lineto
273.701 76.5125 lineto
closepath stroke
grestore
% Node7->Node6
gsave
1 setlinewidth
solid
0.667 0.776 0.439 edgecolor
newpath 386 86 moveto
405 90 425 94 444 98 curveto
stroke
0.667 0.776 0.439 edgecolor
newpath 443.508 101.471 moveto
454 100 lineto
444.881 94.6067 lineto
closepath fill
1 setlinewidth
solid
0.667 0.776 0.439 edgecolor
newpath 443.508 101.471 moveto
454 100 lineto
444.881 94.6067 lineto
closepath stroke
grestore
% Node9
gsave
[ /Rect [ 276 28 398 48 ]
  /Border [ 0 0 0 ]
  /Action << /Subtype /URI /URI ($Elias_8cpp.html#d6e0c2eca1e4ac05de2acccdc80e79f4) >>
  /Subtype /Link
/ANN pdfmark
[ /Rect [ 276 28 398 48 ]
  /Border [ 0 0 0 ]
  /Action << /Subtype /URI /URI ($Elias_8cpp.html#d6e0c2eca1e4ac05de2acccdc80e79f4) >>
  /Subtype /Link
/ANN pdfmark
1 setlinewidth
0.000 0.000 0.000 nodecolor
newpath 276 27 moveto
276 48 lineto
398 48 lineto
398 27 lineto
closepath stroke
0.000 0.000 0.000 nodecolor
10.00 /FreeSans.ttf set_font
337 34 moveto 106 -0.5 (escribe_elias_gama) alignedtext
grestore
% Node8->Node9
gsave
1 setlinewidth
solid
0.667 0.776 0.439 edgecolor
newpath 211 46 moveto
226 45 246 44 266 42 curveto
stroke
0.667 0.776 0.439 edgecolor
newpath 266 45.5001 moveto
276 42 lineto
266 38.5001 lineto
closepath fill
1 setlinewidth
solid
0.667 0.776 0.439 edgecolor
newpath 266 45.5001 moveto
276 42 lineto
266 38.5001 lineto
closepath stroke
grestore
% Node10
gsave
[ /Rect [ 435 47 561 67 ]
  /Border [ 0 0 0 ]
  /Action << /Subtype /URI /URI ($Elias_8cpp.html#fca0b551bec0af966adde95d2402901c) >>
  /Subtype /Link
/ANN pdfmark
[ /Rect [ 435 47 561 67 ]
  /Border [ 0 0 0 ]
  /Action << /Subtype /URI /URI ($Elias_8cpp.html#fca0b551bec0af966adde95d2402901c) >>
  /Subtype /Link
/ANN pdfmark
1 setlinewidth
0.000 0.000 0.000 nodecolor
newpath 435 46 moveto
435 67 lineto
561 67 lineto
561 46 lineto
closepath stroke
0.000 0.000 0.000 nodecolor
10.00 /FreeSans.ttf set_font
498 53 moveto 110 -0.5 (codifica_elias_gama) alignedtext
grestore
% Node9->Node10
gsave
1 setlinewidth
solid
0.667 0.776 0.439 edgecolor
newpath 398 45 moveto
407 46 416 47 425 49 curveto
stroke
0.667 0.776 0.439 edgecolor
newpath 424.701 52.4875 moveto
435 50 lineto
425.398 45.5222 lineto
closepath fill
1 setlinewidth
solid
0.667 0.776 0.439 edgecolor
newpath 424.701 52.4875 moveto
435 50 lineto
425.398 45.5222 lineto
closepath stroke
grestore
% Node10->Node4
gsave
1 setlinewidth
solid
0.667 0.776 0.439 edgecolor
newpath 520 67 moveto
532 73 548 82 562 90 curveto
579 99 582 104 598 114 curveto
604 117 610 120 616 123 curveto
stroke
0.667 0.776 0.439 edgecolor
newpath 614.44 126.137 moveto
625 127 lineto
617.283 119.74 lineto
closepath fill
1 setlinewidth
solid
0.667 0.776 0.439 edgecolor
newpath 614.44 126.137 moveto
625 127 lineto
617.283 119.74 lineto
closepath stroke
grestore
% Node11
gsave
[ /Rect [ 601 85 699 105 ]
  /Border [ 0 0 0 ]
  /Action << /Subtype /URI /URI ($Elias_8cpp.html#87b59b9c1b4563ae420c8b155da85aef) >>
  /Subtype /Link
/ANN pdfmark
[ /Rect [ 601 85 699 105 ]
  /Border [ 0 0 0 ]
  /Action << /Subtype /URI /URI ($Elias_8cpp.html#87b59b9c1b4563ae420c8b155da85aef) >>
  /Subtype /Link
/ANN pdfmark
1 setlinewidth
0.000 0.000 0.000 nodecolor
newpath 601 84 moveto
601 105 lineto
700 105 lineto
700 84 lineto
closepath stroke
0.000 0.000 0.000 nodecolor
10.00 /FreeSans.ttf set_font
650 91 moveto 83 -0.5 (codifica_unario) alignedtext
grestore
% Node10->Node11
gsave
1 setlinewidth
solid
0.667 0.776 0.439 edgecolor
newpath 538 67 moveto
556 71 577 77 596 82 curveto
stroke
0.667 0.776 0.439 edgecolor
newpath 595.508 85.4708 moveto
606 84 lineto
596.881 78.6067 lineto
closepath fill
1 setlinewidth
solid
0.667 0.776 0.439 edgecolor
newpath 595.508 85.4708 moveto
606 84 lineto
596.881 78.6067 lineto
closepath stroke
grestore
% Node12
gsave
[ /Rect [ 598 47 702 67 ]
  /Border [ 0 0 0 ]
  /Action << /Subtype /URI /URI ($Elias_8cpp.html#8e0a4534c26e33b9043d237aab0d9f59) >>
  /Subtype /Link
/ANN pdfmark
[ /Rect [ 598 47 702 67 ]
  /Border [ 0 0 0 ]
  /Action << /Subtype /URI /URI ($Elias_8cpp.html#8e0a4534c26e33b9043d237aab0d9f59) >>
  /Subtype /Link
/ANN pdfmark
1 setlinewidth
0.000 0.000 0.000 nodecolor
newpath 598 46 moveto
598 67 lineto
702 67 lineto
702 46 lineto
closepath stroke
0.000 0.000 0.000 nodecolor
10.00 /FreeSans.ttf set_font
650 53 moveto 88 -0.5 (pone_un_entero) alignedtext
grestore
% Node10->Node12
gsave
1 setlinewidth
solid
0.667 0.776 0.439 edgecolor
newpath 561 57 moveto
570 57 579 57 588 57 curveto
stroke
0.667 0.776 0.439 edgecolor
newpath 588 60.5001 moveto
598 57 lineto
588 53.5001 lineto
closepath fill
1 setlinewidth
solid
0.667 0.776 0.439 edgecolor
newpath 588 60.5001 moveto
598 57 lineto
588 53.5001 lineto
closepath stroke
grestore
% Node13
gsave
[ /Rect [ 738 28 778 48 ]
  /Border [ 0 0 0 ]
  /Action << /Subtype /URI /URI ($Elias_8cpp.html#c268bba1057c593ac6dcfa6bf1ada057) >>
  /Subtype /Link
/ANN pdfmark
[ /Rect [ 738 28 778 48 ]
  /Border [ 0 0 0 ]
  /Action << /Subtype /URI /URI ($Elias_8cpp.html#c268bba1057c593ac6dcfa6bf1ada057) >>
  /Subtype /Link
/ANN pdfmark
1 setlinewidth
0.000 0.000 0.000 nodecolor
newpath 738 27 moveto
738 48 lineto
778 48 lineto
778 27 lineto
closepath stroke
0.000 0.000 0.000 nodecolor
10.00 /FreeSans.ttf set_font
758 34 moveto 24 -0.5 (pot2) alignedtext
grestore
% Node10->Node13
gsave
1 setlinewidth
solid
0.667 0.776 0.439 edgecolor
newpath 546 46 moveto
562 43 581 40 598 38 curveto
643 34 695 36 728 37 curveto
stroke
0.667 0.776 0.439 edgecolor
newpath 728 40.5001 moveto
738 37 lineto
728 33.5001 lineto
closepath fill
1 setlinewidth
solid
0.667 0.776 0.439 edgecolor
newpath 728 40.5001 moveto
738 37 lineto
728 33.5001 lineto
closepath stroke
grestore
% Node12->Node13
gsave
1 setlinewidth
solid
0.667 0.776 0.439 edgecolor
newpath 702 48 moveto
711 47 720 45 728 43 curveto
stroke
0.667 0.776 0.439 edgecolor
newpath 728.398 46.4778 moveto
738 42 lineto
727.701 39.5125 lineto
closepath fill
1 setlinewidth
solid
0.667 0.776 0.439 edgecolor
newpath 728.398 46.4778 moveto
738 42 lineto
727.701 39.5125 lineto
closepath stroke
grestore
endpage
showpage
grestore
%%PageTrailer
%%EndPage: 1
%%Trailer
%%Pages: 1
%%BoundingBox: 36 36 822 201
end
restore
%%EOF
