%!PS-Adobe-2.0
%%Creator: Graphviz version 2.12 (Mon Nov 16 18:34:03 UTC 2009)
%%For: (vtamara) Vladimir
%%Title: G
%%Pages: (atend)
%%BoundingBox: (atend)
%%EndComments
save
%%BeginProlog
/DotDict 200 dict def
DotDict begin

/setupLatin1 {
mark
/EncodingVector 256 array def
 EncodingVector 0

ISOLatin1Encoding 0 255 getinterval putinterval
EncodingVector 45 /hyphen put

% Set up ISO Latin 1 character encoding
/starnetISO {
        dup dup findfont dup length dict begin
        { 1 index /FID ne { def }{ pop pop } ifelse
        } forall
        /Encoding EncodingVector def
        currentdict end definefont
} def
/Times-Roman starnetISO def
/Times-Italic starnetISO def
/Times-Bold starnetISO def
/Times-BoldItalic starnetISO def
/Helvetica starnetISO def
/Helvetica-Oblique starnetISO def
/Helvetica-Bold starnetISO def
/Helvetica-BoldOblique starnetISO def
/Courier starnetISO def
/Courier-Oblique starnetISO def
/Courier-Bold starnetISO def
/Courier-BoldOblique starnetISO def
cleartomark
} bind def

%%BeginResource: procset graphviz 0 0
/coord-font-family /Times-Roman def
/default-font-family /Times-Roman def
/coordfont coord-font-family findfont 8 scalefont def

/InvScaleFactor 1.0 def
/set_scale {
       dup 1 exch div /InvScaleFactor exch def
       scale
} bind def

% styles
/solid { [] 0 setdash } bind def
/dashed { [9 InvScaleFactor mul dup ] 0 setdash } bind def
/dotted { [1 InvScaleFactor mul 6 InvScaleFactor mul] 0 setdash } bind def
/invis {/fill {newpath} def /stroke {newpath} def /show {pop newpath} def} bind def
/bold { 2 setlinewidth } bind def
/filled { } bind def
/unfilled { } bind def
/rounded { } bind def
/diagonals { } bind def

% hooks for setting color 
/nodecolor { sethsbcolor } bind def
/edgecolor { sethsbcolor } bind def
/graphcolor { sethsbcolor } bind def
/nopcolor {pop pop pop} bind def

/beginpage {	% i j npages
	/npages exch def
	/j exch def
	/i exch def
	/str 10 string def
	npages 1 gt {
		gsave
			coordfont setfont
			0 0 moveto
			(\() show i str cvs show (,) show j str cvs show (\)) show
		grestore
	} if
} bind def

/set_font {
	findfont exch
	scalefont setfont
} def

% draw aligned label in bounding box aligned to current point
/alignedtext {			% width adj text
	/text exch def
	/adj exch def
	/width exch def
	gsave
		width 0 gt {
			text stringwidth pop adj mul 0 rmoveto
		} if
		[] 0 setdash
		text show
	grestore
} def

/boxprim {				% xcorner ycorner xsize ysize
		4 2 roll
		moveto
		2 copy
		exch 0 rlineto
		0 exch rlineto
		pop neg 0 rlineto
		closepath
} bind def

/ellipse_path {
	/ry exch def
	/rx exch def
	/y exch def
	/x exch def
	matrix currentmatrix
	newpath
	x y translate
	rx ry scale
	0 0 1 0 360 arc
	setmatrix
} bind def

/endpage { showpage } bind def
/showpage { } def

/layercolorseq
	[	% layer color sequence - darkest to lightest
		[0 0 0]
		[.2 .8 .8]
		[.4 .8 .8]
		[.6 .8 .8]
		[.8 .8 .8]
	]
def

/layerlen layercolorseq length def

/setlayer {/maxlayer exch def /curlayer exch def
	layercolorseq curlayer 1 sub layerlen mod get
	aload pop sethsbcolor
	/nodecolor {nopcolor} def
	/edgecolor {nopcolor} def
	/graphcolor {nopcolor} def
} bind def

/onlayer { curlayer ne {invis} if } def

/onlayers {
	/myupper exch def
	/mylower exch def
	curlayer mylower lt
	curlayer myupper gt
	or
	{invis} if
} def

/curlayer 0 def

%%EndResource
%%EndProlog
%%BeginSetup
14 default-font-family set_font
1 setmiterlimit
% /arrowlength 10 def
% /arrowwidth 5 def

% make sure pdfmark is harmless for PS-interpreters other than Distiller
/pdfmark where {pop} {userdict /pdfmark /cleartomark load put} ifelse
% make '<<' and '>>' safe on PS Level 1 devices
/languagelevel where {pop languagelevel}{1} ifelse
2 lt {
    userdict (<<) cvn ([) cvn load put
    userdict (>>) cvn ([) cvn load put
} if

%%EndSetup
setupLatin1
%%Page: 1 1
%%PageBoundingBox: 36 36 838 317
%%PageOrientation: Portrait
gsave
36 36 838 317 boxprim clip newpath
0 0 1 beginpage
1 1 set_scale 0 rotate 40 40 translate
% Node1
gsave
0.000 0.000 0.749 nodecolor
newpath 1 116 moveto
1 137 lineto
108 137 lineto
108 116 lineto
closepath fill
1 setlinewidth
filled
0.000 0.000 0.000 nodecolor
newpath 1 116 moveto
1 137 lineto
108 137 lineto
108 116 lineto
closepath stroke
0.000 0.000 0.000 nodecolor
10.00 /FreeSans.ttf set_font
54 123 moveto 91 -0.5 (prueba_leePlano) alignedtext
grestore
% Node2
gsave
[ /Rect [ 157 173 259 193 ]
  /Border [ 0 0 0 ]
  /Action << /Subtype /URI /URI ($TrieSDisco_8cpp.html#df0711974693615ed7a5a7d1a2b050a7) >>
  /Subtype /Link
/ANN pdfmark
[ /Rect [ 157 173 259 193 ]
  /Border [ 0 0 0 ]
  /Action << /Subtype /URI /URI ($TrieSDisco_8cpp.html#df0711974693615ed7a5a7d1a2b050a7) >>
  /Subtype /Link
/ANN pdfmark
1 setlinewidth
0.000 0.000 0.000 nodecolor
newpath 157 172 moveto
157 193 lineto
259 193 lineto
259 172 lineto
closepath stroke
0.000 0.000 0.000 nodecolor
10.00 /FreeSans.ttf set_font
208 179 moveto 86 -0.5 (escribeRelacion) alignedtext
grestore
% Node1->Node2
gsave
1 setlinewidth
solid
0.667 0.776 0.439 edgecolor
newpath 82 137 moveto
106 146 141 159 168 169 curveto
stroke
0.667 0.776 0.439 edgecolor
newpath 167.416 172.479 moveto
178 172 lineto
169.427 165.774 lineto
closepath fill
1 setlinewidth
solid
0.667 0.776 0.439 edgecolor
newpath 167.416 172.479 moveto
178 172 lineto
169.427 165.774 lineto
closepath stroke
grestore
% Node4
gsave
[ /Rect [ 177 117 239 137 ]
  /Border [ 0 0 0 ]
  /Action << /Subtype /URI /URI ($RamDisco_8cpp.html#1cb80fe5f2b7c872fbec9375e3fb874d) >>
  /Subtype /Link
/ANN pdfmark
[ /Rect [ 177 117 239 137 ]
  /Border [ 0 0 0 ]
  /Action << /Subtype /URI /URI ($RamDisco_8cpp.html#1cb80fe5f2b7c872fbec9375e3fb874d) >>
  /Subtype /Link
/ANN pdfmark
1 setlinewidth
0.000 0.000 0.000 nodecolor
newpath 177 116 moveto
177 137 lineto
240 137 lineto
240 116 lineto
closepath stroke
0.000 0.000 0.000 nodecolor
10.00 /FreeSans.ttf set_font
208 123 moveto 47 -0.5 (leePlano) alignedtext
grestore
% Node1->Node4
gsave
1 setlinewidth
solid
0.667 0.776 0.439 edgecolor
newpath 108 127 moveto
127 127 149 127 167 127 curveto
stroke
0.667 0.776 0.439 edgecolor
newpath 167 130.5 moveto
177 127 lineto
167 123.5 lineto
closepath fill
1 setlinewidth
solid
0.667 0.776 0.439 edgecolor
newpath 167 130.5 moveto
177 127 lineto
167 123.5 lineto
closepath stroke
grestore
% Node14
gsave
[ /Rect [ 144 61 272 81 ]
  /Border [ 0 0 0 ]
  /Action << /Subtype /URI /URI ($classNodoTrieS.html#0943f6f1a9dea1f46e2e525a0736bbc8) >>
  /Subtype /Link
/ANN pdfmark
[ /Rect [ 144 61 272 81 ]
  /Border [ 0 0 0 ]
  /Action << /Subtype /URI /URI ($classNodoTrieS.html#0943f6f1a9dea1f46e2e525a0736bbc8) >>
  /Subtype /Link
/ANN pdfmark
1 setlinewidth
0.000 0.000 0.000 nodecolor
newpath 144 60 moveto
144 81 lineto
272 81 lineto
272 60 lineto
closepath stroke
0.000 0.000 0.000 nodecolor
10.00 /FreeSans.ttf set_font
208 67 moveto 112 -0.5 (NodoTrieS::preorden) alignedtext
grestore
% Node1->Node14
gsave
1 setlinewidth
solid
0.667 0.776 0.439 edgecolor
newpath 84 116 moveto
109 107 145 94 171 85 curveto
stroke
0.667 0.776 0.439 edgecolor
newpath 173.015 87.9636 moveto
181 81 lineto
170.415 81.4643 lineto
closepath fill
1 setlinewidth
solid
0.667 0.776 0.439 edgecolor
newpath 173.015 87.9636 moveto
181 81 lineto
170.415 81.4643 lineto
closepath stroke
grestore
% Node3
gsave
[ /Rect [ 320 192 400 212 ]
  /Border [ 0 0 0 ]
  /Action << /Subtype /URI /URI ($Doc_8cpp.html#ccfa223b5e7e9f380b58db51687ff9a5) >>
  /Subtype /Link
/ANN pdfmark
[ /Rect [ 320 192 400 212 ]
  /Border [ 0 0 0 ]
  /Action << /Subtype /URI /URI ($Doc_8cpp.html#ccfa223b5e7e9f380b58db51687ff9a5) >>
  /Subtype /Link
/ANN pdfmark
1 setlinewidth
0.000 0.000 0.000 nodecolor
newpath 320 191 moveto
320 212 lineto
401 212 lineto
401 191 lineto
closepath stroke
0.000 0.000 0.000 nodecolor
10.00 /FreeSans.ttf set_font
360 198 moveto 65 -0.5 (escribeDocs) alignedtext
grestore
% Node2->Node3
gsave
1 setlinewidth
solid
0.667 0.776 0.439 edgecolor
newpath 259 189 moveto
276 191 293 194 310 196 curveto
stroke
0.667 0.776 0.439 edgecolor
newpath 309.701 199.488 moveto
320 197 lineto
310.398 192.522 lineto
closepath fill
1 setlinewidth
solid
0.667 0.776 0.439 edgecolor
newpath 309.701 199.488 moveto
320 197 lineto
310.398 192.522 lineto
closepath stroke
grestore
% Node5
gsave
[ /Rect [ 309 136 411 156 ]
  /Border [ 0 0 0 ]
  /Action << /Subtype /URI /URI ($RamDisco_8cpp.html#6629a007f761319a91a329f1071896fa) >>
  /Subtype /Link
/ANN pdfmark
[ /Rect [ 309 136 411 156 ]
  /Border [ 0 0 0 ]
  /Action << /Subtype /URI /URI ($RamDisco_8cpp.html#6629a007f761319a91a329f1071896fa) >>
  /Subtype /Link
/ANN pdfmark
1 setlinewidth
0.000 0.000 0.000 nodecolor
newpath 309 135 moveto
309 156 lineto
412 156 lineto
412 135 lineto
closepath stroke
0.000 0.000 0.000 nodecolor
10.00 /FreeSans.ttf set_font
360 142 moveto 87 -0.5 (leePlanoStream) alignedtext
grestore
% Node4->Node5
gsave
1 setlinewidth
solid
0.667 0.776 0.439 edgecolor
newpath 240 131 moveto
257 134 279 136 299 139 curveto
stroke
0.667 0.776 0.439 edgecolor
newpath 298.701 142.488 moveto
309 140 lineto
299.398 135.522 lineto
closepath fill
1 setlinewidth
solid
0.667 0.776 0.439 edgecolor
newpath 298.701 142.488 moveto
309 140 lineto
299.398 135.522 lineto
closepath stroke
grestore
% Node11
gsave
[ /Rect [ 448 89 528 109 ]
  /Border [ 0 0 0 ]
  /Action << /Subtype /URI /URI ($TrieSDisco_8cpp.html#acdb9639784b2fb341e069b1f54c3455) >>
  /Subtype /Link
/ANN pdfmark
[ /Rect [ 448 89 528 109 ]
  /Border [ 0 0 0 ]
  /Action << /Subtype /URI /URI ($TrieSDisco_8cpp.html#acdb9639784b2fb341e069b1f54c3455) >>
  /Subtype /Link
/ANN pdfmark
1 setlinewidth
0.000 0.000 0.000 nodecolor
newpath 448 88 moveto
448 109 lineto
528 109 lineto
528 88 lineto
closepath stroke
0.000 0.000 0.000 nodecolor
10.00 /FreeSans.ttf set_font
488 95 moveto 64 -0.5 (leeRelacion) alignedtext
grestore
% Node4->Node11
gsave
1 setlinewidth
solid
0.667 0.776 0.439 edgecolor
newpath 240 124 moveto
289 118 380 109 438 104 curveto
stroke
0.667 0.776 0.439 edgecolor
newpath 438.398 107.478 moveto
448 103 lineto
437.701 100.512 lineto
closepath fill
1 setlinewidth
solid
0.667 0.776 0.439 edgecolor
newpath 438.398 107.478 moveto
448 103 lineto
437.701 100.512 lineto
closepath stroke
grestore
% Node13
gsave
[ /Rect [ 316 41 404 61 ]
  /Border [ 0 0 0 ]
  /Action << /Subtype /URI /URI ($TrieSDisco_8cpp.html#3b55801abcb3987a49125a0ddc9ff76c) >>
  /Subtype /Link
/ANN pdfmark
[ /Rect [ 316 41 404 61 ]
  /Border [ 0 0 0 ]
  /Action << /Subtype /URI /URI ($TrieSDisco_8cpp.html#3b55801abcb3987a49125a0ddc9ff76c) >>
  /Subtype /Link
/ANN pdfmark
1 setlinewidth
0.000 0.000 0.000 nodecolor
newpath 316 40 moveto
316 61 lineto
405 61 lineto
405 40 lineto
closepath stroke
0.000 0.000 0.000 nodecolor
10.00 /FreeSans.ttf set_font
360 47 moveto 73 -0.5 (verificaIndice) alignedtext
grestore
% Node4->Node13
gsave
1 setlinewidth
solid
0.667 0.776 0.439 edgecolor
newpath 240 119 moveto
251 116 262 113 272 108 curveto
296 97 322 80 339 67 curveto
stroke
0.667 0.776 0.439 edgecolor
newpath 341.1 69.8 moveto
347 61 lineto
336.9 64.2 lineto
closepath fill
1 setlinewidth
solid
0.667 0.776 0.439 edgecolor
newpath 341.1 69.8 moveto
347 61 lineto
336.9 64.2 lineto
closepath stroke
grestore
% Node5->Node5
gsave
1 setlinewidth
solid
0.667 0.776 0.439 edgecolor
newpath 320 156 moveto
302 165 315 174 360 174 curveto
394 174 409 169 408 163 curveto
stroke
0.667 0.776 0.439 edgecolor
newpath 409.831 159.951 moveto
400 156 lineto
405.221 165.219 lineto
closepath fill
1 setlinewidth
solid
0.667 0.776 0.439 edgecolor
newpath 409.831 159.951 moveto
400 156 lineto
405.221 165.219 lineto
closepath stroke
grestore
% Node6
gsave
[ /Rect [ 706 127 794 147 ]
  /Border [ 0 0 0 ]
  /Action << /Subtype /URI /URI ($comun_8cpp.html#88ffeb20e447cad877c37bb473033590) >>
  /Subtype /Link
/ANN pdfmark
[ /Rect [ 706 127 794 147 ]
  /Border [ 0 0 0 ]
  /Action << /Subtype /URI /URI ($comun_8cpp.html#88ffeb20e447cad877c37bb473033590) >>
  /Subtype /Link
/ANN pdfmark
1 setlinewidth
0.000 0.000 0.000 nodecolor
newpath 706 126 moveto
706 147 lineto
794 147 lineto
794 126 lineto
closepath stroke
0.000 0.000 0.000 nodecolor
10.00 /FreeSans.ttf set_font
750 133 moveto 72 -0.5 (errorFormato) alignedtext
grestore
% Node5->Node6
gsave
1 setlinewidth
solid
0.667 0.776 0.439 edgecolor
newpath 375 156 moveto
386 163 400 173 412 183 curveto
429 195 430 204 448 213 curveto
539 254 581 273 670 232 curveto
704 216 728 179 741 156 curveto
stroke
0.667 0.776 0.439 edgecolor
newpath 744.137 157.56 moveto
745 147 lineto
737.74 154.717 lineto
closepath fill
1 setlinewidth
solid
0.667 0.776 0.439 edgecolor
newpath 744.137 157.56 moveto
745 147 lineto
737.74 154.717 lineto
closepath stroke
grestore
% Node7
gsave
[ /Rect [ 454 184 522 204 ]
  /Border [ 0 0 0 ]
  /Action << /Subtype /URI /URI ($comun_8hpp.html#9871d7357fc245ec5b7a227a9a62eb36) >>
  /Subtype /Link
/ANN pdfmark
[ /Rect [ 454 184 522 204 ]
  /Border [ 0 0 0 ]
  /Action << /Subtype /URI /URI ($comun_8hpp.html#9871d7357fc245ec5b7a227a9a62eb36) >>
  /Subtype /Link
/ANN pdfmark
1 setlinewidth
0.000 0.000 0.000 nodecolor
newpath 454 183 moveto
454 204 lineto
522 204 lineto
522 183 lineto
closepath stroke
0.000 0.000 0.000 nodecolor
10.00 /FreeSans.ttf set_font
488 190 moveto 52 -0.5 (leeNDesp) alignedtext
grestore
% Node5->Node7
gsave
1 setlinewidth
solid
0.667 0.776 0.439 edgecolor
newpath 387 156 moveto
405 163 429 172 448 179 curveto
stroke
0.667 0.776 0.439 edgecolor
newpath 447.415 182.536 moveto
458 183 lineto
450.015 176.036 lineto
closepath fill
1 setlinewidth
solid
0.667 0.776 0.439 edgecolor
newpath 447.415 182.536 moveto
458 183 lineto
450.015 176.036 lineto
closepath stroke
grestore
% Node9
gsave
[ /Rect [ 463 136 513 156 ]
  /Border [ 0 0 0 ]
  /Action << /Subtype /URI /URI ($Pos_8cpp.html#36b67a50cba6dc1789825a3111bee9d2) >>
  /Subtype /Link
/ANN pdfmark
[ /Rect [ 463 136 513 156 ]
  /Border [ 0 0 0 ]
  /Action << /Subtype /URI /URI ($Pos_8cpp.html#36b67a50cba6dc1789825a3111bee9d2) >>
  /Subtype /Link
/ANN pdfmark
1 setlinewidth
0.000 0.000 0.000 nodecolor
newpath 463 135 moveto
463 156 lineto
514 156 lineto
514 135 lineto
closepath stroke
0.000 0.000 0.000 nodecolor
10.00 /FreeSans.ttf set_font
488 142 moveto 35 -0.5 (leePos) alignedtext
grestore
% Node5->Node9
gsave
1 setlinewidth
solid
0.667 0.776 0.439 edgecolor
newpath 412 146 moveto
425 146 440 146 453 146 curveto
stroke
0.667 0.776 0.439 edgecolor
newpath 453 149.5 moveto
463 146 lineto
453 142.5 lineto
closepath fill
1 setlinewidth
solid
0.667 0.776 0.439 edgecolor
newpath 453 149.5 moveto
463 146 lineto
453 142.5 lineto
closepath stroke
grestore
% Node8
gsave
[ /Rect [ 587 203 647 223 ]
  /Border [ 0 0 0 ]
  /Action << /Subtype /URI /URI ($comun_8cpp.html#c7bf9e68bbdccea36ce786b806244ea1) >>
  /Subtype /Link
/ANN pdfmark
[ /Rect [ 587 203 647 223 ]
  /Border [ 0 0 0 ]
  /Action << /Subtype /URI /URI ($comun_8cpp.html#c7bf9e68bbdccea36ce786b806244ea1) >>
  /Subtype /Link
/ANN pdfmark
1 setlinewidth
0.000 0.000 0.000 nodecolor
newpath 587 202 moveto
587 223 lineto
647 223 lineto
647 202 lineto
closepath stroke
0.000 0.000 0.000 nodecolor
10.00 /FreeSans.ttf set_font
617 209 moveto 44 -0.5 (lee128b) alignedtext
grestore
% Node7->Node8
gsave
1 setlinewidth
solid
0.667 0.776 0.439 edgecolor
newpath 522 199 moveto
539 202 559 205 577 207 curveto
stroke
0.667 0.776 0.439 edgecolor
newpath 576.508 210.471 moveto
587 209 lineto
577.881 203.607 lineto
closepath fill
1 setlinewidth
solid
0.667 0.776 0.439 edgecolor
newpath 576.508 210.471 moveto
587 209 lineto
577.881 203.607 lineto
closepath stroke
grestore
% Node8->Node6
gsave
1 setlinewidth
solid
0.667 0.776 0.439 edgecolor
newpath 643 202 moveto
652 198 662 194 670 189 curveto
690 178 712 164 727 153 curveto
stroke
0.667 0.776 0.439 edgecolor
newpath 729.621 155.459 moveto
736 147 lineto
725.738 149.635 lineto
closepath fill
1 setlinewidth
solid
0.667 0.776 0.439 edgecolor
newpath 729.621 155.459 moveto
736 147 lineto
725.738 149.635 lineto
closepath stroke
grestore
% Node9->Node6
gsave
1 setlinewidth
solid
0.667 0.776 0.439 edgecolor
newpath 514 150 moveto
529 152 548 155 564 156 curveto
612 159 624 161 670 156 curveto
681 154 693 152 704 150 curveto
stroke
0.667 0.776 0.439 edgecolor
newpath 705.427 153.226 moveto
714 147 lineto
703.416 146.521 lineto
closepath fill
1 setlinewidth
solid
0.667 0.776 0.439 edgecolor
newpath 705.427 153.226 moveto
714 147 lineto
703.416 146.521 lineto
closepath stroke
grestore
% Node10
gsave
[ /Rect [ 564 127 670 147 ]
  /Border [ 0 0 0 ]
  /Action << /Subtype /URI /URI ($Elias_8cpp.html#95ee5a0ffb91f203612d2ce9d063ec36) >>
  /Subtype /Link
/ANN pdfmark
[ /Rect [ 564 127 670 147 ]
  /Border [ 0 0 0 ]
  /Action << /Subtype /URI /URI ($Elias_8cpp.html#95ee5a0ffb91f203612d2ce9d063ec36) >>
  /Subtype /Link
/ANN pdfmark
1 setlinewidth
0.000 0.000 0.000 nodecolor
newpath 564 126 moveto
564 147 lineto
670 147 lineto
670 126 lineto
closepath stroke
0.000 0.000 0.000 nodecolor
10.00 /FreeSans.ttf set_font
617 133 moveto 90 -0.5 (lee_elias_gama2) alignedtext
grestore
% Node9->Node10
gsave
1 setlinewidth
solid
0.667 0.776 0.439 edgecolor
newpath 514 144 moveto
525 143 540 142 554 142 curveto
stroke
0.667 0.776 0.439 edgecolor
newpath 554.398 145.478 moveto
564 141 lineto
553.701 138.512 lineto
closepath fill
1 setlinewidth
solid
0.667 0.776 0.439 edgecolor
newpath 554.398 145.478 moveto
564 141 lineto
553.701 138.512 lineto
closepath stroke
grestore
% Node10->Node6
gsave
1 setlinewidth
solid
0.667 0.776 0.439 edgecolor
newpath 670 137 moveto
679 137 687 137 696 137 curveto
stroke
0.667 0.776 0.439 edgecolor
newpath 696 140.5 moveto
706 137 lineto
696 133.5 lineto
closepath fill
1 setlinewidth
solid
0.667 0.776 0.439 edgecolor
newpath 696 140.5 moveto
706 137 lineto
696 133.5 lineto
closepath stroke
grestore
% Node11->Node6
gsave
1 setlinewidth
solid
0.667 0.776 0.439 edgecolor
newpath 528 102 moveto
565 104 622 110 670 118 curveto
680 120 689 122 699 124 curveto
stroke
0.667 0.776 0.439 edgecolor
newpath 698.508 127.471 moveto
709 126 lineto
699.881 120.607 lineto
closepath fill
1 setlinewidth
solid
0.667 0.776 0.439 edgecolor
newpath 698.508 127.471 moveto
709 126 lineto
699.881 120.607 lineto
closepath stroke
grestore
% Node12
gsave
[ /Rect [ 588 51 646 71 ]
  /Border [ 0 0 0 ]
  /Action << /Subtype /URI /URI ($Doc_8cpp.html#e4bfd9bdedc0dd4fe00bf5f17f8f9e23) >>
  /Subtype /Link
/ANN pdfmark
[ /Rect [ 588 51 646 71 ]
  /Border [ 0 0 0 ]
  /Action << /Subtype /URI /URI ($Doc_8cpp.html#e4bfd9bdedc0dd4fe00bf5f17f8f9e23) >>
  /Subtype /Link
/ANN pdfmark
1 setlinewidth
0.000 0.000 0.000 nodecolor
newpath 588 50 moveto
588 71 lineto
647 71 lineto
647 50 lineto
closepath stroke
0.000 0.000 0.000 nodecolor
10.00 /FreeSans.ttf set_font
617 57 moveto 43 -0.5 (leeDocs) alignedtext
grestore
% Node11->Node12
gsave
1 setlinewidth
solid
0.667 0.776 0.439 edgecolor
newpath 526 88 moveto
543 83 562 77 578 73 curveto
stroke
0.667 0.776 0.439 edgecolor
newpath 579.427 76.2259 moveto
588 70 lineto
577.416 69.5212 lineto
closepath fill
1 setlinewidth
solid
0.667 0.776 0.439 edgecolor
newpath 579.427 76.2259 moveto
588 70 lineto
577.416 69.5212 lineto
closepath stroke
grestore
% Node12->Node6
gsave
1 setlinewidth
solid
0.667 0.776 0.439 edgecolor
newpath 642 71 moveto
651 75 661 80 670 85 curveto
690 96 711 110 726 120 curveto
stroke
0.667 0.776 0.439 edgecolor
newpath 724.738 123.365 moveto
735 126 lineto
728.621 117.541 lineto
closepath fill
1 setlinewidth
solid
0.667 0.776 0.439 edgecolor
newpath 724.738 123.365 moveto
735 126 lineto
728.621 117.541 lineto
closepath stroke
grestore
% Node13->Node6
gsave
1 setlinewidth
solid
0.667 0.776 0.439 edgecolor
newpath 397 40 moveto
457 24 580 0 670 42 curveto
703 57 727 94 740 117 curveto
stroke
0.667 0.776 0.439 edgecolor
newpath 737.084 118.958 moveto
745 126 lineto
743.203 115.559 lineto
closepath fill
1 setlinewidth
solid
0.667 0.776 0.439 edgecolor
newpath 737.084 118.958 moveto
745 126 lineto
743.203 115.559 lineto
closepath stroke
grestore
% Node14->Node14
gsave
1 setlinewidth
solid
0.667 0.776 0.439 edgecolor
newpath 160 81 moveto
139 90 155 99 208 99 curveto
249 99 268 94 264 87 curveto
stroke
0.667 0.776 0.439 edgecolor
newpath 266.1 84.2 moveto
256 81 lineto
261.9 89.8 lineto
closepath fill
1 setlinewidth
solid
0.667 0.776 0.439 edgecolor
newpath 266.1 84.2 moveto
256 81 lineto
261.9 89.8 lineto
closepath stroke
grestore
endpage
showpage
grestore
%%PageTrailer
%%EndPage: 1
%%Trailer
%%Pages: 1
%%BoundingBox: 36 36 838 317
end
restore
%%EOF
