%!PS-Adobe-2.0
%%Creator: Graphviz version 2.12 (Mon Nov 16 18:34:03 UTC 2009)
%%For: (vtamara) Vladimir
%%Title: G
%%Pages: (atend)
%%BoundingBox: (atend)
%%EndComments
save
%%BeginProlog
/DotDict 200 dict def
DotDict begin

/setupLatin1 {
mark
/EncodingVector 256 array def
 EncodingVector 0

ISOLatin1Encoding 0 255 getinterval putinterval
EncodingVector 45 /hyphen put

% Set up ISO Latin 1 character encoding
/starnetISO {
        dup dup findfont dup length dict begin
        { 1 index /FID ne { def }{ pop pop } ifelse
        } forall
        /Encoding EncodingVector def
        currentdict end definefont
} def
/Times-Roman starnetISO def
/Times-Italic starnetISO def
/Times-Bold starnetISO def
/Times-BoldItalic starnetISO def
/Helvetica starnetISO def
/Helvetica-Oblique starnetISO def
/Helvetica-Bold starnetISO def
/Helvetica-BoldOblique starnetISO def
/Courier starnetISO def
/Courier-Oblique starnetISO def
/Courier-Bold starnetISO def
/Courier-BoldOblique starnetISO def
cleartomark
} bind def

%%BeginResource: procset graphviz 0 0
/coord-font-family /Times-Roman def
/default-font-family /Times-Roman def
/coordfont coord-font-family findfont 8 scalefont def

/InvScaleFactor 1.0 def
/set_scale {
       dup 1 exch div /InvScaleFactor exch def
       scale
} bind def

% styles
/solid { [] 0 setdash } bind def
/dashed { [9 InvScaleFactor mul dup ] 0 setdash } bind def
/dotted { [1 InvScaleFactor mul 6 InvScaleFactor mul] 0 setdash } bind def
/invis {/fill {newpath} def /stroke {newpath} def /show {pop newpath} def} bind def
/bold { 2 setlinewidth } bind def
/filled { } bind def
/unfilled { } bind def
/rounded { } bind def
/diagonals { } bind def

% hooks for setting color 
/nodecolor { sethsbcolor } bind def
/edgecolor { sethsbcolor } bind def
/graphcolor { sethsbcolor } bind def
/nopcolor {pop pop pop} bind def

/beginpage {	% i j npages
	/npages exch def
	/j exch def
	/i exch def
	/str 10 string def
	npages 1 gt {
		gsave
			coordfont setfont
			0 0 moveto
			(\() show i str cvs show (,) show j str cvs show (\)) show
		grestore
	} if
} bind def

/set_font {
	findfont exch
	scalefont setfont
} def

% draw aligned label in bounding box aligned to current point
/alignedtext {			% width adj text
	/text exch def
	/adj exch def
	/width exch def
	gsave
		width 0 gt {
			text stringwidth pop adj mul 0 rmoveto
		} if
		[] 0 setdash
		text show
	grestore
} def

/boxprim {				% xcorner ycorner xsize ysize
		4 2 roll
		moveto
		2 copy
		exch 0 rlineto
		0 exch rlineto
		pop neg 0 rlineto
		closepath
} bind def

/ellipse_path {
	/ry exch def
	/rx exch def
	/y exch def
	/x exch def
	matrix currentmatrix
	newpath
	x y translate
	rx ry scale
	0 0 1 0 360 arc
	setmatrix
} bind def

/endpage { showpage } bind def
/showpage { } def

/layercolorseq
	[	% layer color sequence - darkest to lightest
		[0 0 0]
		[.2 .8 .8]
		[.4 .8 .8]
		[.6 .8 .8]
		[.8 .8 .8]
	]
def

/layerlen layercolorseq length def

/setlayer {/maxlayer exch def /curlayer exch def
	layercolorseq curlayer 1 sub layerlen mod get
	aload pop sethsbcolor
	/nodecolor {nopcolor} def
	/edgecolor {nopcolor} def
	/graphcolor {nopcolor} def
} bind def

/onlayer { curlayer ne {invis} if } def

/onlayers {
	/myupper exch def
	/mylower exch def
	curlayer mylower lt
	curlayer myupper gt
	or
	{invis} if
} def

/curlayer 0 def

%%EndResource
%%EndProlog
%%BeginSetup
14 default-font-family set_font
1 setmiterlimit
% /arrowlength 10 def
% /arrowwidth 5 def

% make sure pdfmark is harmless for PS-interpreters other than Distiller
/pdfmark where {pop} {userdict /pdfmark /cleartomark load put} ifelse
% make '<<' and '>>' safe on PS Level 1 devices
/languagelevel where {pop languagelevel}{1} ifelse
2 lt {
    userdict (<<) cvn ([) cvn load put
    userdict (>>) cvn ([) cvn load put
} if

%%EndSetup
setupLatin1
%%Page: 1 1
%%PageBoundingBox: 36 36 770 195
%%PageOrientation: Portrait
gsave
36 36 770 195 boxprim clip newpath
0 0 1 beginpage
1 1 set_scale 0 rotate 40 40 translate
% Node1
gsave
0.000 0.000 0.749 nodecolor
newpath 0 55 moveto
0 76 lineto
164 76 lineto
164 55 lineto
closepath fill
1 setlinewidth
filled
0.000 0.000 0.000 nodecolor
newpath 0 55 moveto
0 76 lineto
164 76 lineto
164 55 lineto
closepath stroke
0.000 0.000 0.000 nodecolor
10.00 /FreeSans.ttf set_font
82 62 moveto 148 -0.5 (prueba_insertaConEtiqueta) alignedtext
grestore
% Node2
gsave
[ /Rect [ 234 94 348 114 ]
  /Border [ 0 0 0 ]
  /Action << /Subtype /URI /URI ($classNodoTrieS.html#3fd5593979f154a4e5372172640d4631) >>
  /Subtype /Link
/ANN pdfmark
[ /Rect [ 234 94 348 114 ]
  /Border [ 0 0 0 ]
  /Action << /Subtype /URI /URI ($classNodoTrieS.html#3fd5593979f154a4e5372172640d4631) >>
  /Subtype /Link
/ANN pdfmark
1 setlinewidth
0.000 0.000 0.000 nodecolor
newpath 234 93 moveto
234 114 lineto
348 114 lineto
348 93 lineto
closepath stroke
0.000 0.000 0.000 nodecolor
10.00 /FreeSans.ttf set_font
291 100 moveto 98 -0.5 (NodoTrieS::aDotty) alignedtext
grestore
% Node1->Node2
gsave
1 setlinewidth
solid
0.667 0.776 0.439 edgecolor
newpath 137 76 moveto
164 80 196 86 224 92 curveto
stroke
0.667 0.776 0.439 edgecolor
newpath 223.508 95.4708 moveto
234 94 lineto
224.881 88.6067 lineto
closepath fill
1 setlinewidth
solid
0.667 0.776 0.439 edgecolor
newpath 223.508 95.4708 moveto
234 94 lineto
224.881 88.6067 lineto
closepath stroke
grestore
% Node3
gsave
[ /Rect [ 200 56 382 76 ]
  /Border [ 0 0 0 ]
  /Action << /Subtype /URI /URI ($classNodoTrieS.html#3fec20c7c9b038e391e5a0fc07085927) >>
  /Subtype /Link
/ANN pdfmark
[ /Rect [ 200 56 382 76 ]
  /Border [ 0 0 0 ]
  /Action << /Subtype /URI /URI ($classNodoTrieS.html#3fec20c7c9b038e391e5a0fc07085927) >>
  /Subtype /Link
/ANN pdfmark
1 setlinewidth
0.000 0.000 0.000 nodecolor
newpath 200 55 moveto
200 76 lineto
382 76 lineto
382 55 lineto
closepath stroke
0.000 0.000 0.000 nodecolor
10.00 /FreeSans.ttf set_font
291 62 moveto 166 -0.5 (NodoTrieS::insertaConEtiqueta) alignedtext
grestore
% Node1->Node3
gsave
1 setlinewidth
solid
0.667 0.776 0.439 edgecolor
newpath 164 66 moveto
173 66 181 66 190 66 curveto
stroke
0.667 0.776 0.439 edgecolor
newpath 190 69.5001 moveto
200 66 lineto
190 62.5001 lineto
closepath fill
1 setlinewidth
solid
0.667 0.776 0.439 edgecolor
newpath 190 69.5001 moveto
200 66 lineto
190 62.5001 lineto
closepath stroke
grestore
% Node10
gsave
[ /Rect [ 227 0 355 20 ]
  /Border [ 0 0 0 ]
  /Action << /Subtype /URI /URI ($classNodoTrieS.html#0943f6f1a9dea1f46e2e525a0736bbc8) >>
  /Subtype /Link
/ANN pdfmark
[ /Rect [ 227 0 355 20 ]
  /Border [ 0 0 0 ]
  /Action << /Subtype /URI /URI ($classNodoTrieS.html#0943f6f1a9dea1f46e2e525a0736bbc8) >>
  /Subtype /Link
/ANN pdfmark
1 setlinewidth
0.000 0.000 0.000 nodecolor
newpath 227 -1 moveto
227 20 lineto
355 20 lineto
355 -1 lineto
closepath stroke
0.000 0.000 0.000 nodecolor
10.00 /FreeSans.ttf set_font
291 6 moveto 112 -0.5 (NodoTrieS::preorden) alignedtext
grestore
% Node1->Node10
gsave
1 setlinewidth
solid
0.667 0.776 0.439 edgecolor
newpath 123 55 moveto
158 46 208 33 244 23 curveto
stroke
0.667 0.776 0.439 edgecolor
newpath 245.427 26.2259 moveto
254 20 lineto
243.416 19.5212 lineto
closepath fill
1 setlinewidth
solid
0.667 0.776 0.439 edgecolor
newpath 245.427 26.2259 moveto
254 20 lineto
243.416 19.5212 lineto
closepath stroke
grestore
% Node2->Node2
gsave
1 setlinewidth
solid
0.667 0.776 0.439 edgecolor
newpath 234 114 moveto
207 123 226 132 291 132 curveto
346 132 368 126 357 118 curveto
stroke
0.667 0.776 0.439 edgecolor
newpath 358.56 114.863 moveto
348 114 lineto
355.717 121.26 lineto
closepath fill
1 setlinewidth
solid
0.667 0.776 0.439 edgecolor
newpath 358.56 114.863 moveto
348 114 lineto
355.717 121.26 lineto
closepath stroke
grestore
% Node4
gsave
[ /Rect [ 430 131 522 151 ]
  /Border [ 0 0 0 ]
  /Action << /Subtype /URI /URI ($NodoTrieS_8cpp.html#059ce4cc73c3c7588eb0edc6cb879942) >>
  /Subtype /Link
/ANN pdfmark
[ /Rect [ 430 131 522 151 ]
  /Border [ 0 0 0 ]
  /Action << /Subtype /URI /URI ($NodoTrieS_8cpp.html#059ce4cc73c3c7588eb0edc6cb879942) >>
  /Subtype /Link
/ANN pdfmark
1 setlinewidth
0.000 0.000 0.000 nodecolor
newpath 430 130 moveto
430 151 lineto
522 151 lineto
522 130 lineto
closepath stroke
0.000 0.000 0.000 nodecolor
10.00 /FreeSans.ttf set_font
476 137 moveto 76 -0.5 (es_signo_punt) alignedtext
grestore
% Node3->Node4
gsave
1 setlinewidth
solid
0.667 0.776 0.439 edgecolor
newpath 361 76 moveto
368 78 376 81 382 85 curveto
403 96 399 109 418 122 curveto
420 123 423 125 426 126 curveto
stroke
0.667 0.776 0.439 edgecolor
newpath 424.44 129.137 moveto
435 130 lineto
427.283 122.74 lineto
closepath fill
1 setlinewidth
solid
0.667 0.776 0.439 edgecolor
newpath 424.44 129.137 moveto
435 130 lineto
427.283 122.74 lineto
closepath stroke
grestore
% Node5
gsave
[ /Rect [ 419 75 533 95 ]
  /Border [ 0 0 0 ]
  /Action << /Subtype /URI /URI ($classNodoTrieS.html#2fc30ff9fad0ba7dff585e913f34cc84) >>
  /Subtype /Link
/ANN pdfmark
[ /Rect [ 419 75 533 95 ]
  /Border [ 0 0 0 ]
  /Action << /Subtype /URI /URI ($classNodoTrieS.html#2fc30ff9fad0ba7dff585e913f34cc84) >>
  /Subtype /Link
/ANN pdfmark
1 setlinewidth
0.000 0.000 0.000 nodecolor
newpath 419 74 moveto
419 95 lineto
534 95 lineto
534 74 lineto
closepath stroke
0.000 0.000 0.000 nodecolor
10.00 /FreeSans.ttf set_font
476 81 moveto 99 -0.5 (NodoTrieS::inserta) alignedtext
grestore
% Node3->Node5
gsave
1 setlinewidth
solid
0.667 0.776 0.439 edgecolor
newpath 382 75 moveto
391 76 400 77 409 78 curveto
stroke
0.667 0.776 0.439 edgecolor
newpath 408.701 81.4875 moveto
419 79 lineto
409.398 74.5222 lineto
closepath fill
1 setlinewidth
solid
0.667 0.776 0.439 edgecolor
newpath 408.701 81.4875 moveto
419 79 lineto
409.398 74.5222 lineto
closepath stroke
grestore
% Node8
gsave
[ /Rect [ 441 37 511 57 ]
  /Border [ 0 0 0 ]
  /Action << /Subtype /URI /URI ($comun_8cpp.html#1f33d728a35dd4b43d2622c5471f5157) >>
  /Subtype /Link
/ANN pdfmark
[ /Rect [ 441 37 511 57 ]
  /Border [ 0 0 0 ]
  /Action << /Subtype /URI /URI ($comun_8cpp.html#1f33d728a35dd4b43d2622c5471f5157) >>
  /Subtype /Link
/ANN pdfmark
1 setlinewidth
0.000 0.000 0.000 nodecolor
newpath 441 36 moveto
441 57 lineto
512 57 lineto
512 36 lineto
closepath stroke
0.000 0.000 0.000 nodecolor
10.00 /FreeSans.ttf set_font
476 43 moveto 55 -0.5 (normaliza) alignedtext
grestore
% Node3->Node8
gsave
1 setlinewidth
solid
0.667 0.776 0.439 edgecolor
newpath 382 57 moveto
399 55 416 54 431 52 curveto
stroke
0.667 0.776 0.439 edgecolor
newpath 431.398 55.4778 moveto
441 51 lineto
430.701 48.5125 lineto
closepath fill
1 setlinewidth
solid
0.667 0.776 0.439 edgecolor
newpath 431.398 55.4778 moveto
441 51 lineto
430.701 48.5125 lineto
closepath stroke
grestore
% Node9
gsave
[ /Rect [ 589 9 707 29 ]
  /Border [ 0 0 0 ]
  /Action << /Subtype /URI /URI ($comun_8cpp.html#bc69e612ecd81636d091e0b60fdf327e) >>
  /Subtype /Link
/ANN pdfmark
[ /Rect [ 589 9 707 29 ]
  /Border [ 0 0 0 ]
  /Action << /Subtype /URI /URI ($comun_8cpp.html#bc69e612ecd81636d091e0b60fdf327e) >>
  /Subtype /Link
/ANN pdfmark
1 setlinewidth
0.000 0.000 0.000 nodecolor
newpath 589 8 moveto
589 29 lineto
707 29 lineto
707 8 lineto
closepath stroke
0.000 0.000 0.000 nodecolor
10.00 /FreeSans.ttf set_font
648 15 moveto 102 -0.5 (normalizaCaracter) alignedtext
grestore
% Node3->Node9
gsave
1 setlinewidth
solid
0.667 0.776 0.439 edgecolor
newpath 356 55 moveto
365 53 374 50 382 47 curveto
400 40 401 32 418 28 curveto
471 14 533 12 579 14 curveto
stroke
0.667 0.776 0.439 edgecolor
newpath 579 17.5001 moveto
589 14 lineto
579 10.5001 lineto
closepath fill
1 setlinewidth
solid
0.667 0.776 0.439 edgecolor
newpath 579 17.5001 moveto
589 14 lineto
579 10.5001 lineto
closepath stroke
grestore
% Node5->Node5
gsave
1 setlinewidth
solid
0.667 0.776 0.439 edgecolor
newpath 422 95 moveto
398 104 416 113 476 113 curveto
525 113 546 107 539 100 curveto
stroke
0.667 0.776 0.439 edgecolor
newpath 540.441 96.7969 moveto
530 95 lineto
537.042 102.916 lineto
closepath fill
1 setlinewidth
solid
0.667 0.776 0.439 edgecolor
newpath 540.441 96.7969 moveto
530 95 lineto
537.042 102.916 lineto
closepath stroke
grestore
% Node6
gsave
[ /Rect [ 581 94 715 114 ]
  /Border [ 0 0 0 ]
  /Action << /Subtype /URI /URI ($classNodoTrieS.html#4f1525cf7f147f71e7be74c15d4f87a0) >>
  /Subtype /Link
/ANN pdfmark
[ /Rect [ 581 94 715 114 ]
  /Border [ 0 0 0 ]
  /Action << /Subtype /URI /URI ($classNodoTrieS.html#4f1525cf7f147f71e7be74c15d4f87a0) >>
  /Subtype /Link
/ANN pdfmark
1 setlinewidth
0.000 0.000 0.000 nodecolor
newpath 581 93 moveto
581 114 lineto
715 114 lineto
715 93 lineto
closepath stroke
0.000 0.000 0.000 nodecolor
10.00 /FreeSans.ttf set_font
648 100 moveto 118 -0.5 (NodoTrieS::NodoTrieS) alignedtext
grestore
% Node5->Node6
gsave
1 setlinewidth
solid
0.667 0.776 0.439 edgecolor
newpath 534 91 moveto
546 93 558 94 571 95 curveto
stroke
0.667 0.776 0.439 edgecolor
newpath 570.701 98.4875 moveto
581 96 lineto
571.398 91.5222 lineto
closepath fill
1 setlinewidth
solid
0.667 0.776 0.439 edgecolor
newpath 570.701 98.4875 moveto
581 96 lineto
571.398 91.5222 lineto
closepath stroke
grestore
% Node7
gsave
[ /Rect [ 571 56 725 76 ]
  /Border [ 0 0 0 ]
  /Action << /Subtype /URI /URI ($comun_8cpp.html#c74356d5b37d454e0ddce0de8fac34f8) >>
  /Subtype /Link
/ANN pdfmark
[ /Rect [ 571 56 725 76 ]
  /Border [ 0 0 0 ]
  /Action << /Subtype /URI /URI ($comun_8cpp.html#c74356d5b37d454e0ddce0de8fac34f8) >>
  /Subtype /Link
/ANN pdfmark
1 setlinewidth
0.000 0.000 0.000 nodecolor
newpath 571 55 moveto
571 76 lineto
726 76 lineto
726 55 lineto
closepath stroke
0.000 0.000 0.000 nodecolor
10.00 /FreeSans.ttf set_font
648 62 moveto 139 -0.5 (prefijo_comun_mas_largo) alignedtext
grestore
% Node5->Node7
gsave
1 setlinewidth
solid
0.667 0.776 0.439 edgecolor
newpath 534 79 moveto
543 78 552 77 561 76 curveto
stroke
0.667 0.776 0.439 edgecolor
newpath 561.398 79.4778 moveto
571 75 lineto
560.701 72.5125 lineto
closepath fill
1 setlinewidth
solid
0.667 0.776 0.439 edgecolor
newpath 561.398 79.4778 moveto
571 75 lineto
560.701 72.5125 lineto
closepath stroke
grestore
% Node8->Node9
gsave
1 setlinewidth
solid
0.667 0.776 0.439 edgecolor
newpath 512 41 moveto
531 38 556 34 579 31 curveto
stroke
0.667 0.776 0.439 edgecolor
newpath 579.881 34.3933 moveto
589 29 lineto
578.508 27.5292 lineto
closepath fill
1 setlinewidth
solid
0.667 0.776 0.439 edgecolor
newpath 579.881 34.3933 moveto
589 29 lineto
578.508 27.5292 lineto
closepath stroke
grestore
% Node10->Node10
gsave
1 setlinewidth
solid
0.667 0.776 0.439 edgecolor
newpath 233 20 moveto
207 29 227 38 291 38 curveto
344 38 367 32 358 24 curveto
stroke
0.667 0.776 0.439 edgecolor
newpath 359.56 20.8631 moveto
349 20 lineto
356.717 27.2598 lineto
closepath fill
1 setlinewidth
solid
0.667 0.776 0.439 edgecolor
newpath 359.56 20.8631 moveto
349 20 lineto
356.717 27.2598 lineto
closepath stroke
grestore
endpage
showpage
grestore
%%PageTrailer
%%EndPage: 1
%%Trailer
%%Pages: 1
%%BoundingBox: 36 36 770 195
end
restore
%%EOF
