%!PS-Adobe-2.0
%%Creator: Graphviz version 2.12 (Mon Nov 16 18:34:03 UTC 2009)
%%For: (vtamara) Vladimir
%%Title: G
%%Pages: (atend)
%%BoundingBox: (atend)
%%EndComments
save
%%BeginProlog
/DotDict 200 dict def
DotDict begin

/setupLatin1 {
mark
/EncodingVector 256 array def
 EncodingVector 0

ISOLatin1Encoding 0 255 getinterval putinterval
EncodingVector 45 /hyphen put

% Set up ISO Latin 1 character encoding
/starnetISO {
        dup dup findfont dup length dict begin
        { 1 index /FID ne { def }{ pop pop } ifelse
        } forall
        /Encoding EncodingVector def
        currentdict end definefont
} def
/Times-Roman starnetISO def
/Times-Italic starnetISO def
/Times-Bold starnetISO def
/Times-BoldItalic starnetISO def
/Helvetica starnetISO def
/Helvetica-Oblique starnetISO def
/Helvetica-Bold starnetISO def
/Helvetica-BoldOblique starnetISO def
/Courier starnetISO def
/Courier-Oblique starnetISO def
/Courier-Bold starnetISO def
/Courier-BoldOblique starnetISO def
cleartomark
} bind def

%%BeginResource: procset graphviz 0 0
/coord-font-family /Times-Roman def
/default-font-family /Times-Roman def
/coordfont coord-font-family findfont 8 scalefont def

/InvScaleFactor 1.0 def
/set_scale {
       dup 1 exch div /InvScaleFactor exch def
       scale
} bind def

% styles
/solid { [] 0 setdash } bind def
/dashed { [9 InvScaleFactor mul dup ] 0 setdash } bind def
/dotted { [1 InvScaleFactor mul 6 InvScaleFactor mul] 0 setdash } bind def
/invis {/fill {newpath} def /stroke {newpath} def /show {pop newpath} def} bind def
/bold { 2 setlinewidth } bind def
/filled { } bind def
/unfilled { } bind def
/rounded { } bind def
/diagonals { } bind def

% hooks for setting color 
/nodecolor { sethsbcolor } bind def
/edgecolor { sethsbcolor } bind def
/graphcolor { sethsbcolor } bind def
/nopcolor {pop pop pop} bind def

/beginpage {	% i j npages
	/npages exch def
	/j exch def
	/i exch def
	/str 10 string def
	npages 1 gt {
		gsave
			coordfont setfont
			0 0 moveto
			(\() show i str cvs show (,) show j str cvs show (\)) show
		grestore
	} if
} bind def

/set_font {
	findfont exch
	scalefont setfont
} def

% draw aligned label in bounding box aligned to current point
/alignedtext {			% width adj text
	/text exch def
	/adj exch def
	/width exch def
	gsave
		width 0 gt {
			text stringwidth pop adj mul 0 rmoveto
		} if
		[] 0 setdash
		text show
	grestore
} def

/boxprim {				% xcorner ycorner xsize ysize
		4 2 roll
		moveto
		2 copy
		exch 0 rlineto
		0 exch rlineto
		pop neg 0 rlineto
		closepath
} bind def

/ellipse_path {
	/ry exch def
	/rx exch def
	/y exch def
	/x exch def
	matrix currentmatrix
	newpath
	x y translate
	rx ry scale
	0 0 1 0 360 arc
	setmatrix
} bind def

/endpage { showpage } bind def
/showpage { } def

/layercolorseq
	[	% layer color sequence - darkest to lightest
		[0 0 0]
		[.2 .8 .8]
		[.4 .8 .8]
		[.6 .8 .8]
		[.8 .8 .8]
	]
def

/layerlen layercolorseq length def

/setlayer {/maxlayer exch def /curlayer exch def
	layercolorseq curlayer 1 sub layerlen mod get
	aload pop sethsbcolor
	/nodecolor {nopcolor} def
	/edgecolor {nopcolor} def
	/graphcolor {nopcolor} def
} bind def

/onlayer { curlayer ne {invis} if } def

/onlayers {
	/myupper exch def
	/mylower exch def
	curlayer mylower lt
	curlayer myupper gt
	or
	{invis} if
} def

/curlayer 0 def

%%EndResource
%%EndProlog
%%BeginSetup
14 default-font-family set_font
1 setmiterlimit
% /arrowlength 10 def
% /arrowwidth 5 def

% make sure pdfmark is harmless for PS-interpreters other than Distiller
/pdfmark where {pop} {userdict /pdfmark /cleartomark load put} ifelse
% make '<<' and '>>' safe on PS Level 1 devices
/languagelevel where {pop languagelevel}{1} ifelse
2 lt {
    userdict (<<) cvn ([) cvn load put
    userdict (>>) cvn ([) cvn load put
} if

%%EndSetup
setupLatin1
%%Page: 1 1
%%PageBoundingBox: 36 36 840 330
%%PageOrientation: Portrait
gsave
36 36 840 330 boxprim clip newpath
0 0 1 beginpage
1 1 set_scale 0 rotate 40 40 translate
% Node1
gsave
0.000 0.000 0.749 nodecolor
newpath 0 46 moveto
0 67 lineto
122 67 lineto
122 46 lineto
closepath fill
1 setlinewidth
filled
0.000 0.000 0.000 nodecolor
newpath 0 46 moveto
0 67 lineto
122 67 lineto
122 46 lineto
closepath stroke
0.000 0.000 0.000 nodecolor
10.00 /FreeSans.ttf set_font
61 53 moveto 106 -0.5 (prueba_buscaPlano) alignedtext
grestore
% Node2
gsave
[ /Rect [ 170 76 248 96 ]
  /Border [ 0 0 0 ]
  /Action << /Subtype /URI /URI ($TrieSDisco_8cpp.html#bfe35580e891d92a79b01f586c50311d) >>
  /Subtype /Link
/ANN pdfmark
[ /Rect [ 170 76 248 96 ]
  /Border [ 0 0 0 ]
  /Action << /Subtype /URI /URI ($TrieSDisco_8cpp.html#bfe35580e891d92a79b01f586c50311d) >>
  /Subtype /Link
/ANN pdfmark
1 setlinewidth
0.000 0.000 0.000 nodecolor
newpath 170 75 moveto
170 96 lineto
248 96 lineto
248 75 lineto
closepath stroke
0.000 0.000 0.000 nodecolor
10.00 /FreeSans.ttf set_font
209 82 moveto 62 -0.5 (buscaPlano) alignedtext
grestore
% Node1->Node2
gsave
1 setlinewidth
solid
0.667 0.776 0.439 edgecolor
newpath 112 67 moveto
128 70 145 74 160 76 curveto
stroke
0.667 0.776 0.439 edgecolor
newpath 159.508 79.4708 moveto
170 78 lineto
160.881 72.6067 lineto
closepath fill
1 setlinewidth
solid
0.667 0.776 0.439 edgecolor
newpath 159.508 79.4708 moveto
170 78 lineto
160.881 72.6067 lineto
closepath stroke
grestore
% Node13
gsave
[ /Rect [ 158 19 260 39 ]
  /Border [ 0 0 0 ]
  /Action << /Subtype /URI /URI ($TrieSDisco_8cpp.html#df0711974693615ed7a5a7d1a2b050a7) >>
  /Subtype /Link
/ANN pdfmark
[ /Rect [ 158 19 260 39 ]
  /Border [ 0 0 0 ]
  /Action << /Subtype /URI /URI ($TrieSDisco_8cpp.html#df0711974693615ed7a5a7d1a2b050a7) >>
  /Subtype /Link
/ANN pdfmark
1 setlinewidth
0.000 0.000 0.000 nodecolor
newpath 158 18 moveto
158 39 lineto
260 39 lineto
260 18 lineto
closepath stroke
0.000 0.000 0.000 nodecolor
10.00 /FreeSans.ttf set_font
209 25 moveto 86 -0.5 (escribeRelacion) alignedtext
grestore
% Node1->Node13
gsave
1 setlinewidth
solid
0.667 0.776 0.439 edgecolor
newpath 119 46 moveto
129 45 138 42 148 41 curveto
stroke
0.667 0.776 0.439 edgecolor
newpath 148.881 44.3933 moveto
158 39 lineto
147.508 37.5292 lineto
closepath fill
1 setlinewidth
solid
0.667 0.776 0.439 edgecolor
newpath 148.881 44.3933 moveto
158 39 lineto
147.508 37.5292 lineto
closepath stroke
grestore
% Node3
gsave
[ /Rect [ 296 209 414 229 ]
  /Border [ 0 0 0 ]
  /Action << /Subtype /URI /URI ($TrieSDisco_8cpp.html#1281c095bc817935769ceb3707a089d4) >>
  /Subtype /Link
/ANN pdfmark
[ /Rect [ 296 209 414 229 ]
  /Border [ 0 0 0 ]
  /Action << /Subtype /URI /URI ($TrieSDisco_8cpp.html#1281c095bc817935769ceb3707a089d4) >>
  /Subtype /Link
/ANN pdfmark
1 setlinewidth
0.000 0.000 0.000 nodecolor
newpath 296 208 moveto
296 229 lineto
414 229 lineto
414 208 lineto
closepath stroke
0.000 0.000 0.000 nodecolor
10.00 /FreeSans.ttf set_font
355 215 moveto 102 -0.5 (buscaPlanoStream) alignedtext
grestore
% Node2->Node3
gsave
1 setlinewidth
solid
0.667 0.776 0.439 edgecolor
newpath 220 96 moveto
245 119 304 173 335 201 curveto
stroke
0.667 0.776 0.439 edgecolor
newpath 333.169 204.049 moveto
343 208 lineto
337.779 198.781 lineto
closepath fill
1 setlinewidth
solid
0.667 0.776 0.439 edgecolor
newpath 333.169 204.049 moveto
343 208 lineto
337.779 198.781 lineto
closepath stroke
grestore
% Node5
gsave
[ /Rect [ 708 133 796 153 ]
  /Border [ 0 0 0 ]
  /Action << /Subtype /URI /URI ($comun_8cpp.html#88ffeb20e447cad877c37bb473033590) >>
  /Subtype /Link
/ANN pdfmark
[ /Rect [ 708 133 796 153 ]
  /Border [ 0 0 0 ]
  /Action << /Subtype /URI /URI ($comun_8cpp.html#88ffeb20e447cad877c37bb473033590) >>
  /Subtype /Link
/ANN pdfmark
1 setlinewidth
0.000 0.000 0.000 nodecolor
newpath 708 132 moveto
708 153 lineto
796 153 lineto
796 132 lineto
closepath stroke
0.000 0.000 0.000 nodecolor
10.00 /FreeSans.ttf set_font
752 139 moveto 72 -0.5 (errorFormato) alignedtext
grestore
% Node2->Node5
gsave
1 setlinewidth
solid
0.667 0.776 0.439 edgecolor
newpath 248 93 moveto
263 95 281 98 296 100 curveto
441 118 612 132 698 139 curveto
stroke
0.667 0.776 0.439 edgecolor
newpath 697.701 142.488 moveto
708 140 lineto
698.398 135.522 lineto
closepath fill
1 setlinewidth
solid
0.667 0.776 0.439 edgecolor
newpath 697.701 142.488 moveto
708 140 lineto
698.398 135.522 lineto
closepath stroke
grestore
% Node10
gsave
[ /Rect [ 450 76 530 96 ]
  /Border [ 0 0 0 ]
  /Action << /Subtype /URI /URI ($TrieSDisco_8cpp.html#acdb9639784b2fb341e069b1f54c3455) >>
  /Subtype /Link
/ANN pdfmark
[ /Rect [ 450 76 530 96 ]
  /Border [ 0 0 0 ]
  /Action << /Subtype /URI /URI ($TrieSDisco_8cpp.html#acdb9639784b2fb341e069b1f54c3455) >>
  /Subtype /Link
/ANN pdfmark
1 setlinewidth
0.000 0.000 0.000 nodecolor
newpath 450 75 moveto
450 96 lineto
530 96 lineto
530 75 lineto
closepath stroke
0.000 0.000 0.000 nodecolor
10.00 /FreeSans.ttf set_font
490 82 moveto 64 -0.5 (leeRelacion) alignedtext
grestore
% Node2->Node10
gsave
1 setlinewidth
solid
0.667 0.776 0.439 edgecolor
newpath 248 86 moveto
298 86 385 86 440 86 curveto
stroke
0.667 0.776 0.439 edgecolor
newpath 440 89.5001 moveto
450 86 lineto
440 82.5001 lineto
closepath fill
1 setlinewidth
solid
0.667 0.776 0.439 edgecolor
newpath 440 89.5001 moveto
450 86 lineto
440 82.5001 lineto
closepath stroke
grestore
% Node12
gsave
[ /Rect [ 311 38 399 58 ]
  /Border [ 0 0 0 ]
  /Action << /Subtype /URI /URI ($TrieSDisco_8cpp.html#3b55801abcb3987a49125a0ddc9ff76c) >>
  /Subtype /Link
/ANN pdfmark
[ /Rect [ 311 38 399 58 ]
  /Border [ 0 0 0 ]
  /Action << /Subtype /URI /URI ($TrieSDisco_8cpp.html#3b55801abcb3987a49125a0ddc9ff76c) >>
  /Subtype /Link
/ANN pdfmark
1 setlinewidth
0.000 0.000 0.000 nodecolor
newpath 311 37 moveto
311 58 lineto
400 58 lineto
400 37 lineto
closepath stroke
0.000 0.000 0.000 nodecolor
10.00 /FreeSans.ttf set_font
355 44 moveto 73 -0.5 (verificaIndice) alignedtext
grestore
% Node2->Node12
gsave
1 setlinewidth
solid
0.667 0.776 0.439 edgecolor
newpath 248 76 moveto
266 72 288 66 307 61 curveto
stroke
0.667 0.776 0.439 edgecolor
newpath 308.427 64.2259 moveto
317 58 lineto
306.416 57.5212 lineto
closepath fill
1 setlinewidth
solid
0.667 0.776 0.439 edgecolor
newpath 308.427 64.2259 moveto
317 58 lineto
306.416 57.5212 lineto
closepath stroke
grestore
% Node3->Node3
gsave
1 setlinewidth
solid
0.667 0.776 0.439 edgecolor
newpath 313 229 moveto
294 238 308 247 355 247 curveto
391 247 408 242 405 235 curveto
stroke
0.667 0.776 0.439 edgecolor
newpath 407.1 232.2 moveto
397 229 lineto
402.9 237.8 lineto
closepath fill
1 setlinewidth
solid
0.667 0.776 0.439 edgecolor
newpath 407.1 232.2 moveto
397 229 lineto
402.9 237.8 lineto
closepath stroke
grestore
% Node4
gsave
[ /Rect [ 592 266 646 286 ]
  /Border [ 0 0 0 ]
  /Action << /Subtype /URI /URI ($comun_8cpp.html#4a359aa93f2dd4e34badd70c0e1f7082) >>
  /Subtype /Link
/ANN pdfmark
[ /Rect [ 592 266 646 286 ]
  /Border [ 0 0 0 ]
  /Action << /Subtype /URI /URI ($comun_8cpp.html#4a359aa93f2dd4e34badd70c0e1f7082) >>
  /Subtype /Link
/ANN pdfmark
1 setlinewidth
0.000 0.000 0.000 nodecolor
newpath 592 265 moveto
592 286 lineto
647 286 lineto
647 265 lineto
closepath stroke
0.000 0.000 0.000 nodecolor
10.00 /FreeSans.ttf set_font
619 272 moveto 39 -0.5 (leeCad) alignedtext
grestore
% Node3->Node4
gsave
1 setlinewidth
solid
0.667 0.776 0.439 edgecolor
newpath 376 229 moveto
395 238 424 250 450 257 curveto
494 268 547 272 582 274 curveto
stroke
0.667 0.776 0.439 edgecolor
newpath 581.701 277.488 moveto
592 275 lineto
582.398 270.522 lineto
closepath fill
1 setlinewidth
solid
0.667 0.776 0.439 edgecolor
newpath 581.701 277.488 moveto
592 275 lineto
582.398 270.522 lineto
closepath stroke
grestore
% Node6
gsave
[ /Rect [ 456 228 524 248 ]
  /Border [ 0 0 0 ]
  /Action << /Subtype /URI /URI ($comun_8hpp.html#9871d7357fc245ec5b7a227a9a62eb36) >>
  /Subtype /Link
/ANN pdfmark
[ /Rect [ 456 228 524 248 ]
  /Border [ 0 0 0 ]
  /Action << /Subtype /URI /URI ($comun_8hpp.html#9871d7357fc245ec5b7a227a9a62eb36) >>
  /Subtype /Link
/ANN pdfmark
1 setlinewidth
0.000 0.000 0.000 nodecolor
newpath 456 227 moveto
456 248 lineto
524 248 lineto
524 227 lineto
closepath stroke
0.000 0.000 0.000 nodecolor
10.00 /FreeSans.ttf set_font
490 234 moveto 52 -0.5 (leeNDesp) alignedtext
grestore
% Node3->Node6
gsave
1 setlinewidth
solid
0.667 0.776 0.439 edgecolor
newpath 414 227 moveto
424 229 436 230 446 232 curveto
stroke
0.667 0.776 0.439 edgecolor
newpath 445.701 235.488 moveto
456 233 lineto
446.398 228.522 lineto
closepath fill
1 setlinewidth
solid
0.667 0.776 0.439 edgecolor
newpath 445.701 235.488 moveto
456 233 lineto
446.398 228.522 lineto
closepath stroke
grestore
% Node8
gsave
[ /Rect [ 465 190 515 210 ]
  /Border [ 0 0 0 ]
  /Action << /Subtype /URI /URI ($Pos_8cpp.html#36b67a50cba6dc1789825a3111bee9d2) >>
  /Subtype /Link
/ANN pdfmark
[ /Rect [ 465 190 515 210 ]
  /Border [ 0 0 0 ]
  /Action << /Subtype /URI /URI ($Pos_8cpp.html#36b67a50cba6dc1789825a3111bee9d2) >>
  /Subtype /Link
/ANN pdfmark
1 setlinewidth
0.000 0.000 0.000 nodecolor
newpath 465 189 moveto
465 210 lineto
516 210 lineto
516 189 lineto
closepath stroke
0.000 0.000 0.000 nodecolor
10.00 /FreeSans.ttf set_font
490 196 moveto 35 -0.5 (leePos) alignedtext
grestore
% Node3->Node8
gsave
1 setlinewidth
solid
0.667 0.776 0.439 edgecolor
newpath 414 211 moveto
428 209 442 207 455 205 curveto
stroke
0.667 0.776 0.439 edgecolor
newpath 455.398 208.478 moveto
465 204 lineto
454.701 201.512 lineto
closepath fill
1 setlinewidth
solid
0.667 0.776 0.439 edgecolor
newpath 455.398 208.478 moveto
465 204 lineto
454.701 201.512 lineto
closepath stroke
grestore
% Node4->Node5
gsave
1 setlinewidth
solid
0.667 0.776 0.439 edgecolor
newpath 647 270 moveto
656 267 665 263 672 257 curveto
706 231 731 187 744 162 curveto
stroke
0.667 0.776 0.439 edgecolor
newpath 747.137 163.56 moveto
748 153 lineto
740.74 160.717 lineto
closepath fill
1 setlinewidth
solid
0.667 0.776 0.439 edgecolor
newpath 747.137 163.56 moveto
748 153 lineto
740.74 160.717 lineto
closepath stroke
grestore
% Node7
gsave
[ /Rect [ 589 228 649 248 ]
  /Border [ 0 0 0 ]
  /Action << /Subtype /URI /URI ($comun_8cpp.html#c7bf9e68bbdccea36ce786b806244ea1) >>
  /Subtype /Link
/ANN pdfmark
[ /Rect [ 589 228 649 248 ]
  /Border [ 0 0 0 ]
  /Action << /Subtype /URI /URI ($comun_8cpp.html#c7bf9e68bbdccea36ce786b806244ea1) >>
  /Subtype /Link
/ANN pdfmark
1 setlinewidth
0.000 0.000 0.000 nodecolor
newpath 589 227 moveto
589 248 lineto
649 248 lineto
649 227 lineto
closepath stroke
0.000 0.000 0.000 nodecolor
10.00 /FreeSans.ttf set_font
619 234 moveto 44 -0.5 (lee128b) alignedtext
grestore
% Node6->Node7
gsave
1 setlinewidth
solid
0.667 0.776 0.439 edgecolor
newpath 524 238 moveto
541 238 561 238 579 238 curveto
stroke
0.667 0.776 0.439 edgecolor
newpath 579 241.5 moveto
589 238 lineto
579 234.5 lineto
closepath fill
1 setlinewidth
solid
0.667 0.776 0.439 edgecolor
newpath 579 241.5 moveto
589 238 lineto
579 234.5 lineto
closepath stroke
grestore
% Node7->Node5
gsave
1 setlinewidth
solid
0.667 0.776 0.439 edgecolor
newpath 648 227 moveto
656 223 665 219 672 214 curveto
696 199 720 176 735 160 curveto
stroke
0.667 0.776 0.439 edgecolor
newpath 737.404 162.546 moveto
742 153 lineto
732.454 157.596 lineto
closepath fill
1 setlinewidth
solid
0.667 0.776 0.439 edgecolor
newpath 737.404 162.546 moveto
742 153 lineto
732.454 157.596 lineto
closepath stroke
grestore
% Node8->Node5
gsave
1 setlinewidth
solid
0.667 0.776 0.439 edgecolor
newpath 516 200 moveto
552 199 618 195 672 181 curveto
691 175 711 166 726 158 curveto
stroke
0.667 0.776 0.439 edgecolor
newpath 727.958 160.916 moveto
735 153 lineto
724.559 154.797 lineto
closepath fill
1 setlinewidth
solid
0.667 0.776 0.439 edgecolor
newpath 727.958 160.916 moveto
735 153 lineto
724.559 154.797 lineto
closepath stroke
grestore
% Node9
gsave
[ /Rect [ 566 152 672 172 ]
  /Border [ 0 0 0 ]
  /Action << /Subtype /URI /URI ($Elias_8cpp.html#95ee5a0ffb91f203612d2ce9d063ec36) >>
  /Subtype /Link
/ANN pdfmark
[ /Rect [ 566 152 672 172 ]
  /Border [ 0 0 0 ]
  /Action << /Subtype /URI /URI ($Elias_8cpp.html#95ee5a0ffb91f203612d2ce9d063ec36) >>
  /Subtype /Link
/ANN pdfmark
1 setlinewidth
0.000 0.000 0.000 nodecolor
newpath 566 151 moveto
566 172 lineto
672 172 lineto
672 151 lineto
closepath stroke
0.000 0.000 0.000 nodecolor
10.00 /FreeSans.ttf set_font
619 158 moveto 90 -0.5 (lee_elias_gama2) alignedtext
grestore
% Node8->Node9
gsave
1 setlinewidth
solid
0.667 0.776 0.439 edgecolor
newpath 516 192 moveto
533 187 555 180 575 175 curveto
stroke
0.667 0.776 0.439 edgecolor
newpath 576.427 178.226 moveto
585 172 lineto
574.416 171.521 lineto
closepath fill
1 setlinewidth
solid
0.667 0.776 0.439 edgecolor
newpath 576.427 178.226 moveto
585 172 lineto
574.416 171.521 lineto
closepath stroke
grestore
% Node9->Node5
gsave
1 setlinewidth
solid
0.667 0.776 0.439 edgecolor
newpath 672 154 moveto
681 153 689 152 698 150 curveto
stroke
0.667 0.776 0.439 edgecolor
newpath 698.398 153.478 moveto
708 149 lineto
697.701 146.512 lineto
closepath fill
1 setlinewidth
solid
0.667 0.776 0.439 edgecolor
newpath 698.398 153.478 moveto
708 149 lineto
697.701 146.512 lineto
closepath stroke
grestore
% Node10->Node5
gsave
1 setlinewidth
solid
0.667 0.776 0.439 edgecolor
newpath 530 88 moveto
568 91 625 97 672 110 curveto
689 114 707 121 721 127 curveto
stroke
0.667 0.776 0.439 edgecolor
newpath 719.559 130.203 moveto
730 132 lineto
722.958 124.084 lineto
closepath fill
1 setlinewidth
solid
0.667 0.776 0.439 edgecolor
newpath 719.559 130.203 moveto
730 132 lineto
722.958 124.084 lineto
closepath stroke
grestore
% Node11
gsave
[ /Rect [ 590 38 648 58 ]
  /Border [ 0 0 0 ]
  /Action << /Subtype /URI /URI ($Doc_8cpp.html#e4bfd9bdedc0dd4fe00bf5f17f8f9e23) >>
  /Subtype /Link
/ANN pdfmark
[ /Rect [ 590 38 648 58 ]
  /Border [ 0 0 0 ]
  /Action << /Subtype /URI /URI ($Doc_8cpp.html#e4bfd9bdedc0dd4fe00bf5f17f8f9e23) >>
  /Subtype /Link
/ANN pdfmark
1 setlinewidth
0.000 0.000 0.000 nodecolor
newpath 590 37 moveto
590 58 lineto
649 58 lineto
649 37 lineto
closepath stroke
0.000 0.000 0.000 nodecolor
10.00 /FreeSans.ttf set_font
619 44 moveto 43 -0.5 (leeDocs) alignedtext
grestore
% Node10->Node11
gsave
1 setlinewidth
solid
0.667 0.776 0.439 edgecolor
newpath 528 75 moveto
545 70 564 64 580 60 curveto
stroke
0.667 0.776 0.439 edgecolor
newpath 581.427 63.2259 moveto
590 57 lineto
579.416 56.5212 lineto
closepath fill
1 setlinewidth
solid
0.667 0.776 0.439 edgecolor
newpath 581.427 63.2259 moveto
590 57 lineto
579.416 56.5212 lineto
closepath stroke
grestore
% Node11->Node5
gsave
1 setlinewidth
solid
0.667 0.776 0.439 edgecolor
newpath 647 58 moveto
655 62 664 66 672 72 curveto
696 86 719 109 735 125 curveto
stroke
0.667 0.776 0.439 edgecolor
newpath 732.454 127.404 moveto
742 132 lineto
737.404 122.454 lineto
closepath fill
1 setlinewidth
solid
0.667 0.776 0.439 edgecolor
newpath 732.454 127.404 moveto
742 132 lineto
737.404 122.454 lineto
closepath stroke
grestore
% Node12->Node5
gsave
1 setlinewidth
solid
0.667 0.776 0.439 edgecolor
newpath 400 40 moveto
476 27 626 5 672 29 curveto
710 49 733 96 744 123 curveto
stroke
0.667 0.776 0.439 edgecolor
newpath 740.74 124.283 moveto
748 132 lineto
747.137 121.44 lineto
closepath fill
1 setlinewidth
solid
0.667 0.776 0.439 edgecolor
newpath 740.74 124.283 moveto
748 132 lineto
747.137 121.44 lineto
closepath stroke
grestore
% Node14
gsave
[ /Rect [ 315 0 395 20 ]
  /Border [ 0 0 0 ]
  /Action << /Subtype /URI /URI ($Doc_8cpp.html#ccfa223b5e7e9f380b58db51687ff9a5) >>
  /Subtype /Link
/ANN pdfmark
[ /Rect [ 315 0 395 20 ]
  /Border [ 0 0 0 ]
  /Action << /Subtype /URI /URI ($Doc_8cpp.html#ccfa223b5e7e9f380b58db51687ff9a5) >>
  /Subtype /Link
/ANN pdfmark
1 setlinewidth
0.000 0.000 0.000 nodecolor
newpath 315 -1 moveto
315 20 lineto
396 20 lineto
396 -1 lineto
closepath stroke
0.000 0.000 0.000 nodecolor
10.00 /FreeSans.ttf set_font
355 6 moveto 65 -0.5 (escribeDocs) alignedtext
grestore
% Node13->Node14
gsave
1 setlinewidth
solid
0.667 0.776 0.439 edgecolor
newpath 260 22 moveto
274 20 290 18 305 16 curveto
stroke
0.667 0.776 0.439 edgecolor
newpath 305.398 19.4778 moveto
315 15 lineto
304.701 12.5125 lineto
closepath fill
1 setlinewidth
solid
0.667 0.776 0.439 edgecolor
newpath 305.398 19.4778 moveto
315 15 lineto
304.701 12.5125 lineto
closepath stroke
grestore
endpage
showpage
grestore
%%PageTrailer
%%EndPage: 1
%%Trailer
%%Pages: 1
%%BoundingBox: 36 36 840 330
end
restore
%%EOF
