%!PS-Adobe-2.0
%%Creator: Graphviz version 2.12 (Mon Nov 16 18:34:03 UTC 2009)
%%For: (vtamara) Vladimir
%%Title: G
%%Pages: (atend)
%%BoundingBox: (atend)
%%EndComments
save
%%BeginProlog
/DotDict 200 dict def
DotDict begin

/setupLatin1 {
mark
/EncodingVector 256 array def
 EncodingVector 0

ISOLatin1Encoding 0 255 getinterval putinterval
EncodingVector 45 /hyphen put

% Set up ISO Latin 1 character encoding
/starnetISO {
        dup dup findfont dup length dict begin
        { 1 index /FID ne { def }{ pop pop } ifelse
        } forall
        /Encoding EncodingVector def
        currentdict end definefont
} def
/Times-Roman starnetISO def
/Times-Italic starnetISO def
/Times-Bold starnetISO def
/Times-BoldItalic starnetISO def
/Helvetica starnetISO def
/Helvetica-Oblique starnetISO def
/Helvetica-Bold starnetISO def
/Helvetica-BoldOblique starnetISO def
/Courier starnetISO def
/Courier-Oblique starnetISO def
/Courier-Bold starnetISO def
/Courier-BoldOblique starnetISO def
cleartomark
} bind def

%%BeginResource: procset graphviz 0 0
/coord-font-family /Times-Roman def
/default-font-family /Times-Roman def
/coordfont coord-font-family findfont 8 scalefont def

/InvScaleFactor 1.0 def
/set_scale {
       dup 1 exch div /InvScaleFactor exch def
       scale
} bind def

% styles
/solid { [] 0 setdash } bind def
/dashed { [9 InvScaleFactor mul dup ] 0 setdash } bind def
/dotted { [1 InvScaleFactor mul 6 InvScaleFactor mul] 0 setdash } bind def
/invis {/fill {newpath} def /stroke {newpath} def /show {pop newpath} def} bind def
/bold { 2 setlinewidth } bind def
/filled { } bind def
/unfilled { } bind def
/rounded { } bind def
/diagonals { } bind def

% hooks for setting color 
/nodecolor { sethsbcolor } bind def
/edgecolor { sethsbcolor } bind def
/graphcolor { sethsbcolor } bind def
/nopcolor {pop pop pop} bind def

/beginpage {	% i j npages
	/npages exch def
	/j exch def
	/i exch def
	/str 10 string def
	npages 1 gt {
		gsave
			coordfont setfont
			0 0 moveto
			(\() show i str cvs show (,) show j str cvs show (\)) show
		grestore
	} if
} bind def

/set_font {
	findfont exch
	scalefont setfont
} def

% draw aligned label in bounding box aligned to current point
/alignedtext {			% width adj text
	/text exch def
	/adj exch def
	/width exch def
	gsave
		width 0 gt {
			text stringwidth pop adj mul 0 rmoveto
		} if
		[] 0 setdash
		text show
	grestore
} def

/boxprim {				% xcorner ycorner xsize ysize
		4 2 roll
		moveto
		2 copy
		exch 0 rlineto
		0 exch rlineto
		pop neg 0 rlineto
		closepath
} bind def

/ellipse_path {
	/ry exch def
	/rx exch def
	/y exch def
	/x exch def
	matrix currentmatrix
	newpath
	x y translate
	rx ry scale
	0 0 1 0 360 arc
	setmatrix
} bind def

/endpage { showpage } bind def
/showpage { } def

/layercolorseq
	[	% layer color sequence - darkest to lightest
		[0 0 0]
		[.2 .8 .8]
		[.4 .8 .8]
		[.6 .8 .8]
		[.8 .8 .8]
	]
def

/layerlen layercolorseq length def

/setlayer {/maxlayer exch def /curlayer exch def
	layercolorseq curlayer 1 sub layerlen mod get
	aload pop sethsbcolor
	/nodecolor {nopcolor} def
	/edgecolor {nopcolor} def
	/graphcolor {nopcolor} def
} bind def

/onlayer { curlayer ne {invis} if } def

/onlayers {
	/myupper exch def
	/mylower exch def
	curlayer mylower lt
	curlayer myupper gt
	or
	{invis} if
} def

/curlayer 0 def

%%EndResource
%%EndProlog
%%BeginSetup
14 default-font-family set_font
1 setmiterlimit
% /arrowlength 10 def
% /arrowwidth 5 def

% make sure pdfmark is harmless for PS-interpreters other than Distiller
/pdfmark where {pop} {userdict /pdfmark /cleartomark load put} ifelse
% make '<<' and '>>' safe on PS Level 1 devices
/languagelevel where {pop languagelevel}{1} ifelse
2 lt {
    userdict (<<) cvn ([) cvn load put
    userdict (>>) cvn ([) cvn load put
} if

%%EndSetup
setupLatin1
%%Page: 1 1
%%PageBoundingBox: 36 36 1518 708
%%PageOrientation: Portrait
gsave
36 36 1518 708 boxprim clip newpath
0 0 1 beginpage
1 1 set_scale 0 rotate 40 40 translate
% Node1
gsave
0.000 0.000 0.749 nodecolor
newpath 0 311 moveto
0 332 lineto
154 332 lineto
154 311 lineto
closepath fill
1 setlinewidth
filled
0.000 0.000 0.000 nodecolor
newpath 0 311 moveto
0 332 lineto
154 332 lineto
154 311 lineto
closepath stroke
0.000 0.000 0.000 nodecolor
10.00 /FreeSans.ttf set_font
77 318 moveto 138 -0.5 (prueba_mezclaDiscoRam) alignedtext
grestore
% Node2
gsave
[ /Rect [ 193 416 303 436 ]
  /Border [ 0 0 0 ]
  /Action << /Subtype /URI /URI ($classNodoTrieS.html#721fc27d7f6e4cfd26f4931fe6a9b70d) >>
  /Subtype /Link
/ANN pdfmark
[ /Rect [ 193 416 303 436 ]
  /Border [ 0 0 0 ]
  /Action << /Subtype /URI /URI ($classNodoTrieS.html#721fc27d7f6e4cfd26f4931fe6a9b70d) >>
  /Subtype /Link
/ANN pdfmark
1 setlinewidth
0.000 0.000 0.000 nodecolor
newpath 193 415 moveto
193 436 lineto
303 436 lineto
303 415 lineto
closepath stroke
0.000 0.000 0.000 nodecolor
10.00 /FreeSans.ttf set_font
248 422 moveto 94 -0.5 (NodoTrieS::busca) alignedtext
grestore
% Node1->Node2
gsave
1 setlinewidth
solid
0.667 0.776 0.439 edgecolor
newpath 89 332 moveto
110 348 152 380 190 402 curveto
196 405 202 408 208 411 curveto
stroke
0.667 0.776 0.439 edgecolor
newpath 207.415 414.536 moveto
218 415 lineto
210.015 408.036 lineto
closepath fill
1 setlinewidth
solid
0.667 0.776 0.439 edgecolor
newpath 207.415 414.536 moveto
218 415 lineto
210.015 408.036 lineto
closepath stroke
grestore
% Node3
gsave
[ /Rect [ 361 530 485 550 ]
  /Border [ 0 0 0 ]
  /Action << /Subtype /URI /URI ($RamDisco_8cpp.html#f0c232886a7851d8db3a647add9ae455) >>
  /Subtype /Link
/ANN pdfmark
[ /Rect [ 361 530 485 550 ]
  /Border [ 0 0 0 ]
  /Action << /Subtype /URI /URI ($RamDisco_8cpp.html#f0c232886a7851d8db3a647add9ae455) >>
  /Subtype /Link
/ANN pdfmark
1 setlinewidth
0.000 0.000 0.000 nodecolor
newpath 361 529 moveto
361 550 lineto
486 550 lineto
486 529 lineto
closepath stroke
0.000 0.000 0.000 nodecolor
10.00 /FreeSans.ttf set_font
423 536 moveto 109 -0.5 (escribePlanoStream) alignedtext
grestore
% Node1->Node3
gsave
1 setlinewidth
solid
0.667 0.776 0.439 edgecolor
newpath 100 332 moveto
123 342 159 357 190 369 curveto
241 387 268 368 306 407 curveto
344 444 304 484 342 521 curveto
345 524 348 526 352 528 curveto
stroke
0.667 0.776 0.439 edgecolor
newpath 350.44 531.137 moveto
361 532 lineto
353.283 524.74 lineto
closepath fill
1 setlinewidth
solid
0.667 0.776 0.439 edgecolor
newpath 350.44 531.137 moveto
361 532 lineto
353.283 524.74 lineto
closepath stroke
grestore
% Node16
gsave
[ /Rect [ 191 94 305 114 ]
  /Border [ 0 0 0 ]
  /Action << /Subtype /URI /URI ($classNodoTrieS.html#2fc30ff9fad0ba7dff585e913f34cc84) >>
  /Subtype /Link
/ANN pdfmark
[ /Rect [ 191 94 305 114 ]
  /Border [ 0 0 0 ]
  /Action << /Subtype /URI /URI ($classNodoTrieS.html#2fc30ff9fad0ba7dff585e913f34cc84) >>
  /Subtype /Link
/ANN pdfmark
1 setlinewidth
0.000 0.000 0.000 nodecolor
newpath 191 93 moveto
191 114 lineto
306 114 lineto
306 93 lineto
closepath stroke
0.000 0.000 0.000 nodecolor
10.00 /FreeSans.ttf set_font
248 100 moveto 99 -0.5 (NodoTrieS::inserta) alignedtext
grestore
% Node1->Node16
gsave
1 setlinewidth
solid
0.667 0.776 0.439 edgecolor
newpath 86 311 moveto
114 275 199 166 234 122 curveto
stroke
0.667 0.776 0.439 edgecolor
newpath 236.8 124.1 moveto
240 114 lineto
231.2 119.9 lineto
closepath fill
1 setlinewidth
solid
0.667 0.776 0.439 edgecolor
newpath 236.8 124.1 moveto
240 114 lineto
231.2 119.9 lineto
closepath stroke
grestore
% Node19
gsave
[ /Rect [ 372 0 474 20 ]
  /Border [ 0 0 0 ]
  /Action << /Subtype /URI /URI ($RamDisco_8cpp.html#6629a007f761319a91a329f1071896fa) >>
  /Subtype /Link
/ANN pdfmark
[ /Rect [ 372 0 474 20 ]
  /Border [ 0 0 0 ]
  /Action << /Subtype /URI /URI ($RamDisco_8cpp.html#6629a007f761319a91a329f1071896fa) >>
  /Subtype /Link
/ANN pdfmark
1 setlinewidth
0.000 0.000 0.000 nodecolor
newpath 372 -1 moveto
372 20 lineto
475 20 lineto
475 -1 lineto
closepath stroke
0.000 0.000 0.000 nodecolor
10.00 /FreeSans.ttf set_font
423 6 moveto 87 -0.5 (leePlanoStream) alignedtext
grestore
% Node1->Node19
gsave
1 setlinewidth
solid
0.667 0.776 0.439 edgecolor
newpath 79 311 moveto
87 273 117 150 190 85 curveto
239 43 310 24 362 16 curveto
stroke
0.667 0.776 0.439 edgecolor
newpath 362.398 19.4778 moveto
372 15 lineto
361.701 12.5125 lineto
closepath fill
1 setlinewidth
solid
0.667 0.776 0.439 edgecolor
newpath 362.398 19.4778 moveto
372 15 lineto
361.701 12.5125 lineto
closepath stroke
grestore
% Node25
gsave
[ /Rect [ 219 340 277 360 ]
  /Border [ 0 0 0 ]
  /Action << /Subtype /URI /URI ($CasosPrueba_8hpp.html#9d3e570cd9f7040235c0162eaaadb70c) >>
  /Subtype /Link
/ANN pdfmark
[ /Rect [ 219 340 277 360 ]
  /Border [ 0 0 0 ]
  /Action << /Subtype /URI /URI ($CasosPrueba_8hpp.html#9d3e570cd9f7040235c0162eaaadb70c) >>
  /Subtype /Link
/ANN pdfmark
1 setlinewidth
0.000 0.000 0.000 nodecolor
newpath 219 339 moveto
219 360 lineto
277 360 lineto
277 339 lineto
closepath stroke
0.000 0.000 0.000 nodecolor
10.00 /FreeSans.ttf set_font
248 346 moveto 42 -0.5 (llena_ss) alignedtext
grestore
% Node1->Node25
gsave
1 setlinewidth
solid
0.667 0.776 0.439 edgecolor
newpath 138 332 moveto
161 335 187 340 209 344 curveto
stroke
0.667 0.776 0.439 edgecolor
newpath 208.701 347.488 moveto
219 345 lineto
209.398 340.522 lineto
closepath fill
1 setlinewidth
solid
0.667 0.776 0.439 edgecolor
newpath 208.701 347.488 moveto
219 345 lineto
209.398 340.522 lineto
closepath stroke
grestore
% Node26
gsave
[ /Rect [ 193 284 303 304 ]
  /Border [ 0 0 0 ]
  /Action << /Subtype /URI /URI ($RamDisco_8cpp.html#9889da3dbb12ee73c109e4998e1269f4) >>
  /Subtype /Link
/ANN pdfmark
[ /Rect [ 193 284 303 304 ]
  /Border [ 0 0 0 ]
  /Action << /Subtype /URI /URI ($RamDisco_8cpp.html#9889da3dbb12ee73c109e4998e1269f4) >>
  /Subtype /Link
/ANN pdfmark
1 setlinewidth
0.000 0.000 0.000 nodecolor
newpath 193 283 moveto
193 304 lineto
303 304 lineto
303 283 lineto
closepath stroke
0.000 0.000 0.000 nodecolor
10.00 /FreeSans.ttf set_font
248 290 moveto 94 -0.5 (mezclaDiscoRam) alignedtext
grestore
% Node1->Node26
gsave
1 setlinewidth
solid
0.667 0.776 0.439 edgecolor
newpath 145 311 moveto
157 309 171 307 183 305 curveto
stroke
0.667 0.776 0.439 edgecolor
newpath 183.881 308.393 moveto
193 303 lineto
182.508 301.529 lineto
closepath fill
1 setlinewidth
solid
0.667 0.776 0.439 edgecolor
newpath 183.881 308.393 moveto
193 303 lineto
182.508 301.529 lineto
closepath stroke
grestore
% Node2->Node2
gsave
1 setlinewidth
solid
0.667 0.776 0.439 edgecolor
newpath 194 436 moveto
171 445 189 454 248 454 curveto
295 454 316 448 311 441 curveto
stroke
0.667 0.776 0.439 edgecolor
newpath 312.441 437.797 moveto
302 436 lineto
309.042 443.916 lineto
closepath fill
1 setlinewidth
solid
0.667 0.776 0.439 edgecolor
newpath 312.441 437.797 moveto
302 436 lineto
309.042 443.916 lineto
closepath stroke
grestore
% Node4
gsave
[ /Rect [ 557 416 641 436 ]
  /Border [ 0 0 0 ]
  /Action << /Subtype /URI /URI ($TrieSDisco_8cpp.html#95dfc28ebaa02e82d3d1ffce08251628) >>
  /Subtype /Link
/ANN pdfmark
[ /Rect [ 557 416 641 436 ]
  /Border [ 0 0 0 ]
  /Action << /Subtype /URI /URI ($TrieSDisco_8cpp.html#95dfc28ebaa02e82d3d1ffce08251628) >>
  /Subtype /Link
/ANN pdfmark
1 setlinewidth
0.000 0.000 0.000 nodecolor
newpath 557 415 moveto
557 436 lineto
641 436 lineto
641 415 lineto
closepath stroke
0.000 0.000 0.000 nodecolor
10.00 /FreeSans.ttf set_font
599 422 moveto 68 -0.5 (escribeNodo) alignedtext
grestore
% Node3->Node4
gsave
1 setlinewidth
solid
0.667 0.776 0.439 edgecolor
newpath 486 531 moveto
493 529 499 525 504 521 curveto
534 497 512 469 540 445 curveto
542 443 545 441 548 439 curveto
stroke
0.667 0.776 0.439 edgecolor
newpath 549.283 442.26 moveto
557 435 lineto
546.44 435.863 lineto
closepath fill
1 setlinewidth
solid
0.667 0.776 0.439 edgecolor
newpath 549.283 442.26 moveto
557 435 lineto
546.44 435.863 lineto
closepath stroke
grestore
% Node10
gsave
[ /Rect [ 932 501 1088 521 ]
  /Border [ 0 0 0 ]
  /Action << /Subtype /URI /URI ($TrieSDisco_8cpp.html#453b277936104f13edb4f8158e015eba) >>
  /Subtype /Link
/ANN pdfmark
[ /Rect [ 932 501 1088 521 ]
  /Border [ 0 0 0 ]
  /Action << /Subtype /URI /URI ($TrieSDisco_8cpp.html#453b277936104f13edb4f8158e015eba) >>
  /Subtype /Link
/ANN pdfmark
1 setlinewidth
0.000 0.000 0.000 nodecolor
newpath 932 500 moveto
932 521 lineto
1088 521 lineto
1088 500 lineto
closepath stroke
0.000 0.000 0.000 nodecolor
10.00 /FreeSans.ttf set_font
1010 507 moveto 140 -0.5 (precalcula_escribe_actual) alignedtext
grestore
% Node3->Node10
gsave
1 setlinewidth
solid
0.667 0.776 0.439 edgecolor
newpath 434 550 moveto
454 568 497 602 540 615 curveto
707 664 913 565 984 526 curveto
stroke
0.667 0.776 0.439 edgecolor
newpath 985.958 528.916 moveto
993 521 lineto
982.559 522.797 lineto
closepath fill
1 setlinewidth
solid
0.667 0.776 0.439 edgecolor
newpath 985.958 528.916 moveto
993 521 lineto
982.559 522.797 lineto
closepath stroke
grestore
% Node14
gsave
[ /Rect [ 541 568 657 588 ]
  /Border [ 0 0 0 ]
  /Action << /Subtype /URI /URI ($RamDisco_8cpp.html#6b1b44682de6eb9fccd3df71e404154a) >>
  /Subtype /Link
/ANN pdfmark
[ /Rect [ 541 568 657 588 ]
  /Border [ 0 0 0 ]
  /Action << /Subtype /URI /URI ($RamDisco_8cpp.html#6b1b44682de6eb9fccd3df71e404154a) >>
  /Subtype /Link
/ANN pdfmark
1 setlinewidth
0.000 0.000 0.000 nodecolor
newpath 541 567 moveto
541 588 lineto
658 588 lineto
658 567 lineto
closepath stroke
0.000 0.000 0.000 nodecolor
10.00 /FreeSans.ttf set_font
599 574 moveto 101 -0.5 (precalcula_escribe) alignedtext
grestore
% Node3->Node14
gsave
1 setlinewidth
solid
0.667 0.776 0.439 edgecolor
newpath 470 550 moveto
491 554 516 560 539 565 curveto
stroke
0.667 0.776 0.439 edgecolor
newpath 538.508 568.471 moveto
549 567 lineto
539.881 561.607 lineto
closepath fill
1 setlinewidth
solid
0.667 0.776 0.439 edgecolor
newpath 538.508 568.471 moveto
549 567 lineto
539.881 561.607 lineto
closepath stroke
grestore
% Node15
gsave
[ /Rect [ 694 530 896 550 ]
  /Border [ 0 0 0 ]
  /Action << /Subtype /URI /URI ($RamDisco_8cpp.html#5b79fc3f073aeb2481fb1d51274a52a6) >>
  /Subtype /Link
/ANN pdfmark
[ /Rect [ 694 530 896 550 ]
  /Border [ 0 0 0 ]
  /Action << /Subtype /URI /URI ($RamDisco_8cpp.html#5b79fc3f073aeb2481fb1d51274a52a6) >>
  /Subtype /Link
/ANN pdfmark
1 setlinewidth
0.000 0.000 0.000 nodecolor
newpath 694 529 moveto
694 550 lineto
896 550 lineto
896 529 lineto
closepath stroke
0.000 0.000 0.000 nodecolor
10.00 /FreeSans.ttf set_font
795 536 moveto 186 -0.5 (precalcula_escribe_con_hermanos) alignedtext
grestore
% Node3->Node15
gsave
1 setlinewidth
solid
0.667 0.776 0.439 edgecolor
newpath 486 540 moveto
540 540 619 540 684 540 curveto
stroke
0.667 0.776 0.439 edgecolor
newpath 684 543.5 moveto
694 540 lineto
684 536.5 lineto
closepath fill
1 setlinewidth
solid
0.667 0.776 0.439 edgecolor
newpath 684 543.5 moveto
694 540 lineto
684 536.5 lineto
closepath stroke
grestore
% Node5
gsave
[ /Rect [ 750 359 840 379 ]
  /Border [ 0 0 0 ]
  /Action << /Subtype /URI /URI ($comun_8hpp.html#96402bda6527bf98dd8e49d62ae182f8) >>
  /Subtype /Link
/ANN pdfmark
[ /Rect [ 750 359 840 379 ]
  /Border [ 0 0 0 ]
  /Action << /Subtype /URI /URI ($comun_8hpp.html#96402bda6527bf98dd8e49d62ae182f8) >>
  /Subtype /Link
/ANN pdfmark
1 setlinewidth
0.000 0.000 0.000 nodecolor
newpath 750 358 moveto
750 379 lineto
840 379 lineto
840 358 lineto
closepath stroke
0.000 0.000 0.000 nodecolor
10.00 /FreeSans.ttf set_font
795 365 moveto 74 -0.5 (escribeNDesp) alignedtext
grestore
% Node4->Node5
gsave
1 setlinewidth
solid
0.667 0.776 0.439 edgecolor
newpath 637 415 moveto
670 405 716 392 750 382 curveto
stroke
0.667 0.776 0.439 edgecolor
newpath 751.427 385.226 moveto
760 379 lineto
749.416 378.521 lineto
closepath fill
1 setlinewidth
solid
0.667 0.776 0.439 edgecolor
newpath 751.427 385.226 moveto
760 379 lineto
749.416 378.521 lineto
closepath stroke
grestore
% Node7
gsave
[ /Rect [ 1126 425 1198 445 ]
  /Border [ 0 0 0 ]
  /Action << /Subtype /URI /URI ($Pos_8cpp.html#42c2daaa880eeb397c024b6ffa22c8cf) >>
  /Subtype /Link
/ANN pdfmark
[ /Rect [ 1126 425 1198 445 ]
  /Border [ 0 0 0 ]
  /Action << /Subtype /URI /URI ($Pos_8cpp.html#42c2daaa880eeb397c024b6ffa22c8cf) >>
  /Subtype /Link
/ANN pdfmark
1 setlinewidth
0.000 0.000 0.000 nodecolor
newpath 1126 424 moveto
1126 445 lineto
1199 445 lineto
1199 424 lineto
closepath stroke
0.000 0.000 0.000 nodecolor
10.00 /FreeSans.ttf set_font
1162 431 moveto 57 -0.5 (escribePos) alignedtext
grestore
% Node4->Node7
gsave
1 setlinewidth
solid
0.667 0.776 0.439 edgecolor
newpath 641 427 moveto
745 429 1008 433 1116 434 curveto
stroke
0.667 0.776 0.439 edgecolor
newpath 1116 437.5 moveto
1126 434 lineto
1116 430.5 lineto
closepath fill
1 setlinewidth
solid
0.667 0.776 0.439 edgecolor
newpath 1116 437.5 moveto
1126 434 lineto
1116 430.5 lineto
closepath stroke
grestore
% Node4->Node10
gsave
1 setlinewidth
solid
0.667 0.776 0.439 edgecolor
newpath 640 436 moveto
657 440 676 445 694 449 curveto
778 467 876 486 940 498 curveto
stroke
0.667 0.776 0.439 edgecolor
newpath 939.508 501.471 moveto
950 500 lineto
940.881 494.607 lineto
closepath fill
1 setlinewidth
solid
0.667 0.776 0.439 edgecolor
newpath 939.508 501.471 moveto
950 500 lineto
940.881 494.607 lineto
closepath stroke
grestore
% Node6
gsave
[ /Rect [ 969 359 1051 379 ]
  /Border [ 0 0 0 ]
  /Action << /Subtype /URI /URI ($comun_8cpp.html#b5388a972300b0a3d2e70c16097a3781) >>
  /Subtype /Link
/ANN pdfmark
[ /Rect [ 969 359 1051 379 ]
  /Border [ 0 0 0 ]
  /Action << /Subtype /URI /URI ($comun_8cpp.html#b5388a972300b0a3d2e70c16097a3781) >>
  /Subtype /Link
/ANN pdfmark
1 setlinewidth
0.000 0.000 0.000 nodecolor
newpath 969 358 moveto
969 379 lineto
1051 379 lineto
1051 358 lineto
closepath stroke
0.000 0.000 0.000 nodecolor
10.00 /FreeSans.ttf set_font
1010 365 moveto 66 -0.5 (escribe128b) alignedtext
grestore
% Node5->Node6
gsave
1 setlinewidth
solid
0.667 0.776 0.439 edgecolor
newpath 840 369 moveto
875 369 922 369 959 369 curveto
stroke
0.667 0.776 0.439 edgecolor
newpath 959 372.5 moveto
969 369 lineto
959 365.5 lineto
closepath fill
1 setlinewidth
solid
0.667 0.776 0.439 edgecolor
newpath 959 372.5 moveto
969 369 lineto
959 365.5 lineto
closepath stroke
grestore
% Node8
gsave
[ /Rect [ 1236 444 1364 464 ]
  /Border [ 0 0 0 ]
  /Action << /Subtype /URI /URI ($Elias_8cpp.html#59732ce42a1e75fbbb382a6964ef4620) >>
  /Subtype /Link
/ANN pdfmark
[ /Rect [ 1236 444 1364 464 ]
  /Border [ 0 0 0 ]
  /Action << /Subtype /URI /URI ($Elias_8cpp.html#59732ce42a1e75fbbb382a6964ef4620) >>
  /Subtype /Link
/ANN pdfmark
1 setlinewidth
0.000 0.000 0.000 nodecolor
newpath 1236 443 moveto
1236 464 lineto
1364 464 lineto
1364 443 lineto
closepath stroke
0.000 0.000 0.000 nodecolor
10.00 /FreeSans.ttf set_font
1300 450 moveto 112 -0.5 (escribe_elias_gama2) alignedtext
grestore
% Node7->Node8
gsave
1 setlinewidth
solid
0.667 0.776 0.439 edgecolor
newpath 1199 440 moveto
1207 441 1216 442 1226 444 curveto
stroke
0.667 0.776 0.439 edgecolor
newpath 1225.7 447.488 moveto
1236 445 lineto
1226.4 440.522 lineto
closepath fill
1 setlinewidth
solid
0.667 0.776 0.439 edgecolor
newpath 1225.7 447.488 moveto
1236 445 lineto
1226.4 440.522 lineto
closepath stroke
grestore
% Node9
gsave
[ /Rect [ 1401 467 1473 487 ]
  /Border [ 0 0 0 ]
  /Action << /Subtype /URI /URI ($Elias_8cpp.html#7127ec8dff13cc2ad873693ca8933d38) >>
  /Subtype /Link
/ANN pdfmark
[ /Rect [ 1401 467 1473 487 ]
  /Border [ 0 0 0 ]
  /Action << /Subtype /URI /URI ($Elias_8cpp.html#7127ec8dff13cc2ad873693ca8933d38) >>
  /Subtype /Link
/ANN pdfmark
1 setlinewidth
0.000 0.000 0.000 nodecolor
newpath 1401 466 moveto
1401 487 lineto
1474 487 lineto
1474 466 lineto
closepath stroke
0.000 0.000 0.000 nodecolor
10.00 /FreeSans.ttf set_font
1437 473 moveto 57 -0.5 (piso_logb2) alignedtext
grestore
% Node8->Node9
gsave
1 setlinewidth
solid
0.667 0.776 0.439 edgecolor
newpath 1360 464 moveto
1370 466 1381 468 1391 469 curveto
stroke
0.667 0.776 0.439 edgecolor
newpath 1390.51 472.471 moveto
1401 471 lineto
1391.88 465.607 lineto
closepath fill
1 setlinewidth
solid
0.667 0.776 0.439 edgecolor
newpath 1390.51 472.471 moveto
1401 471 lineto
1391.88 465.607 lineto
closepath stroke
grestore
% Node11
gsave
[ /Rect [ 1125 463 1199 483 ]
  /Border [ 0 0 0 ]
  /Action << /Subtype /URI /URI ($comun_8hpp.html#3f1f97c70ac3ffba1584b0fc02661cab) >>
  /Subtype /Link
/ANN pdfmark
[ /Rect [ 1125 463 1199 483 ]
  /Border [ 0 0 0 ]
  /Action << /Subtype /URI /URI ($comun_8hpp.html#3f1f97c70ac3ffba1584b0fc02661cab) >>
  /Subtype /Link
/ANN pdfmark
1 setlinewidth
0.000 0.000 0.000 nodecolor
newpath 1125 462 moveto
1125 483 lineto
1200 483 lineto
1200 462 lineto
closepath stroke
0.000 0.000 0.000 nodecolor
10.00 /FreeSans.ttf set_font
1162 469 moveto 59 -0.5 (longNDesp) alignedtext
grestore
% Node10->Node11
gsave
1 setlinewidth
solid
0.667 0.776 0.439 edgecolor
newpath 1054 500 moveto
1073 496 1095 490 1115 485 curveto
stroke
0.667 0.776 0.439 edgecolor
newpath 1116.43 488.226 moveto
1125 482 lineto
1114.42 481.521 lineto
closepath fill
1 setlinewidth
solid
0.667 0.776 0.439 edgecolor
newpath 1116.43 488.226 moveto
1125 482 lineto
1114.42 481.521 lineto
closepath stroke
grestore
% Node12
gsave
[ /Rect [ 1133 501 1191 521 ]
  /Border [ 0 0 0 ]
  /Action << /Subtype /URI /URI ($Pos_8cpp.html#ad8740377e9e19836d654491a170ac9a) >>
  /Subtype /Link
/ANN pdfmark
[ /Rect [ 1133 501 1191 521 ]
  /Border [ 0 0 0 ]
  /Action << /Subtype /URI /URI ($Pos_8cpp.html#ad8740377e9e19836d654491a170ac9a) >>
  /Subtype /Link
/ANN pdfmark
1 setlinewidth
0.000 0.000 0.000 nodecolor
newpath 1133 500 moveto
1133 521 lineto
1191 521 lineto
1191 500 lineto
closepath stroke
0.000 0.000 0.000 nodecolor
10.00 /FreeSans.ttf set_font
1162 507 moveto 42 -0.5 (longPos) alignedtext
grestore
% Node10->Node12
gsave
1 setlinewidth
solid
0.667 0.776 0.439 edgecolor
newpath 1088 511 moveto
1100 511 1112 511 1123 511 curveto
stroke
0.667 0.776 0.439 edgecolor
newpath 1123 514.5 moveto
1133 511 lineto
1123 507.5 lineto
closepath fill
1 setlinewidth
solid
0.667 0.776 0.439 edgecolor
newpath 1123 514.5 moveto
1133 511 lineto
1123 507.5 lineto
closepath stroke
grestore
% Node13
gsave
[ /Rect [ 1247 491 1353 511 ]
  /Border [ 0 0 0 ]
  /Action << /Subtype /URI /URI ($Elias_8cpp.html#214c4fd6adcbe1fe7de47c4ba521198a) >>
  /Subtype /Link
/ANN pdfmark
[ /Rect [ 1247 491 1353 511 ]
  /Border [ 0 0 0 ]
  /Action << /Subtype /URI /URI ($Elias_8cpp.html#214c4fd6adcbe1fe7de47c4ba521198a) >>
  /Subtype /Link
/ANN pdfmark
1 setlinewidth
0.000 0.000 0.000 nodecolor
newpath 1247 490 moveto
1247 511 lineto
1354 511 lineto
1354 490 lineto
closepath stroke
0.000 0.000 0.000 nodecolor
10.00 /FreeSans.ttf set_font
1300 497 moveto 91 -0.5 (long_elias_gama) alignedtext
grestore
% Node12->Node13
gsave
1 setlinewidth
solid
0.667 0.776 0.439 edgecolor
newpath 1191 509 moveto
1204 508 1221 507 1237 506 curveto
stroke
0.667 0.776 0.439 edgecolor
newpath 1237.4 509.478 moveto
1247 505 lineto
1236.7 502.512 lineto
closepath fill
1 setlinewidth
solid
0.667 0.776 0.439 edgecolor
newpath 1237.4 509.478 moveto
1247 505 lineto
1236.7 502.512 lineto
closepath stroke
grestore
% Node13->Node9
gsave
1 setlinewidth
solid
0.667 0.776 0.439 edgecolor
newpath 1354 492 moveto
1366 490 1379 487 1391 485 curveto
stroke
0.667 0.776 0.439 edgecolor
newpath 1391.4 488.478 moveto
1401 484 lineto
1390.7 481.512 lineto
closepath fill
1 setlinewidth
solid
0.667 0.776 0.439 edgecolor
newpath 1391.4 488.478 moveto
1401 484 lineto
1390.7 481.512 lineto
closepath stroke
grestore
% Node14->Node14
gsave
1 setlinewidth
solid
0.667 0.776 0.439 edgecolor
newpath 543 588 moveto
519 597 537 606 599 606 curveto
649 606 671 600 664 593 curveto
stroke
0.667 0.776 0.439 edgecolor
newpath 665.441 589.797 moveto
655 588 lineto
662.042 595.916 lineto
closepath fill
1 setlinewidth
solid
0.667 0.776 0.439 edgecolor
newpath 665.441 589.797 moveto
655 588 lineto
662.042 595.916 lineto
closepath stroke
grestore
% Node14->Node15
gsave
1 setlinewidth
solid
0.667 0.776 0.439 edgecolor
newpath 656 567 moveto
681 563 709 557 734 552 curveto
stroke
0.667 0.776 0.439 edgecolor
newpath 734.881 555.393 moveto
744 550 lineto
733.508 548.529 lineto
closepath fill
1 setlinewidth
solid
0.667 0.776 0.439 edgecolor
newpath 734.881 555.393 moveto
744 550 lineto
733.508 548.529 lineto
closepath stroke
grestore
% Node15->Node10
gsave
1 setlinewidth
solid
0.667 0.776 0.439 edgecolor
newpath 877 529 moveto
893 527 910 525 926 522 curveto
stroke
0.667 0.776 0.439 edgecolor
newpath 926.398 525.478 moveto
936 521 lineto
925.701 518.512 lineto
closepath fill
1 setlinewidth
solid
0.667 0.776 0.439 edgecolor
newpath 926.398 525.478 moveto
936 521 lineto
925.701 518.512 lineto
closepath stroke
grestore
% Node16->Node16
gsave
1 setlinewidth
solid
0.667 0.776 0.439 edgecolor
newpath 194 114 moveto
171 123 189 132 248 132 curveto
295 132 316 126 311 119 curveto
stroke
0.667 0.776 0.439 edgecolor
newpath 312.441 115.797 moveto
302 114 lineto
309.042 121.916 lineto
closepath fill
1 setlinewidth
solid
0.667 0.776 0.439 edgecolor
newpath 312.441 115.797 moveto
302 114 lineto
309.042 121.916 lineto
closepath stroke
grestore
% Node17
gsave
[ /Rect [ 356 56 490 76 ]
  /Border [ 0 0 0 ]
  /Action << /Subtype /URI /URI ($classNodoTrieS.html#4f1525cf7f147f71e7be74c15d4f87a0) >>
  /Subtype /Link
/ANN pdfmark
[ /Rect [ 356 56 490 76 ]
  /Border [ 0 0 0 ]
  /Action << /Subtype /URI /URI ($classNodoTrieS.html#4f1525cf7f147f71e7be74c15d4f87a0) >>
  /Subtype /Link
/ANN pdfmark
1 setlinewidth
0.000 0.000 0.000 nodecolor
newpath 356 55 moveto
356 76 lineto
490 76 lineto
490 55 lineto
closepath stroke
0.000 0.000 0.000 nodecolor
10.00 /FreeSans.ttf set_font
423 62 moveto 118 -0.5 (NodoTrieS::NodoTrieS) alignedtext
grestore
% Node16->Node17
gsave
1 setlinewidth
solid
0.667 0.776 0.439 edgecolor
newpath 299 93 moveto
321 89 346 83 368 78 curveto
stroke
0.667 0.776 0.439 edgecolor
newpath 368.881 81.3933 moveto
378 76 lineto
367.508 74.5292 lineto
closepath fill
1 setlinewidth
solid
0.667 0.776 0.439 edgecolor
newpath 368.881 81.3933 moveto
378 76 lineto
367.508 74.5292 lineto
closepath stroke
grestore
% Node18
gsave
[ /Rect [ 346 94 500 114 ]
  /Border [ 0 0 0 ]
  /Action << /Subtype /URI /URI ($comun_8cpp.html#c74356d5b37d454e0ddce0de8fac34f8) >>
  /Subtype /Link
/ANN pdfmark
[ /Rect [ 346 94 500 114 ]
  /Border [ 0 0 0 ]
  /Action << /Subtype /URI /URI ($comun_8cpp.html#c74356d5b37d454e0ddce0de8fac34f8) >>
  /Subtype /Link
/ANN pdfmark
1 setlinewidth
0.000 0.000 0.000 nodecolor
newpath 346 93 moveto
346 114 lineto
501 114 lineto
501 93 lineto
closepath stroke
0.000 0.000 0.000 nodecolor
10.00 /FreeSans.ttf set_font
423 100 moveto 139 -0.5 (prefijo_comun_mas_largo) alignedtext
grestore
% Node16->Node18
gsave
1 setlinewidth
solid
0.667 0.776 0.439 edgecolor
newpath 306 104 moveto
316 104 326 104 336 104 curveto
stroke
0.667 0.776 0.439 edgecolor
newpath 336 107.5 moveto
346 104 lineto
336 100.5 lineto
closepath fill
1 setlinewidth
solid
0.667 0.776 0.439 edgecolor
newpath 336 107.5 moveto
346 104 lineto
336 100.5 lineto
closepath stroke
grestore
% Node19->Node19
gsave
1 setlinewidth
solid
0.667 0.776 0.439 edgecolor
newpath 372 19 moveto
342 28 359 38 423 38 curveto
477 38 497 31 484 23 curveto
stroke
0.667 0.776 0.439 edgecolor
newpath 485.56 19.8631 moveto
475 19 lineto
482.717 26.2598 lineto
closepath fill
1 setlinewidth
solid
0.667 0.776 0.439 edgecolor
newpath 485.56 19.8631 moveto
475 19 lineto
482.717 26.2598 lineto
closepath stroke
grestore
% Node20
gsave
[ /Rect [ 966 170 1054 190 ]
  /Border [ 0 0 0 ]
  /Action << /Subtype /URI /URI ($comun_8cpp.html#88ffeb20e447cad877c37bb473033590) >>
  /Subtype /Link
/ANN pdfmark
[ /Rect [ 966 170 1054 190 ]
  /Border [ 0 0 0 ]
  /Action << /Subtype /URI /URI ($comun_8cpp.html#88ffeb20e447cad877c37bb473033590) >>
  /Subtype /Link
/ANN pdfmark
1 setlinewidth
0.000 0.000 0.000 nodecolor
newpath 966 169 moveto
966 190 lineto
1054 190 lineto
1054 169 lineto
closepath stroke
0.000 0.000 0.000 nodecolor
10.00 /FreeSans.ttf set_font
1010 176 moveto 72 -0.5 (errorFormato) alignedtext
grestore
% Node19->Node20
gsave
1 setlinewidth
solid
0.667 0.776 0.439 edgecolor
newpath 475 19 moveto
564 34 748 70 896 123 curveto
927 134 960 151 982 164 curveto
stroke
0.667 0.776 0.439 edgecolor
newpath 980.559 167.203 moveto
991 169 lineto
983.958 161.084 lineto
closepath fill
1 setlinewidth
solid
0.667 0.776 0.439 edgecolor
newpath 980.559 167.203 moveto
991 169 lineto
983.958 161.084 lineto
closepath stroke
grestore
% Node21
gsave
[ /Rect [ 565 132 633 152 ]
  /Border [ 0 0 0 ]
  /Action << /Subtype /URI /URI ($comun_8hpp.html#9871d7357fc245ec5b7a227a9a62eb36) >>
  /Subtype /Link
/ANN pdfmark
[ /Rect [ 565 132 633 152 ]
  /Border [ 0 0 0 ]
  /Action << /Subtype /URI /URI ($comun_8hpp.html#9871d7357fc245ec5b7a227a9a62eb36) >>
  /Subtype /Link
/ANN pdfmark
1 setlinewidth
0.000 0.000 0.000 nodecolor
newpath 565 131 moveto
565 152 lineto
633 152 lineto
633 131 lineto
closepath stroke
0.000 0.000 0.000 nodecolor
10.00 /FreeSans.ttf set_font
599 138 moveto 52 -0.5 (leeNDesp) alignedtext
grestore
% Node19->Node21
gsave
1 setlinewidth
solid
0.667 0.776 0.439 edgecolor
newpath 451 20 moveto
467 27 488 36 504 47 curveto
536 70 566 102 584 123 curveto
stroke
0.667 0.776 0.439 edgecolor
newpath 581.2 125.1 moveto
590 131 lineto
586.8 120.9 lineto
closepath fill
1 setlinewidth
solid
0.667 0.776 0.439 edgecolor
newpath 581.2 125.1 moveto
590 131 lineto
586.8 120.9 lineto
closepath stroke
grestore
% Node23
gsave
[ /Rect [ 574 189 624 209 ]
  /Border [ 0 0 0 ]
  /Action << /Subtype /URI /URI ($Pos_8cpp.html#36b67a50cba6dc1789825a3111bee9d2) >>
  /Subtype /Link
/ANN pdfmark
[ /Rect [ 574 189 624 209 ]
  /Border [ 0 0 0 ]
  /Action << /Subtype /URI /URI ($Pos_8cpp.html#36b67a50cba6dc1789825a3111bee9d2) >>
  /Subtype /Link
/ANN pdfmark
1 setlinewidth
0.000 0.000 0.000 nodecolor
newpath 574 188 moveto
574 209 lineto
625 209 lineto
625 188 lineto
closepath stroke
0.000 0.000 0.000 nodecolor
10.00 /FreeSans.ttf set_font
599 195 moveto 35 -0.5 (leePos) alignedtext
grestore
% Node19->Node23
gsave
1 setlinewidth
solid
0.667 0.776 0.439 edgecolor
newpath 461 20 moveto
476 26 493 34 504 47 curveto
540 87 508 119 540 161 curveto
547 170 556 177 565 183 curveto
stroke
0.667 0.776 0.439 edgecolor
newpath 563.559 186.203 moveto
574 188 lineto
566.958 180.084 lineto
closepath fill
1 setlinewidth
solid
0.667 0.776 0.439 edgecolor
newpath 563.559 186.203 moveto
574 188 lineto
566.958 180.084 lineto
closepath stroke
grestore
% Node22
gsave
[ /Rect [ 765 132 825 152 ]
  /Border [ 0 0 0 ]
  /Action << /Subtype /URI /URI ($comun_8cpp.html#c7bf9e68bbdccea36ce786b806244ea1) >>
  /Subtype /Link
/ANN pdfmark
[ /Rect [ 765 132 825 152 ]
  /Border [ 0 0 0 ]
  /Action << /Subtype /URI /URI ($comun_8cpp.html#c7bf9e68bbdccea36ce786b806244ea1) >>
  /Subtype /Link
/ANN pdfmark
1 setlinewidth
0.000 0.000 0.000 nodecolor
newpath 765 131 moveto
765 152 lineto
825 152 lineto
825 131 lineto
closepath stroke
0.000 0.000 0.000 nodecolor
10.00 /FreeSans.ttf set_font
795 138 moveto 44 -0.5 (lee128b) alignedtext
grestore
% Node21->Node22
gsave
1 setlinewidth
solid
0.667 0.776 0.439 edgecolor
newpath 633 142 moveto
667 142 719 142 755 142 curveto
stroke
0.667 0.776 0.439 edgecolor
newpath 755 145.5 moveto
765 142 lineto
755 138.5 lineto
closepath fill
1 setlinewidth
solid
0.667 0.776 0.439 edgecolor
newpath 755 145.5 moveto
765 142 lineto
755 138.5 lineto
closepath stroke
grestore
% Node22->Node20
gsave
1 setlinewidth
solid
0.667 0.776 0.439 edgecolor
newpath 825 147 moveto
859 153 915 163 956 170 curveto
stroke
0.667 0.776 0.439 edgecolor
newpath 955.508 173.471 moveto
966 172 lineto
956.881 166.607 lineto
closepath fill
1 setlinewidth
solid
0.667 0.776 0.439 edgecolor
newpath 955.508 173.471 moveto
966 172 lineto
956.881 166.607 lineto
closepath stroke
grestore
% Node23->Node20
gsave
1 setlinewidth
solid
0.667 0.776 0.439 edgecolor
newpath 625 198 moveto
690 195 866 187 956 182 curveto
stroke
0.667 0.776 0.439 edgecolor
newpath 956 185.5 moveto
966 182 lineto
956 178.5 lineto
closepath fill
1 setlinewidth
solid
0.667 0.776 0.439 edgecolor
newpath 956 185.5 moveto
966 182 lineto
956 178.5 lineto
closepath stroke
grestore
% Node24
gsave
[ /Rect [ 742 208 848 228 ]
  /Border [ 0 0 0 ]
  /Action << /Subtype /URI /URI ($Elias_8cpp.html#95ee5a0ffb91f203612d2ce9d063ec36) >>
  /Subtype /Link
/ANN pdfmark
[ /Rect [ 742 208 848 228 ]
  /Border [ 0 0 0 ]
  /Action << /Subtype /URI /URI ($Elias_8cpp.html#95ee5a0ffb91f203612d2ce9d063ec36) >>
  /Subtype /Link
/ANN pdfmark
1 setlinewidth
0.000 0.000 0.000 nodecolor
newpath 742 207 moveto
742 228 lineto
848 228 lineto
848 207 lineto
closepath stroke
0.000 0.000 0.000 nodecolor
10.00 /FreeSans.ttf set_font
795 214 moveto 90 -0.5 (lee_elias_gama2) alignedtext
grestore
% Node23->Node24
gsave
1 setlinewidth
solid
0.667 0.776 0.439 edgecolor
newpath 625 202 moveto
652 205 696 208 732 212 curveto
stroke
0.667 0.776 0.439 edgecolor
newpath 731.701 215.488 moveto
742 213 lineto
732.398 208.522 lineto
closepath fill
1 setlinewidth
solid
0.667 0.776 0.439 edgecolor
newpath 731.701 215.488 moveto
742 213 lineto
732.398 208.522 lineto
closepath stroke
grestore
% Node24->Node20
gsave
1 setlinewidth
solid
0.667 0.776 0.439 edgecolor
newpath 848 209 moveto
881 203 923 195 956 190 curveto
stroke
0.667 0.776 0.439 edgecolor
newpath 956.881 193.393 moveto
966 188 lineto
955.508 186.529 lineto
closepath fill
1 setlinewidth
solid
0.667 0.776 0.439 edgecolor
newpath 956.881 193.393 moveto
966 188 lineto
955.508 186.529 lineto
closepath stroke
grestore
% Node25->Node3
gsave
1 setlinewidth
solid
0.667 0.776 0.439 edgecolor
newpath 277 356 moveto
288 359 299 365 306 374 curveto
350 425 295 473 342 521 curveto
345 524 348 526 352 528 curveto
stroke
0.667 0.776 0.439 edgecolor
newpath 350.559 531.203 moveto
361 533 lineto
353.958 525.084 lineto
closepath fill
1 setlinewidth
solid
0.667 0.776 0.439 edgecolor
newpath 350.559 531.203 moveto
361 533 lineto
353.958 525.084 lineto
closepath stroke
grestore
% Node26->Node4
gsave
1 setlinewidth
solid
0.667 0.776 0.439 edgecolor
newpath 270 304 moveto
282 310 296 320 306 331 curveto
331 359 312 385 342 407 curveto
403 448 491 445 547 437 curveto
stroke
0.667 0.776 0.439 edgecolor
newpath 547.881 440.393 moveto
557 435 lineto
546.508 433.529 lineto
closepath fill
1 setlinewidth
solid
0.667 0.776 0.439 edgecolor
newpath 547.881 440.393 moveto
557 435 lineto
546.508 433.529 lineto
closepath stroke
grestore
% Node26->Node5
gsave
1 setlinewidth
solid
0.667 0.776 0.439 edgecolor
newpath 269 304 moveto
288 313 316 324 342 331 curveto
483 363 654 369 740 369 curveto
stroke
0.667 0.776 0.439 edgecolor
newpath 740 372.5 moveto
750 369 lineto
740 365.5 lineto
closepath fill
1 setlinewidth
solid
0.667 0.776 0.439 edgecolor
newpath 740 372.5 moveto
750 369 lineto
740 365.5 lineto
closepath stroke
grestore
% Node26->Node18
gsave
1 setlinewidth
solid
0.667 0.776 0.439 edgecolor
newpath 251 283 moveto
260 253 289 171 342 128 curveto
347 124 353 120 359 118 curveto
stroke
0.667 0.776 0.439 edgecolor
newpath 361.015 120.964 moveto
369 114 lineto
358.415 114.464 lineto
closepath fill
1 setlinewidth
solid
0.667 0.776 0.439 edgecolor
newpath 361.015 120.964 moveto
369 114 lineto
358.415 114.464 lineto
closepath stroke
grestore
% Node26->Node21
gsave
1 setlinewidth
solid
0.667 0.776 0.439 edgecolor
newpath 253 283 moveto
265 259 297 203 342 177 curveto
409 139 501 136 555 138 curveto
stroke
0.667 0.776 0.439 edgecolor
newpath 554.701 141.488 moveto
565 139 lineto
555.398 134.522 lineto
closepath fill
1 setlinewidth
solid
0.667 0.776 0.439 edgecolor
newpath 554.701 141.488 moveto
565 139 lineto
555.398 134.522 lineto
closepath stroke
grestore
% Node26->Node23
gsave
1 setlinewidth
solid
0.667 0.776 0.439 edgecolor
newpath 255 283 moveto
269 262 301 216 342 199 curveto
416 169 513 181 564 191 curveto
stroke
0.667 0.776 0.439 edgecolor
newpath 563.508 194.471 moveto
574 193 lineto
564.881 187.607 lineto
closepath fill
1 setlinewidth
solid
0.667 0.776 0.439 edgecolor
newpath 563.508 194.471 moveto
574 193 lineto
564.881 187.607 lineto
closepath stroke
grestore
% Node26->Node26
gsave
1 setlinewidth
solid
0.667 0.776 0.439 edgecolor
newpath 194 304 moveto
171 313 189 322 248 322 curveto
295 322 316 316 311 309 curveto
stroke
0.667 0.776 0.439 edgecolor
newpath 312.441 305.797 moveto
302 304 lineto
309.042 311.916 lineto
closepath fill
1 setlinewidth
solid
0.667 0.776 0.439 edgecolor
newpath 312.441 305.797 moveto
302 304 lineto
309.042 311.916 lineto
closepath stroke
grestore
% Node27
gsave
[ /Rect [ 567 454 631 474 ]
  /Border [ 0 0 0 ]
  /Action << /Subtype /URI /URI ($Pos_8cpp.html#3c3cc0b0ac5ee434c66362380dda8ce8) >>
  /Subtype /Link
/ANN pdfmark
[ /Rect [ 567 454 631 474 ]
  /Border [ 0 0 0 ]
  /Action << /Subtype /URI /URI ($Pos_8cpp.html#3c3cc0b0ac5ee434c66362380dda8ce8) >>
  /Subtype /Link
/ANN pdfmark
1 setlinewidth
0.000 0.000 0.000 nodecolor
newpath 567 453 moveto
567 474 lineto
631 474 lineto
631 453 lineto
closepath stroke
0.000 0.000 0.000 nodecolor
10.00 /FreeSans.ttf set_font
599 460 moveto 48 -0.5 (copiaPos) alignedtext
grestore
% Node26->Node27
gsave
1 setlinewidth
solid
0.667 0.776 0.439 edgecolor
newpath 272 304 moveto
284 310 297 319 306 331 curveto
337 369 304 405 342 436 curveto
404 485 501 480 557 472 curveto
stroke
0.667 0.776 0.439 edgecolor
newpath 557.881 475.393 moveto
567 470 lineto
556.508 468.529 lineto
closepath fill
1 setlinewidth
solid
0.667 0.776 0.439 edgecolor
newpath 557.881 475.393 moveto
567 470 lineto
556.508 468.529 lineto
closepath stroke
grestore
% Node28
gsave
[ /Rect [ 365 208 481 228 ]
  /Border [ 0 0 0 ]
  /Action << /Subtype /URI /URI ($TrieSDisco_8cpp.html#4cc0e861f2e192242a40d6337c70fc5f) >>
  /Subtype /Link
/ANN pdfmark
[ /Rect [ 365 208 481 228 ]
  /Border [ 0 0 0 ]
  /Action << /Subtype /URI /URI ($TrieSDisco_8cpp.html#4cc0e861f2e192242a40d6337c70fc5f) >>
  /Subtype /Link
/ANN pdfmark
1 setlinewidth
0.000 0.000 0.000 nodecolor
newpath 365 207 moveto
365 228 lineto
481 228 lineto
481 207 lineto
closepath stroke
0.000 0.000 0.000 nodecolor
10.00 /FreeSans.ttf set_font
423 214 moveto 100 -0.5 (escribeCopiaNodo) alignedtext
grestore
% Node26->Node28
gsave
1 setlinewidth
solid
0.667 0.776 0.439 edgecolor
newpath 265 283 moveto
284 271 314 253 342 242 curveto
352 238 363 234 374 231 curveto
stroke
0.667 0.776 0.439 edgecolor
newpath 375.427 234.226 moveto
384 228 lineto
373.416 227.521 lineto
closepath fill
1 setlinewidth
solid
0.667 0.776 0.439 edgecolor
newpath 375.427 234.226 moveto
384 228 lineto
373.416 227.521 lineto
closepath stroke
grestore
% Node29
gsave
[ /Rect [ 572 246 626 266 ]
  /Border [ 0 0 0 ]
  /Action << /Subtype /URI /URI ($comun_8cpp.html#4a359aa93f2dd4e34badd70c0e1f7082) >>
  /Subtype /Link
/ANN pdfmark
[ /Rect [ 572 246 626 266 ]
  /Border [ 0 0 0 ]
  /Action << /Subtype /URI /URI ($comun_8cpp.html#4a359aa93f2dd4e34badd70c0e1f7082) >>
  /Subtype /Link
/ANN pdfmark
1 setlinewidth
0.000 0.000 0.000 nodecolor
newpath 572 245 moveto
572 266 lineto
627 266 lineto
627 245 lineto
closepath stroke
0.000 0.000 0.000 nodecolor
10.00 /FreeSans.ttf set_font
599 252 moveto 39 -0.5 (leeCad) alignedtext
grestore
% Node26->Node29
gsave
1 setlinewidth
solid
0.667 0.776 0.439 edgecolor
newpath 295 283 moveto
310 280 327 277 342 275 curveto
420 264 512 260 562 257 curveto
stroke
0.667 0.776 0.439 edgecolor
newpath 562 260.5 moveto
572 257 lineto
562 253.5 lineto
closepath fill
1 setlinewidth
solid
0.667 0.776 0.439 edgecolor
newpath 562 260.5 moveto
572 257 lineto
562 253.5 lineto
closepath stroke
grestore
% Node30
gsave
[ /Rect [ 353 492 493 512 ]
  /Border [ 0 0 0 ]
  /Action << /Subtype /URI /URI ($RamDisco_8cpp.html#2cef55a7d5a3eb177f0d3b5a067f9e17) >>
  /Subtype /Link
/ANN pdfmark
[ /Rect [ 353 492 493 512 ]
  /Border [ 0 0 0 ]
  /Action << /Subtype /URI /URI ($RamDisco_8cpp.html#2cef55a7d5a3eb177f0d3b5a067f9e17) >>
  /Subtype /Link
/ANN pdfmark
1 setlinewidth
0.000 0.000 0.000 nodecolor
newpath 353 491 moveto
353 512 lineto
494 512 lineto
494 491 lineto
closepath stroke
0.000 0.000 0.000 nodecolor
10.00 /FreeSans.ttf set_font
423 498 moveto 125 -0.5 (escribeCopiaNodoRam) alignedtext
grestore
% Node26->Node30
gsave
1 setlinewidth
solid
0.667 0.776 0.439 edgecolor
newpath 272 304 moveto
284 310 298 319 306 331 curveto
346 385 296 429 342 478 curveto
345 481 348 483 351 486 curveto
stroke
0.667 0.776 0.439 edgecolor
newpath 349.559 489.203 moveto
360 491 lineto
352.958 483.084 lineto
closepath fill
1 setlinewidth
solid
0.667 0.776 0.439 edgecolor
newpath 349.559 489.203 moveto
360 491 lineto
352.958 483.084 lineto
closepath stroke
grestore
% Node31
gsave
[ /Rect [ 355 284 491 304 ]
  /Border [ 0 0 0 ]
  /Action << /Subtype /URI /URI ($TrieSDisco_8cpp.html#485d02d9d7ec4ae0114122861420c1d1) >>
  /Subtype /Link
/ANN pdfmark
[ /Rect [ 355 284 491 304 ]
  /Border [ 0 0 0 ]
  /Action << /Subtype /URI /URI ($TrieSDisco_8cpp.html#485d02d9d7ec4ae0114122861420c1d1) >>
  /Subtype /Link
/ANN pdfmark
1 setlinewidth
0.000 0.000 0.000 nodecolor
newpath 355 283 moveto
355 304 lineto
491 304 lineto
491 283 lineto
closepath stroke
0.000 0.000 0.000 nodecolor
10.00 /FreeSans.ttf set_font
423 290 moveto 120 -0.5 (escribeCopiaSubarbol) alignedtext
grestore
% Node26->Node31
gsave
1 setlinewidth
solid
0.667 0.776 0.439 edgecolor
newpath 303 294 moveto
317 294 331 294 345 294 curveto
stroke
0.667 0.776 0.439 edgecolor
newpath 345 297.5 moveto
355 294 lineto
345 290.5 lineto
closepath fill
1 setlinewidth
solid
0.667 0.776 0.439 edgecolor
newpath 345 297.5 moveto
355 294 lineto
345 290.5 lineto
closepath stroke
grestore
% Node32
gsave
[ /Rect [ 343 378 503 398 ]
  /Border [ 0 0 0 ]
  /Action << /Subtype /URI /URI ($RamDisco_8cpp.html#1d654f71e19a8010c6fec648e8cf9899) >>
  /Subtype /Link
/ANN pdfmark
[ /Rect [ 343 378 503 398 ]
  /Border [ 0 0 0 ]
  /Action << /Subtype /URI /URI ($RamDisco_8cpp.html#1d654f71e19a8010c6fec648e8cf9899) >>
  /Subtype /Link
/ANN pdfmark
1 setlinewidth
0.000 0.000 0.000 nodecolor
newpath 343 377 moveto
343 398 lineto
504 398 lineto
504 377 lineto
closepath stroke
0.000 0.000 0.000 nodecolor
10.00 /FreeSans.ttf set_font
423 384 moveto 145 -0.5 (escribeCopiaSubarbolRam) alignedtext
grestore
% Node26->Node32
gsave
1 setlinewidth
solid
0.667 0.776 0.439 edgecolor
newpath 266 304 moveto
278 311 293 321 306 331 curveto
324 344 324 353 342 364 curveto
349 367 356 371 363 374 curveto
stroke
0.667 0.776 0.439 edgecolor
newpath 362.416 377.479 moveto
373 377 lineto
364.427 370.774 lineto
closepath fill
1 setlinewidth
solid
0.667 0.776 0.439 edgecolor
newpath 362.416 377.479 moveto
373 377 lineto
364.427 370.774 lineto
closepath stroke
grestore
% Node28->Node4
gsave
1 setlinewidth
solid
0.667 0.776 0.439 edgecolor
newpath 442 228 moveto
459 238 486 255 504 275 curveto
543 316 574 375 590 406 curveto
stroke
0.667 0.776 0.439 edgecolor
newpath 586.74 407.283 moveto
594 415 lineto
593.137 404.44 lineto
closepath fill
1 setlinewidth
solid
0.667 0.776 0.439 edgecolor
newpath 586.74 407.283 moveto
594 415 lineto
593.137 404.44 lineto
closepath stroke
grestore
% Node28->Node21
gsave
1 setlinewidth
solid
0.667 0.776 0.439 edgecolor
newpath 449 207 moveto
480 193 532 171 566 156 curveto
stroke
0.667 0.776 0.439 edgecolor
newpath 568.015 158.964 moveto
576 152 lineto
565.415 152.464 lineto
closepath fill
1 setlinewidth
solid
0.667 0.776 0.439 edgecolor
newpath 568.015 158.964 moveto
576 152 lineto
565.415 152.464 lineto
closepath stroke
grestore
% Node28->Node23
gsave
1 setlinewidth
solid
0.667 0.776 0.439 edgecolor
newpath 481 212 moveto
508 209 540 205 564 203 curveto
stroke
0.667 0.776 0.439 edgecolor
newpath 564.398 206.478 moveto
574 202 lineto
563.701 199.512 lineto
closepath fill
1 setlinewidth
solid
0.667 0.776 0.439 edgecolor
newpath 564.398 206.478 moveto
574 202 lineto
563.701 199.512 lineto
closepath stroke
grestore
% Node28->Node29
gsave
1 setlinewidth
solid
0.667 0.776 0.439 edgecolor
newpath 470 228 moveto
498 234 535 242 562 248 curveto
stroke
0.667 0.776 0.439 edgecolor
newpath 561.508 251.471 moveto
572 250 lineto
562.881 244.607 lineto
closepath fill
1 setlinewidth
solid
0.667 0.776 0.439 edgecolor
newpath 561.508 251.471 moveto
572 250 lineto
562.881 244.607 lineto
closepath stroke
grestore
% Node29->Node20
gsave
1 setlinewidth
solid
0.667 0.776 0.439 edgecolor
newpath 627 258 moveto
681 260 801 263 896 237 curveto
929 228 964 209 987 195 curveto
stroke
0.667 0.776 0.439 edgecolor
newpath 988.375 198.268 moveto
995 190 lineto
984.665 192.332 lineto
closepath fill
1 setlinewidth
solid
0.667 0.776 0.439 edgecolor
newpath 988.375 198.268 moveto
995 190 lineto
984.665 192.332 lineto
closepath stroke
grestore
% Node30->Node4
gsave
1 setlinewidth
solid
0.667 0.776 0.439 edgecolor
newpath 443 491 moveto
467 479 506 459 540 445 curveto
545 443 550 441 555 440 curveto
stroke
0.667 0.776 0.439 edgecolor
newpath 556.283 443.26 moveto
564 436 lineto
553.44 436.863 lineto
closepath fill
1 setlinewidth
solid
0.667 0.776 0.439 edgecolor
newpath 556.283 443.26 moveto
564 436 lineto
553.44 436.863 lineto
closepath stroke
grestore
% Node30->Node15
gsave
1 setlinewidth
solid
0.667 0.776 0.439 edgecolor
newpath 494 509 moveto
548 515 623 522 684 529 curveto
stroke
0.667 0.776 0.439 edgecolor
newpath 683.701 532.488 moveto
694 530 lineto
684.398 525.522 lineto
closepath fill
1 setlinewidth
solid
0.667 0.776 0.439 edgecolor
newpath 683.701 532.488 moveto
694 530 lineto
684.398 525.522 lineto
closepath stroke
grestore
% Node30->Node27
gsave
1 setlinewidth
solid
0.667 0.776 0.439 edgecolor
newpath 474 491 moveto
500 486 532 479 557 473 curveto
stroke
0.667 0.776 0.439 edgecolor
newpath 557.881 476.393 moveto
567 471 lineto
556.508 469.529 lineto
closepath fill
1 setlinewidth
solid
0.667 0.776 0.439 edgecolor
newpath 557.881 476.393 moveto
567 471 lineto
556.508 469.529 lineto
closepath stroke
grestore
% Node31->Node4
gsave
1 setlinewidth
solid
0.667 0.776 0.439 edgecolor
newpath 437 304 moveto
467 326 539 381 576 409 curveto
stroke
0.667 0.776 0.439 edgecolor
newpath 573.9 411.8 moveto
584 415 lineto
578.1 406.2 lineto
closepath fill
1 setlinewidth
solid
0.667 0.776 0.439 edgecolor
newpath 573.9 411.8 moveto
584 415 lineto
578.1 406.2 lineto
closepath stroke
grestore
% Node31->Node5
gsave
1 setlinewidth
solid
0.667 0.776 0.439 edgecolor
newpath 486 304 moveto
533 312 600 324 658 336 curveto
686 341 718 349 743 355 curveto
stroke
0.667 0.776 0.439 edgecolor
newpath 742.416 358.479 moveto
753 358 lineto
744.427 351.774 lineto
closepath fill
1 setlinewidth
solid
0.667 0.776 0.439 edgecolor
newpath 742.416 358.479 moveto
753 358 lineto
744.427 351.774 lineto
closepath stroke
grestore
% Node31->Node21
gsave
1 setlinewidth
solid
0.667 0.776 0.439 edgecolor
newpath 443 283 moveto
460 272 486 256 504 237 curveto
525 216 519 202 540 180 curveto
549 171 560 164 570 157 curveto
stroke
0.667 0.776 0.439 edgecolor
newpath 571.958 159.916 moveto
579 152 lineto
568.559 153.797 lineto
closepath fill
1 setlinewidth
solid
0.667 0.776 0.439 edgecolor
newpath 571.958 159.916 moveto
579 152 lineto
568.559 153.797 lineto
closepath stroke
grestore
% Node31->Node23
gsave
1 setlinewidth
solid
0.667 0.776 0.439 edgecolor
newpath 444 283 moveto
475 266 536 233 571 214 curveto
stroke
0.667 0.776 0.439 edgecolor
newpath 572.958 216.916 moveto
580 209 lineto
569.559 210.797 lineto
closepath fill
1 setlinewidth
solid
0.667 0.776 0.439 edgecolor
newpath 572.958 216.916 moveto
580 209 lineto
569.559 210.797 lineto
closepath stroke
grestore
% Node31->Node29
gsave
1 setlinewidth
solid
0.667 0.776 0.439 edgecolor
newpath 474 283 moveto
502 277 536 270 562 264 curveto
stroke
0.667 0.776 0.439 edgecolor
newpath 562.881 267.393 moveto
572 262 lineto
561.508 260.529 lineto
closepath fill
1 setlinewidth
solid
0.667 0.776 0.439 edgecolor
newpath 562.881 267.393 moveto
572 262 lineto
561.508 260.529 lineto
closepath stroke
grestore
% Node31->Node31
gsave
1 setlinewidth
solid
0.667 0.776 0.439 edgecolor
newpath 368 304 moveto
344 313 362 322 423 322 curveto
473 322 494 316 487 309 curveto
stroke
0.667 0.776 0.439 edgecolor
newpath 488.441 305.797 moveto
478 304 lineto
485.042 311.916 lineto
closepath fill
1 setlinewidth
solid
0.667 0.776 0.439 edgecolor
newpath 488.441 305.797 moveto
478 304 lineto
485.042 311.916 lineto
closepath stroke
grestore
% Node32->Node4
gsave
1 setlinewidth
solid
0.667 0.776 0.439 edgecolor
newpath 470 398 moveto
494 403 523 409 547 415 curveto
stroke
0.667 0.776 0.439 edgecolor
newpath 546.508 418.471 moveto
557 417 lineto
547.881 411.607 lineto
closepath fill
1 setlinewidth
solid
0.667 0.776 0.439 edgecolor
newpath 546.508 418.471 moveto
557 417 lineto
547.881 411.607 lineto
closepath stroke
grestore
% Node32->Node5
gsave
1 setlinewidth
solid
0.667 0.776 0.439 edgecolor
newpath 504 384 moveto
576 380 678 375 740 371 curveto
stroke
0.667 0.776 0.439 edgecolor
newpath 740 374.5 moveto
750 371 lineto
740 367.5 lineto
closepath fill
1 setlinewidth
solid
0.667 0.776 0.439 edgecolor
newpath 740 374.5 moveto
750 371 lineto
740 367.5 lineto
closepath stroke
grestore
% Node32->Node27
gsave
1 setlinewidth
solid
0.667 0.776 0.439 edgecolor
newpath 442 398 moveto
465 410 505 430 540 445 curveto
546 447 552 449 557 451 curveto
stroke
0.667 0.776 0.439 edgecolor
newpath 556.416 454.479 moveto
567 454 lineto
558.427 447.774 lineto
closepath fill
1 setlinewidth
solid
0.667 0.776 0.439 edgecolor
newpath 556.416 454.479 moveto
567 454 lineto
558.427 447.774 lineto
closepath stroke
grestore
endpage
showpage
grestore
%%PageTrailer
%%EndPage: 1
%%Trailer
%%Pages: 1
%%BoundingBox: 36 36 1518 708
end
restore
%%EOF
