%!PS-Adobe-2.0
%%Creator: Graphviz version 2.12 (Mon Nov 16 18:34:03 UTC 2009)
%%For: (vtamara) Vladimir
%%Title: G
%%Pages: (atend)
%%BoundingBox: (atend)
%%EndComments
save
%%BeginProlog
/DotDict 200 dict def
DotDict begin

/setupLatin1 {
mark
/EncodingVector 256 array def
 EncodingVector 0

ISOLatin1Encoding 0 255 getinterval putinterval
EncodingVector 45 /hyphen put

% Set up ISO Latin 1 character encoding
/starnetISO {
        dup dup findfont dup length dict begin
        { 1 index /FID ne { def }{ pop pop } ifelse
        } forall
        /Encoding EncodingVector def
        currentdict end definefont
} def
/Times-Roman starnetISO def
/Times-Italic starnetISO def
/Times-Bold starnetISO def
/Times-BoldItalic starnetISO def
/Helvetica starnetISO def
/Helvetica-Oblique starnetISO def
/Helvetica-Bold starnetISO def
/Helvetica-BoldOblique starnetISO def
/Courier starnetISO def
/Courier-Oblique starnetISO def
/Courier-Bold starnetISO def
/Courier-BoldOblique starnetISO def
cleartomark
} bind def

%%BeginResource: procset graphviz 0 0
/coord-font-family /Times-Roman def
/default-font-family /Times-Roman def
/coordfont coord-font-family findfont 8 scalefont def

/InvScaleFactor 1.0 def
/set_scale {
       dup 1 exch div /InvScaleFactor exch def
       scale
} bind def

% styles
/solid { [] 0 setdash } bind def
/dashed { [9 InvScaleFactor mul dup ] 0 setdash } bind def
/dotted { [1 InvScaleFactor mul 6 InvScaleFactor mul] 0 setdash } bind def
/invis {/fill {newpath} def /stroke {newpath} def /show {pop newpath} def} bind def
/bold { 2 setlinewidth } bind def
/filled { } bind def
/unfilled { } bind def
/rounded { } bind def
/diagonals { } bind def

% hooks for setting color 
/nodecolor { sethsbcolor } bind def
/edgecolor { sethsbcolor } bind def
/graphcolor { sethsbcolor } bind def
/nopcolor {pop pop pop} bind def

/beginpage {	% i j npages
	/npages exch def
	/j exch def
	/i exch def
	/str 10 string def
	npages 1 gt {
		gsave
			coordfont setfont
			0 0 moveto
			(\() show i str cvs show (,) show j str cvs show (\)) show
		grestore
	} if
} bind def

/set_font {
	findfont exch
	scalefont setfont
} def

% draw aligned label in bounding box aligned to current point
/alignedtext {			% width adj text
	/text exch def
	/adj exch def
	/width exch def
	gsave
		width 0 gt {
			text stringwidth pop adj mul 0 rmoveto
		} if
		[] 0 setdash
		text show
	grestore
} def

/boxprim {				% xcorner ycorner xsize ysize
		4 2 roll
		moveto
		2 copy
		exch 0 rlineto
		0 exch rlineto
		pop neg 0 rlineto
		closepath
} bind def

/ellipse_path {
	/ry exch def
	/rx exch def
	/y exch def
	/x exch def
	matrix currentmatrix
	newpath
	x y translate
	rx ry scale
	0 0 1 0 360 arc
	setmatrix
} bind def

/endpage { showpage } bind def
/showpage { } def

/layercolorseq
	[	% layer color sequence - darkest to lightest
		[0 0 0]
		[.2 .8 .8]
		[.4 .8 .8]
		[.6 .8 .8]
		[.8 .8 .8]
	]
def

/layerlen layercolorseq length def

/setlayer {/maxlayer exch def /curlayer exch def
	layercolorseq curlayer 1 sub layerlen mod get
	aload pop sethsbcolor
	/nodecolor {nopcolor} def
	/edgecolor {nopcolor} def
	/graphcolor {nopcolor} def
} bind def

/onlayer { curlayer ne {invis} if } def

/onlayers {
	/myupper exch def
	/mylower exch def
	curlayer mylower lt
	curlayer myupper gt
	or
	{invis} if
} def

/curlayer 0 def

%%EndResource
%%EndProlog
%%BeginSetup
14 default-font-family set_font
1 setmiterlimit
% /arrowlength 10 def
% /arrowwidth 5 def

% make sure pdfmark is harmless for PS-interpreters other than Distiller
/pdfmark where {pop} {userdict /pdfmark /cleartomark load put} ifelse
% make '<<' and '>>' safe on PS Level 1 devices
/languagelevel where {pop languagelevel}{1} ifelse
2 lt {
    userdict (<<) cvn ([) cvn load put
    userdict (>>) cvn ([) cvn load put
} if

%%EndSetup
setupLatin1
%%Page: 1 1
%%PageBoundingBox: 36 36 810 161
%%PageOrientation: Portrait
gsave
36 36 810 161 boxprim clip newpath
0 0 1 beginpage
1 1 set_scale 0 rotate 40 40 translate
% Node1
gsave
0.000 0.000 0.749 nodecolor
newpath 1 77 moveto
1 98 lineto
118 98 lineto
118 77 lineto
closepath fill
1 setlinewidth
filled
0.000 0.000 0.000 nodecolor
newpath 1 77 moveto
1 98 lineto
118 98 lineto
118 77 lineto
closepath stroke
0.000 0.000 0.000 nodecolor
10.00 /FreeSans.ttf set_font
59 84 moveto 101 -0.5 (prueba_escribePos) alignedtext
grestore
% Node2
gsave
[ /Rect [ 155 97 227 117 ]
  /Border [ 0 0 0 ]
  /Action << /Subtype /URI /URI ($Pos_8cpp.html#42c2daaa880eeb397c024b6ffa22c8cf) >>
  /Subtype /Link
/ANN pdfmark
[ /Rect [ 155 97 227 117 ]
  /Border [ 0 0 0 ]
  /Action << /Subtype /URI /URI ($Pos_8cpp.html#42c2daaa880eeb397c024b6ffa22c8cf) >>
  /Subtype /Link
/ANN pdfmark
1 setlinewidth
0.000 0.000 0.000 nodecolor
newpath 155 96 moveto
155 117 lineto
228 117 lineto
228 96 lineto
closepath stroke
0.000 0.000 0.000 nodecolor
10.00 /FreeSans.ttf set_font
191 103 moveto 57 -0.5 (escribePos) alignedtext
grestore
% Node1->Node2
gsave
1 setlinewidth
solid
0.667 0.776 0.439 edgecolor
newpath 118 96 moveto
127 97 136 99 145 100 curveto
stroke
0.667 0.776 0.439 edgecolor
newpath 144.508 103.471 moveto
155 102 lineto
145.881 96.6067 lineto
closepath fill
1 setlinewidth
solid
0.667 0.776 0.439 edgecolor
newpath 144.508 103.471 moveto
155 102 lineto
145.881 96.6067 lineto
closepath stroke
grestore
% Node5
gsave
[ /Rect [ 167 59 215 79 ]
  /Border [ 0 0 0 ]
  /Action << /Subtype /URI /URI ($PosCasoPrueba_8cpp.html#b42ceeabd5568b9858676b952fabbdd7) >>
  /Subtype /Link
/ANN pdfmark
[ /Rect [ 167 59 215 79 ]
  /Border [ 0 0 0 ]
  /Action << /Subtype /URI /URI ($PosCasoPrueba_8cpp.html#b42ceeabd5568b9858676b952fabbdd7) >>
  /Subtype /Link
/ANN pdfmark
1 setlinewidth
0.000 0.000 0.000 nodecolor
newpath 167 58 moveto
167 79 lineto
216 79 lineto
216 58 lineto
closepath stroke
0.000 0.000 0.000 nodecolor
10.00 /FreeSans.ttf set_font
191 65 moveto 33 -0.5 (numC) alignedtext
grestore
% Node1->Node5
gsave
1 setlinewidth
solid
0.667 0.776 0.439 edgecolor
newpath 118 80 moveto
131 78 145 75 157 74 curveto
stroke
0.667 0.776 0.439 edgecolor
newpath 157.881 77.3933 moveto
167 72 lineto
156.508 70.5292 lineto
closepath fill
1 setlinewidth
solid
0.667 0.776 0.439 edgecolor
newpath 157.881 77.3933 moveto
167 72 lineto
156.508 70.5292 lineto
closepath stroke
grestore
% Node3
gsave
[ /Rect [ 422 97 550 117 ]
  /Border [ 0 0 0 ]
  /Action << /Subtype /URI /URI ($Elias_8cpp.html#59732ce42a1e75fbbb382a6964ef4620) >>
  /Subtype /Link
/ANN pdfmark
[ /Rect [ 422 97 550 117 ]
  /Border [ 0 0 0 ]
  /Action << /Subtype /URI /URI ($Elias_8cpp.html#59732ce42a1e75fbbb382a6964ef4620) >>
  /Subtype /Link
/ANN pdfmark
1 setlinewidth
0.000 0.000 0.000 nodecolor
newpath 422 96 moveto
422 117 lineto
550 117 lineto
550 96 lineto
closepath stroke
0.000 0.000 0.000 nodecolor
10.00 /FreeSans.ttf set_font
486 103 moveto 112 -0.5 (escribe_elias_gama2) alignedtext
grestore
% Node2->Node3
gsave
1 setlinewidth
solid
0.667 0.776 0.439 edgecolor
newpath 228 107 moveto
273 107 353 107 412 107 curveto
stroke
0.667 0.776 0.439 edgecolor
newpath 412 110.5 moveto
422 107 lineto
412 103.5 lineto
closepath fill
1 setlinewidth
solid
0.667 0.776 0.439 edgecolor
newpath 412 110.5 moveto
422 107 lineto
412 103.5 lineto
closepath stroke
grestore
% Node4
gsave
[ /Rect [ 602 97 674 117 ]
  /Border [ 0 0 0 ]
  /Action << /Subtype /URI /URI ($Elias_8cpp.html#7127ec8dff13cc2ad873693ca8933d38) >>
  /Subtype /Link
/ANN pdfmark
[ /Rect [ 602 97 674 117 ]
  /Border [ 0 0 0 ]
  /Action << /Subtype /URI /URI ($Elias_8cpp.html#7127ec8dff13cc2ad873693ca8933d38) >>
  /Subtype /Link
/ANN pdfmark
1 setlinewidth
0.000 0.000 0.000 nodecolor
newpath 602 96 moveto
602 117 lineto
675 117 lineto
675 96 lineto
closepath stroke
0.000 0.000 0.000 nodecolor
10.00 /FreeSans.ttf set_font
638 103 moveto 57 -0.5 (piso_logb2) alignedtext
grestore
% Node3->Node4
gsave
1 setlinewidth
solid
0.667 0.776 0.439 edgecolor
newpath 550 107 moveto
564 107 578 107 592 107 curveto
stroke
0.667 0.776 0.439 edgecolor
newpath 592 110.5 moveto
602 107 lineto
592 103.5 lineto
closepath fill
1 setlinewidth
solid
0.667 0.776 0.439 edgecolor
newpath 592 110.5 moveto
602 107 lineto
592 103.5 lineto
closepath stroke
grestore
% Node6
gsave
[ /Rect [ 264 59 386 79 ]
  /Border [ 0 0 0 ]
  /Action << /Subtype /URI /URI ($Elias_8cpp.html#d6e0c2eca1e4ac05de2acccdc80e79f4) >>
  /Subtype /Link
/ANN pdfmark
[ /Rect [ 264 59 386 79 ]
  /Border [ 0 0 0 ]
  /Action << /Subtype /URI /URI ($Elias_8cpp.html#d6e0c2eca1e4ac05de2acccdc80e79f4) >>
  /Subtype /Link
/ANN pdfmark
1 setlinewidth
0.000 0.000 0.000 nodecolor
newpath 264 58 moveto
264 79 lineto
386 79 lineto
386 58 lineto
closepath stroke
0.000 0.000 0.000 nodecolor
10.00 /FreeSans.ttf set_font
325 65 moveto 106 -0.5 (escribe_elias_gama) alignedtext
grestore
% Node5->Node6
gsave
1 setlinewidth
solid
0.667 0.776 0.439 edgecolor
newpath 216 69 moveto
227 69 240 69 254 69 curveto
stroke
0.667 0.776 0.439 edgecolor
newpath 254 72.5001 moveto
264 69 lineto
254 65.5001 lineto
closepath fill
1 setlinewidth
solid
0.667 0.776 0.439 edgecolor
newpath 254 72.5001 moveto
264 69 lineto
254 65.5001 lineto
closepath stroke
grestore
% Node7
gsave
[ /Rect [ 423 59 549 79 ]
  /Border [ 0 0 0 ]
  /Action << /Subtype /URI /URI ($Elias_8cpp.html#fca0b551bec0af966adde95d2402901c) >>
  /Subtype /Link
/ANN pdfmark
[ /Rect [ 423 59 549 79 ]
  /Border [ 0 0 0 ]
  /Action << /Subtype /URI /URI ($Elias_8cpp.html#fca0b551bec0af966adde95d2402901c) >>
  /Subtype /Link
/ANN pdfmark
1 setlinewidth
0.000 0.000 0.000 nodecolor
newpath 423 58 moveto
423 79 lineto
549 79 lineto
549 58 lineto
closepath stroke
0.000 0.000 0.000 nodecolor
10.00 /FreeSans.ttf set_font
486 65 moveto 110 -0.5 (codifica_elias_gama) alignedtext
grestore
% Node6->Node7
gsave
1 setlinewidth
solid
0.667 0.776 0.439 edgecolor
newpath 386 69 moveto
395 69 404 69 413 69 curveto
stroke
0.667 0.776 0.439 edgecolor
newpath 413 72.5001 moveto
423 69 lineto
413 65.5001 lineto
closepath fill
1 setlinewidth
solid
0.667 0.776 0.439 edgecolor
newpath 413 72.5001 moveto
423 69 lineto
413 65.5001 lineto
closepath stroke
grestore
% Node7->Node4
gsave
1 setlinewidth
solid
0.667 0.776 0.439 edgecolor
newpath 526 79 moveto
547 84 571 90 592 95 curveto
stroke
0.667 0.776 0.439 edgecolor
newpath 591.416 98.4788 moveto
602 98 lineto
593.427 91.7741 lineto
closepath fill
1 setlinewidth
solid
0.667 0.776 0.439 edgecolor
newpath 591.416 98.4788 moveto
602 98 lineto
593.427 91.7741 lineto
closepath stroke
grestore
% Node8
gsave
[ /Rect [ 589 59 687 79 ]
  /Border [ 0 0 0 ]
  /Action << /Subtype /URI /URI ($Elias_8cpp.html#87b59b9c1b4563ae420c8b155da85aef) >>
  /Subtype /Link
/ANN pdfmark
[ /Rect [ 589 59 687 79 ]
  /Border [ 0 0 0 ]
  /Action << /Subtype /URI /URI ($Elias_8cpp.html#87b59b9c1b4563ae420c8b155da85aef) >>
  /Subtype /Link
/ANN pdfmark
1 setlinewidth
0.000 0.000 0.000 nodecolor
newpath 589 58 moveto
589 79 lineto
688 79 lineto
688 58 lineto
closepath stroke
0.000 0.000 0.000 nodecolor
10.00 /FreeSans.ttf set_font
638 65 moveto 83 -0.5 (codifica_unario) alignedtext
grestore
% Node7->Node8
gsave
1 setlinewidth
solid
0.667 0.776 0.439 edgecolor
newpath 549 69 moveto
559 69 569 69 579 69 curveto
stroke
0.667 0.776 0.439 edgecolor
newpath 579 72.5001 moveto
589 69 lineto
579 65.5001 lineto
closepath fill
1 setlinewidth
solid
0.667 0.776 0.439 edgecolor
newpath 579 72.5001 moveto
589 69 lineto
579 65.5001 lineto
closepath stroke
grestore
% Node9
gsave
[ /Rect [ 586 21 690 41 ]
  /Border [ 0 0 0 ]
  /Action << /Subtype /URI /URI ($Elias_8cpp.html#8e0a4534c26e33b9043d237aab0d9f59) >>
  /Subtype /Link
/ANN pdfmark
[ /Rect [ 586 21 690 41 ]
  /Border [ 0 0 0 ]
  /Action << /Subtype /URI /URI ($Elias_8cpp.html#8e0a4534c26e33b9043d237aab0d9f59) >>
  /Subtype /Link
/ANN pdfmark
1 setlinewidth
0.000 0.000 0.000 nodecolor
newpath 586 20 moveto
586 41 lineto
690 41 lineto
690 20 lineto
closepath stroke
0.000 0.000 0.000 nodecolor
10.00 /FreeSans.ttf set_font
638 27 moveto 88 -0.5 (pone_un_entero) alignedtext
grestore
% Node7->Node9
gsave
1 setlinewidth
solid
0.667 0.776 0.439 edgecolor
newpath 530 58 moveto
549 54 569 48 588 43 curveto
stroke
0.667 0.776 0.439 edgecolor
newpath 588.881 46.3933 moveto
598 41 lineto
587.508 39.5292 lineto
closepath fill
1 setlinewidth
solid
0.667 0.776 0.439 edgecolor
newpath 588.881 46.3933 moveto
598 41 lineto
587.508 39.5292 lineto
closepath stroke
grestore
% Node10
gsave
[ /Rect [ 726 2 766 22 ]
  /Border [ 0 0 0 ]
  /Action << /Subtype /URI /URI ($Elias_8cpp.html#c268bba1057c593ac6dcfa6bf1ada057) >>
  /Subtype /Link
/ANN pdfmark
[ /Rect [ 726 2 766 22 ]
  /Border [ 0 0 0 ]
  /Action << /Subtype /URI /URI ($Elias_8cpp.html#c268bba1057c593ac6dcfa6bf1ada057) >>
  /Subtype /Link
/ANN pdfmark
1 setlinewidth
0.000 0.000 0.000 nodecolor
newpath 726 1 moveto
726 22 lineto
766 22 lineto
766 1 lineto
closepath stroke
0.000 0.000 0.000 nodecolor
10.00 /FreeSans.ttf set_font
746 8 moveto 24 -0.5 (pot2) alignedtext
grestore
% Node7->Node10
gsave
1 setlinewidth
solid
0.667 0.776 0.439 edgecolor
newpath 500 58 moveto
519 44 553 21 586 12 curveto
630 0 683 4 716 8 curveto
stroke
0.667 0.776 0.439 edgecolor
newpath 715.701 11.4875 moveto
726 9 lineto
716.398 4.52224 lineto
closepath fill
1 setlinewidth
solid
0.667 0.776 0.439 edgecolor
newpath 715.701 11.4875 moveto
726 9 lineto
716.398 4.52224 lineto
closepath stroke
grestore
% Node9->Node10
gsave
1 setlinewidth
solid
0.667 0.776 0.439 edgecolor
newpath 690 22 moveto
699 21 708 19 716 17 curveto
stroke
0.667 0.776 0.439 edgecolor
newpath 716.398 20.4778 moveto
726 16 lineto
715.701 13.5125 lineto
closepath fill
1 setlinewidth
solid
0.667 0.776 0.439 edgecolor
newpath 716.398 20.4778 moveto
726 16 lineto
715.701 13.5125 lineto
closepath stroke
grestore
endpage
showpage
grestore
%%PageTrailer
%%EndPage: 1
%%Trailer
%%Pages: 1
%%BoundingBox: 36 36 810 161
end
restore
%%EOF
