%!PS-Adobe-2.0
%%Creator: Graphviz version 2.12 (Mon Nov 16 18:34:03 UTC 2009)
%%For: (vtamara) Vladimir
%%Title: G
%%Pages: (atend)
%%BoundingBox: (atend)
%%EndComments
save
%%BeginProlog
/DotDict 200 dict def
DotDict begin

/setupLatin1 {
mark
/EncodingVector 256 array def
 EncodingVector 0

ISOLatin1Encoding 0 255 getinterval putinterval
EncodingVector 45 /hyphen put

% Set up ISO Latin 1 character encoding
/starnetISO {
        dup dup findfont dup length dict begin
        { 1 index /FID ne { def }{ pop pop } ifelse
        } forall
        /Encoding EncodingVector def
        currentdict end definefont
} def
/Times-Roman starnetISO def
/Times-Italic starnetISO def
/Times-Bold starnetISO def
/Times-BoldItalic starnetISO def
/Helvetica starnetISO def
/Helvetica-Oblique starnetISO def
/Helvetica-Bold starnetISO def
/Helvetica-BoldOblique starnetISO def
/Courier starnetISO def
/Courier-Oblique starnetISO def
/Courier-Bold starnetISO def
/Courier-BoldOblique starnetISO def
cleartomark
} bind def

%%BeginResource: procset graphviz 0 0
/coord-font-family /Times-Roman def
/default-font-family /Times-Roman def
/coordfont coord-font-family findfont 8 scalefont def

/InvScaleFactor 1.0 def
/set_scale {
       dup 1 exch div /InvScaleFactor exch def
       scale
} bind def

% styles
/solid { [] 0 setdash } bind def
/dashed { [9 InvScaleFactor mul dup ] 0 setdash } bind def
/dotted { [1 InvScaleFactor mul 6 InvScaleFactor mul] 0 setdash } bind def
/invis {/fill {newpath} def /stroke {newpath} def /show {pop newpath} def} bind def
/bold { 2 setlinewidth } bind def
/filled { } bind def
/unfilled { } bind def
/rounded { } bind def
/diagonals { } bind def

% hooks for setting color 
/nodecolor { sethsbcolor } bind def
/edgecolor { sethsbcolor } bind def
/graphcolor { sethsbcolor } bind def
/nopcolor {pop pop pop} bind def

/beginpage {	% i j npages
	/npages exch def
	/j exch def
	/i exch def
	/str 10 string def
	npages 1 gt {
		gsave
			coordfont setfont
			0 0 moveto
			(\() show i str cvs show (,) show j str cvs show (\)) show
		grestore
	} if
} bind def

/set_font {
	findfont exch
	scalefont setfont
} def

% draw aligned label in bounding box aligned to current point
/alignedtext {			% width adj text
	/text exch def
	/adj exch def
	/width exch def
	gsave
		width 0 gt {
			text stringwidth pop adj mul 0 rmoveto
		} if
		[] 0 setdash
		text show
	grestore
} def

/boxprim {				% xcorner ycorner xsize ysize
		4 2 roll
		moveto
		2 copy
		exch 0 rlineto
		0 exch rlineto
		pop neg 0 rlineto
		closepath
} bind def

/ellipse_path {
	/ry exch def
	/rx exch def
	/y exch def
	/x exch def
	matrix currentmatrix
	newpath
	x y translate
	rx ry scale
	0 0 1 0 360 arc
	setmatrix
} bind def

/endpage { showpage } bind def
/showpage { } def

/layercolorseq
	[	% layer color sequence - darkest to lightest
		[0 0 0]
		[.2 .8 .8]
		[.4 .8 .8]
		[.6 .8 .8]
		[.8 .8 .8]
	]
def

/layerlen layercolorseq length def

/setlayer {/maxlayer exch def /curlayer exch def
	layercolorseq curlayer 1 sub layerlen mod get
	aload pop sethsbcolor
	/nodecolor {nopcolor} def
	/edgecolor {nopcolor} def
	/graphcolor {nopcolor} def
} bind def

/onlayer { curlayer ne {invis} if } def

/onlayers {
	/myupper exch def
	/mylower exch def
	curlayer mylower lt
	curlayer myupper gt
	or
	{invis} if
} def

/curlayer 0 def

%%EndResource
%%EndProlog
%%BeginSetup
14 default-font-family set_font
1 setmiterlimit
% /arrowlength 10 def
% /arrowwidth 5 def

% make sure pdfmark is harmless for PS-interpreters other than Distiller
/pdfmark where {pop} {userdict /pdfmark /cleartomark load put} ifelse
% make '<<' and '>>' safe on PS Level 1 devices
/languagelevel where {pop languagelevel}{1} ifelse
2 lt {
    userdict (<<) cvn ([) cvn load put
    userdict (>>) cvn ([) cvn load put
} if

%%EndSetup
setupLatin1
%%Page: 1 1
%%PageBoundingBox: 36 36 1472 363
%%PageOrientation: Portrait
gsave
36 36 1472 363 boxprim clip newpath
0 0 1 beginpage
1 1 set_scale 0 rotate 40 40 translate
% Node1
gsave
0.000 0.000 0.749 nodecolor
newpath 1 93 moveto
1 114 lineto
130 114 lineto
130 93 lineto
closepath fill
1 setlinewidth
filled
0.000 0.000 0.000 nodecolor
newpath 1 93 moveto
1 114 lineto
130 114 lineto
130 93 lineto
closepath stroke
0.000 0.000 0.000 nodecolor
10.00 /FreeSans.ttf set_font
65 100 moveto 113 -0.5 (prueba_escribePlano) alignedtext
grestore
% Node2
gsave
[ /Rect [ 167 132 251 152 ]
  /Border [ 0 0 0 ]
  /Action << /Subtype /URI /URI ($RamDisco_8cpp.html#2cb378b461cda4a857b5a9488db30964) >>
  /Subtype /Link
/ANN pdfmark
[ /Rect [ 167 132 251 152 ]
  /Border [ 0 0 0 ]
  /Action << /Subtype /URI /URI ($RamDisco_8cpp.html#2cb378b461cda4a857b5a9488db30964) >>
  /Subtype /Link
/ANN pdfmark
1 setlinewidth
0.000 0.000 0.000 nodecolor
newpath 167 131 moveto
167 152 lineto
252 152 lineto
252 131 lineto
closepath stroke
0.000 0.000 0.000 nodecolor
10.00 /FreeSans.ttf set_font
209 138 moveto 69 -0.5 (escribePlano) alignedtext
grestore
% Node1->Node2
gsave
1 setlinewidth
solid
0.667 0.776 0.439 edgecolor
newpath 103 114 moveto
120 118 140 124 158 129 curveto
stroke
0.667 0.776 0.439 edgecolor
newpath 157.508 132.471 moveto
168 131 lineto
158.881 125.607 lineto
closepath fill
1 setlinewidth
solid
0.667 0.776 0.439 edgecolor
newpath 157.508 132.471 moveto
168 131 lineto
158.881 125.607 lineto
closepath stroke
grestore
% Node3
gsave
[ /Rect [ 289 185 413 205 ]
  /Border [ 0 0 0 ]
  /Action << /Subtype /URI /URI ($RamDisco_8cpp.html#f0c232886a7851d8db3a647add9ae455) >>
  /Subtype /Link
/ANN pdfmark
[ /Rect [ 289 185 413 205 ]
  /Border [ 0 0 0 ]
  /Action << /Subtype /URI /URI ($RamDisco_8cpp.html#f0c232886a7851d8db3a647add9ae455) >>
  /Subtype /Link
/ANN pdfmark
1 setlinewidth
0.000 0.000 0.000 nodecolor
newpath 289 184 moveto
289 205 lineto
414 205 lineto
414 184 lineto
closepath stroke
0.000 0.000 0.000 nodecolor
10.00 /FreeSans.ttf set_font
351 191 moveto 109 -0.5 (escribePlanoStream) alignedtext
grestore
% Node1->Node3
gsave
1 setlinewidth
solid
0.667 0.776 0.439 edgecolor
newpath 79 114 moveto
98 127 133 149 166 161 curveto
202 175 244 183 279 188 curveto
stroke
0.667 0.776 0.439 edgecolor
newpath 278.701 191.488 moveto
289 189 lineto
279.398 184.522 lineto
closepath fill
1 setlinewidth
solid
0.667 0.776 0.439 edgecolor
newpath 278.701 191.488 moveto
289 189 lineto
279.398 184.522 lineto
closepath stroke
grestore
% Node18
gsave
[ /Rect [ 294 38 408 58 ]
  /Border [ 0 0 0 ]
  /Action << /Subtype /URI /URI ($classNodoTrieS.html#2fc30ff9fad0ba7dff585e913f34cc84) >>
  /Subtype /Link
/ANN pdfmark
[ /Rect [ 294 38 408 58 ]
  /Border [ 0 0 0 ]
  /Action << /Subtype /URI /URI ($classNodoTrieS.html#2fc30ff9fad0ba7dff585e913f34cc84) >>
  /Subtype /Link
/ANN pdfmark
1 setlinewidth
0.000 0.000 0.000 nodecolor
newpath 294 37 moveto
294 58 lineto
409 58 lineto
409 37 lineto
closepath stroke
0.000 0.000 0.000 nodecolor
10.00 /FreeSans.ttf set_font
351 44 moveto 99 -0.5 (NodoTrieS::inserta) alignedtext
grestore
% Node1->Node18
gsave
1 setlinewidth
solid
0.667 0.776 0.439 edgecolor
newpath 122 93 moveto
171 84 240 70 290 60 curveto
stroke
0.667 0.776 0.439 edgecolor
newpath 290.881 63.3933 moveto
300 58 lineto
289.508 56.5292 lineto
closepath fill
1 setlinewidth
solid
0.667 0.776 0.439 edgecolor
newpath 290.881 63.3933 moveto
300 58 lineto
289.508 56.5292 lineto
closepath stroke
grestore
% Node21
gsave
[ /Rect [ 178 18 240 38 ]
  /Border [ 0 0 0 ]
  /Action << /Subtype /URI /URI ($NodoTrieS_8cpp.html#e8422311e58bfd8cfdfcc83509128cf7) >>
  /Subtype /Link
/ANN pdfmark
[ /Rect [ 178 18 240 38 ]
  /Border [ 0 0 0 ]
  /Action << /Subtype /URI /URI ($NodoTrieS_8cpp.html#e8422311e58bfd8cfdfcc83509128cf7) >>
  /Subtype /Link
/ANN pdfmark
1 setlinewidth
0.000 0.000 0.000 nodecolor
newpath 178 17 moveto
178 38 lineto
241 38 lineto
241 17 lineto
closepath stroke
0.000 0.000 0.000 nodecolor
10.00 /FreeSans.ttf set_font
209 24 moveto 47 -0.5 (leeTexto) alignedtext
grestore
% Node1->Node21
gsave
1 setlinewidth
solid
0.667 0.776 0.439 edgecolor
newpath 86 93 moveto
111 80 153 57 181 43 curveto
stroke
0.667 0.776 0.439 edgecolor
newpath 182.958 45.916 moveto
190 38 lineto
179.559 39.7969 lineto
closepath fill
1 setlinewidth
solid
0.667 0.776 0.439 edgecolor
newpath 182.958 45.916 moveto
190 38 lineto
179.559 39.7969 lineto
closepath stroke
grestore
% Node24
gsave
[ /Rect [ 323 94 379 114 ]
  /Border [ 0 0 0 ]
  /Action << /Subtype /URI /URI ($NodoTrieS_8cpp.html#079316fbc88878ad572ff859f63998e3) >>
  /Subtype /Link
/ANN pdfmark
[ /Rect [ 323 94 379 114 ]
  /Border [ 0 0 0 ]
  /Action << /Subtype /URI /URI ($NodoTrieS_8cpp.html#079316fbc88878ad572ff859f63998e3) >>
  /Subtype /Link
/ANN pdfmark
1 setlinewidth
0.000 0.000 0.000 nodecolor
newpath 323 93 moveto
323 114 lineto
379 114 lineto
379 93 lineto
closepath stroke
0.000 0.000 0.000 nodecolor
10.00 /FreeSans.ttf set_font
351 100 moveto 40 -0.5 (mezcla) alignedtext
grestore
% Node1->Node24
gsave
1 setlinewidth
solid
0.667 0.776 0.439 edgecolor
newpath 130 104 moveto
187 104 266 104 313 104 curveto
stroke
0.667 0.776 0.439 edgecolor
newpath 313 107.5 moveto
323 104 lineto
313 100.5 lineto
closepath fill
1 setlinewidth
solid
0.667 0.776 0.439 edgecolor
newpath 313 107.5 moveto
323 104 lineto
313 100.5 lineto
closepath stroke
grestore
% Node2->Node3
gsave
1 setlinewidth
solid
0.667 0.776 0.439 edgecolor
newpath 236 152 moveto
257 160 288 171 312 180 curveto
stroke
0.667 0.776 0.439 edgecolor
newpath 311.415 183.536 moveto
322 184 lineto
314.015 177.036 lineto
closepath fill
1 setlinewidth
solid
0.667 0.776 0.439 edgecolor
newpath 311.415 183.536 moveto
322 184 lineto
314.015 177.036 lineto
closepath stroke
grestore
% Node16
gsave
[ /Rect [ 300 132 402 152 ]
  /Border [ 0 0 0 ]
  /Action << /Subtype /URI /URI ($TrieSDisco_8cpp.html#df0711974693615ed7a5a7d1a2b050a7) >>
  /Subtype /Link
/ANN pdfmark
[ /Rect [ 300 132 402 152 ]
  /Border [ 0 0 0 ]
  /Action << /Subtype /URI /URI ($TrieSDisco_8cpp.html#df0711974693615ed7a5a7d1a2b050a7) >>
  /Subtype /Link
/ANN pdfmark
1 setlinewidth
0.000 0.000 0.000 nodecolor
newpath 300 131 moveto
300 152 lineto
402 152 lineto
402 131 lineto
closepath stroke
0.000 0.000 0.000 nodecolor
10.00 /FreeSans.ttf set_font
351 138 moveto 86 -0.5 (escribeRelacion) alignedtext
grestore
% Node2->Node16
gsave
1 setlinewidth
solid
0.667 0.776 0.439 edgecolor
newpath 252 142 moveto
264 142 277 142 290 142 curveto
stroke
0.667 0.776 0.439 edgecolor
newpath 290 145.5 moveto
300 142 lineto
290 138.5 lineto
closepath fill
1 setlinewidth
solid
0.667 0.776 0.439 edgecolor
newpath 290 145.5 moveto
300 142 lineto
290 138.5 lineto
closepath stroke
grestore
% Node4
gsave
[ /Rect [ 701 273 785 293 ]
  /Border [ 0 0 0 ]
  /Action << /Subtype /URI /URI ($TrieSDisco_8cpp.html#95dfc28ebaa02e82d3d1ffce08251628) >>
  /Subtype /Link
/ANN pdfmark
[ /Rect [ 701 273 785 293 ]
  /Border [ 0 0 0 ]
  /Action << /Subtype /URI /URI ($TrieSDisco_8cpp.html#95dfc28ebaa02e82d3d1ffce08251628) >>
  /Subtype /Link
/ANN pdfmark
1 setlinewidth
0.000 0.000 0.000 nodecolor
newpath 701 272 moveto
701 293 lineto
785 293 lineto
785 272 lineto
closepath stroke
0.000 0.000 0.000 nodecolor
10.00 /FreeSans.ttf set_font
743 279 moveto 68 -0.5 (escribeNodo) alignedtext
grestore
% Node3->Node4
gsave
1 setlinewidth
solid
0.667 0.776 0.439 edgecolor
newpath 360 205 moveto
375 223 411 260 450 275 curveto
530 304 631 299 691 291 curveto
stroke
0.667 0.776 0.439 edgecolor
newpath 691.398 294.478 moveto
701 290 lineto
690.701 287.512 lineto
closepath fill
1 setlinewidth
solid
0.667 0.776 0.439 edgecolor
newpath 691.398 294.478 moveto
701 290 lineto
690.701 287.512 lineto
closepath stroke
grestore
% Node10
gsave
[ /Rect [ 880 199 1036 219 ]
  /Border [ 0 0 0 ]
  /Action << /Subtype /URI /URI ($TrieSDisco_8cpp.html#453b277936104f13edb4f8158e015eba) >>
  /Subtype /Link
/ANN pdfmark
[ /Rect [ 880 199 1036 219 ]
  /Border [ 0 0 0 ]
  /Action << /Subtype /URI /URI ($TrieSDisco_8cpp.html#453b277936104f13edb4f8158e015eba) >>
  /Subtype /Link
/ANN pdfmark
1 setlinewidth
0.000 0.000 0.000 nodecolor
newpath 880 198 moveto
880 219 lineto
1036 219 lineto
1036 198 lineto
closepath stroke
0.000 0.000 0.000 nodecolor
10.00 /FreeSans.ttf set_font
958 205 moveto 140 -0.5 (precalcula_escribe_actual) alignedtext
grestore
% Node3->Node10
gsave
1 setlinewidth
solid
0.667 0.776 0.439 edgecolor
newpath 414 191 moveto
508 185 690 177 844 190 curveto
860 192 876 194 891 196 curveto
stroke
0.667 0.776 0.439 edgecolor
newpath 890.508 199.471 moveto
901 198 lineto
891.881 192.607 lineto
closepath fill
1 setlinewidth
solid
0.667 0.776 0.439 edgecolor
newpath 890.508 199.471 moveto
901 198 lineto
891.881 192.607 lineto
closepath stroke
grestore
% Node14
gsave
[ /Rect [ 470 228 586 248 ]
  /Border [ 0 0 0 ]
  /Action << /Subtype /URI /URI ($RamDisco_8cpp.html#6b1b44682de6eb9fccd3df71e404154a) >>
  /Subtype /Link
/ANN pdfmark
[ /Rect [ 470 228 586 248 ]
  /Border [ 0 0 0 ]
  /Action << /Subtype /URI /URI ($RamDisco_8cpp.html#6b1b44682de6eb9fccd3df71e404154a) >>
  /Subtype /Link
/ANN pdfmark
1 setlinewidth
0.000 0.000 0.000 nodecolor
newpath 470 227 moveto
470 248 lineto
587 248 lineto
587 227 lineto
closepath stroke
0.000 0.000 0.000 nodecolor
10.00 /FreeSans.ttf set_font
528 234 moveto 101 -0.5 (precalcula_escribe) alignedtext
grestore
% Node3->Node14
gsave
1 setlinewidth
solid
0.667 0.776 0.439 edgecolor
newpath 392 205 moveto
416 211 447 218 472 225 curveto
stroke
0.667 0.776 0.439 edgecolor
newpath 471.508 228.471 moveto
482 227 lineto
472.881 221.607 lineto
closepath fill
1 setlinewidth
solid
0.667 0.776 0.439 edgecolor
newpath 471.508 228.471 moveto
482 227 lineto
472.881 221.607 lineto
closepath stroke
grestore
% Node15
gsave
[ /Rect [ 642 199 844 219 ]
  /Border [ 0 0 0 ]
  /Action << /Subtype /URI /URI ($RamDisco_8cpp.html#5b79fc3f073aeb2481fb1d51274a52a6) >>
  /Subtype /Link
/ANN pdfmark
[ /Rect [ 642 199 844 219 ]
  /Border [ 0 0 0 ]
  /Action << /Subtype /URI /URI ($RamDisco_8cpp.html#5b79fc3f073aeb2481fb1d51274a52a6) >>
  /Subtype /Link
/ANN pdfmark
1 setlinewidth
0.000 0.000 0.000 nodecolor
newpath 642 198 moveto
642 219 lineto
844 219 lineto
844 198 lineto
closepath stroke
0.000 0.000 0.000 nodecolor
10.00 /FreeSans.ttf set_font
743 205 moveto 186 -0.5 (precalcula_escribe_con_hermanos) alignedtext
grestore
% Node3->Node15
gsave
1 setlinewidth
solid
0.667 0.776 0.439 edgecolor
newpath 414 197 moveto
472 199 561 203 632 205 curveto
stroke
0.667 0.776 0.439 edgecolor
newpath 632 208.5 moveto
642 205 lineto
632 201.5 lineto
closepath fill
1 setlinewidth
solid
0.667 0.776 0.439 edgecolor
newpath 632 208.5 moveto
642 205 lineto
632 201.5 lineto
closepath stroke
grestore
% Node5
gsave
[ /Rect [ 913 261 1003 281 ]
  /Border [ 0 0 0 ]
  /Action << /Subtype /URI /URI ($comun_8hpp.html#96402bda6527bf98dd8e49d62ae182f8) >>
  /Subtype /Link
/ANN pdfmark
[ /Rect [ 913 261 1003 281 ]
  /Border [ 0 0 0 ]
  /Action << /Subtype /URI /URI ($comun_8hpp.html#96402bda6527bf98dd8e49d62ae182f8) >>
  /Subtype /Link
/ANN pdfmark
1 setlinewidth
0.000 0.000 0.000 nodecolor
newpath 913 260 moveto
913 281 lineto
1003 281 lineto
1003 260 lineto
closepath stroke
0.000 0.000 0.000 nodecolor
10.00 /FreeSans.ttf set_font
958 267 moveto 74 -0.5 (escribeNDesp) alignedtext
grestore
% Node4->Node5
gsave
1 setlinewidth
solid
0.667 0.776 0.439 edgecolor
newpath 785 281 moveto
819 279 866 277 903 274 curveto
stroke
0.667 0.776 0.439 edgecolor
newpath 903.398 277.478 moveto
913 273 lineto
902.701 270.512 lineto
closepath fill
1 setlinewidth
solid
0.667 0.776 0.439 edgecolor
newpath 903.398 277.478 moveto
913 273 lineto
902.701 270.512 lineto
closepath stroke
grestore
% Node7
gsave
[ /Rect [ 922 299 994 319 ]
  /Border [ 0 0 0 ]
  /Action << /Subtype /URI /URI ($Pos_8cpp.html#42c2daaa880eeb397c024b6ffa22c8cf) >>
  /Subtype /Link
/ANN pdfmark
[ /Rect [ 922 299 994 319 ]
  /Border [ 0 0 0 ]
  /Action << /Subtype /URI /URI ($Pos_8cpp.html#42c2daaa880eeb397c024b6ffa22c8cf) >>
  /Subtype /Link
/ANN pdfmark
1 setlinewidth
0.000 0.000 0.000 nodecolor
newpath 922 298 moveto
922 319 lineto
995 319 lineto
995 298 lineto
closepath stroke
0.000 0.000 0.000 nodecolor
10.00 /FreeSans.ttf set_font
958 305 moveto 57 -0.5 (escribePos) alignedtext
grestore
% Node4->Node7
gsave
1 setlinewidth
solid
0.667 0.776 0.439 edgecolor
newpath 785 288 moveto
822 293 874 299 912 304 curveto
stroke
0.667 0.776 0.439 edgecolor
newpath 911.701 307.488 moveto
922 305 lineto
912.398 300.522 lineto
closepath fill
1 setlinewidth
solid
0.667 0.776 0.439 edgecolor
newpath 911.701 307.488 moveto
922 305 lineto
912.398 300.522 lineto
closepath stroke
grestore
% Node4->Node10
gsave
1 setlinewidth
solid
0.667 0.776 0.439 edgecolor
newpath 775 272 moveto
814 258 878 237 919 222 curveto
stroke
0.667 0.776 0.439 edgecolor
newpath 920.427 225.226 moveto
929 219 lineto
918.416 218.521 lineto
closepath fill
1 setlinewidth
solid
0.667 0.776 0.439 edgecolor
newpath 920.427 225.226 moveto
929 219 lineto
918.416 218.521 lineto
closepath stroke
grestore
% Node6
gsave
[ /Rect [ 1072 261 1154 281 ]
  /Border [ 0 0 0 ]
  /Action << /Subtype /URI /URI ($comun_8cpp.html#b5388a972300b0a3d2e70c16097a3781) >>
  /Subtype /Link
/ANN pdfmark
[ /Rect [ 1072 261 1154 281 ]
  /Border [ 0 0 0 ]
  /Action << /Subtype /URI /URI ($comun_8cpp.html#b5388a972300b0a3d2e70c16097a3781) >>
  /Subtype /Link
/ANN pdfmark
1 setlinewidth
0.000 0.000 0.000 nodecolor
newpath 1072 260 moveto
1072 281 lineto
1154 281 lineto
1154 260 lineto
closepath stroke
0.000 0.000 0.000 nodecolor
10.00 /FreeSans.ttf set_font
1113 267 moveto 66 -0.5 (escribe128b) alignedtext
grestore
% Node5->Node6
gsave
1 setlinewidth
solid
0.667 0.776 0.439 edgecolor
newpath 1003 271 moveto
1022 271 1043 271 1062 271 curveto
stroke
0.667 0.776 0.439 edgecolor
newpath 1062 274.5 moveto
1072 271 lineto
1062 267.5 lineto
closepath fill
1 setlinewidth
solid
0.667 0.776 0.439 edgecolor
newpath 1062 274.5 moveto
1072 271 lineto
1062 267.5 lineto
closepath stroke
grestore
% Node8
gsave
[ /Rect [ 1190 289 1318 309 ]
  /Border [ 0 0 0 ]
  /Action << /Subtype /URI /URI ($Elias_8cpp.html#59732ce42a1e75fbbb382a6964ef4620) >>
  /Subtype /Link
/ANN pdfmark
[ /Rect [ 1190 289 1318 309 ]
  /Border [ 0 0 0 ]
  /Action << /Subtype /URI /URI ($Elias_8cpp.html#59732ce42a1e75fbbb382a6964ef4620) >>
  /Subtype /Link
/ANN pdfmark
1 setlinewidth
0.000 0.000 0.000 nodecolor
newpath 1190 288 moveto
1190 309 lineto
1318 309 lineto
1318 288 lineto
closepath stroke
0.000 0.000 0.000 nodecolor
10.00 /FreeSans.ttf set_font
1254 295 moveto 112 -0.5 (escribe_elias_gama2) alignedtext
grestore
% Node7->Node8
gsave
1 setlinewidth
solid
0.667 0.776 0.439 edgecolor
newpath 995 308 moveto
1041 306 1121 303 1180 301 curveto
stroke
0.667 0.776 0.439 edgecolor
newpath 1180 304.5 moveto
1190 301 lineto
1180 297.5 lineto
closepath fill
1 setlinewidth
solid
0.667 0.776 0.439 edgecolor
newpath 1180 304.5 moveto
1190 301 lineto
1180 297.5 lineto
closepath stroke
grestore
% Node9
gsave
[ /Rect [ 1355 265 1427 285 ]
  /Border [ 0 0 0 ]
  /Action << /Subtype /URI /URI ($Elias_8cpp.html#7127ec8dff13cc2ad873693ca8933d38) >>
  /Subtype /Link
/ANN pdfmark
[ /Rect [ 1355 265 1427 285 ]
  /Border [ 0 0 0 ]
  /Action << /Subtype /URI /URI ($Elias_8cpp.html#7127ec8dff13cc2ad873693ca8933d38) >>
  /Subtype /Link
/ANN pdfmark
1 setlinewidth
0.000 0.000 0.000 nodecolor
newpath 1355 264 moveto
1355 285 lineto
1428 285 lineto
1428 264 lineto
closepath stroke
0.000 0.000 0.000 nodecolor
10.00 /FreeSans.ttf set_font
1391 271 moveto 57 -0.5 (piso_logb2) alignedtext
grestore
% Node8->Node9
gsave
1 setlinewidth
solid
0.667 0.776 0.439 edgecolor
newpath 1317 288 moveto
1326 287 1336 285 1345 284 curveto
stroke
0.667 0.776 0.439 edgecolor
newpath 1345.88 287.393 moveto
1355 282 lineto
1344.51 280.529 lineto
closepath fill
1 setlinewidth
solid
0.667 0.776 0.439 edgecolor
newpath 1345.88 287.393 moveto
1355 282 lineto
1344.51 280.529 lineto
closepath stroke
grestore
% Node11
gsave
[ /Rect [ 1076 185 1150 205 ]
  /Border [ 0 0 0 ]
  /Action << /Subtype /URI /URI ($comun_8hpp.html#3f1f97c70ac3ffba1584b0fc02661cab) >>
  /Subtype /Link
/ANN pdfmark
[ /Rect [ 1076 185 1150 205 ]
  /Border [ 0 0 0 ]
  /Action << /Subtype /URI /URI ($comun_8hpp.html#3f1f97c70ac3ffba1584b0fc02661cab) >>
  /Subtype /Link
/ANN pdfmark
1 setlinewidth
0.000 0.000 0.000 nodecolor
newpath 1076 184 moveto
1076 205 lineto
1151 205 lineto
1151 184 lineto
closepath stroke
0.000 0.000 0.000 nodecolor
10.00 /FreeSans.ttf set_font
1113 191 moveto 59 -0.5 (longNDesp) alignedtext
grestore
% Node10->Node11
gsave
1 setlinewidth
solid
0.667 0.776 0.439 edgecolor
newpath 1036 202 moveto
1046 201 1056 200 1066 199 curveto
stroke
0.667 0.776 0.439 edgecolor
newpath 1066.4 202.478 moveto
1076 198 lineto
1065.7 195.512 lineto
closepath fill
1 setlinewidth
solid
0.667 0.776 0.439 edgecolor
newpath 1066.4 202.478 moveto
1076 198 lineto
1065.7 195.512 lineto
closepath stroke
grestore
% Node12
gsave
[ /Rect [ 1084 223 1142 243 ]
  /Border [ 0 0 0 ]
  /Action << /Subtype /URI /URI ($Pos_8cpp.html#ad8740377e9e19836d654491a170ac9a) >>
  /Subtype /Link
/ANN pdfmark
[ /Rect [ 1084 223 1142 243 ]
  /Border [ 0 0 0 ]
  /Action << /Subtype /URI /URI ($Pos_8cpp.html#ad8740377e9e19836d654491a170ac9a) >>
  /Subtype /Link
/ANN pdfmark
1 setlinewidth
0.000 0.000 0.000 nodecolor
newpath 1084 222 moveto
1084 243 lineto
1142 243 lineto
1142 222 lineto
closepath stroke
0.000 0.000 0.000 nodecolor
10.00 /FreeSans.ttf set_font
1113 229 moveto 42 -0.5 (longPos) alignedtext
grestore
% Node10->Node12
gsave
1 setlinewidth
solid
0.667 0.776 0.439 edgecolor
newpath 1023 219 moveto
1040 222 1058 225 1074 227 curveto
stroke
0.667 0.776 0.439 edgecolor
newpath 1073.51 230.471 moveto
1084 229 lineto
1074.88 223.607 lineto
closepath fill
1 setlinewidth
solid
0.667 0.776 0.439 edgecolor
newpath 1073.51 230.471 moveto
1084 229 lineto
1074.88 223.607 lineto
closepath stroke
grestore
% Node13
gsave
[ /Rect [ 1201 242 1307 262 ]
  /Border [ 0 0 0 ]
  /Action << /Subtype /URI /URI ($Elias_8cpp.html#214c4fd6adcbe1fe7de47c4ba521198a) >>
  /Subtype /Link
/ANN pdfmark
[ /Rect [ 1201 242 1307 262 ]
  /Border [ 0 0 0 ]
  /Action << /Subtype /URI /URI ($Elias_8cpp.html#214c4fd6adcbe1fe7de47c4ba521198a) >>
  /Subtype /Link
/ANN pdfmark
1 setlinewidth
0.000 0.000 0.000 nodecolor
newpath 1201 241 moveto
1201 262 lineto
1308 262 lineto
1308 241 lineto
closepath stroke
0.000 0.000 0.000 nodecolor
10.00 /FreeSans.ttf set_font
1254 248 moveto 91 -0.5 (long_elias_gama) alignedtext
grestore
% Node12->Node13
gsave
1 setlinewidth
solid
0.667 0.776 0.439 edgecolor
newpath 1142 237 moveto
1156 239 1174 241 1191 244 curveto
stroke
0.667 0.776 0.439 edgecolor
newpath 1190.7 247.488 moveto
1201 245 lineto
1191.4 240.522 lineto
closepath fill
1 setlinewidth
solid
0.667 0.776 0.439 edgecolor
newpath 1190.7 247.488 moveto
1201 245 lineto
1191.4 240.522 lineto
closepath stroke
grestore
% Node13->Node9
gsave
1 setlinewidth
solid
0.667 0.776 0.439 edgecolor
newpath 1308 261 moveto
1320 263 1333 266 1345 268 curveto
stroke
0.667 0.776 0.439 edgecolor
newpath 1344.7 271.488 moveto
1355 269 lineto
1345.4 264.522 lineto
closepath fill
1 setlinewidth
solid
0.667 0.776 0.439 edgecolor
newpath 1344.7 271.488 moveto
1355 269 lineto
1345.4 264.522 lineto
closepath stroke
grestore
% Node14->Node14
gsave
1 setlinewidth
solid
0.667 0.776 0.439 edgecolor
newpath 472 248 moveto
448 257 466 266 528 266 curveto
578 266 600 260 593 253 curveto
stroke
0.667 0.776 0.439 edgecolor
newpath 594.441 249.797 moveto
584 248 lineto
591.042 255.916 lineto
closepath fill
1 setlinewidth
solid
0.667 0.776 0.439 edgecolor
newpath 594.441 249.797 moveto
584 248 lineto
591.042 255.916 lineto
closepath stroke
grestore
% Node14->Node15
gsave
1 setlinewidth
solid
0.667 0.776 0.439 edgecolor
newpath 587 230 moveto
609 227 634 224 657 221 curveto
stroke
0.667 0.776 0.439 edgecolor
newpath 657.881 224.393 moveto
667 219 lineto
656.508 217.529 lineto
closepath fill
1 setlinewidth
solid
0.667 0.776 0.439 edgecolor
newpath 657.881 224.393 moveto
667 219 lineto
656.508 217.529 lineto
closepath stroke
grestore
% Node15->Node10
gsave
1 setlinewidth
solid
0.667 0.776 0.439 edgecolor
newpath 844 209 moveto
853 209 861 209 870 209 curveto
stroke
0.667 0.776 0.439 edgecolor
newpath 870 212.5 moveto
880 209 lineto
870 205.5 lineto
closepath fill
1 setlinewidth
solid
0.667 0.776 0.439 edgecolor
newpath 870 212.5 moveto
880 209 lineto
870 205.5 lineto
closepath stroke
grestore
% Node17
gsave
[ /Rect [ 488 114 568 134 ]
  /Border [ 0 0 0 ]
  /Action << /Subtype /URI /URI ($Doc_8cpp.html#ccfa223b5e7e9f380b58db51687ff9a5) >>
  /Subtype /Link
/ANN pdfmark
[ /Rect [ 488 114 568 134 ]
  /Border [ 0 0 0 ]
  /Action << /Subtype /URI /URI ($Doc_8cpp.html#ccfa223b5e7e9f380b58db51687ff9a5) >>
  /Subtype /Link
/ANN pdfmark
1 setlinewidth
0.000 0.000 0.000 nodecolor
newpath 488 113 moveto
488 134 lineto
569 134 lineto
569 113 lineto
closepath stroke
0.000 0.000 0.000 nodecolor
10.00 /FreeSans.ttf set_font
528 120 moveto 65 -0.5 (escribeDocs) alignedtext
grestore
% Node16->Node17
gsave
1 setlinewidth
solid
0.667 0.776 0.439 edgecolor
newpath 402 137 moveto
426 134 454 131 478 129 curveto
stroke
0.667 0.776 0.439 edgecolor
newpath 478.398 132.478 moveto
488 128 lineto
477.701 125.512 lineto
closepath fill
1 setlinewidth
solid
0.667 0.776 0.439 edgecolor
newpath 478.398 132.478 moveto
488 128 lineto
477.701 125.512 lineto
closepath stroke
grestore
% Node18->Node18
gsave
1 setlinewidth
solid
0.667 0.776 0.439 edgecolor
newpath 306 58 moveto
286 67 301 76 351 76 curveto
389 76 407 71 404 64 curveto
stroke
0.667 0.776 0.439 edgecolor
newpath 406.1 61.2 moveto
396 58 lineto
401.9 66.8 lineto
closepath fill
1 setlinewidth
solid
0.667 0.776 0.439 edgecolor
newpath 406.1 61.2 moveto
396 58 lineto
401.9 66.8 lineto
closepath stroke
grestore
% Node19
gsave
[ /Rect [ 461 38 595 58 ]
  /Border [ 0 0 0 ]
  /Action << /Subtype /URI /URI ($classNodoTrieS.html#4f1525cf7f147f71e7be74c15d4f87a0) >>
  /Subtype /Link
/ANN pdfmark
[ /Rect [ 461 38 595 58 ]
  /Border [ 0 0 0 ]
  /Action << /Subtype /URI /URI ($classNodoTrieS.html#4f1525cf7f147f71e7be74c15d4f87a0) >>
  /Subtype /Link
/ANN pdfmark
1 setlinewidth
0.000 0.000 0.000 nodecolor
newpath 461 37 moveto
461 58 lineto
595 58 lineto
595 37 lineto
closepath stroke
0.000 0.000 0.000 nodecolor
10.00 /FreeSans.ttf set_font
528 44 moveto 118 -0.5 (NodoTrieS::NodoTrieS) alignedtext
grestore
% Node18->Node19
gsave
1 setlinewidth
solid
0.667 0.776 0.439 edgecolor
newpath 409 48 moveto
423 48 437 48 451 48 curveto
stroke
0.667 0.776 0.439 edgecolor
newpath 451 51.5001 moveto
461 48 lineto
451 44.5001 lineto
closepath fill
1 setlinewidth
solid
0.667 0.776 0.439 edgecolor
newpath 451 51.5001 moveto
461 48 lineto
451 44.5001 lineto
closepath stroke
grestore
% Node20
gsave
[ /Rect [ 451 76 605 96 ]
  /Border [ 0 0 0 ]
  /Action << /Subtype /URI /URI ($comun_8cpp.html#c74356d5b37d454e0ddce0de8fac34f8) >>
  /Subtype /Link
/ANN pdfmark
[ /Rect [ 451 76 605 96 ]
  /Border [ 0 0 0 ]
  /Action << /Subtype /URI /URI ($comun_8cpp.html#c74356d5b37d454e0ddce0de8fac34f8) >>
  /Subtype /Link
/ANN pdfmark
1 setlinewidth
0.000 0.000 0.000 nodecolor
newpath 451 75 moveto
451 96 lineto
606 96 lineto
606 75 lineto
closepath stroke
0.000 0.000 0.000 nodecolor
10.00 /FreeSans.ttf set_font
528 82 moveto 139 -0.5 (prefijo_comun_mas_largo) alignedtext
grestore
% Node18->Node20
gsave
1 setlinewidth
solid
0.667 0.776 0.439 edgecolor
newpath 398 58 moveto
419 62 444 68 467 73 curveto
stroke
0.667 0.776 0.439 edgecolor
newpath 466.508 76.4708 moveto
477 75 lineto
467.881 69.6067 lineto
closepath fill
1 setlinewidth
solid
0.667 0.776 0.439 edgecolor
newpath 466.508 76.4708 moveto
477 75 lineto
467.881 69.6067 lineto
closepath stroke
grestore
% Node21->Node18
gsave
1 setlinewidth
solid
0.667 0.776 0.439 edgecolor
newpath 241 33 moveto
254 35 269 36 284 38 curveto
stroke
0.667 0.776 0.439 edgecolor
newpath 283.508 41.4708 moveto
294 40 lineto
284.881 34.6067 lineto
closepath fill
1 setlinewidth
solid
0.667 0.776 0.439 edgecolor
newpath 283.508 41.4708 moveto
294 40 lineto
284.881 34.6067 lineto
closepath stroke
grestore
% Node22
gsave
[ /Rect [ 316 0 386 20 ]
  /Border [ 0 0 0 ]
  /Action << /Subtype /URI /URI ($comun_8cpp.html#1f33d728a35dd4b43d2622c5471f5157) >>
  /Subtype /Link
/ANN pdfmark
[ /Rect [ 316 0 386 20 ]
  /Border [ 0 0 0 ]
  /Action << /Subtype /URI /URI ($comun_8cpp.html#1f33d728a35dd4b43d2622c5471f5157) >>
  /Subtype /Link
/ANN pdfmark
1 setlinewidth
0.000 0.000 0.000 nodecolor
newpath 316 -1 moveto
316 20 lineto
387 20 lineto
387 -1 lineto
closepath stroke
0.000 0.000 0.000 nodecolor
10.00 /FreeSans.ttf set_font
351 6 moveto 55 -0.5 (normaliza) alignedtext
grestore
% Node21->Node22
gsave
1 setlinewidth
solid
0.667 0.776 0.439 edgecolor
newpath 241 24 moveto
260 21 285 19 306 16 curveto
stroke
0.667 0.776 0.439 edgecolor
newpath 306.398 19.4778 moveto
316 15 lineto
305.701 12.5125 lineto
closepath fill
1 setlinewidth
solid
0.667 0.776 0.439 edgecolor
newpath 306.398 19.4778 moveto
316 15 lineto
305.701 12.5125 lineto
closepath stroke
grestore
% Node23
gsave
[ /Rect [ 469 0 587 20 ]
  /Border [ 0 0 0 ]
  /Action << /Subtype /URI /URI ($comun_8cpp.html#bc69e612ecd81636d091e0b60fdf327e) >>
  /Subtype /Link
/ANN pdfmark
[ /Rect [ 469 0 587 20 ]
  /Border [ 0 0 0 ]
  /Action << /Subtype /URI /URI ($comun_8cpp.html#bc69e612ecd81636d091e0b60fdf327e) >>
  /Subtype /Link
/ANN pdfmark
1 setlinewidth
0.000 0.000 0.000 nodecolor
newpath 469 -1 moveto
469 20 lineto
587 20 lineto
587 -1 lineto
closepath stroke
0.000 0.000 0.000 nodecolor
10.00 /FreeSans.ttf set_font
528 6 moveto 102 -0.5 (normalizaCaracter) alignedtext
grestore
% Node22->Node23
gsave
1 setlinewidth
solid
0.667 0.776 0.439 edgecolor
newpath 387 10 moveto
408 10 434 10 459 10 curveto
stroke
0.667 0.776 0.439 edgecolor
newpath 459 13.5001 moveto
469 10 lineto
459 6.5001 lineto
closepath fill
1 setlinewidth
solid
0.667 0.776 0.439 edgecolor
newpath 459 13.5001 moveto
469 10 lineto
459 6.5001 lineto
closepath stroke
grestore
% Node24->Node19
gsave
1 setlinewidth
solid
0.667 0.776 0.439 edgecolor
newpath 379 97 moveto
390 94 403 90 414 85 curveto
431 79 434 74 450 67 curveto
457 65 463 63 470 61 curveto
stroke
0.667 0.776 0.439 edgecolor
newpath 471.427 64.2259 moveto
480 58 lineto
469.416 57.5212 lineto
closepath fill
1 setlinewidth
solid
0.667 0.776 0.439 edgecolor
newpath 471.427 64.2259 moveto
480 58 lineto
469.416 57.5212 lineto
closepath stroke
grestore
% Node24->Node20
gsave
1 setlinewidth
solid
0.667 0.776 0.439 edgecolor
newpath 379 101 moveto
396 99 418 97 441 95 curveto
stroke
0.667 0.776 0.439 edgecolor
newpath 441.398 98.4778 moveto
451 94 lineto
440.701 91.5125 lineto
closepath fill
1 setlinewidth
solid
0.667 0.776 0.439 edgecolor
newpath 441.398 98.4778 moveto
451 94 lineto
440.701 91.5125 lineto
closepath stroke
grestore
endpage
showpage
grestore
%%PageTrailer
%%EndPage: 1
%%Trailer
%%Pages: 1
%%BoundingBox: 36 36 1472 363
end
restore
%%EOF
