%!PS-Adobe-2.0
%%Creator: Graphviz version 2.12 (Mon Nov 16 18:34:03 UTC 2009)
%%For: (vtamara) Vladimir
%%Title: G
%%Pages: (atend)
%%BoundingBox: (atend)
%%EndComments
save
%%BeginProlog
/DotDict 200 dict def
DotDict begin

/setupLatin1 {
mark
/EncodingVector 256 array def
 EncodingVector 0

ISOLatin1Encoding 0 255 getinterval putinterval
EncodingVector 45 /hyphen put

% Set up ISO Latin 1 character encoding
/starnetISO {
        dup dup findfont dup length dict begin
        { 1 index /FID ne { def }{ pop pop } ifelse
        } forall
        /Encoding EncodingVector def
        currentdict end definefont
} def
/Times-Roman starnetISO def
/Times-Italic starnetISO def
/Times-Bold starnetISO def
/Times-BoldItalic starnetISO def
/Helvetica starnetISO def
/Helvetica-Oblique starnetISO def
/Helvetica-Bold starnetISO def
/Helvetica-BoldOblique starnetISO def
/Courier starnetISO def
/Courier-Oblique starnetISO def
/Courier-Bold starnetISO def
/Courier-BoldOblique starnetISO def
cleartomark
} bind def

%%BeginResource: procset graphviz 0 0
/coord-font-family /Times-Roman def
/default-font-family /Times-Roman def
/coordfont coord-font-family findfont 8 scalefont def

/InvScaleFactor 1.0 def
/set_scale {
       dup 1 exch div /InvScaleFactor exch def
       scale
} bind def

% styles
/solid { [] 0 setdash } bind def
/dashed { [9 InvScaleFactor mul dup ] 0 setdash } bind def
/dotted { [1 InvScaleFactor mul 6 InvScaleFactor mul] 0 setdash } bind def
/invis {/fill {newpath} def /stroke {newpath} def /show {pop newpath} def} bind def
/bold { 2 setlinewidth } bind def
/filled { } bind def
/unfilled { } bind def
/rounded { } bind def
/diagonals { } bind def

% hooks for setting color 
/nodecolor { sethsbcolor } bind def
/edgecolor { sethsbcolor } bind def
/graphcolor { sethsbcolor } bind def
/nopcolor {pop pop pop} bind def

/beginpage {	% i j npages
	/npages exch def
	/j exch def
	/i exch def
	/str 10 string def
	npages 1 gt {
		gsave
			coordfont setfont
			0 0 moveto
			(\() show i str cvs show (,) show j str cvs show (\)) show
		grestore
	} if
} bind def

/set_font {
	findfont exch
	scalefont setfont
} def

% draw aligned label in bounding box aligned to current point
/alignedtext {			% width adj text
	/text exch def
	/adj exch def
	/width exch def
	gsave
		width 0 gt {
			text stringwidth pop adj mul 0 rmoveto
		} if
		[] 0 setdash
		text show
	grestore
} def

/boxprim {				% xcorner ycorner xsize ysize
		4 2 roll
		moveto
		2 copy
		exch 0 rlineto
		0 exch rlineto
		pop neg 0 rlineto
		closepath
} bind def

/ellipse_path {
	/ry exch def
	/rx exch def
	/y exch def
	/x exch def
	matrix currentmatrix
	newpath
	x y translate
	rx ry scale
	0 0 1 0 360 arc
	setmatrix
} bind def

/endpage { showpage } bind def
/showpage { } def

/layercolorseq
	[	% layer color sequence - darkest to lightest
		[0 0 0]
		[.2 .8 .8]
		[.4 .8 .8]
		[.6 .8 .8]
		[.8 .8 .8]
	]
def

/layerlen layercolorseq length def

/setlayer {/maxlayer exch def /curlayer exch def
	layercolorseq curlayer 1 sub layerlen mod get
	aload pop sethsbcolor
	/nodecolor {nopcolor} def
	/edgecolor {nopcolor} def
	/graphcolor {nopcolor} def
} bind def

/onlayer { curlayer ne {invis} if } def

/onlayers {
	/myupper exch def
	/mylower exch def
	curlayer mylower lt
	curlayer myupper gt
	or
	{invis} if
} def

/curlayer 0 def

%%EndResource
%%EndProlog
%%BeginSetup
14 default-font-family set_font
1 setmiterlimit
% /arrowlength 10 def
% /arrowwidth 5 def

% make sure pdfmark is harmless for PS-interpreters other than Distiller
/pdfmark where {pop} {userdict /pdfmark /cleartomark load put} ifelse
% make '<<' and '>>' safe on PS Level 1 devices
/languagelevel where {pop languagelevel}{1} ifelse
2 lt {
    userdict (<<) cvn ([) cvn load put
    userdict (>>) cvn ([) cvn load put
} if

%%EndSetup
setupLatin1
%%Page: 1 1
%%PageBoundingBox: 36 36 1476 558
%%PageOrientation: Portrait
gsave
36 36 1476 558 boxprim clip newpath
0 0 1 beginpage
1 1 set_scale 0 rotate 40 40 translate
% Node1
gsave
0.000 0.000 0.749 nodecolor
newpath 1 254 moveto
1 275 lineto
118 275 lineto
118 254 lineto
closepath fill
1 setlinewidth
filled
0.000 0.000 0.000 nodecolor
newpath 1 254 moveto
1 275 lineto
118 275 lineto
118 254 lineto
closepath stroke
0.000 0.000 0.000 nodecolor
10.00 /FreeSans.ttf set_font
59 261 moveto 101 -0.5 (prueba_mezclarec) alignedtext
grestore
% Node2
gsave
[ /Rect [ 157 359 267 379 ]
  /Border [ 0 0 0 ]
  /Action << /Subtype /URI /URI ($classNodoTrieS.html#721fc27d7f6e4cfd26f4931fe6a9b70d) >>
  /Subtype /Link
/ANN pdfmark
[ /Rect [ 157 359 267 379 ]
  /Border [ 0 0 0 ]
  /Action << /Subtype /URI /URI ($classNodoTrieS.html#721fc27d7f6e4cfd26f4931fe6a9b70d) >>
  /Subtype /Link
/ANN pdfmark
1 setlinewidth
0.000 0.000 0.000 nodecolor
newpath 157 358 moveto
157 379 lineto
267 379 lineto
267 358 lineto
closepath stroke
0.000 0.000 0.000 nodecolor
10.00 /FreeSans.ttf set_font
212 365 moveto 94 -0.5 (NodoTrieS::busca) alignedtext
grestore
% Node1->Node2
gsave
1 setlinewidth
solid
0.667 0.776 0.439 edgecolor
newpath 69 275 moveto
86 292 120 324 154 345 curveto
159 348 165 351 171 354 curveto
stroke
0.667 0.776 0.439 edgecolor
newpath 170.415 357.536 moveto
181 358 lineto
173.015 351.036 lineto
closepath fill
1 setlinewidth
solid
0.667 0.776 0.439 edgecolor
newpath 170.415 357.536 moveto
181 358 lineto
173.015 351.036 lineto
closepath stroke
grestore
% Node3
gsave
[ /Rect [ 322 416 446 436 ]
  /Border [ 0 0 0 ]
  /Action << /Subtype /URI /URI ($RamDisco_8cpp.html#f0c232886a7851d8db3a647add9ae455) >>
  /Subtype /Link
/ANN pdfmark
[ /Rect [ 322 416 446 436 ]
  /Border [ 0 0 0 ]
  /Action << /Subtype /URI /URI ($RamDisco_8cpp.html#f0c232886a7851d8db3a647add9ae455) >>
  /Subtype /Link
/ANN pdfmark
1 setlinewidth
0.000 0.000 0.000 nodecolor
newpath 322 415 moveto
322 436 lineto
447 436 lineto
447 415 lineto
closepath stroke
0.000 0.000 0.000 nodecolor
10.00 /FreeSans.ttf set_font
384 422 moveto 109 -0.5 (escribePlanoStream) alignedtext
grestore
% Node1->Node3
gsave
1 setlinewidth
solid
0.667 0.776 0.439 edgecolor
newpath 78 275 moveto
97 285 127 301 154 312 curveto
205 332 226 319 270 350 curveto
292 364 286 379 306 395 curveto
315 402 325 407 335 411 curveto
stroke
0.667 0.776 0.439 edgecolor
newpath 334.415 414.536 moveto
345 415 lineto
337.015 408.036 lineto
closepath fill
1 setlinewidth
solid
0.667 0.776 0.439 edgecolor
newpath 334.415 414.536 moveto
345 415 lineto
337.015 408.036 lineto
closepath stroke
grestore
% Node16
gsave
[ /Rect [ 155 94 269 114 ]
  /Border [ 0 0 0 ]
  /Action << /Subtype /URI /URI ($classNodoTrieS.html#2fc30ff9fad0ba7dff585e913f34cc84) >>
  /Subtype /Link
/ANN pdfmark
[ /Rect [ 155 94 269 114 ]
  /Border [ 0 0 0 ]
  /Action << /Subtype /URI /URI ($classNodoTrieS.html#2fc30ff9fad0ba7dff585e913f34cc84) >>
  /Subtype /Link
/ANN pdfmark
1 setlinewidth
0.000 0.000 0.000 nodecolor
newpath 155 93 moveto
155 114 lineto
270 114 lineto
270 93 lineto
closepath stroke
0.000 0.000 0.000 nodecolor
10.00 /FreeSans.ttf set_font
212 100 moveto 99 -0.5 (NodoTrieS::inserta) alignedtext
grestore
% Node1->Node16
gsave
1 setlinewidth
solid
0.667 0.776 0.439 edgecolor
newpath 70 254 moveto
96 227 163 155 195 122 curveto
stroke
0.667 0.776 0.439 edgecolor
newpath 198.049 123.831 moveto
202 114 lineto
192.781 119.221 lineto
closepath fill
1 setlinewidth
solid
0.667 0.776 0.439 edgecolor
newpath 198.049 123.831 moveto
202 114 lineto
192.781 119.221 lineto
closepath stroke
grestore
% Node19
gsave
[ /Rect [ 333 0 435 20 ]
  /Border [ 0 0 0 ]
  /Action << /Subtype /URI /URI ($RamDisco_8cpp.html#6629a007f761319a91a329f1071896fa) >>
  /Subtype /Link
/ANN pdfmark
[ /Rect [ 333 0 435 20 ]
  /Border [ 0 0 0 ]
  /Action << /Subtype /URI /URI ($RamDisco_8cpp.html#6629a007f761319a91a329f1071896fa) >>
  /Subtype /Link
/ANN pdfmark
1 setlinewidth
0.000 0.000 0.000 nodecolor
newpath 333 -1 moveto
333 20 lineto
436 20 lineto
436 -1 lineto
closepath stroke
0.000 0.000 0.000 nodecolor
10.00 /FreeSans.ttf set_font
384 6 moveto 87 -0.5 (leePlanoStream) alignedtext
grestore
% Node1->Node19
gsave
1 setlinewidth
solid
0.667 0.776 0.439 edgecolor
newpath 62 254 moveto
70 223 98 133 154 85 curveto
203 45 272 26 323 18 curveto
stroke
0.667 0.776 0.439 edgecolor
newpath 323.881 21.3933 moveto
333 16 lineto
322.508 14.5292 lineto
closepath fill
1 setlinewidth
solid
0.667 0.776 0.439 edgecolor
newpath 323.881 21.3933 moveto
333 16 lineto
322.508 14.5292 lineto
closepath stroke
grestore
% Node25
gsave
[ /Rect [ 183 283 241 303 ]
  /Border [ 0 0 0 ]
  /Action << /Subtype /URI /URI ($CasosPrueba_8hpp.html#9d3e570cd9f7040235c0162eaaadb70c) >>
  /Subtype /Link
/ANN pdfmark
[ /Rect [ 183 283 241 303 ]
  /Border [ 0 0 0 ]
  /Action << /Subtype /URI /URI ($CasosPrueba_8hpp.html#9d3e570cd9f7040235c0162eaaadb70c) >>
  /Subtype /Link
/ANN pdfmark
1 setlinewidth
0.000 0.000 0.000 nodecolor
newpath 183 282 moveto
183 303 lineto
241 303 lineto
241 282 lineto
closepath stroke
0.000 0.000 0.000 nodecolor
10.00 /FreeSans.ttf set_font
212 289 moveto 42 -0.5 (llena_ss) alignedtext
grestore
% Node1->Node25
gsave
1 setlinewidth
solid
0.667 0.776 0.439 edgecolor
newpath 114 275 moveto
133 278 155 282 173 286 curveto
stroke
0.667 0.776 0.439 edgecolor
newpath 172.508 289.471 moveto
183 288 lineto
173.881 282.607 lineto
closepath fill
1 setlinewidth
solid
0.667 0.776 0.439 edgecolor
newpath 172.508 289.471 moveto
183 288 lineto
173.881 282.607 lineto
closepath stroke
grestore
% Node26
gsave
[ /Rect [ 174 227 250 247 ]
  /Border [ 0 0 0 ]
  /Action << /Subtype /URI /URI ($TrieSDisco_8cpp.html#2650ad438abcd85c2ac08ab5c207620d) >>
  /Subtype /Link
/ANN pdfmark
[ /Rect [ 174 227 250 247 ]
  /Border [ 0 0 0 ]
  /Action << /Subtype /URI /URI ($TrieSDisco_8cpp.html#2650ad438abcd85c2ac08ab5c207620d) >>
  /Subtype /Link
/ANN pdfmark
1 setlinewidth
0.000 0.000 0.000 nodecolor
newpath 174 226 moveto
174 247 lineto
250 247 lineto
250 226 lineto
closepath stroke
0.000 0.000 0.000 nodecolor
10.00 /FreeSans.ttf set_font
212 233 moveto 60 -0.5 (mezclaRec) alignedtext
grestore
% Node1->Node26
gsave
1 setlinewidth
solid
0.667 0.776 0.439 edgecolor
newpath 118 254 moveto
133 252 150 248 164 246 curveto
stroke
0.667 0.776 0.439 edgecolor
newpath 164.881 249.393 moveto
174 244 lineto
163.508 242.529 lineto
closepath fill
1 setlinewidth
solid
0.667 0.776 0.439 edgecolor
newpath 164.881 249.393 moveto
174 244 lineto
163.508 242.529 lineto
closepath stroke
grestore
% Node2->Node2
gsave
1 setlinewidth
solid
0.667 0.776 0.439 edgecolor
newpath 164 379 moveto
143 388 159 397 212 397 curveto
253 397 272 392 268 385 curveto
stroke
0.667 0.776 0.439 edgecolor
newpath 270.1 382.2 moveto
260 379 lineto
265.9 387.8 lineto
closepath fill
1 setlinewidth
solid
0.667 0.776 0.439 edgecolor
newpath 270.1 382.2 moveto
260 379 lineto
265.9 387.8 lineto
closepath stroke
grestore
% Node4
gsave
[ /Rect [ 515 378 599 398 ]
  /Border [ 0 0 0 ]
  /Action << /Subtype /URI /URI ($TrieSDisco_8cpp.html#95dfc28ebaa02e82d3d1ffce08251628) >>
  /Subtype /Link
/ANN pdfmark
[ /Rect [ 515 378 599 398 ]
  /Border [ 0 0 0 ]
  /Action << /Subtype /URI /URI ($TrieSDisco_8cpp.html#95dfc28ebaa02e82d3d1ffce08251628) >>
  /Subtype /Link
/ANN pdfmark
1 setlinewidth
0.000 0.000 0.000 nodecolor
newpath 515 377 moveto
515 398 lineto
599 398 lineto
599 377 lineto
closepath stroke
0.000 0.000 0.000 nodecolor
10.00 /FreeSans.ttf set_font
557 384 moveto 68 -0.5 (escribeNodo) alignedtext
grestore
% Node3->Node4
gsave
1 setlinewidth
solid
0.667 0.776 0.439 edgecolor
newpath 435 415 moveto
457 411 483 405 505 399 curveto
stroke
0.667 0.776 0.439 edgecolor
newpath 505.881 402.393 moveto
515 397 lineto
504.508 395.529 lineto
closepath fill
1 setlinewidth
solid
0.667 0.776 0.439 edgecolor
newpath 505.881 402.393 moveto
515 397 lineto
504.508 395.529 lineto
closepath stroke
grestore
% Node10
gsave
[ /Rect [ 890 454 1046 474 ]
  /Border [ 0 0 0 ]
  /Action << /Subtype /URI /URI ($TrieSDisco_8cpp.html#453b277936104f13edb4f8158e015eba) >>
  /Subtype /Link
/ANN pdfmark
[ /Rect [ 890 454 1046 474 ]
  /Border [ 0 0 0 ]
  /Action << /Subtype /URI /URI ($TrieSDisco_8cpp.html#453b277936104f13edb4f8158e015eba) >>
  /Subtype /Link
/ANN pdfmark
1 setlinewidth
0.000 0.000 0.000 nodecolor
newpath 890 453 moveto
890 474 lineto
1046 474 lineto
1046 453 lineto
closepath stroke
0.000 0.000 0.000 nodecolor
10.00 /FreeSans.ttf set_font
968 460 moveto 140 -0.5 (precalcula_escribe_actual) alignedtext
grestore
% Node3->Node10
gsave
1 setlinewidth
solid
0.667 0.776 0.439 edgecolor
newpath 400 436 moveto
421 449 461 471 498 480 curveto
642 514 818 492 908 476 curveto
stroke
0.667 0.776 0.439 edgecolor
newpath 908.881 479.393 moveto
918 474 lineto
907.508 472.529 lineto
closepath fill
1 setlinewidth
solid
0.667 0.776 0.439 edgecolor
newpath 908.881 479.393 moveto
918 474 lineto
907.508 472.529 lineto
closepath stroke
grestore
% Node14
gsave
[ /Rect [ 499 416 615 436 ]
  /Border [ 0 0 0 ]
  /Action << /Subtype /URI /URI ($RamDisco_8cpp.html#6b1b44682de6eb9fccd3df71e404154a) >>
  /Subtype /Link
/ANN pdfmark
[ /Rect [ 499 416 615 436 ]
  /Border [ 0 0 0 ]
  /Action << /Subtype /URI /URI ($RamDisco_8cpp.html#6b1b44682de6eb9fccd3df71e404154a) >>
  /Subtype /Link
/ANN pdfmark
1 setlinewidth
0.000 0.000 0.000 nodecolor
newpath 499 415 moveto
499 436 lineto
616 436 lineto
616 415 lineto
closepath stroke
0.000 0.000 0.000 nodecolor
10.00 /FreeSans.ttf set_font
557 422 moveto 101 -0.5 (precalcula_escribe) alignedtext
grestore
% Node3->Node14
gsave
1 setlinewidth
solid
0.667 0.776 0.439 edgecolor
newpath 447 426 moveto
461 426 475 426 489 426 curveto
stroke
0.667 0.776 0.439 edgecolor
newpath 489 429.5 moveto
499 426 lineto
489 422.5 lineto
closepath fill
1 setlinewidth
solid
0.667 0.776 0.439 edgecolor
newpath 489 429.5 moveto
499 426 lineto
489 422.5 lineto
closepath stroke
grestore
% Node15
gsave
[ /Rect [ 652 454 854 474 ]
  /Border [ 0 0 0 ]
  /Action << /Subtype /URI /URI ($RamDisco_8cpp.html#5b79fc3f073aeb2481fb1d51274a52a6) >>
  /Subtype /Link
/ANN pdfmark
[ /Rect [ 652 454 854 474 ]
  /Border [ 0 0 0 ]
  /Action << /Subtype /URI /URI ($RamDisco_8cpp.html#5b79fc3f073aeb2481fb1d51274a52a6) >>
  /Subtype /Link
/ANN pdfmark
1 setlinewidth
0.000 0.000 0.000 nodecolor
newpath 652 453 moveto
652 474 lineto
854 474 lineto
854 453 lineto
closepath stroke
0.000 0.000 0.000 nodecolor
10.00 /FreeSans.ttf set_font
753 460 moveto 186 -0.5 (precalcula_escribe_con_hermanos) alignedtext
grestore
% Node3->Node15
gsave
1 setlinewidth
solid
0.667 0.776 0.439 edgecolor
newpath 408 436 moveto
431 445 466 458 498 463 curveto
544 470 597 472 642 470 curveto
stroke
0.667 0.776 0.439 edgecolor
newpath 642 473.5 moveto
652 470 lineto
642 466.5 lineto
closepath fill
1 setlinewidth
solid
0.667 0.776 0.439 edgecolor
newpath 642 473.5 moveto
652 470 lineto
642 466.5 lineto
closepath stroke
grestore
% Node5
gsave
[ /Rect [ 708 340 798 360 ]
  /Border [ 0 0 0 ]
  /Action << /Subtype /URI /URI ($comun_8hpp.html#96402bda6527bf98dd8e49d62ae182f8) >>
  /Subtype /Link
/ANN pdfmark
[ /Rect [ 708 340 798 360 ]
  /Border [ 0 0 0 ]
  /Action << /Subtype /URI /URI ($comun_8hpp.html#96402bda6527bf98dd8e49d62ae182f8) >>
  /Subtype /Link
/ANN pdfmark
1 setlinewidth
0.000 0.000 0.000 nodecolor
newpath 708 339 moveto
708 360 lineto
798 360 lineto
798 339 lineto
closepath stroke
0.000 0.000 0.000 nodecolor
10.00 /FreeSans.ttf set_font
753 346 moveto 74 -0.5 (escribeNDesp) alignedtext
grestore
% Node4->Node5
gsave
1 setlinewidth
solid
0.667 0.776 0.439 edgecolor
newpath 599 379 moveto
616 376 635 372 652 369 curveto
667 366 683 363 698 360 curveto
stroke
0.667 0.776 0.439 edgecolor
newpath 698.881 363.393 moveto
708 358 lineto
697.508 356.529 lineto
closepath fill
1 setlinewidth
solid
0.667 0.776 0.439 edgecolor
newpath 698.881 363.393 moveto
708 358 lineto
697.508 356.529 lineto
closepath stroke
grestore
% Node7
gsave
[ /Rect [ 717 378 789 398 ]
  /Border [ 0 0 0 ]
  /Action << /Subtype /URI /URI ($Pos_8cpp.html#42c2daaa880eeb397c024b6ffa22c8cf) >>
  /Subtype /Link
/ANN pdfmark
[ /Rect [ 717 378 789 398 ]
  /Border [ 0 0 0 ]
  /Action << /Subtype /URI /URI ($Pos_8cpp.html#42c2daaa880eeb397c024b6ffa22c8cf) >>
  /Subtype /Link
/ANN pdfmark
1 setlinewidth
0.000 0.000 0.000 nodecolor
newpath 717 377 moveto
717 398 lineto
790 398 lineto
790 377 lineto
closepath stroke
0.000 0.000 0.000 nodecolor
10.00 /FreeSans.ttf set_font
753 384 moveto 57 -0.5 (escribePos) alignedtext
grestore
% Node4->Node7
gsave
1 setlinewidth
solid
0.667 0.776 0.439 edgecolor
newpath 599 388 moveto
631 388 674 388 707 388 curveto
stroke
0.667 0.776 0.439 edgecolor
newpath 707 391.5 moveto
717 388 lineto
707 384.5 lineto
closepath fill
1 setlinewidth
solid
0.667 0.776 0.439 edgecolor
newpath 707 391.5 moveto
717 388 lineto
707 384.5 lineto
closepath stroke
grestore
% Node4->Node10
gsave
1 setlinewidth
solid
0.667 0.776 0.439 edgecolor
newpath 599 396 moveto
616 399 635 403 652 407 curveto
736 422 832 440 896 451 curveto
stroke
0.667 0.776 0.439 edgecolor
newpath 895.508 454.471 moveto
906 453 lineto
896.881 447.607 lineto
closepath fill
1 setlinewidth
solid
0.667 0.776 0.439 edgecolor
newpath 895.508 454.471 moveto
906 453 lineto
896.881 447.607 lineto
closepath stroke
grestore
% Node6
gsave
[ /Rect [ 927 340 1009 360 ]
  /Border [ 0 0 0 ]
  /Action << /Subtype /URI /URI ($comun_8cpp.html#b5388a972300b0a3d2e70c16097a3781) >>
  /Subtype /Link
/ANN pdfmark
[ /Rect [ 927 340 1009 360 ]
  /Border [ 0 0 0 ]
  /Action << /Subtype /URI /URI ($comun_8cpp.html#b5388a972300b0a3d2e70c16097a3781) >>
  /Subtype /Link
/ANN pdfmark
1 setlinewidth
0.000 0.000 0.000 nodecolor
newpath 927 339 moveto
927 360 lineto
1009 360 lineto
1009 339 lineto
closepath stroke
0.000 0.000 0.000 nodecolor
10.00 /FreeSans.ttf set_font
968 346 moveto 66 -0.5 (escribe128b) alignedtext
grestore
% Node5->Node6
gsave
1 setlinewidth
solid
0.667 0.776 0.439 edgecolor
newpath 798 350 moveto
833 350 880 350 917 350 curveto
stroke
0.667 0.776 0.439 edgecolor
newpath 917 353.5 moveto
927 350 lineto
917 346.5 lineto
closepath fill
1 setlinewidth
solid
0.667 0.776 0.439 edgecolor
newpath 917 353.5 moveto
927 350 lineto
917 346.5 lineto
closepath stroke
grestore
% Node8
gsave
[ /Rect [ 1194 397 1322 417 ]
  /Border [ 0 0 0 ]
  /Action << /Subtype /URI /URI ($Elias_8cpp.html#59732ce42a1e75fbbb382a6964ef4620) >>
  /Subtype /Link
/ANN pdfmark
[ /Rect [ 1194 397 1322 417 ]
  /Border [ 0 0 0 ]
  /Action << /Subtype /URI /URI ($Elias_8cpp.html#59732ce42a1e75fbbb382a6964ef4620) >>
  /Subtype /Link
/ANN pdfmark
1 setlinewidth
0.000 0.000 0.000 nodecolor
newpath 1194 396 moveto
1194 417 lineto
1322 417 lineto
1322 396 lineto
closepath stroke
0.000 0.000 0.000 nodecolor
10.00 /FreeSans.ttf set_font
1258 403 moveto 112 -0.5 (escribe_elias_gama2) alignedtext
grestore
% Node7->Node8
gsave
1 setlinewidth
solid
0.667 0.776 0.439 edgecolor
newpath 790 389 moveto
873 393 1074 401 1184 405 curveto
stroke
0.667 0.776 0.439 edgecolor
newpath 1184 408.5 moveto
1194 405 lineto
1184 401.5 lineto
closepath fill
1 setlinewidth
solid
0.667 0.776 0.439 edgecolor
newpath 1184 408.5 moveto
1194 405 lineto
1184 401.5 lineto
closepath stroke
grestore
% Node9
gsave
[ /Rect [ 1359 420 1431 440 ]
  /Border [ 0 0 0 ]
  /Action << /Subtype /URI /URI ($Elias_8cpp.html#7127ec8dff13cc2ad873693ca8933d38) >>
  /Subtype /Link
/ANN pdfmark
[ /Rect [ 1359 420 1431 440 ]
  /Border [ 0 0 0 ]
  /Action << /Subtype /URI /URI ($Elias_8cpp.html#7127ec8dff13cc2ad873693ca8933d38) >>
  /Subtype /Link
/ANN pdfmark
1 setlinewidth
0.000 0.000 0.000 nodecolor
newpath 1359 419 moveto
1359 440 lineto
1432 440 lineto
1432 419 lineto
closepath stroke
0.000 0.000 0.000 nodecolor
10.00 /FreeSans.ttf set_font
1395 426 moveto 57 -0.5 (piso_logb2) alignedtext
grestore
% Node8->Node9
gsave
1 setlinewidth
solid
0.667 0.776 0.439 edgecolor
newpath 1318 417 moveto
1328 419 1339 421 1349 422 curveto
stroke
0.667 0.776 0.439 edgecolor
newpath 1348.51 425.471 moveto
1359 424 lineto
1349.88 418.607 lineto
closepath fill
1 setlinewidth
solid
0.667 0.776 0.439 edgecolor
newpath 1348.51 425.471 moveto
1359 424 lineto
1349.88 418.607 lineto
closepath stroke
grestore
% Node11
gsave
[ /Rect [ 1083 416 1157 436 ]
  /Border [ 0 0 0 ]
  /Action << /Subtype /URI /URI ($comun_8hpp.html#3f1f97c70ac3ffba1584b0fc02661cab) >>
  /Subtype /Link
/ANN pdfmark
[ /Rect [ 1083 416 1157 436 ]
  /Border [ 0 0 0 ]
  /Action << /Subtype /URI /URI ($comun_8hpp.html#3f1f97c70ac3ffba1584b0fc02661cab) >>
  /Subtype /Link
/ANN pdfmark
1 setlinewidth
0.000 0.000 0.000 nodecolor
newpath 1083 415 moveto
1083 436 lineto
1158 436 lineto
1158 415 lineto
closepath stroke
0.000 0.000 0.000 nodecolor
10.00 /FreeSans.ttf set_font
1120 422 moveto 59 -0.5 (longNDesp) alignedtext
grestore
% Node10->Node11
gsave
1 setlinewidth
solid
0.667 0.776 0.439 edgecolor
newpath 1012 453 moveto
1031 449 1053 443 1073 438 curveto
stroke
0.667 0.776 0.439 edgecolor
newpath 1074.43 441.226 moveto
1083 435 lineto
1072.42 434.521 lineto
closepath fill
1 setlinewidth
solid
0.667 0.776 0.439 edgecolor
newpath 1074.43 441.226 moveto
1083 435 lineto
1072.42 434.521 lineto
closepath stroke
grestore
% Node12
gsave
[ /Rect [ 1091 454 1149 474 ]
  /Border [ 0 0 0 ]
  /Action << /Subtype /URI /URI ($Pos_8cpp.html#ad8740377e9e19836d654491a170ac9a) >>
  /Subtype /Link
/ANN pdfmark
[ /Rect [ 1091 454 1149 474 ]
  /Border [ 0 0 0 ]
  /Action << /Subtype /URI /URI ($Pos_8cpp.html#ad8740377e9e19836d654491a170ac9a) >>
  /Subtype /Link
/ANN pdfmark
1 setlinewidth
0.000 0.000 0.000 nodecolor
newpath 1091 453 moveto
1091 474 lineto
1149 474 lineto
1149 453 lineto
closepath stroke
0.000 0.000 0.000 nodecolor
10.00 /FreeSans.ttf set_font
1120 460 moveto 42 -0.5 (longPos) alignedtext
grestore
% Node10->Node12
gsave
1 setlinewidth
solid
0.667 0.776 0.439 edgecolor
newpath 1046 464 moveto
1058 464 1070 464 1081 464 curveto
stroke
0.667 0.776 0.439 edgecolor
newpath 1081 467.5 moveto
1091 464 lineto
1081 460.5 lineto
closepath fill
1 setlinewidth
solid
0.667 0.776 0.439 edgecolor
newpath 1081 467.5 moveto
1091 464 lineto
1081 460.5 lineto
closepath stroke
grestore
% Node13
gsave
[ /Rect [ 1205 444 1311 464 ]
  /Border [ 0 0 0 ]
  /Action << /Subtype /URI /URI ($Elias_8cpp.html#214c4fd6adcbe1fe7de47c4ba521198a) >>
  /Subtype /Link
/ANN pdfmark
[ /Rect [ 1205 444 1311 464 ]
  /Border [ 0 0 0 ]
  /Action << /Subtype /URI /URI ($Elias_8cpp.html#214c4fd6adcbe1fe7de47c4ba521198a) >>
  /Subtype /Link
/ANN pdfmark
1 setlinewidth
0.000 0.000 0.000 nodecolor
newpath 1205 443 moveto
1205 464 lineto
1312 464 lineto
1312 443 lineto
closepath stroke
0.000 0.000 0.000 nodecolor
10.00 /FreeSans.ttf set_font
1258 450 moveto 91 -0.5 (long_elias_gama) alignedtext
grestore
% Node12->Node13
gsave
1 setlinewidth
solid
0.667 0.776 0.439 edgecolor
newpath 1149 462 moveto
1162 461 1179 460 1195 459 curveto
stroke
0.667 0.776 0.439 edgecolor
newpath 1195.4 462.478 moveto
1205 458 lineto
1194.7 455.512 lineto
closepath fill
1 setlinewidth
solid
0.667 0.776 0.439 edgecolor
newpath 1195.4 462.478 moveto
1205 458 lineto
1194.7 455.512 lineto
closepath stroke
grestore
% Node13->Node9
gsave
1 setlinewidth
solid
0.667 0.776 0.439 edgecolor
newpath 1312 445 moveto
1324 443 1337 440 1349 438 curveto
stroke
0.667 0.776 0.439 edgecolor
newpath 1349.4 441.478 moveto
1359 437 lineto
1348.7 434.512 lineto
closepath fill
1 setlinewidth
solid
0.667 0.776 0.439 edgecolor
newpath 1349.4 441.478 moveto
1359 437 lineto
1348.7 434.512 lineto
closepath stroke
grestore
% Node14->Node14
gsave
1 setlinewidth
solid
0.667 0.776 0.439 edgecolor
newpath 503 436 moveto
479 445 497 454 557 454 curveto
606 454 627 448 620 441 curveto
stroke
0.667 0.776 0.439 edgecolor
newpath 621.441 437.797 moveto
611 436 lineto
618.042 443.916 lineto
closepath fill
1 setlinewidth
solid
0.667 0.776 0.439 edgecolor
newpath 621.441 437.797 moveto
611 436 lineto
618.042 443.916 lineto
closepath stroke
grestore
% Node14->Node15
gsave
1 setlinewidth
solid
0.667 0.776 0.439 edgecolor
newpath 609 436 moveto
633 440 661 446 687 451 curveto
stroke
0.667 0.776 0.439 edgecolor
newpath 686.508 454.471 moveto
697 453 lineto
687.881 447.607 lineto
closepath fill
1 setlinewidth
solid
0.667 0.776 0.439 edgecolor
newpath 686.508 454.471 moveto
697 453 lineto
687.881 447.607 lineto
closepath stroke
grestore
% Node15->Node10
gsave
1 setlinewidth
solid
0.667 0.776 0.439 edgecolor
newpath 854 464 moveto
863 464 871 464 880 464 curveto
stroke
0.667 0.776 0.439 edgecolor
newpath 880 467.5 moveto
890 464 lineto
880 460.5 lineto
closepath fill
1 setlinewidth
solid
0.667 0.776 0.439 edgecolor
newpath 880 467.5 moveto
890 464 lineto
880 460.5 lineto
closepath stroke
grestore
% Node16->Node16
gsave
1 setlinewidth
solid
0.667 0.776 0.439 edgecolor
newpath 164 114 moveto
143 123 159 132 212 132 curveto
253 132 272 127 268 120 curveto
stroke
0.667 0.776 0.439 edgecolor
newpath 270.1 117.2 moveto
260 114 lineto
265.9 122.8 lineto
closepath fill
1 setlinewidth
solid
0.667 0.776 0.439 edgecolor
newpath 270.1 117.2 moveto
260 114 lineto
265.9 122.8 lineto
closepath stroke
grestore
% Node17
gsave
[ /Rect [ 317 56 451 76 ]
  /Border [ 0 0 0 ]
  /Action << /Subtype /URI /URI ($classNodoTrieS.html#4f1525cf7f147f71e7be74c15d4f87a0) >>
  /Subtype /Link
/ANN pdfmark
[ /Rect [ 317 56 451 76 ]
  /Border [ 0 0 0 ]
  /Action << /Subtype /URI /URI ($classNodoTrieS.html#4f1525cf7f147f71e7be74c15d4f87a0) >>
  /Subtype /Link
/ANN pdfmark
1 setlinewidth
0.000 0.000 0.000 nodecolor
newpath 317 55 moveto
317 76 lineto
451 76 lineto
451 55 lineto
closepath stroke
0.000 0.000 0.000 nodecolor
10.00 /FreeSans.ttf set_font
384 62 moveto 118 -0.5 (NodoTrieS::NodoTrieS) alignedtext
grestore
% Node16->Node17
gsave
1 setlinewidth
solid
0.667 0.776 0.439 edgecolor
newpath 262 93 moveto
283 89 308 83 329 78 curveto
stroke
0.667 0.776 0.439 edgecolor
newpath 329.881 81.3933 moveto
339 76 lineto
328.508 74.5292 lineto
closepath fill
1 setlinewidth
solid
0.667 0.776 0.439 edgecolor
newpath 329.881 81.3933 moveto
339 76 lineto
328.508 74.5292 lineto
closepath stroke
grestore
% Node18
gsave
[ /Rect [ 307 94 461 114 ]
  /Border [ 0 0 0 ]
  /Action << /Subtype /URI /URI ($comun_8cpp.html#c74356d5b37d454e0ddce0de8fac34f8) >>
  /Subtype /Link
/ANN pdfmark
[ /Rect [ 307 94 461 114 ]
  /Border [ 0 0 0 ]
  /Action << /Subtype /URI /URI ($comun_8cpp.html#c74356d5b37d454e0ddce0de8fac34f8) >>
  /Subtype /Link
/ANN pdfmark
1 setlinewidth
0.000 0.000 0.000 nodecolor
newpath 307 93 moveto
307 114 lineto
462 114 lineto
462 93 lineto
closepath stroke
0.000 0.000 0.000 nodecolor
10.00 /FreeSans.ttf set_font
384 100 moveto 139 -0.5 (prefijo_comun_mas_largo) alignedtext
grestore
% Node16->Node18
gsave
1 setlinewidth
solid
0.667 0.776 0.439 edgecolor
newpath 270 104 moveto
279 104 288 104 297 104 curveto
stroke
0.667 0.776 0.439 edgecolor
newpath 297 107.5 moveto
307 104 lineto
297 100.5 lineto
closepath fill
1 setlinewidth
solid
0.667 0.776 0.439 edgecolor
newpath 297 107.5 moveto
307 104 lineto
297 100.5 lineto
closepath stroke
grestore
% Node19->Node19
gsave
1 setlinewidth
solid
0.667 0.776 0.439 edgecolor
newpath 333 19 moveto
304 28 322 38 384 38 curveto
436 38 457 31 445 23 curveto
stroke
0.667 0.776 0.439 edgecolor
newpath 446.56 19.8631 moveto
436 19 lineto
443.717 26.2598 lineto
closepath fill
1 setlinewidth
solid
0.667 0.776 0.439 edgecolor
newpath 446.56 19.8631 moveto
436 19 lineto
443.717 26.2598 lineto
closepath stroke
grestore
% Node20
gsave
[ /Rect [ 924 170 1012 190 ]
  /Border [ 0 0 0 ]
  /Action << /Subtype /URI /URI ($comun_8cpp.html#88ffeb20e447cad877c37bb473033590) >>
  /Subtype /Link
/ANN pdfmark
[ /Rect [ 924 170 1012 190 ]
  /Border [ 0 0 0 ]
  /Action << /Subtype /URI /URI ($comun_8cpp.html#88ffeb20e447cad877c37bb473033590) >>
  /Subtype /Link
/ANN pdfmark
1 setlinewidth
0.000 0.000 0.000 nodecolor
newpath 924 169 moveto
924 190 lineto
1012 190 lineto
1012 169 lineto
closepath stroke
0.000 0.000 0.000 nodecolor
10.00 /FreeSans.ttf set_font
968 176 moveto 72 -0.5 (errorFormato) alignedtext
grestore
% Node19->Node20
gsave
1 setlinewidth
solid
0.667 0.776 0.439 edgecolor
newpath 436 19 moveto
524 34 707 70 854 123 curveto
885 134 918 151 940 164 curveto
stroke
0.667 0.776 0.439 edgecolor
newpath 938.559 167.203 moveto
949 169 lineto
941.958 161.084 lineto
closepath fill
1 setlinewidth
solid
0.667 0.776 0.439 edgecolor
newpath 938.559 167.203 moveto
949 169 lineto
941.958 161.084 lineto
closepath stroke
grestore
% Node21
gsave
[ /Rect [ 523 132 591 152 ]
  /Border [ 0 0 0 ]
  /Action << /Subtype /URI /URI ($comun_8hpp.html#9871d7357fc245ec5b7a227a9a62eb36) >>
  /Subtype /Link
/ANN pdfmark
[ /Rect [ 523 132 591 152 ]
  /Border [ 0 0 0 ]
  /Action << /Subtype /URI /URI ($comun_8hpp.html#9871d7357fc245ec5b7a227a9a62eb36) >>
  /Subtype /Link
/ANN pdfmark
1 setlinewidth
0.000 0.000 0.000 nodecolor
newpath 523 131 moveto
523 152 lineto
591 152 lineto
591 131 lineto
closepath stroke
0.000 0.000 0.000 nodecolor
10.00 /FreeSans.ttf set_font
557 138 moveto 52 -0.5 (leeNDesp) alignedtext
grestore
% Node19->Node21
gsave
1 setlinewidth
solid
0.667 0.776 0.439 edgecolor
newpath 411 20 moveto
427 27 446 36 462 47 curveto
494 70 524 103 541 123 curveto
stroke
0.667 0.776 0.439 edgecolor
newpath 538.781 125.779 moveto
548 131 lineto
544.049 121.169 lineto
closepath fill
1 setlinewidth
solid
0.667 0.776 0.439 edgecolor
newpath 538.781 125.779 moveto
548 131 lineto
544.049 121.169 lineto
closepath stroke
grestore
% Node23
gsave
[ /Rect [ 532 189 582 209 ]
  /Border [ 0 0 0 ]
  /Action << /Subtype /URI /URI ($Pos_8cpp.html#36b67a50cba6dc1789825a3111bee9d2) >>
  /Subtype /Link
/ANN pdfmark
[ /Rect [ 532 189 582 209 ]
  /Border [ 0 0 0 ]
  /Action << /Subtype /URI /URI ($Pos_8cpp.html#36b67a50cba6dc1789825a3111bee9d2) >>
  /Subtype /Link
/ANN pdfmark
1 setlinewidth
0.000 0.000 0.000 nodecolor
newpath 532 188 moveto
532 209 lineto
583 209 lineto
583 188 lineto
closepath stroke
0.000 0.000 0.000 nodecolor
10.00 /FreeSans.ttf set_font
557 195 moveto 35 -0.5 (leePos) alignedtext
grestore
% Node19->Node23
gsave
1 setlinewidth
solid
0.667 0.776 0.439 edgecolor
newpath 419 20 moveto
434 26 451 35 462 47 curveto
497 88 466 119 498 161 curveto
505 169 515 177 524 183 curveto
stroke
0.667 0.776 0.439 edgecolor
newpath 522.559 186.203 moveto
533 188 lineto
525.958 180.084 lineto
closepath fill
1 setlinewidth
solid
0.667 0.776 0.439 edgecolor
newpath 522.559 186.203 moveto
533 188 lineto
525.958 180.084 lineto
closepath stroke
grestore
% Node22
gsave
[ /Rect [ 723 132 783 152 ]
  /Border [ 0 0 0 ]
  /Action << /Subtype /URI /URI ($comun_8cpp.html#c7bf9e68bbdccea36ce786b806244ea1) >>
  /Subtype /Link
/ANN pdfmark
[ /Rect [ 723 132 783 152 ]
  /Border [ 0 0 0 ]
  /Action << /Subtype /URI /URI ($comun_8cpp.html#c7bf9e68bbdccea36ce786b806244ea1) >>
  /Subtype /Link
/ANN pdfmark
1 setlinewidth
0.000 0.000 0.000 nodecolor
newpath 723 131 moveto
723 152 lineto
783 152 lineto
783 131 lineto
closepath stroke
0.000 0.000 0.000 nodecolor
10.00 /FreeSans.ttf set_font
753 138 moveto 44 -0.5 (lee128b) alignedtext
grestore
% Node21->Node22
gsave
1 setlinewidth
solid
0.667 0.776 0.439 edgecolor
newpath 591 142 moveto
625 142 677 142 713 142 curveto
stroke
0.667 0.776 0.439 edgecolor
newpath 713 145.5 moveto
723 142 lineto
713 138.5 lineto
closepath fill
1 setlinewidth
solid
0.667 0.776 0.439 edgecolor
newpath 713 145.5 moveto
723 142 lineto
713 138.5 lineto
closepath stroke
grestore
% Node22->Node20
gsave
1 setlinewidth
solid
0.667 0.776 0.439 edgecolor
newpath 783 147 moveto
817 153 873 163 914 170 curveto
stroke
0.667 0.776 0.439 edgecolor
newpath 913.508 173.471 moveto
924 172 lineto
914.881 166.607 lineto
closepath fill
1 setlinewidth
solid
0.667 0.776 0.439 edgecolor
newpath 913.508 173.471 moveto
924 172 lineto
914.881 166.607 lineto
closepath stroke
grestore
% Node23->Node20
gsave
1 setlinewidth
solid
0.667 0.776 0.439 edgecolor
newpath 583 200 moveto
635 203 755 207 854 199 curveto
873 197 895 194 914 191 curveto
stroke
0.667 0.776 0.439 edgecolor
newpath 914.881 194.393 moveto
924 189 lineto
913.508 187.529 lineto
closepath fill
1 setlinewidth
solid
0.667 0.776 0.439 edgecolor
newpath 914.881 194.393 moveto
924 189 lineto
913.508 187.529 lineto
closepath stroke
grestore
% Node24
gsave
[ /Rect [ 700 170 806 190 ]
  /Border [ 0 0 0 ]
  /Action << /Subtype /URI /URI ($Elias_8cpp.html#95ee5a0ffb91f203612d2ce9d063ec36) >>
  /Subtype /Link
/ANN pdfmark
[ /Rect [ 700 170 806 190 ]
  /Border [ 0 0 0 ]
  /Action << /Subtype /URI /URI ($Elias_8cpp.html#95ee5a0ffb91f203612d2ce9d063ec36) >>
  /Subtype /Link
/ANN pdfmark
1 setlinewidth
0.000 0.000 0.000 nodecolor
newpath 700 169 moveto
700 190 lineto
806 190 lineto
806 169 lineto
closepath stroke
0.000 0.000 0.000 nodecolor
10.00 /FreeSans.ttf set_font
753 176 moveto 90 -0.5 (lee_elias_gama2) alignedtext
grestore
% Node23->Node24
gsave
1 setlinewidth
solid
0.667 0.776 0.439 edgecolor
newpath 583 196 moveto
610 193 654 190 690 186 curveto
stroke
0.667 0.776 0.439 edgecolor
newpath 690.398 189.478 moveto
700 185 lineto
689.701 182.512 lineto
closepath fill
1 setlinewidth
solid
0.667 0.776 0.439 edgecolor
newpath 690.398 189.478 moveto
700 185 lineto
689.701 182.512 lineto
closepath stroke
grestore
% Node24->Node20
gsave
1 setlinewidth
solid
0.667 0.776 0.439 edgecolor
newpath 806 180 moveto
838 180 881 180 914 180 curveto
stroke
0.667 0.776 0.439 edgecolor
newpath 914 183.5 moveto
924 180 lineto
914 176.5 lineto
closepath fill
1 setlinewidth
solid
0.667 0.776 0.439 edgecolor
newpath 914 183.5 moveto
924 180 lineto
914 176.5 lineto
closepath stroke
grestore
% Node25->Node3
gsave
1 setlinewidth
solid
0.667 0.776 0.439 edgecolor
newpath 241 300 moveto
251 303 262 309 270 317 curveto
300 345 276 374 306 402 curveto
310 405 313 408 318 410 curveto
stroke
0.667 0.776 0.439 edgecolor
newpath 316.559 413.203 moveto
327 415 lineto
319.958 407.084 lineto
closepath fill
1 setlinewidth
solid
0.667 0.776 0.439 edgecolor
newpath 316.559 413.203 moveto
327 415 lineto
319.958 407.084 lineto
closepath stroke
grestore
% Node26->Node4
gsave
1 setlinewidth
solid
0.667 0.776 0.439 edgecolor
newpath 235 247 moveto
247 253 261 262 270 274 curveto
298 307 272 338 306 364 curveto
363 406 450 404 505 397 curveto
stroke
0.667 0.776 0.439 edgecolor
newpath 505.398 400.478 moveto
515 396 lineto
504.701 393.512 lineto
closepath fill
1 setlinewidth
solid
0.667 0.776 0.439 edgecolor
newpath 505.398 400.478 moveto
515 396 lineto
504.701 393.512 lineto
closepath stroke
grestore
% Node26->Node5
gsave
1 setlinewidth
solid
0.667 0.776 0.439 edgecolor
newpath 233 247 moveto
245 254 259 263 270 274 curveto
292 295 281 315 306 331 curveto
372 368 594 360 698 354 curveto
stroke
0.667 0.776 0.439 edgecolor
newpath 698.398 357.478 moveto
708 353 lineto
697.701 350.512 lineto
closepath fill
1 setlinewidth
solid
0.667 0.776 0.439 edgecolor
newpath 698.398 357.478 moveto
708 353 lineto
697.701 350.512 lineto
closepath stroke
grestore
% Node26->Node18
gsave
1 setlinewidth
solid
0.667 0.776 0.439 edgecolor
newpath 219 226 moveto
232 204 266 155 306 128 curveto
313 124 321 120 328 117 curveto
stroke
0.667 0.776 0.439 edgecolor
newpath 329.427 120.226 moveto
338 114 lineto
327.416 113.521 lineto
closepath fill
1 setlinewidth
solid
0.667 0.776 0.439 edgecolor
newpath 329.427 120.226 moveto
338 114 lineto
327.416 113.521 lineto
closepath stroke
grestore
% Node26->Node21
gsave
1 setlinewidth
solid
0.667 0.776 0.439 edgecolor
newpath 228 226 moveto
246 213 277 194 306 184 curveto
376 160 462 149 513 145 curveto
stroke
0.667 0.776 0.439 edgecolor
newpath 513.398 148.478 moveto
523 144 lineto
512.701 141.512 lineto
closepath fill
1 setlinewidth
solid
0.667 0.776 0.439 edgecolor
newpath 513.398 148.478 moveto
523 144 lineto
512.701 141.512 lineto
closepath stroke
grestore
% Node26->Node23
gsave
1 setlinewidth
solid
0.667 0.776 0.439 edgecolor
newpath 233 226 moveto
251 216 280 204 306 199 curveto
382 184 473 190 522 195 curveto
stroke
0.667 0.776 0.439 edgecolor
newpath 521.701 198.488 moveto
532 196 lineto
522.398 191.522 lineto
closepath fill
1 setlinewidth
solid
0.667 0.776 0.439 edgecolor
newpath 521.701 198.488 moveto
532 196 lineto
522.398 191.522 lineto
closepath stroke
grestore
% Node26->Node26
gsave
1 setlinewidth
solid
0.667 0.776 0.439 edgecolor
newpath 174 244 moveto
139 253 152 265 212 265 curveto
265 265 282 255 260 247 curveto
stroke
0.667 0.776 0.439 edgecolor
newpath 260.584 243.521 moveto
250 244 lineto
258.573 250.226 lineto
closepath fill
1 setlinewidth
solid
0.667 0.776 0.439 edgecolor
newpath 260.584 243.521 moveto
250 244 lineto
258.573 250.226 lineto
closepath stroke
grestore
% Node27
gsave
[ /Rect [ 326 208 442 228 ]
  /Border [ 0 0 0 ]
  /Action << /Subtype /URI /URI ($TrieSDisco_8cpp.html#4cc0e861f2e192242a40d6337c70fc5f) >>
  /Subtype /Link
/ANN pdfmark
[ /Rect [ 326 208 442 228 ]
  /Border [ 0 0 0 ]
  /Action << /Subtype /URI /URI ($TrieSDisco_8cpp.html#4cc0e861f2e192242a40d6337c70fc5f) >>
  /Subtype /Link
/ANN pdfmark
1 setlinewidth
0.000 0.000 0.000 nodecolor
newpath 326 207 moveto
326 228 lineto
442 228 lineto
442 207 lineto
closepath stroke
0.000 0.000 0.000 nodecolor
10.00 /FreeSans.ttf set_font
384 214 moveto 100 -0.5 (escribeCopiaNodo) alignedtext
grestore
% Node26->Node27
gsave
1 setlinewidth
solid
0.667 0.776 0.439 edgecolor
newpath 250 233 moveto
269 230 293 228 316 225 curveto
stroke
0.667 0.776 0.439 edgecolor
newpath 316.398 228.478 moveto
326 224 lineto
315.701 221.512 lineto
closepath fill
1 setlinewidth
solid
0.667 0.776 0.439 edgecolor
newpath 316.398 228.478 moveto
326 224 lineto
315.701 221.512 lineto
closepath stroke
grestore
% Node28
gsave
[ /Rect [ 530 246 584 266 ]
  /Border [ 0 0 0 ]
  /Action << /Subtype /URI /URI ($comun_8cpp.html#4a359aa93f2dd4e34badd70c0e1f7082) >>
  /Subtype /Link
/ANN pdfmark
[ /Rect [ 530 246 584 266 ]
  /Border [ 0 0 0 ]
  /Action << /Subtype /URI /URI ($comun_8cpp.html#4a359aa93f2dd4e34badd70c0e1f7082) >>
  /Subtype /Link
/ANN pdfmark
1 setlinewidth
0.000 0.000 0.000 nodecolor
newpath 530 245 moveto
530 266 lineto
585 266 lineto
585 245 lineto
closepath stroke
0.000 0.000 0.000 nodecolor
10.00 /FreeSans.ttf set_font
557 252 moveto 39 -0.5 (leeCad) alignedtext
grestore
% Node26->Node28
gsave
1 setlinewidth
solid
0.667 0.776 0.439 edgecolor
newpath 250 239 moveto
316 243 454 250 520 254 curveto
stroke
0.667 0.776 0.439 edgecolor
newpath 519.701 257.488 moveto
530 255 lineto
520.398 250.522 lineto
closepath fill
1 setlinewidth
solid
0.667 0.776 0.439 edgecolor
newpath 519.701 257.488 moveto
530 255 lineto
520.398 250.522 lineto
closepath stroke
grestore
% Node29
gsave
[ /Rect [ 316 284 452 304 ]
  /Border [ 0 0 0 ]
  /Action << /Subtype /URI /URI ($TrieSDisco_8cpp.html#485d02d9d7ec4ae0114122861420c1d1) >>
  /Subtype /Link
/ANN pdfmark
[ /Rect [ 316 284 452 304 ]
  /Border [ 0 0 0 ]
  /Action << /Subtype /URI /URI ($TrieSDisco_8cpp.html#485d02d9d7ec4ae0114122861420c1d1) >>
  /Subtype /Link
/ANN pdfmark
1 setlinewidth
0.000 0.000 0.000 nodecolor
newpath 316 283 moveto
316 304 lineto
452 304 lineto
452 283 lineto
closepath stroke
0.000 0.000 0.000 nodecolor
10.00 /FreeSans.ttf set_font
384 290 moveto 120 -0.5 (escribeCopiaSubarbol) alignedtext
grestore
% Node26->Node29
gsave
1 setlinewidth
solid
0.667 0.776 0.439 edgecolor
newpath 240 247 moveto
259 254 284 263 306 270 curveto
317 273 328 277 338 280 curveto
stroke
0.667 0.776 0.439 edgecolor
newpath 337.416 283.479 moveto
348 283 lineto
339.427 276.774 lineto
closepath fill
1 setlinewidth
solid
0.667 0.776 0.439 edgecolor
newpath 337.416 283.479 moveto
348 283 lineto
339.427 276.774 lineto
closepath stroke
grestore
% Node27->Node4
gsave
1 setlinewidth
solid
0.667 0.776 0.439 edgecolor
newpath 401 228 moveto
417 239 443 256 462 275 curveto
494 304 526 345 543 369 curveto
stroke
0.667 0.776 0.439 edgecolor
newpath 540.2 371.1 moveto
549 377 lineto
545.8 366.9 lineto
closepath fill
1 setlinewidth
solid
0.667 0.776 0.439 edgecolor
newpath 540.2 371.1 moveto
549 377 lineto
545.8 366.9 lineto
closepath stroke
grestore
% Node27->Node21
gsave
1 setlinewidth
solid
0.667 0.776 0.439 edgecolor
newpath 409 207 moveto
440 193 492 171 525 156 curveto
stroke
0.667 0.776 0.439 edgecolor
newpath 526.283 159.26 moveto
534 152 lineto
523.44 152.863 lineto
closepath fill
1 setlinewidth
solid
0.667 0.776 0.439 edgecolor
newpath 526.283 159.26 moveto
534 152 lineto
523.44 152.863 lineto
closepath stroke
grestore
% Node27->Node23
gsave
1 setlinewidth
solid
0.667 0.776 0.439 edgecolor
newpath 442 212 moveto
468 209 499 205 522 203 curveto
stroke
0.667 0.776 0.439 edgecolor
newpath 522.398 206.478 moveto
532 202 lineto
521.701 199.512 lineto
closepath fill
1 setlinewidth
solid
0.667 0.776 0.439 edgecolor
newpath 522.398 206.478 moveto
532 202 lineto
521.701 199.512 lineto
closepath stroke
grestore
% Node27->Node28
gsave
1 setlinewidth
solid
0.667 0.776 0.439 edgecolor
newpath 430 228 moveto
458 234 494 242 520 248 curveto
stroke
0.667 0.776 0.439 edgecolor
newpath 519.508 251.471 moveto
530 250 lineto
520.881 244.607 lineto
closepath fill
1 setlinewidth
solid
0.667 0.776 0.439 edgecolor
newpath 519.508 251.471 moveto
530 250 lineto
520.881 244.607 lineto
closepath stroke
grestore
% Node28->Node20
gsave
1 setlinewidth
solid
0.667 0.776 0.439 edgecolor
newpath 585 254 moveto
638 249 756 236 854 215 curveto
880 209 908 201 929 193 curveto
stroke
0.667 0.776 0.439 edgecolor
newpath 930.427 196.226 moveto
939 190 lineto
928.416 189.521 lineto
closepath fill
1 setlinewidth
solid
0.667 0.776 0.439 edgecolor
newpath 930.427 196.226 moveto
939 190 lineto
928.416 189.521 lineto
closepath stroke
grestore
% Node29->Node4
gsave
1 setlinewidth
solid
0.667 0.776 0.439 edgecolor
newpath 403 304 moveto
432 321 492 352 528 372 curveto
stroke
0.667 0.776 0.439 edgecolor
newpath 526.559 375.203 moveto
537 377 lineto
529.958 369.084 lineto
closepath fill
1 setlinewidth
solid
0.667 0.776 0.439 edgecolor
newpath 526.559 375.203 moveto
537 377 lineto
529.958 369.084 lineto
closepath stroke
grestore
% Node29->Node5
gsave
1 setlinewidth
solid
0.667 0.776 0.439 edgecolor
newpath 450 304 moveto
520 314 631 331 698 341 curveto
stroke
0.667 0.776 0.439 edgecolor
newpath 697.508 344.471 moveto
708 343 lineto
698.881 337.607 lineto
closepath fill
1 setlinewidth
solid
0.667 0.776 0.439 edgecolor
newpath 697.508 344.471 moveto
708 343 lineto
698.881 337.607 lineto
closepath stroke
grestore
% Node29->Node21
gsave
1 setlinewidth
solid
0.667 0.776 0.439 edgecolor
newpath 403 283 moveto
420 272 445 256 462 237 curveto
483 215 477 201 498 180 curveto
507 171 518 164 528 157 curveto
stroke
0.667 0.776 0.439 edgecolor
newpath 529.958 159.916 moveto
537 152 lineto
526.559 153.797 lineto
closepath fill
1 setlinewidth
solid
0.667 0.776 0.439 edgecolor
newpath 529.958 159.916 moveto
537 152 lineto
526.559 153.797 lineto
closepath stroke
grestore
% Node29->Node23
gsave
1 setlinewidth
solid
0.667 0.776 0.439 edgecolor
newpath 404 283 moveto
435 266 495 233 530 214 curveto
stroke
0.667 0.776 0.439 edgecolor
newpath 531.958 216.916 moveto
539 209 lineto
528.559 210.797 lineto
closepath fill
1 setlinewidth
solid
0.667 0.776 0.439 edgecolor
newpath 531.958 216.916 moveto
539 209 lineto
528.559 210.797 lineto
closepath stroke
grestore
% Node29->Node28
gsave
1 setlinewidth
solid
0.667 0.776 0.439 edgecolor
newpath 435 283 moveto
462 277 495 270 520 264 curveto
stroke
0.667 0.776 0.439 edgecolor
newpath 520.881 267.393 moveto
530 262 lineto
519.508 260.529 lineto
closepath fill
1 setlinewidth
solid
0.667 0.776 0.439 edgecolor
newpath 520.881 267.393 moveto
530 262 lineto
519.508 260.529 lineto
closepath stroke
grestore
% Node29->Node29
gsave
1 setlinewidth
solid
0.667 0.776 0.439 edgecolor
newpath 330 304 moveto
306 313 324 322 384 322 curveto
433 322 454 316 447 309 curveto
stroke
0.667 0.776 0.439 edgecolor
newpath 448.441 305.797 moveto
438 304 lineto
445.042 311.916 lineto
closepath fill
1 setlinewidth
solid
0.667 0.776 0.439 edgecolor
newpath 448.441 305.797 moveto
438 304 lineto
445.042 311.916 lineto
closepath stroke
grestore
endpage
showpage
grestore
%%PageTrailer
%%EndPage: 1
%%Trailer
%%Pages: 1
%%BoundingBox: 36 36 1476 558
end
restore
%%EOF
