%!PS-Adobe-2.0
%%Creator: Graphviz version 2.12 (Mon Nov 16 18:34:03 UTC 2009)
%%For: (vtamara) Vladimir
%%Title: G
%%Pages: (atend)
%%BoundingBox: (atend)
%%EndComments
save
%%BeginProlog
/DotDict 200 dict def
DotDict begin

/setupLatin1 {
mark
/EncodingVector 256 array def
 EncodingVector 0

ISOLatin1Encoding 0 255 getinterval putinterval
EncodingVector 45 /hyphen put

% Set up ISO Latin 1 character encoding
/starnetISO {
        dup dup findfont dup length dict begin
        { 1 index /FID ne { def }{ pop pop } ifelse
        } forall
        /Encoding EncodingVector def
        currentdict end definefont
} def
/Times-Roman starnetISO def
/Times-Italic starnetISO def
/Times-Bold starnetISO def
/Times-BoldItalic starnetISO def
/Helvetica starnetISO def
/Helvetica-Oblique starnetISO def
/Helvetica-Bold starnetISO def
/Helvetica-BoldOblique starnetISO def
/Courier starnetISO def
/Courier-Oblique starnetISO def
/Courier-Bold starnetISO def
/Courier-BoldOblique starnetISO def
cleartomark
} bind def

%%BeginResource: procset graphviz 0 0
/coord-font-family /Times-Roman def
/default-font-family /Times-Roman def
/coordfont coord-font-family findfont 8 scalefont def

/InvScaleFactor 1.0 def
/set_scale {
       dup 1 exch div /InvScaleFactor exch def
       scale
} bind def

% styles
/solid { [] 0 setdash } bind def
/dashed { [9 InvScaleFactor mul dup ] 0 setdash } bind def
/dotted { [1 InvScaleFactor mul 6 InvScaleFactor mul] 0 setdash } bind def
/invis {/fill {newpath} def /stroke {newpath} def /show {pop newpath} def} bind def
/bold { 2 setlinewidth } bind def
/filled { } bind def
/unfilled { } bind def
/rounded { } bind def
/diagonals { } bind def

% hooks for setting color 
/nodecolor { sethsbcolor } bind def
/edgecolor { sethsbcolor } bind def
/graphcolor { sethsbcolor } bind def
/nopcolor {pop pop pop} bind def

/beginpage {	% i j npages
	/npages exch def
	/j exch def
	/i exch def
	/str 10 string def
	npages 1 gt {
		gsave
			coordfont setfont
			0 0 moveto
			(\() show i str cvs show (,) show j str cvs show (\)) show
		grestore
	} if
} bind def

/set_font {
	findfont exch
	scalefont setfont
} def

% draw aligned label in bounding box aligned to current point
/alignedtext {			% width adj text
	/text exch def
	/adj exch def
	/width exch def
	gsave
		width 0 gt {
			text stringwidth pop adj mul 0 rmoveto
		} if
		[] 0 setdash
		text show
	grestore
} def

/boxprim {				% xcorner ycorner xsize ysize
		4 2 roll
		moveto
		2 copy
		exch 0 rlineto
		0 exch rlineto
		pop neg 0 rlineto
		closepath
} bind def

/ellipse_path {
	/ry exch def
	/rx exch def
	/y exch def
	/x exch def
	matrix currentmatrix
	newpath
	x y translate
	rx ry scale
	0 0 1 0 360 arc
	setmatrix
} bind def

/endpage { showpage } bind def
/showpage { } def

/layercolorseq
	[	% layer color sequence - darkest to lightest
		[0 0 0]
		[.2 .8 .8]
		[.4 .8 .8]
		[.6 .8 .8]
		[.8 .8 .8]
	]
def

/layerlen layercolorseq length def

/setlayer {/maxlayer exch def /curlayer exch def
	layercolorseq curlayer 1 sub layerlen mod get
	aload pop sethsbcolor
	/nodecolor {nopcolor} def
	/edgecolor {nopcolor} def
	/graphcolor {nopcolor} def
} bind def

/onlayer { curlayer ne {invis} if } def

/onlayers {
	/myupper exch def
	/mylower exch def
	curlayer mylower lt
	curlayer myupper gt
	or
	{invis} if
} def

/curlayer 0 def

%%EndResource
%%EndProlog
%%BeginSetup
14 default-font-family set_font
1 setmiterlimit
% /arrowlength 10 def
% /arrowwidth 5 def

% make sure pdfmark is harmless for PS-interpreters other than Distiller
/pdfmark where {pop} {userdict /pdfmark /cleartomark load put} ifelse
% make '<<' and '>>' safe on PS Level 1 devices
/languagelevel where {pop languagelevel}{1} ifelse
2 lt {
    userdict (<<) cvn ([) cvn load put
    userdict (>>) cvn ([) cvn load put
} if

%%EndSetup
setupLatin1
%%Page: 1 1
%%PageBoundingBox: 36 36 876 178
%%PageOrientation: Portrait
gsave
36 36 876 178 boxprim clip newpath
0 0 1 beginpage
1 1 set_scale 0 rotate 40 40 translate
% Node1
gsave
0.000 0.000 0.749 nodecolor
newpath 0 56 moveto
0 77 lineto
128 77 lineto
128 56 lineto
closepath fill
1 setlinewidth
filled
0.000 0.000 0.000 nodecolor
newpath 0 56 moveto
0 77 lineto
128 77 lineto
128 56 lineto
closepath stroke
0.000 0.000 0.000 nodecolor
10.00 /FreeSans.ttf set_font
64 63 moveto 112 -0.5 (prueba_escribeNodo) alignedtext
grestore
% Node2
gsave
[ /Rect [ 164 76 248 96 ]
  /Border [ 0 0 0 ]
  /Action << /Subtype /URI /URI ($TrieSDisco_8cpp.html#95dfc28ebaa02e82d3d1ffce08251628) >>
  /Subtype /Link
/ANN pdfmark
[ /Rect [ 164 76 248 96 ]
  /Border [ 0 0 0 ]
  /Action << /Subtype /URI /URI ($TrieSDisco_8cpp.html#95dfc28ebaa02e82d3d1ffce08251628) >>
  /Subtype /Link
/ANN pdfmark
1 setlinewidth
0.000 0.000 0.000 nodecolor
newpath 164 75 moveto
164 96 lineto
248 96 lineto
248 75 lineto
closepath stroke
0.000 0.000 0.000 nodecolor
10.00 /FreeSans.ttf set_font
206 82 moveto 68 -0.5 (escribeNodo) alignedtext
grestore
% Node1->Node2
gsave
1 setlinewidth
solid
0.667 0.776 0.439 edgecolor
newpath 128 76 moveto
137 77 146 78 154 79 curveto
stroke
0.667 0.776 0.439 edgecolor
newpath 153.508 82.4708 moveto
164 81 lineto
154.881 75.6067 lineto
closepath fill
1 setlinewidth
solid
0.667 0.776 0.439 edgecolor
newpath 153.508 82.4708 moveto
164 81 lineto
154.881 75.6067 lineto
closepath stroke
grestore
% Node8
gsave
[ /Rect [ 284 38 440 58 ]
  /Border [ 0 0 0 ]
  /Action << /Subtype /URI /URI ($TrieSDisco_8cpp.html#453b277936104f13edb4f8158e015eba) >>
  /Subtype /Link
/ANN pdfmark
[ /Rect [ 284 38 440 58 ]
  /Border [ 0 0 0 ]
  /Action << /Subtype /URI /URI ($TrieSDisco_8cpp.html#453b277936104f13edb4f8158e015eba) >>
  /Subtype /Link
/ANN pdfmark
1 setlinewidth
0.000 0.000 0.000 nodecolor
newpath 284 37 moveto
284 58 lineto
440 58 lineto
440 37 lineto
closepath stroke
0.000 0.000 0.000 nodecolor
10.00 /FreeSans.ttf set_font
362 44 moveto 140 -0.5 (precalcula_escribe_actual) alignedtext
grestore
% Node1->Node8
gsave
1 setlinewidth
solid
0.667 0.776 0.439 edgecolor
newpath 128 63 moveto
171 60 227 57 274 54 curveto
stroke
0.667 0.776 0.439 edgecolor
newpath 274.398 57.4778 moveto
284 53 lineto
273.701 50.5125 lineto
closepath fill
1 setlinewidth
solid
0.667 0.776 0.439 edgecolor
newpath 274.398 57.4778 moveto
284 53 lineto
273.701 50.5125 lineto
closepath stroke
grestore
% Node3
gsave
[ /Rect [ 317 114 407 134 ]
  /Border [ 0 0 0 ]
  /Action << /Subtype /URI /URI ($comun_8hpp.html#96402bda6527bf98dd8e49d62ae182f8) >>
  /Subtype /Link
/ANN pdfmark
[ /Rect [ 317 114 407 134 ]
  /Border [ 0 0 0 ]
  /Action << /Subtype /URI /URI ($comun_8hpp.html#96402bda6527bf98dd8e49d62ae182f8) >>
  /Subtype /Link
/ANN pdfmark
1 setlinewidth
0.000 0.000 0.000 nodecolor
newpath 317 113 moveto
317 134 lineto
407 134 lineto
407 113 lineto
closepath stroke
0.000 0.000 0.000 nodecolor
10.00 /FreeSans.ttf set_font
362 120 moveto 74 -0.5 (escribeNDesp) alignedtext
grestore
% Node2->Node3
gsave
1 setlinewidth
solid
0.667 0.776 0.439 edgecolor
newpath 247 96 moveto
266 100 288 106 307 111 curveto
stroke
0.667 0.776 0.439 edgecolor
newpath 306.508 114.471 moveto
317 113 lineto
307.881 107.607 lineto
closepath fill
1 setlinewidth
solid
0.667 0.776 0.439 edgecolor
newpath 306.508 114.471 moveto
317 113 lineto
307.881 107.607 lineto
closepath stroke
grestore
% Node5
gsave
[ /Rect [ 326 76 398 96 ]
  /Border [ 0 0 0 ]
  /Action << /Subtype /URI /URI ($Pos_8cpp.html#42c2daaa880eeb397c024b6ffa22c8cf) >>
  /Subtype /Link
/ANN pdfmark
[ /Rect [ 326 76 398 96 ]
  /Border [ 0 0 0 ]
  /Action << /Subtype /URI /URI ($Pos_8cpp.html#42c2daaa880eeb397c024b6ffa22c8cf) >>
  /Subtype /Link
/ANN pdfmark
1 setlinewidth
0.000 0.000 0.000 nodecolor
newpath 326 75 moveto
326 96 lineto
399 96 lineto
399 75 lineto
closepath stroke
0.000 0.000 0.000 nodecolor
10.00 /FreeSans.ttf set_font
362 82 moveto 57 -0.5 (escribePos) alignedtext
grestore
% Node2->Node5
gsave
1 setlinewidth
solid
0.667 0.776 0.439 edgecolor
newpath 248 86 moveto
269 86 294 86 316 86 curveto
stroke
0.667 0.776 0.439 edgecolor
newpath 316 89.5001 moveto
326 86 lineto
316 82.5001 lineto
closepath fill
1 setlinewidth
solid
0.667 0.776 0.439 edgecolor
newpath 316 89.5001 moveto
326 86 lineto
316 82.5001 lineto
closepath stroke
grestore
% Node2->Node8
gsave
1 setlinewidth
solid
0.667 0.776 0.439 edgecolor
newpath 248 76 moveto
267 71 290 65 310 60 curveto
stroke
0.667 0.776 0.439 edgecolor
newpath 310.881 63.3933 moveto
320 58 lineto
309.508 56.5292 lineto
closepath fill
1 setlinewidth
solid
0.667 0.776 0.439 edgecolor
newpath 310.881 63.3933 moveto
320 58 lineto
309.508 56.5292 lineto
closepath stroke
grestore
% Node4
gsave
[ /Rect [ 476 114 558 134 ]
  /Border [ 0 0 0 ]
  /Action << /Subtype /URI /URI ($comun_8cpp.html#b5388a972300b0a3d2e70c16097a3781) >>
  /Subtype /Link
/ANN pdfmark
[ /Rect [ 476 114 558 134 ]
  /Border [ 0 0 0 ]
  /Action << /Subtype /URI /URI ($comun_8cpp.html#b5388a972300b0a3d2e70c16097a3781) >>
  /Subtype /Link
/ANN pdfmark
1 setlinewidth
0.000 0.000 0.000 nodecolor
newpath 476 113 moveto
476 134 lineto
558 134 lineto
558 113 lineto
closepath stroke
0.000 0.000 0.000 nodecolor
10.00 /FreeSans.ttf set_font
517 120 moveto 66 -0.5 (escribe128b) alignedtext
grestore
% Node3->Node4
gsave
1 setlinewidth
solid
0.667 0.776 0.439 edgecolor
newpath 407 124 moveto
426 124 447 124 466 124 curveto
stroke
0.667 0.776 0.439 edgecolor
newpath 466 127.5 moveto
476 124 lineto
466 120.5 lineto
closepath fill
1 setlinewidth
solid
0.667 0.776 0.439 edgecolor
newpath 466 127.5 moveto
476 124 lineto
466 120.5 lineto
closepath stroke
grestore
% Node6
gsave
[ /Rect [ 594 66 722 86 ]
  /Border [ 0 0 0 ]
  /Action << /Subtype /URI /URI ($Elias_8cpp.html#59732ce42a1e75fbbb382a6964ef4620) >>
  /Subtype /Link
/ANN pdfmark
[ /Rect [ 594 66 722 86 ]
  /Border [ 0 0 0 ]
  /Action << /Subtype /URI /URI ($Elias_8cpp.html#59732ce42a1e75fbbb382a6964ef4620) >>
  /Subtype /Link
/ANN pdfmark
1 setlinewidth
0.000 0.000 0.000 nodecolor
newpath 594 65 moveto
594 86 lineto
722 86 lineto
722 65 lineto
closepath stroke
0.000 0.000 0.000 nodecolor
10.00 /FreeSans.ttf set_font
658 72 moveto 112 -0.5 (escribe_elias_gama2) alignedtext
grestore
% Node5->Node6
gsave
1 setlinewidth
solid
0.667 0.776 0.439 edgecolor
newpath 399 85 moveto
445 83 525 80 584 78 curveto
stroke
0.667 0.776 0.439 edgecolor
newpath 584 81.5001 moveto
594 78 lineto
584 74.5001 lineto
closepath fill
1 setlinewidth
solid
0.667 0.776 0.439 edgecolor
newpath 584 81.5001 moveto
594 78 lineto
584 74.5001 lineto
closepath stroke
grestore
% Node7
gsave
[ /Rect [ 759 42 831 62 ]
  /Border [ 0 0 0 ]
  /Action << /Subtype /URI /URI ($Elias_8cpp.html#7127ec8dff13cc2ad873693ca8933d38) >>
  /Subtype /Link
/ANN pdfmark
[ /Rect [ 759 42 831 62 ]
  /Border [ 0 0 0 ]
  /Action << /Subtype /URI /URI ($Elias_8cpp.html#7127ec8dff13cc2ad873693ca8933d38) >>
  /Subtype /Link
/ANN pdfmark
1 setlinewidth
0.000 0.000 0.000 nodecolor
newpath 759 41 moveto
759 62 lineto
832 62 lineto
832 41 lineto
closepath stroke
0.000 0.000 0.000 nodecolor
10.00 /FreeSans.ttf set_font
795 48 moveto 57 -0.5 (piso_logb2) alignedtext
grestore
% Node6->Node7
gsave
1 setlinewidth
solid
0.667 0.776 0.439 edgecolor
newpath 721 65 moveto
730 64 740 62 749 61 curveto
stroke
0.667 0.776 0.439 edgecolor
newpath 749.881 64.3933 moveto
759 59 lineto
748.508 57.5292 lineto
closepath fill
1 setlinewidth
solid
0.667 0.776 0.439 edgecolor
newpath 749.881 64.3933 moveto
759 59 lineto
748.508 57.5292 lineto
closepath stroke
grestore
% Node9
gsave
[ /Rect [ 480 38 554 58 ]
  /Border [ 0 0 0 ]
  /Action << /Subtype /URI /URI ($comun_8hpp.html#3f1f97c70ac3ffba1584b0fc02661cab) >>
  /Subtype /Link
/ANN pdfmark
[ /Rect [ 480 38 554 58 ]
  /Border [ 0 0 0 ]
  /Action << /Subtype /URI /URI ($comun_8hpp.html#3f1f97c70ac3ffba1584b0fc02661cab) >>
  /Subtype /Link
/ANN pdfmark
1 setlinewidth
0.000 0.000 0.000 nodecolor
newpath 480 37 moveto
480 58 lineto
555 58 lineto
555 37 lineto
closepath stroke
0.000 0.000 0.000 nodecolor
10.00 /FreeSans.ttf set_font
517 44 moveto 59 -0.5 (longNDesp) alignedtext
grestore
% Node8->Node9
gsave
1 setlinewidth
solid
0.667 0.776 0.439 edgecolor
newpath 440 48 moveto
450 48 460 48 470 48 curveto
stroke
0.667 0.776 0.439 edgecolor
newpath 470 51.5001 moveto
480 48 lineto
470 44.5001 lineto
closepath fill
1 setlinewidth
solid
0.667 0.776 0.439 edgecolor
newpath 470 51.5001 moveto
480 48 lineto
470 44.5001 lineto
closepath stroke
grestore
% Node10
gsave
[ /Rect [ 488 0 546 20 ]
  /Border [ 0 0 0 ]
  /Action << /Subtype /URI /URI ($Pos_8cpp.html#ad8740377e9e19836d654491a170ac9a) >>
  /Subtype /Link
/ANN pdfmark
[ /Rect [ 488 0 546 20 ]
  /Border [ 0 0 0 ]
  /Action << /Subtype /URI /URI ($Pos_8cpp.html#ad8740377e9e19836d654491a170ac9a) >>
  /Subtype /Link
/ANN pdfmark
1 setlinewidth
0.000 0.000 0.000 nodecolor
newpath 488 -1 moveto
488 20 lineto
546 20 lineto
546 -1 lineto
closepath stroke
0.000 0.000 0.000 nodecolor
10.00 /FreeSans.ttf set_font
517 6 moveto 42 -0.5 (longPos) alignedtext
grestore
% Node8->Node10
gsave
1 setlinewidth
solid
0.667 0.776 0.439 edgecolor
newpath 407 37 moveto
429 32 456 25 478 20 curveto
stroke
0.667 0.776 0.439 edgecolor
newpath 479.427 23.2259 moveto
488 17 lineto
477.416 16.5212 lineto
closepath fill
1 setlinewidth
solid
0.667 0.776 0.439 edgecolor
newpath 479.427 23.2259 moveto
488 17 lineto
477.416 16.5212 lineto
closepath stroke
grestore
% Node11
gsave
[ /Rect [ 605 19 711 39 ]
  /Border [ 0 0 0 ]
  /Action << /Subtype /URI /URI ($Elias_8cpp.html#214c4fd6adcbe1fe7de47c4ba521198a) >>
  /Subtype /Link
/ANN pdfmark
[ /Rect [ 605 19 711 39 ]
  /Border [ 0 0 0 ]
  /Action << /Subtype /URI /URI ($Elias_8cpp.html#214c4fd6adcbe1fe7de47c4ba521198a) >>
  /Subtype /Link
/ANN pdfmark
1 setlinewidth
0.000 0.000 0.000 nodecolor
newpath 605 18 moveto
605 39 lineto
712 39 lineto
712 18 lineto
closepath stroke
0.000 0.000 0.000 nodecolor
10.00 /FreeSans.ttf set_font
658 25 moveto 91 -0.5 (long_elias_gama) alignedtext
grestore
% Node10->Node11
gsave
1 setlinewidth
solid
0.667 0.776 0.439 edgecolor
newpath 546 14 moveto
560 16 578 18 595 21 curveto
stroke
0.667 0.776 0.439 edgecolor
newpath 594.701 24.4875 moveto
605 22 lineto
595.398 17.5222 lineto
closepath fill
1 setlinewidth
solid
0.667 0.776 0.439 edgecolor
newpath 594.701 24.4875 moveto
605 22 lineto
595.398 17.5222 lineto
closepath stroke
grestore
% Node11->Node7
gsave
1 setlinewidth
solid
0.667 0.776 0.439 edgecolor
newpath 712 38 moveto
724 40 737 43 749 45 curveto
stroke
0.667 0.776 0.439 edgecolor
newpath 748.701 48.4875 moveto
759 46 lineto
749.398 41.5222 lineto
closepath fill
1 setlinewidth
solid
0.667 0.776 0.439 edgecolor
newpath 748.701 48.4875 moveto
759 46 lineto
749.398 41.5222 lineto
closepath stroke
grestore
endpage
showpage
grestore
%%PageTrailer
%%EndPage: 1
%%Trailer
%%Pages: 1
%%BoundingBox: 36 36 876 178
end
restore
%%EOF
