%!PS-Adobe-2.0
%%Creator: Graphviz version 2.12 (Mon Nov 16 18:34:03 UTC 2009)
%%For: (vtamara) Vladimir
%%Title: G
%%Pages: (atend)
%%BoundingBox: (atend)
%%EndComments
save
%%BeginProlog
/DotDict 200 dict def
DotDict begin

/setupLatin1 {
mark
/EncodingVector 256 array def
 EncodingVector 0

ISOLatin1Encoding 0 255 getinterval putinterval
EncodingVector 45 /hyphen put

% Set up ISO Latin 1 character encoding
/starnetISO {
        dup dup findfont dup length dict begin
        { 1 index /FID ne { def }{ pop pop } ifelse
        } forall
        /Encoding EncodingVector def
        currentdict end definefont
} def
/Times-Roman starnetISO def
/Times-Italic starnetISO def
/Times-Bold starnetISO def
/Times-BoldItalic starnetISO def
/Helvetica starnetISO def
/Helvetica-Oblique starnetISO def
/Helvetica-Bold starnetISO def
/Helvetica-BoldOblique starnetISO def
/Courier starnetISO def
/Courier-Oblique starnetISO def
/Courier-Bold starnetISO def
/Courier-BoldOblique starnetISO def
cleartomark
} bind def

%%BeginResource: procset graphviz 0 0
/coord-font-family /Times-Roman def
/default-font-family /Times-Roman def
/coordfont coord-font-family findfont 8 scalefont def

/InvScaleFactor 1.0 def
/set_scale {
       dup 1 exch div /InvScaleFactor exch def
       scale
} bind def

% styles
/solid { [] 0 setdash } bind def
/dashed { [9 InvScaleFactor mul dup ] 0 setdash } bind def
/dotted { [1 InvScaleFactor mul 6 InvScaleFactor mul] 0 setdash } bind def
/invis {/fill {newpath} def /stroke {newpath} def /show {pop newpath} def} bind def
/bold { 2 setlinewidth } bind def
/filled { } bind def
/unfilled { } bind def
/rounded { } bind def
/diagonals { } bind def

% hooks for setting color 
/nodecolor { sethsbcolor } bind def
/edgecolor { sethsbcolor } bind def
/graphcolor { sethsbcolor } bind def
/nopcolor {pop pop pop} bind def

/beginpage {	% i j npages
	/npages exch def
	/j exch def
	/i exch def
	/str 10 string def
	npages 1 gt {
		gsave
			coordfont setfont
			0 0 moveto
			(\() show i str cvs show (,) show j str cvs show (\)) show
		grestore
	} if
} bind def

/set_font {
	findfont exch
	scalefont setfont
} def

% draw aligned label in bounding box aligned to current point
/alignedtext {			% width adj text
	/text exch def
	/adj exch def
	/width exch def
	gsave
		width 0 gt {
			text stringwidth pop adj mul 0 rmoveto
		} if
		[] 0 setdash
		text show
	grestore
} def

/boxprim {				% xcorner ycorner xsize ysize
		4 2 roll
		moveto
		2 copy
		exch 0 rlineto
		0 exch rlineto
		pop neg 0 rlineto
		closepath
} bind def

/ellipse_path {
	/ry exch def
	/rx exch def
	/y exch def
	/x exch def
	matrix currentmatrix
	newpath
	x y translate
	rx ry scale
	0 0 1 0 360 arc
	setmatrix
} bind def

/endpage { showpage } bind def
/showpage { } def

/layercolorseq
	[	% layer color sequence - darkest to lightest
		[0 0 0]
		[.2 .8 .8]
		[.4 .8 .8]
		[.6 .8 .8]
		[.8 .8 .8]
	]
def

/layerlen layercolorseq length def

/setlayer {/maxlayer exch def /curlayer exch def
	layercolorseq curlayer 1 sub layerlen mod get
	aload pop sethsbcolor
	/nodecolor {nopcolor} def
	/edgecolor {nopcolor} def
	/graphcolor {nopcolor} def
} bind def

/onlayer { curlayer ne {invis} if } def

/onlayers {
	/myupper exch def
	/mylower exch def
	curlayer mylower lt
	curlayer myupper gt
	or
	{invis} if
} def

/curlayer 0 def

%%EndResource
%%EndProlog
%%BeginSetup
14 default-font-family set_font
1 setmiterlimit
% /arrowlength 10 def
% /arrowwidth 5 def

% make sure pdfmark is harmless for PS-interpreters other than Distiller
/pdfmark where {pop} {userdict /pdfmark /cleartomark load put} ifelse
% make '<<' and '>>' safe on PS Level 1 devices
/languagelevel where {pop languagelevel}{1} ifelse
2 lt {
    userdict (<<) cvn ([) cvn load put
    userdict (>>) cvn ([) cvn load put
} if

%%EndSetup
setupLatin1
%%Page: 1 1
%%PageBoundingBox: 36 36 1492 308
%%PageOrientation: Portrait
gsave
36 36 1492 308 boxprim clip newpath
0 0 1 beginpage
1 1 set_scale 0 rotate 40 40 translate
% Node1
gsave
0.000 0.000 0.749 nodecolor
newpath 1 110 moveto
1 131 lineto
108 131 lineto
108 110 lineto
closepath fill
1 setlinewidth
filled
0.000 0.000 0.000 nodecolor
newpath 1 110 moveto
1 131 lineto
108 131 lineto
108 110 lineto
closepath stroke
0.000 0.000 0.000 nodecolor
10.00 /FreeSans.ttf set_font
54 117 moveto 91 -0.5 (prueba_leeTexto) alignedtext
grestore
% Node2
gsave
[ /Rect [ 177 168 239 188 ]
  /Border [ 0 0 0 ]
  /Action << /Subtype /URI /URI ($NodoTrieS_8cpp.html#e8422311e58bfd8cfdfcc83509128cf7) >>
  /Subtype /Link
/ANN pdfmark
[ /Rect [ 177 168 239 188 ]
  /Border [ 0 0 0 ]
  /Action << /Subtype /URI /URI ($NodoTrieS_8cpp.html#e8422311e58bfd8cfdfcc83509128cf7) >>
  /Subtype /Link
/ANN pdfmark
1 setlinewidth
0.000 0.000 0.000 nodecolor
newpath 177 167 moveto
177 188 lineto
240 188 lineto
240 167 lineto
closepath stroke
0.000 0.000 0.000 nodecolor
10.00 /FreeSans.ttf set_font
208 174 moveto 47 -0.5 (leeTexto) alignedtext
grestore
% Node1->Node2
gsave
1 setlinewidth
solid
0.667 0.776 0.439 edgecolor
newpath 81 131 moveto
105 140 141 153 168 163 curveto
stroke
0.667 0.776 0.439 edgecolor
newpath 167.415 166.536 moveto
178 167 lineto
170.015 160.036 lineto
closepath fill
1 setlinewidth
solid
0.667 0.776 0.439 edgecolor
newpath 167.415 166.536 moveto
178 167 lineto
170.015 160.036 lineto
closepath stroke
grestore
% Node8
gsave
[ /Rect [ 179 111 237 131 ]
  /Border [ 0 0 0 ]
  /Action << /Subtype /URI /URI ($CasosPrueba_8hpp.html#9d3e570cd9f7040235c0162eaaadb70c) >>
  /Subtype /Link
/ANN pdfmark
[ /Rect [ 179 111 237 131 ]
  /Border [ 0 0 0 ]
  /Action << /Subtype /URI /URI ($CasosPrueba_8hpp.html#9d3e570cd9f7040235c0162eaaadb70c) >>
  /Subtype /Link
/ANN pdfmark
1 setlinewidth
0.000 0.000 0.000 nodecolor
newpath 179 110 moveto
179 131 lineto
237 131 lineto
237 110 lineto
closepath stroke
0.000 0.000 0.000 nodecolor
10.00 /FreeSans.ttf set_font
208 117 moveto 42 -0.5 (llena_ss) alignedtext
grestore
% Node1->Node8
gsave
1 setlinewidth
solid
0.667 0.776 0.439 edgecolor
newpath 108 121 moveto
128 121 150 121 169 121 curveto
stroke
0.667 0.776 0.439 edgecolor
newpath 169 124.5 moveto
179 121 lineto
169 117.5 lineto
closepath fill
1 setlinewidth
solid
0.667 0.776 0.439 edgecolor
newpath 169 124.5 moveto
179 121 lineto
169 117.5 lineto
closepath stroke
grestore
% Node22
gsave
[ /Rect [ 144 55 272 75 ]
  /Border [ 0 0 0 ]
  /Action << /Subtype /URI /URI ($classNodoTrieS.html#0943f6f1a9dea1f46e2e525a0736bbc8) >>
  /Subtype /Link
/ANN pdfmark
[ /Rect [ 144 55 272 75 ]
  /Border [ 0 0 0 ]
  /Action << /Subtype /URI /URI ($classNodoTrieS.html#0943f6f1a9dea1f46e2e525a0736bbc8) >>
  /Subtype /Link
/ANN pdfmark
1 setlinewidth
0.000 0.000 0.000 nodecolor
newpath 144 54 moveto
144 75 lineto
272 75 lineto
272 54 lineto
closepath stroke
0.000 0.000 0.000 nodecolor
10.00 /FreeSans.ttf set_font
208 61 moveto 112 -0.5 (NodoTrieS::preorden) alignedtext
grestore
% Node1->Node22
gsave
1 setlinewidth
solid
0.667 0.776 0.439 edgecolor
newpath 84 110 moveto
109 101 145 88 171 79 curveto
stroke
0.667 0.776 0.439 edgecolor
newpath 173.015 81.9636 moveto
181 75 lineto
170.415 75.4643 lineto
closepath fill
1 setlinewidth
solid
0.667 0.776 0.439 edgecolor
newpath 173.015 81.9636 moveto
181 75 lineto
170.415 75.4643 lineto
closepath stroke
grestore
% Node3
gsave
[ /Rect [ 314 206 428 226 ]
  /Border [ 0 0 0 ]
  /Action << /Subtype /URI /URI ($classNodoTrieS.html#2fc30ff9fad0ba7dff585e913f34cc84) >>
  /Subtype /Link
/ANN pdfmark
[ /Rect [ 314 206 428 226 ]
  /Border [ 0 0 0 ]
  /Action << /Subtype /URI /URI ($classNodoTrieS.html#2fc30ff9fad0ba7dff585e913f34cc84) >>
  /Subtype /Link
/ANN pdfmark
1 setlinewidth
0.000 0.000 0.000 nodecolor
newpath 314 205 moveto
314 226 lineto
429 226 lineto
429 205 lineto
closepath stroke
0.000 0.000 0.000 nodecolor
10.00 /FreeSans.ttf set_font
371 212 moveto 99 -0.5 (NodoTrieS::inserta) alignedtext
grestore
% Node2->Node3
gsave
1 setlinewidth
solid
0.667 0.776 0.439 edgecolor
newpath 240 186 moveto
261 190 288 197 313 203 curveto
stroke
0.667 0.776 0.439 edgecolor
newpath 312.508 206.471 moveto
323 205 lineto
313.881 199.607 lineto
closepath fill
1 setlinewidth
solid
0.667 0.776 0.439 edgecolor
newpath 312.508 206.471 moveto
323 205 lineto
313.881 199.607 lineto
closepath stroke
grestore
% Node6
gsave
[ /Rect [ 336 168 406 188 ]
  /Border [ 0 0 0 ]
  /Action << /Subtype /URI /URI ($comun_8cpp.html#1f33d728a35dd4b43d2622c5471f5157) >>
  /Subtype /Link
/ANN pdfmark
[ /Rect [ 336 168 406 188 ]
  /Border [ 0 0 0 ]
  /Action << /Subtype /URI /URI ($comun_8cpp.html#1f33d728a35dd4b43d2622c5471f5157) >>
  /Subtype /Link
/ANN pdfmark
1 setlinewidth
0.000 0.000 0.000 nodecolor
newpath 336 167 moveto
336 188 lineto
407 188 lineto
407 167 lineto
closepath stroke
0.000 0.000 0.000 nodecolor
10.00 /FreeSans.ttf set_font
371 174 moveto 55 -0.5 (normaliza) alignedtext
grestore
% Node2->Node6
gsave
1 setlinewidth
solid
0.667 0.776 0.439 edgecolor
newpath 240 178 moveto
265 178 298 178 326 178 curveto
stroke
0.667 0.776 0.439 edgecolor
newpath 326 181.5 moveto
336 178 lineto
326 174.5 lineto
closepath fill
1 setlinewidth
solid
0.667 0.776 0.439 edgecolor
newpath 326 181.5 moveto
336 178 lineto
326 174.5 lineto
closepath stroke
grestore
% Node3->Node3
gsave
1 setlinewidth
solid
0.667 0.776 0.439 edgecolor
newpath 320 226 moveto
297 235 314 244 371 244 curveto
417 244 437 238 431 231 curveto
stroke
0.667 0.776 0.439 edgecolor
newpath 432.441 227.797 moveto
422 226 lineto
429.042 233.916 lineto
closepath fill
1 setlinewidth
solid
0.667 0.776 0.439 edgecolor
newpath 432.441 227.797 moveto
422 226 lineto
429.042 233.916 lineto
closepath stroke
grestore
% Node4
gsave
[ /Rect [ 481 244 615 264 ]
  /Border [ 0 0 0 ]
  /Action << /Subtype /URI /URI ($classNodoTrieS.html#4f1525cf7f147f71e7be74c15d4f87a0) >>
  /Subtype /Link
/ANN pdfmark
[ /Rect [ 481 244 615 264 ]
  /Border [ 0 0 0 ]
  /Action << /Subtype /URI /URI ($classNodoTrieS.html#4f1525cf7f147f71e7be74c15d4f87a0) >>
  /Subtype /Link
/ANN pdfmark
1 setlinewidth
0.000 0.000 0.000 nodecolor
newpath 481 243 moveto
481 264 lineto
615 264 lineto
615 243 lineto
closepath stroke
0.000 0.000 0.000 nodecolor
10.00 /FreeSans.ttf set_font
548 250 moveto 118 -0.5 (NodoTrieS::NodoTrieS) alignedtext
grestore
% Node3->Node4
gsave
1 setlinewidth
solid
0.667 0.776 0.439 edgecolor
newpath 418 226 moveto
439 230 464 236 487 241 curveto
stroke
0.667 0.776 0.439 edgecolor
newpath 486.508 244.471 moveto
497 243 lineto
487.881 237.607 lineto
closepath fill
1 setlinewidth
solid
0.667 0.776 0.439 edgecolor
newpath 486.508 244.471 moveto
497 243 lineto
487.881 237.607 lineto
closepath stroke
grestore
% Node5
gsave
[ /Rect [ 471 206 625 226 ]
  /Border [ 0 0 0 ]
  /Action << /Subtype /URI /URI ($comun_8cpp.html#c74356d5b37d454e0ddce0de8fac34f8) >>
  /Subtype /Link
/ANN pdfmark
[ /Rect [ 471 206 625 226 ]
  /Border [ 0 0 0 ]
  /Action << /Subtype /URI /URI ($comun_8cpp.html#c74356d5b37d454e0ddce0de8fac34f8) >>
  /Subtype /Link
/ANN pdfmark
1 setlinewidth
0.000 0.000 0.000 nodecolor
newpath 471 205 moveto
471 226 lineto
626 226 lineto
626 205 lineto
closepath stroke
0.000 0.000 0.000 nodecolor
10.00 /FreeSans.ttf set_font
548 212 moveto 139 -0.5 (prefijo_comun_mas_largo) alignedtext
grestore
% Node3->Node5
gsave
1 setlinewidth
solid
0.667 0.776 0.439 edgecolor
newpath 429 216 moveto
439 216 450 216 461 216 curveto
stroke
0.667 0.776 0.439 edgecolor
newpath 461 219.5 moveto
471 216 lineto
461 212.5 lineto
closepath fill
1 setlinewidth
solid
0.667 0.776 0.439 edgecolor
newpath 461 219.5 moveto
471 216 lineto
461 212.5 lineto
closepath stroke
grestore
% Node7
gsave
[ /Rect [ 489 168 607 188 ]
  /Border [ 0 0 0 ]
  /Action << /Subtype /URI /URI ($comun_8cpp.html#bc69e612ecd81636d091e0b60fdf327e) >>
  /Subtype /Link
/ANN pdfmark
[ /Rect [ 489 168 607 188 ]
  /Border [ 0 0 0 ]
  /Action << /Subtype /URI /URI ($comun_8cpp.html#bc69e612ecd81636d091e0b60fdf327e) >>
  /Subtype /Link
/ANN pdfmark
1 setlinewidth
0.000 0.000 0.000 nodecolor
newpath 489 167 moveto
489 188 lineto
607 188 lineto
607 167 lineto
closepath stroke
0.000 0.000 0.000 nodecolor
10.00 /FreeSans.ttf set_font
548 174 moveto 102 -0.5 (normalizaCaracter) alignedtext
grestore
% Node6->Node7
gsave
1 setlinewidth
solid
0.667 0.776 0.439 edgecolor
newpath 407 178 moveto
428 178 454 178 479 178 curveto
stroke
0.667 0.776 0.439 edgecolor
newpath 479 181.5 moveto
489 178 lineto
479 174.5 lineto
closepath fill
1 setlinewidth
solid
0.667 0.776 0.439 edgecolor
newpath 479 181.5 moveto
489 178 lineto
479 174.5 lineto
closepath stroke
grestore
% Node9
gsave
[ /Rect [ 309 92 433 112 ]
  /Border [ 0 0 0 ]
  /Action << /Subtype /URI /URI ($RamDisco_8cpp.html#f0c232886a7851d8db3a647add9ae455) >>
  /Subtype /Link
/ANN pdfmark
[ /Rect [ 309 92 433 112 ]
  /Border [ 0 0 0 ]
  /Action << /Subtype /URI /URI ($RamDisco_8cpp.html#f0c232886a7851d8db3a647add9ae455) >>
  /Subtype /Link
/ANN pdfmark
1 setlinewidth
0.000 0.000 0.000 nodecolor
newpath 309 91 moveto
309 112 lineto
434 112 lineto
434 91 lineto
closepath stroke
0.000 0.000 0.000 nodecolor
10.00 /FreeSans.ttf set_font
371 98 moveto 109 -0.5 (escribePlanoStream) alignedtext
grestore
% Node8->Node9
gsave
1 setlinewidth
solid
0.667 0.776 0.439 edgecolor
newpath 237 118 moveto
254 115 277 113 299 110 curveto
stroke
0.667 0.776 0.439 edgecolor
newpath 299.398 113.478 moveto
309 109 lineto
298.701 106.512 lineto
closepath fill
1 setlinewidth
solid
0.667 0.776 0.439 edgecolor
newpath 299.398 113.478 moveto
309 109 lineto
298.701 106.512 lineto
closepath stroke
grestore
% Node10
gsave
[ /Rect [ 721 130 805 150 ]
  /Border [ 0 0 0 ]
  /Action << /Subtype /URI /URI ($TrieSDisco_8cpp.html#95dfc28ebaa02e82d3d1ffce08251628) >>
  /Subtype /Link
/ANN pdfmark
[ /Rect [ 721 130 805 150 ]
  /Border [ 0 0 0 ]
  /Action << /Subtype /URI /URI ($TrieSDisco_8cpp.html#95dfc28ebaa02e82d3d1ffce08251628) >>
  /Subtype /Link
/ANN pdfmark
1 setlinewidth
0.000 0.000 0.000 nodecolor
newpath 721 129 moveto
721 150 lineto
805 150 lineto
805 129 lineto
closepath stroke
0.000 0.000 0.000 nodecolor
10.00 /FreeSans.ttf set_font
763 136 moveto 68 -0.5 (escribeNodo) alignedtext
grestore
% Node9->Node10
gsave
1 setlinewidth
solid
0.667 0.776 0.439 edgecolor
newpath 434 111 moveto
446 113 458 115 470 116 curveto
554 125 652 132 711 136 curveto
stroke
0.667 0.776 0.439 edgecolor
newpath 710.701 139.488 moveto
721 137 lineto
711.398 132.522 lineto
closepath fill
1 setlinewidth
solid
0.667 0.776 0.439 edgecolor
newpath 710.701 139.488 moveto
721 137 lineto
711.398 132.522 lineto
closepath stroke
grestore
% Node16
gsave
[ /Rect [ 900 92 1056 112 ]
  /Border [ 0 0 0 ]
  /Action << /Subtype /URI /URI ($TrieSDisco_8cpp.html#453b277936104f13edb4f8158e015eba) >>
  /Subtype /Link
/ANN pdfmark
[ /Rect [ 900 92 1056 112 ]
  /Border [ 0 0 0 ]
  /Action << /Subtype /URI /URI ($TrieSDisco_8cpp.html#453b277936104f13edb4f8158e015eba) >>
  /Subtype /Link
/ANN pdfmark
1 setlinewidth
0.000 0.000 0.000 nodecolor
newpath 900 91 moveto
900 112 lineto
1056 112 lineto
1056 91 lineto
closepath stroke
0.000 0.000 0.000 nodecolor
10.00 /FreeSans.ttf set_font
978 98 moveto 140 -0.5 (precalcula_escribe_actual) alignedtext
grestore
% Node9->Node16
gsave
1 setlinewidth
solid
0.667 0.776 0.439 edgecolor
newpath 434 102 moveto
543 102 765 102 890 102 curveto
stroke
0.667 0.776 0.439 edgecolor
newpath 890 105.5 moveto
900 102 lineto
890 98.5001 lineto
closepath fill
1 setlinewidth
solid
0.667 0.776 0.439 edgecolor
newpath 890 105.5 moveto
900 102 lineto
890 98.5001 lineto
closepath stroke
grestore
% Node20
gsave
[ /Rect [ 490 36 606 56 ]
  /Border [ 0 0 0 ]
  /Action << /Subtype /URI /URI ($RamDisco_8cpp.html#6b1b44682de6eb9fccd3df71e404154a) >>
  /Subtype /Link
/ANN pdfmark
[ /Rect [ 490 36 606 56 ]
  /Border [ 0 0 0 ]
  /Action << /Subtype /URI /URI ($RamDisco_8cpp.html#6b1b44682de6eb9fccd3df71e404154a) >>
  /Subtype /Link
/ANN pdfmark
1 setlinewidth
0.000 0.000 0.000 nodecolor
newpath 490 35 moveto
490 56 lineto
607 56 lineto
607 35 lineto
closepath stroke
0.000 0.000 0.000 nodecolor
10.00 /FreeSans.ttf set_font
548 42 moveto 101 -0.5 (precalcula_escribe) alignedtext
grestore
% Node9->Node20
gsave
1 setlinewidth
solid
0.667 0.776 0.439 edgecolor
newpath 406 91 moveto
435 82 477 69 507 59 curveto
stroke
0.667 0.776 0.439 edgecolor
newpath 508.427 62.2259 moveto
517 56 lineto
506.416 55.5212 lineto
closepath fill
1 setlinewidth
solid
0.667 0.776 0.439 edgecolor
newpath 508.427 62.2259 moveto
517 56 lineto
506.416 55.5212 lineto
closepath stroke
grestore
% Node21
gsave
[ /Rect [ 662 36 864 56 ]
  /Border [ 0 0 0 ]
  /Action << /Subtype /URI /URI ($RamDisco_8cpp.html#5b79fc3f073aeb2481fb1d51274a52a6) >>
  /Subtype /Link
/ANN pdfmark
[ /Rect [ 662 36 864 56 ]
  /Border [ 0 0 0 ]
  /Action << /Subtype /URI /URI ($RamDisco_8cpp.html#5b79fc3f073aeb2481fb1d51274a52a6) >>
  /Subtype /Link
/ANN pdfmark
1 setlinewidth
0.000 0.000 0.000 nodecolor
newpath 662 35 moveto
662 56 lineto
864 56 lineto
864 35 lineto
closepath stroke
0.000 0.000 0.000 nodecolor
10.00 /FreeSans.ttf set_font
763 42 moveto 186 -0.5 (precalcula_escribe_con_hermanos) alignedtext
grestore
% Node9->Node21
gsave
1 setlinewidth
solid
0.667 0.776 0.439 edgecolor
newpath 381 91 moveto
397 73 432 39 470 27 curveto
553 0 657 18 716 32 curveto
stroke
0.667 0.776 0.439 edgecolor
newpath 715.416 35.4788 moveto
726 35 lineto
717.427 28.7741 lineto
closepath fill
1 setlinewidth
solid
0.667 0.776 0.439 edgecolor
newpath 715.416 35.4788 moveto
726 35 lineto
717.427 28.7741 lineto
closepath stroke
grestore
% Node11
gsave
[ /Rect [ 933 168 1023 188 ]
  /Border [ 0 0 0 ]
  /Action << /Subtype /URI /URI ($comun_8hpp.html#96402bda6527bf98dd8e49d62ae182f8) >>
  /Subtype /Link
/ANN pdfmark
[ /Rect [ 933 168 1023 188 ]
  /Border [ 0 0 0 ]
  /Action << /Subtype /URI /URI ($comun_8hpp.html#96402bda6527bf98dd8e49d62ae182f8) >>
  /Subtype /Link
/ANN pdfmark
1 setlinewidth
0.000 0.000 0.000 nodecolor
newpath 933 167 moveto
933 188 lineto
1023 188 lineto
1023 167 lineto
closepath stroke
0.000 0.000 0.000 nodecolor
10.00 /FreeSans.ttf set_font
978 174 moveto 74 -0.5 (escribeNDesp) alignedtext
grestore
% Node10->Node11
gsave
1 setlinewidth
solid
0.667 0.776 0.439 edgecolor
newpath 805 147 moveto
839 153 886 162 923 168 curveto
stroke
0.667 0.776 0.439 edgecolor
newpath 922.508 171.471 moveto
933 170 lineto
923.881 164.607 lineto
closepath fill
1 setlinewidth
solid
0.667 0.776 0.439 edgecolor
newpath 922.508 171.471 moveto
933 170 lineto
923.881 164.607 lineto
closepath stroke
grestore
% Node13
gsave
[ /Rect [ 942 130 1014 150 ]
  /Border [ 0 0 0 ]
  /Action << /Subtype /URI /URI ($Pos_8cpp.html#42c2daaa880eeb397c024b6ffa22c8cf) >>
  /Subtype /Link
/ANN pdfmark
[ /Rect [ 942 130 1014 150 ]
  /Border [ 0 0 0 ]
  /Action << /Subtype /URI /URI ($Pos_8cpp.html#42c2daaa880eeb397c024b6ffa22c8cf) >>
  /Subtype /Link
/ANN pdfmark
1 setlinewidth
0.000 0.000 0.000 nodecolor
newpath 942 129 moveto
942 150 lineto
1015 150 lineto
1015 129 lineto
closepath stroke
0.000 0.000 0.000 nodecolor
10.00 /FreeSans.ttf set_font
978 136 moveto 57 -0.5 (escribePos) alignedtext
grestore
% Node10->Node13
gsave
1 setlinewidth
solid
0.667 0.776 0.439 edgecolor
newpath 805 140 moveto
842 140 894 140 932 140 curveto
stroke
0.667 0.776 0.439 edgecolor
newpath 932 143.5 moveto
942 140 lineto
932 136.5 lineto
closepath fill
1 setlinewidth
solid
0.667 0.776 0.439 edgecolor
newpath 932 143.5 moveto
942 140 lineto
932 136.5 lineto
closepath stroke
grestore
% Node10->Node16
gsave
1 setlinewidth
solid
0.667 0.776 0.439 edgecolor
newpath 805 133 moveto
835 128 876 120 910 114 curveto
stroke
0.667 0.776 0.439 edgecolor
newpath 910.881 117.393 moveto
920 112 lineto
909.508 110.529 lineto
closepath fill
1 setlinewidth
solid
0.667 0.776 0.439 edgecolor
newpath 910.881 117.393 moveto
920 112 lineto
909.508 110.529 lineto
closepath stroke
grestore
% Node12
gsave
[ /Rect [ 1092 168 1174 188 ]
  /Border [ 0 0 0 ]
  /Action << /Subtype /URI /URI ($comun_8cpp.html#b5388a972300b0a3d2e70c16097a3781) >>
  /Subtype /Link
/ANN pdfmark
[ /Rect [ 1092 168 1174 188 ]
  /Border [ 0 0 0 ]
  /Action << /Subtype /URI /URI ($comun_8cpp.html#b5388a972300b0a3d2e70c16097a3781) >>
  /Subtype /Link
/ANN pdfmark
1 setlinewidth
0.000 0.000 0.000 nodecolor
newpath 1092 167 moveto
1092 188 lineto
1174 188 lineto
1174 167 lineto
closepath stroke
0.000 0.000 0.000 nodecolor
10.00 /FreeSans.ttf set_font
1133 174 moveto 66 -0.5 (escribe128b) alignedtext
grestore
% Node11->Node12
gsave
1 setlinewidth
solid
0.667 0.776 0.439 edgecolor
newpath 1023 178 moveto
1042 178 1063 178 1082 178 curveto
stroke
0.667 0.776 0.439 edgecolor
newpath 1082 181.5 moveto
1092 178 lineto
1082 174.5 lineto
closepath fill
1 setlinewidth
solid
0.667 0.776 0.439 edgecolor
newpath 1082 181.5 moveto
1092 178 lineto
1082 174.5 lineto
closepath stroke
grestore
% Node14
gsave
[ /Rect [ 1210 120 1338 140 ]
  /Border [ 0 0 0 ]
  /Action << /Subtype /URI /URI ($Elias_8cpp.html#59732ce42a1e75fbbb382a6964ef4620) >>
  /Subtype /Link
/ANN pdfmark
[ /Rect [ 1210 120 1338 140 ]
  /Border [ 0 0 0 ]
  /Action << /Subtype /URI /URI ($Elias_8cpp.html#59732ce42a1e75fbbb382a6964ef4620) >>
  /Subtype /Link
/ANN pdfmark
1 setlinewidth
0.000 0.000 0.000 nodecolor
newpath 1210 119 moveto
1210 140 lineto
1338 140 lineto
1338 119 lineto
closepath stroke
0.000 0.000 0.000 nodecolor
10.00 /FreeSans.ttf set_font
1274 126 moveto 112 -0.5 (escribe_elias_gama2) alignedtext
grestore
% Node13->Node14
gsave
1 setlinewidth
solid
0.667 0.776 0.439 edgecolor
newpath 1015 139 moveto
1061 137 1141 134 1200 132 curveto
stroke
0.667 0.776 0.439 edgecolor
newpath 1200 135.5 moveto
1210 132 lineto
1200 128.5 lineto
closepath fill
1 setlinewidth
solid
0.667 0.776 0.439 edgecolor
newpath 1200 135.5 moveto
1210 132 lineto
1200 128.5 lineto
closepath stroke
grestore
% Node15
gsave
[ /Rect [ 1375 96 1447 116 ]
  /Border [ 0 0 0 ]
  /Action << /Subtype /URI /URI ($Elias_8cpp.html#7127ec8dff13cc2ad873693ca8933d38) >>
  /Subtype /Link
/ANN pdfmark
[ /Rect [ 1375 96 1447 116 ]
  /Border [ 0 0 0 ]
  /Action << /Subtype /URI /URI ($Elias_8cpp.html#7127ec8dff13cc2ad873693ca8933d38) >>
  /Subtype /Link
/ANN pdfmark
1 setlinewidth
0.000 0.000 0.000 nodecolor
newpath 1375 95 moveto
1375 116 lineto
1448 116 lineto
1448 95 lineto
closepath stroke
0.000 0.000 0.000 nodecolor
10.00 /FreeSans.ttf set_font
1411 102 moveto 57 -0.5 (piso_logb2) alignedtext
grestore
% Node14->Node15
gsave
1 setlinewidth
solid
0.667 0.776 0.439 edgecolor
newpath 1337 119 moveto
1346 118 1356 116 1365 115 curveto
stroke
0.667 0.776 0.439 edgecolor
newpath 1365.88 118.393 moveto
1375 113 lineto
1364.51 111.529 lineto
closepath fill
1 setlinewidth
solid
0.667 0.776 0.439 edgecolor
newpath 1365.88 118.393 moveto
1375 113 lineto
1364.51 111.529 lineto
closepath stroke
grestore
% Node17
gsave
[ /Rect [ 1096 92 1170 112 ]
  /Border [ 0 0 0 ]
  /Action << /Subtype /URI /URI ($comun_8hpp.html#3f1f97c70ac3ffba1584b0fc02661cab) >>
  /Subtype /Link
/ANN pdfmark
[ /Rect [ 1096 92 1170 112 ]
  /Border [ 0 0 0 ]
  /Action << /Subtype /URI /URI ($comun_8hpp.html#3f1f97c70ac3ffba1584b0fc02661cab) >>
  /Subtype /Link
/ANN pdfmark
1 setlinewidth
0.000 0.000 0.000 nodecolor
newpath 1096 91 moveto
1096 112 lineto
1171 112 lineto
1171 91 lineto
closepath stroke
0.000 0.000 0.000 nodecolor
10.00 /FreeSans.ttf set_font
1133 98 moveto 59 -0.5 (longNDesp) alignedtext
grestore
% Node16->Node17
gsave
1 setlinewidth
solid
0.667 0.776 0.439 edgecolor
newpath 1056 102 moveto
1066 102 1076 102 1086 102 curveto
stroke
0.667 0.776 0.439 edgecolor
newpath 1086 105.5 moveto
1096 102 lineto
1086 98.5001 lineto
closepath fill
1 setlinewidth
solid
0.667 0.776 0.439 edgecolor
newpath 1086 105.5 moveto
1096 102 lineto
1086 98.5001 lineto
closepath stroke
grestore
% Node18
gsave
[ /Rect [ 1104 54 1162 74 ]
  /Border [ 0 0 0 ]
  /Action << /Subtype /URI /URI ($Pos_8cpp.html#ad8740377e9e19836d654491a170ac9a) >>
  /Subtype /Link
/ANN pdfmark
[ /Rect [ 1104 54 1162 74 ]
  /Border [ 0 0 0 ]
  /Action << /Subtype /URI /URI ($Pos_8cpp.html#ad8740377e9e19836d654491a170ac9a) >>
  /Subtype /Link
/ANN pdfmark
1 setlinewidth
0.000 0.000 0.000 nodecolor
newpath 1104 53 moveto
1104 74 lineto
1162 74 lineto
1162 53 lineto
closepath stroke
0.000 0.000 0.000 nodecolor
10.00 /FreeSans.ttf set_font
1133 60 moveto 42 -0.5 (longPos) alignedtext
grestore
% Node16->Node18
gsave
1 setlinewidth
solid
0.667 0.776 0.439 edgecolor
newpath 1023 91 moveto
1045 86 1072 79 1094 74 curveto
stroke
0.667 0.776 0.439 edgecolor
newpath 1095.43 77.2259 moveto
1104 71 lineto
1093.42 70.5212 lineto
closepath fill
1 setlinewidth
solid
0.667 0.776 0.439 edgecolor
newpath 1095.43 77.2259 moveto
1104 71 lineto
1093.42 70.5212 lineto
closepath stroke
grestore
% Node19
gsave
[ /Rect [ 1221 73 1327 93 ]
  /Border [ 0 0 0 ]
  /Action << /Subtype /URI /URI ($Elias_8cpp.html#214c4fd6adcbe1fe7de47c4ba521198a) >>
  /Subtype /Link
/ANN pdfmark
[ /Rect [ 1221 73 1327 93 ]
  /Border [ 0 0 0 ]
  /Action << /Subtype /URI /URI ($Elias_8cpp.html#214c4fd6adcbe1fe7de47c4ba521198a) >>
  /Subtype /Link
/ANN pdfmark
1 setlinewidth
0.000 0.000 0.000 nodecolor
newpath 1221 72 moveto
1221 93 lineto
1328 93 lineto
1328 72 lineto
closepath stroke
0.000 0.000 0.000 nodecolor
10.00 /FreeSans.ttf set_font
1274 79 moveto 91 -0.5 (long_elias_gama) alignedtext
grestore
% Node18->Node19
gsave
1 setlinewidth
solid
0.667 0.776 0.439 edgecolor
newpath 1162 68 moveto
1176 70 1194 72 1211 75 curveto
stroke
0.667 0.776 0.439 edgecolor
newpath 1210.7 78.4875 moveto
1221 76 lineto
1211.4 71.5222 lineto
closepath fill
1 setlinewidth
solid
0.667 0.776 0.439 edgecolor
newpath 1210.7 78.4875 moveto
1221 76 lineto
1211.4 71.5222 lineto
closepath stroke
grestore
% Node19->Node15
gsave
1 setlinewidth
solid
0.667 0.776 0.439 edgecolor
newpath 1328 92 moveto
1340 94 1353 97 1365 99 curveto
stroke
0.667 0.776 0.439 edgecolor
newpath 1364.7 102.488 moveto
1375 100 lineto
1365.4 95.5222 lineto
closepath fill
1 setlinewidth
solid
0.667 0.776 0.439 edgecolor
newpath 1364.7 102.488 moveto
1375 100 lineto
1365.4 95.5222 lineto
closepath stroke
grestore
% Node20->Node20
gsave
1 setlinewidth
solid
0.667 0.776 0.439 edgecolor
newpath 492 56 moveto
468 65 486 74 548 74 curveto
598 74 620 68 613 61 curveto
stroke
0.667 0.776 0.439 edgecolor
newpath 614.441 57.7969 moveto
604 56 lineto
611.042 63.916 lineto
closepath fill
1 setlinewidth
solid
0.667 0.776 0.439 edgecolor
newpath 614.441 57.7969 moveto
604 56 lineto
611.042 63.916 lineto
closepath stroke
grestore
% Node20->Node21
gsave
1 setlinewidth
solid
0.667 0.776 0.439 edgecolor
newpath 607 46 moveto
621 46 636 46 652 46 curveto
stroke
0.667 0.776 0.439 edgecolor
newpath 652 49.5001 moveto
662 46 lineto
652 42.5001 lineto
closepath fill
1 setlinewidth
solid
0.667 0.776 0.439 edgecolor
newpath 652 49.5001 moveto
662 46 lineto
652 42.5001 lineto
closepath stroke
grestore
% Node21->Node16
gsave
1 setlinewidth
solid
0.667 0.776 0.439 edgecolor
newpath 801 56 moveto
836 65 888 79 926 88 curveto
stroke
0.667 0.776 0.439 edgecolor
newpath 925.416 91.4788 moveto
936 91 lineto
927.427 84.7741 lineto
closepath fill
1 setlinewidth
solid
0.667 0.776 0.439 edgecolor
newpath 925.416 91.4788 moveto
936 91 lineto
927.427 84.7741 lineto
closepath stroke
grestore
% Node22->Node22
gsave
1 setlinewidth
solid
0.667 0.776 0.439 edgecolor
newpath 159 75 moveto
138 84 154 93 208 93 curveto
250 93 269 88 265 81 curveto
stroke
0.667 0.776 0.439 edgecolor
newpath 267.1 78.2 moveto
257 75 lineto
262.9 83.8 lineto
closepath fill
1 setlinewidth
solid
0.667 0.776 0.439 edgecolor
newpath 267.1 78.2 moveto
257 75 lineto
262.9 83.8 lineto
closepath stroke
grestore
endpage
showpage
grestore
%%PageTrailer
%%EndPage: 1
%%Trailer
%%Pages: 1
%%BoundingBox: 36 36 1492 308
end
restore
%%EOF
