%!PS-Adobe-2.0
%%Creator: Graphviz version 2.12 (Mon Nov 16 18:34:03 UTC 2009)
%%For: (vtamara) Vladimir
%%Title: G
%%Pages: (atend)
%%BoundingBox: (atend)
%%EndComments
save
%%BeginProlog
/DotDict 200 dict def
DotDict begin

/setupLatin1 {
mark
/EncodingVector 256 array def
 EncodingVector 0

ISOLatin1Encoding 0 255 getinterval putinterval
EncodingVector 45 /hyphen put

% Set up ISO Latin 1 character encoding
/starnetISO {
        dup dup findfont dup length dict begin
        { 1 index /FID ne { def }{ pop pop } ifelse
        } forall
        /Encoding EncodingVector def
        currentdict end definefont
} def
/Times-Roman starnetISO def
/Times-Italic starnetISO def
/Times-Bold starnetISO def
/Times-BoldItalic starnetISO def
/Helvetica starnetISO def
/Helvetica-Oblique starnetISO def
/Helvetica-Bold starnetISO def
/Helvetica-BoldOblique starnetISO def
/Courier starnetISO def
/Courier-Oblique starnetISO def
/Courier-Bold starnetISO def
/Courier-BoldOblique starnetISO def
cleartomark
} bind def

%%BeginResource: procset graphviz 0 0
/coord-font-family /Times-Roman def
/default-font-family /Times-Roman def
/coordfont coord-font-family findfont 8 scalefont def

/InvScaleFactor 1.0 def
/set_scale {
       dup 1 exch div /InvScaleFactor exch def
       scale
} bind def

% styles
/solid { [] 0 setdash } bind def
/dashed { [9 InvScaleFactor mul dup ] 0 setdash } bind def
/dotted { [1 InvScaleFactor mul 6 InvScaleFactor mul] 0 setdash } bind def
/invis {/fill {newpath} def /stroke {newpath} def /show {pop newpath} def} bind def
/bold { 2 setlinewidth } bind def
/filled { } bind def
/unfilled { } bind def
/rounded { } bind def
/diagonals { } bind def

% hooks for setting color 
/nodecolor { sethsbcolor } bind def
/edgecolor { sethsbcolor } bind def
/graphcolor { sethsbcolor } bind def
/nopcolor {pop pop pop} bind def

/beginpage {	% i j npages
	/npages exch def
	/j exch def
	/i exch def
	/str 10 string def
	npages 1 gt {
		gsave
			coordfont setfont
			0 0 moveto
			(\() show i str cvs show (,) show j str cvs show (\)) show
		grestore
	} if
} bind def

/set_font {
	findfont exch
	scalefont setfont
} def

% draw aligned label in bounding box aligned to current point
/alignedtext {			% width adj text
	/text exch def
	/adj exch def
	/width exch def
	gsave
		width 0 gt {
			text stringwidth pop adj mul 0 rmoveto
		} if
		[] 0 setdash
		text show
	grestore
} def

/boxprim {				% xcorner ycorner xsize ysize
		4 2 roll
		moveto
		2 copy
		exch 0 rlineto
		0 exch rlineto
		pop neg 0 rlineto
		closepath
} bind def

/ellipse_path {
	/ry exch def
	/rx exch def
	/y exch def
	/x exch def
	matrix currentmatrix
	newpath
	x y translate
	rx ry scale
	0 0 1 0 360 arc
	setmatrix
} bind def

/endpage { showpage } bind def
/showpage { } def

/layercolorseq
	[	% layer color sequence - darkest to lightest
		[0 0 0]
		[.2 .8 .8]
		[.4 .8 .8]
		[.6 .8 .8]
		[.8 .8 .8]
	]
def

/layerlen layercolorseq length def

/setlayer {/maxlayer exch def /curlayer exch def
	layercolorseq curlayer 1 sub layerlen mod get
	aload pop sethsbcolor
	/nodecolor {nopcolor} def
	/edgecolor {nopcolor} def
	/graphcolor {nopcolor} def
} bind def

/onlayer { curlayer ne {invis} if } def

/onlayers {
	/myupper exch def
	/mylower exch def
	curlayer mylower lt
	curlayer myupper gt
	or
	{invis} if
} def

/curlayer 0 def

%%EndResource
%%EndProlog
%%BeginSetup
14 default-font-family set_font
1 setmiterlimit
% /arrowlength 10 def
% /arrowwidth 5 def

% make sure pdfmark is harmless for PS-interpreters other than Distiller
/pdfmark where {pop} {userdict /pdfmark /cleartomark load put} ifelse
% make '<<' and '>>' safe on PS Level 1 devices
/languagelevel where {pop languagelevel}{1} ifelse
2 lt {
    userdict (<<) cvn ([) cvn load put
    userdict (>>) cvn ([) cvn load put
} if

%%EndSetup
setupLatin1
%%Page: 1 1
%%PageBoundingBox: 36 36 1086 102
%%PageOrientation: Portrait
gsave
36 36 1086 102 boxprim clip newpath
0 0 1 beginpage
1 1 set_scale 0 rotate 40 40 translate
% Node1
gsave
0.000 0.000 0.749 nodecolor
newpath 0 18 moveto
0 39 lineto
246 39 lineto
246 18 lineto
closepath fill
1 setlinewidth
filled
0.000 0.000 0.000 nodecolor
newpath 0 18 moveto
0 39 lineto
246 39 lineto
246 18 lineto
closepath stroke
0.000 0.000 0.000 nodecolor
10.00 /FreeSans.ttf set_font
123 25 moveto 230 -0.5 (prueba_precalcula_escribe_con_hermanos) alignedtext
grestore
% Node2
gsave
[ /Rect [ 282 19 484 39 ]
  /Border [ 0 0 0 ]
  /Action << /Subtype /URI /URI ($RamDisco_8cpp.html#5b79fc3f073aeb2481fb1d51274a52a6) >>
  /Subtype /Link
/ANN pdfmark
[ /Rect [ 282 19 484 39 ]
  /Border [ 0 0 0 ]
  /Action << /Subtype /URI /URI ($RamDisco_8cpp.html#5b79fc3f073aeb2481fb1d51274a52a6) >>
  /Subtype /Link
/ANN pdfmark
1 setlinewidth
0.000 0.000 0.000 nodecolor
newpath 282 18 moveto
282 39 lineto
484 39 lineto
484 18 lineto
closepath stroke
0.000 0.000 0.000 nodecolor
10.00 /FreeSans.ttf set_font
383 25 moveto 186 -0.5 (precalcula_escribe_con_hermanos) alignedtext
grestore
% Node1->Node2
gsave
1 setlinewidth
solid
0.667 0.776 0.439 edgecolor
newpath 246 29 moveto
255 29 263 29 272 29 curveto
stroke
0.667 0.776 0.439 edgecolor
newpath 272 32.5001 moveto
282 29 lineto
272 25.5001 lineto
closepath fill
1 setlinewidth
solid
0.667 0.776 0.439 edgecolor
newpath 272 32.5001 moveto
282 29 lineto
272 25.5001 lineto
closepath stroke
grestore
% Node3
gsave
[ /Rect [ 520 19 676 39 ]
  /Border [ 0 0 0 ]
  /Action << /Subtype /URI /URI ($TrieSDisco_8cpp.html#453b277936104f13edb4f8158e015eba) >>
  /Subtype /Link
/ANN pdfmark
[ /Rect [ 520 19 676 39 ]
  /Border [ 0 0 0 ]
  /Action << /Subtype /URI /URI ($TrieSDisco_8cpp.html#453b277936104f13edb4f8158e015eba) >>
  /Subtype /Link
/ANN pdfmark
1 setlinewidth
0.000 0.000 0.000 nodecolor
newpath 520 18 moveto
520 39 lineto
676 39 lineto
676 18 lineto
closepath stroke
0.000 0.000 0.000 nodecolor
10.00 /FreeSans.ttf set_font
598 25 moveto 140 -0.5 (precalcula_escribe_actual) alignedtext
grestore
% Node2->Node3
gsave
1 setlinewidth
solid
0.667 0.776 0.439 edgecolor
newpath 484 29 moveto
493 29 501 29 510 29 curveto
stroke
0.667 0.776 0.439 edgecolor
newpath 510 32.5001 moveto
520 29 lineto
510 25.5001 lineto
closepath fill
1 setlinewidth
solid
0.667 0.776 0.439 edgecolor
newpath 510 32.5001 moveto
520 29 lineto
510 25.5001 lineto
closepath stroke
grestore
% Node4
gsave
[ /Rect [ 713 38 787 58 ]
  /Border [ 0 0 0 ]
  /Action << /Subtype /URI /URI ($comun_8hpp.html#3f1f97c70ac3ffba1584b0fc02661cab) >>
  /Subtype /Link
/ANN pdfmark
[ /Rect [ 713 38 787 58 ]
  /Border [ 0 0 0 ]
  /Action << /Subtype /URI /URI ($comun_8hpp.html#3f1f97c70ac3ffba1584b0fc02661cab) >>
  /Subtype /Link
/ANN pdfmark
1 setlinewidth
0.000 0.000 0.000 nodecolor
newpath 713 37 moveto
713 58 lineto
788 58 lineto
788 37 lineto
closepath stroke
0.000 0.000 0.000 nodecolor
10.00 /FreeSans.ttf set_font
750 44 moveto 59 -0.5 (longNDesp) alignedtext
grestore
% Node3->Node4
gsave
1 setlinewidth
solid
0.667 0.776 0.439 edgecolor
newpath 676 39 moveto
685 40 694 41 703 42 curveto
stroke
0.667 0.776 0.439 edgecolor
newpath 702.701 45.4875 moveto
713 43 lineto
703.398 38.5222 lineto
closepath fill
1 setlinewidth
solid
0.667 0.776 0.439 edgecolor
newpath 702.701 45.4875 moveto
713 43 lineto
703.398 38.5222 lineto
closepath stroke
grestore
% Node5
gsave
[ /Rect [ 721 0 779 20 ]
  /Border [ 0 0 0 ]
  /Action << /Subtype /URI /URI ($Pos_8cpp.html#ad8740377e9e19836d654491a170ac9a) >>
  /Subtype /Link
/ANN pdfmark
[ /Rect [ 721 0 779 20 ]
  /Border [ 0 0 0 ]
  /Action << /Subtype /URI /URI ($Pos_8cpp.html#ad8740377e9e19836d654491a170ac9a) >>
  /Subtype /Link
/ANN pdfmark
1 setlinewidth
0.000 0.000 0.000 nodecolor
newpath 721 -1 moveto
721 20 lineto
779 20 lineto
779 -1 lineto
closepath stroke
0.000 0.000 0.000 nodecolor
10.00 /FreeSans.ttf set_font
750 6 moveto 42 -0.5 (longPos) alignedtext
grestore
% Node3->Node5
gsave
1 setlinewidth
solid
0.667 0.776 0.439 edgecolor
newpath 676 19 moveto
688 18 700 16 711 15 curveto
stroke
0.667 0.776 0.439 edgecolor
newpath 711.398 18.4778 moveto
721 14 lineto
710.701 11.5125 lineto
closepath fill
1 setlinewidth
solid
0.667 0.776 0.439 edgecolor
newpath 711.398 18.4778 moveto
721 14 lineto
710.701 11.5125 lineto
closepath stroke
grestore
% Node6
gsave
[ /Rect [ 825 0 931 20 ]
  /Border [ 0 0 0 ]
  /Action << /Subtype /URI /URI ($Elias_8cpp.html#214c4fd6adcbe1fe7de47c4ba521198a) >>
  /Subtype /Link
/ANN pdfmark
[ /Rect [ 825 0 931 20 ]
  /Border [ 0 0 0 ]
  /Action << /Subtype /URI /URI ($Elias_8cpp.html#214c4fd6adcbe1fe7de47c4ba521198a) >>
  /Subtype /Link
/ANN pdfmark
1 setlinewidth
0.000 0.000 0.000 nodecolor
newpath 825 -1 moveto
825 20 lineto
932 20 lineto
932 -1 lineto
closepath stroke
0.000 0.000 0.000 nodecolor
10.00 /FreeSans.ttf set_font
878 6 moveto 91 -0.5 (long_elias_gama) alignedtext
grestore
% Node5->Node6
gsave
1 setlinewidth
solid
0.667 0.776 0.439 edgecolor
newpath 779 10 moveto
790 10 802 10 815 10 curveto
stroke
0.667 0.776 0.439 edgecolor
newpath 815 13.5001 moveto
825 10 lineto
815 6.5001 lineto
closepath fill
1 setlinewidth
solid
0.667 0.776 0.439 edgecolor
newpath 815 13.5001 moveto
825 10 lineto
815 6.5001 lineto
closepath stroke
grestore
% Node7
gsave
[ /Rect [ 969 0 1041 20 ]
  /Border [ 0 0 0 ]
  /Action << /Subtype /URI /URI ($Elias_8cpp.html#7127ec8dff13cc2ad873693ca8933d38) >>
  /Subtype /Link
/ANN pdfmark
[ /Rect [ 969 0 1041 20 ]
  /Border [ 0 0 0 ]
  /Action << /Subtype /URI /URI ($Elias_8cpp.html#7127ec8dff13cc2ad873693ca8933d38) >>
  /Subtype /Link
/ANN pdfmark
1 setlinewidth
0.000 0.000 0.000 nodecolor
newpath 969 -1 moveto
969 20 lineto
1042 20 lineto
1042 -1 lineto
closepath stroke
0.000 0.000 0.000 nodecolor
10.00 /FreeSans.ttf set_font
1005 6 moveto 57 -0.5 (piso_logb2) alignedtext
grestore
% Node6->Node7
gsave
1 setlinewidth
solid
0.667 0.776 0.439 edgecolor
newpath 932 10 moveto
941 10 950 10 959 10 curveto
stroke
0.667 0.776 0.439 edgecolor
newpath 959 13.5001 moveto
969 10 lineto
959 6.5001 lineto
closepath fill
1 setlinewidth
solid
0.667 0.776 0.439 edgecolor
newpath 959 13.5001 moveto
969 10 lineto
959 6.5001 lineto
closepath stroke
grestore
endpage
showpage
grestore
%%PageTrailer
%%EndPage: 1
%%Trailer
%%Pages: 1
%%BoundingBox: 36 36 1086 102
end
restore
%%EOF
