%!PS-Adobe-2.0
%%Creator: Graphviz version 2.12 (Mon Nov 16 18:34:03 UTC 2009)
%%For: (vtamara) Vladimir
%%Title: G
%%Pages: (atend)
%%BoundingBox: (atend)
%%EndComments
save
%%BeginProlog
/DotDict 200 dict def
DotDict begin

/setupLatin1 {
mark
/EncodingVector 256 array def
 EncodingVector 0

ISOLatin1Encoding 0 255 getinterval putinterval
EncodingVector 45 /hyphen put

% Set up ISO Latin 1 character encoding
/starnetISO {
        dup dup findfont dup length dict begin
        { 1 index /FID ne { def }{ pop pop } ifelse
        } forall
        /Encoding EncodingVector def
        currentdict end definefont
} def
/Times-Roman starnetISO def
/Times-Italic starnetISO def
/Times-Bold starnetISO def
/Times-BoldItalic starnetISO def
/Helvetica starnetISO def
/Helvetica-Oblique starnetISO def
/Helvetica-Bold starnetISO def
/Helvetica-BoldOblique starnetISO def
/Courier starnetISO def
/Courier-Oblique starnetISO def
/Courier-Bold starnetISO def
/Courier-BoldOblique starnetISO def
cleartomark
} bind def

%%BeginResource: procset graphviz 0 0
/coord-font-family /Times-Roman def
/default-font-family /Times-Roman def
/coordfont coord-font-family findfont 8 scalefont def

/InvScaleFactor 1.0 def
/set_scale {
       dup 1 exch div /InvScaleFactor exch def
       scale
} bind def

% styles
/solid { [] 0 setdash } bind def
/dashed { [9 InvScaleFactor mul dup ] 0 setdash } bind def
/dotted { [1 InvScaleFactor mul 6 InvScaleFactor mul] 0 setdash } bind def
/invis {/fill {newpath} def /stroke {newpath} def /show {pop newpath} def} bind def
/bold { 2 setlinewidth } bind def
/filled { } bind def
/unfilled { } bind def
/rounded { } bind def
/diagonals { } bind def

% hooks for setting color 
/nodecolor { sethsbcolor } bind def
/edgecolor { sethsbcolor } bind def
/graphcolor { sethsbcolor } bind def
/nopcolor {pop pop pop} bind def

/beginpage {	% i j npages
	/npages exch def
	/j exch def
	/i exch def
	/str 10 string def
	npages 1 gt {
		gsave
			coordfont setfont
			0 0 moveto
			(\() show i str cvs show (,) show j str cvs show (\)) show
		grestore
	} if
} bind def

/set_font {
	findfont exch
	scalefont setfont
} def

% draw aligned label in bounding box aligned to current point
/alignedtext {			% width adj text
	/text exch def
	/adj exch def
	/width exch def
	gsave
		width 0 gt {
			text stringwidth pop adj mul 0 rmoveto
		} if
		[] 0 setdash
		text show
	grestore
} def

/boxprim {				% xcorner ycorner xsize ysize
		4 2 roll
		moveto
		2 copy
		exch 0 rlineto
		0 exch rlineto
		pop neg 0 rlineto
		closepath
} bind def

/ellipse_path {
	/ry exch def
	/rx exch def
	/y exch def
	/x exch def
	matrix currentmatrix
	newpath
	x y translate
	rx ry scale
	0 0 1 0 360 arc
	setmatrix
} bind def

/endpage { showpage } bind def
/showpage { } def

/layercolorseq
	[	% layer color sequence - darkest to lightest
		[0 0 0]
		[.2 .8 .8]
		[.4 .8 .8]
		[.6 .8 .8]
		[.8 .8 .8]
	]
def

/layerlen layercolorseq length def

/setlayer {/maxlayer exch def /curlayer exch def
	layercolorseq curlayer 1 sub layerlen mod get
	aload pop sethsbcolor
	/nodecolor {nopcolor} def
	/edgecolor {nopcolor} def
	/graphcolor {nopcolor} def
} bind def

/onlayer { curlayer ne {invis} if } def

/onlayers {
	/myupper exch def
	/mylower exch def
	curlayer mylower lt
	curlayer myupper gt
	or
	{invis} if
} def

/curlayer 0 def

%%EndResource
%%EndProlog
%%BeginSetup
14 default-font-family set_font
1 setmiterlimit
% /arrowlength 10 def
% /arrowwidth 5 def

% make sure pdfmark is harmless for PS-interpreters other than Distiller
/pdfmark where {pop} {userdict /pdfmark /cleartomark load put} ifelse
% make '<<' and '>>' safe on PS Level 1 devices
/languagelevel where {pop languagelevel}{1} ifelse
2 lt {
    userdict (<<) cvn ([) cvn load put
    userdict (>>) cvn ([) cvn load put
} if

%%EndSetup
setupLatin1
%%Page: 1 1
%%PageBoundingBox: 36 36 460 102
%%PageOrientation: Portrait
gsave
36 36 460 102 boxprim clip newpath
0 0 1 beginpage
1 1 set_scale 0 rotate 40 40 translate
% Node1
gsave
0.000 0.000 0.749 nodecolor
newpath 0 18 moveto
0 39 lineto
150 39 lineto
150 18 lineto
closepath fill
1 setlinewidth
filled
0.000 0.000 0.000 nodecolor
newpath 0 18 moveto
0 39 lineto
150 39 lineto
150 18 lineto
closepath stroke
0.000 0.000 0.000 nodecolor
10.00 /FreeSans.ttf set_font
75 25 moveto 134 -0.5 (prueba_lee_elias_gama2) alignedtext
grestore
% Node2
gsave
[ /Rect [ 186 38 292 58 ]
  /Border [ 0 0 0 ]
  /Action << /Subtype /URI /URI ($Elias_8cpp.html#95ee5a0ffb91f203612d2ce9d063ec36) >>
  /Subtype /Link
/ANN pdfmark
[ /Rect [ 186 38 292 58 ]
  /Border [ 0 0 0 ]
  /Action << /Subtype /URI /URI ($Elias_8cpp.html#95ee5a0ffb91f203612d2ce9d063ec36) >>
  /Subtype /Link
/ANN pdfmark
1 setlinewidth
0.000 0.000 0.000 nodecolor
newpath 186 37 moveto
186 58 lineto
292 58 lineto
292 37 lineto
closepath stroke
0.000 0.000 0.000 nodecolor
10.00 /FreeSans.ttf set_font
239 44 moveto 90 -0.5 (lee_elias_gama2) alignedtext
grestore
% Node1->Node2
gsave
1 setlinewidth
solid
0.667 0.776 0.439 edgecolor
newpath 150 38 moveto
159 39 167 40 176 41 curveto
stroke
0.667 0.776 0.439 edgecolor
newpath 175.701 44.4875 moveto
186 42 lineto
176.398 37.5222 lineto
closepath fill
1 setlinewidth
solid
0.667 0.776 0.439 edgecolor
newpath 175.701 44.4875 moveto
186 42 lineto
176.398 37.5222 lineto
closepath stroke
grestore
% Node4
gsave
[ /Rect [ 219 0 259 20 ]
  /Border [ 0 0 0 ]
  /Action << /Subtype /URI /URI ($Elias_8cpp.html#c268bba1057c593ac6dcfa6bf1ada057) >>
  /Subtype /Link
/ANN pdfmark
[ /Rect [ 219 0 259 20 ]
  /Border [ 0 0 0 ]
  /Action << /Subtype /URI /URI ($Elias_8cpp.html#c268bba1057c593ac6dcfa6bf1ada057) >>
  /Subtype /Link
/ANN pdfmark
1 setlinewidth
0.000 0.000 0.000 nodecolor
newpath 219 -1 moveto
219 20 lineto
259 20 lineto
259 -1 lineto
closepath stroke
0.000 0.000 0.000 nodecolor
10.00 /FreeSans.ttf set_font
239 6 moveto 24 -0.5 (pot2) alignedtext
grestore
% Node1->Node4
gsave
1 setlinewidth
solid
0.667 0.776 0.439 edgecolor
newpath 150 20 moveto
171 18 192 15 209 13 curveto
stroke
0.667 0.776 0.439 edgecolor
newpath 209.398 16.4778 moveto
219 12 lineto
208.701 9.5125 lineto
closepath fill
1 setlinewidth
solid
0.667 0.776 0.439 edgecolor
newpath 209.398 16.4778 moveto
219 12 lineto
208.701 9.5125 lineto
closepath stroke
grestore
% Node3
gsave
[ /Rect [ 328 38 416 58 ]
  /Border [ 0 0 0 ]
  /Action << /Subtype /URI /URI ($comun_8cpp.html#88ffeb20e447cad877c37bb473033590) >>
  /Subtype /Link
/ANN pdfmark
[ /Rect [ 328 38 416 58 ]
  /Border [ 0 0 0 ]
  /Action << /Subtype /URI /URI ($comun_8cpp.html#88ffeb20e447cad877c37bb473033590) >>
  /Subtype /Link
/ANN pdfmark
1 setlinewidth
0.000 0.000 0.000 nodecolor
newpath 328 37 moveto
328 58 lineto
416 58 lineto
416 37 lineto
closepath stroke
0.000 0.000 0.000 nodecolor
10.00 /FreeSans.ttf set_font
372 44 moveto 72 -0.5 (errorFormato) alignedtext
grestore
% Node2->Node3
gsave
1 setlinewidth
solid
0.667 0.776 0.439 edgecolor
newpath 292 48 moveto
301 48 309 48 318 48 curveto
stroke
0.667 0.776 0.439 edgecolor
newpath 318 51.5001 moveto
328 48 lineto
318 44.5001 lineto
closepath fill
1 setlinewidth
solid
0.667 0.776 0.439 edgecolor
newpath 318 51.5001 moveto
328 48 lineto
318 44.5001 lineto
closepath stroke
grestore
endpage
showpage
grestore
%%PageTrailer
%%EndPage: 1
%%Trailer
%%Pages: 1
%%BoundingBox: 36 36 460 102
end
restore
%%EOF
