%!PS-Adobe-2.0
%%Creator: Graphviz version 2.12 (Mon Nov 16 18:34:03 UTC 2009)
%%For: (vtamara) Vladimir
%%Title: G
%%Pages: (atend)
%%BoundingBox: (atend)
%%EndComments
save
%%BeginProlog
/DotDict 200 dict def
DotDict begin

/setupLatin1 {
mark
/EncodingVector 256 array def
 EncodingVector 0

ISOLatin1Encoding 0 255 getinterval putinterval
EncodingVector 45 /hyphen put

% Set up ISO Latin 1 character encoding
/starnetISO {
        dup dup findfont dup length dict begin
        { 1 index /FID ne { def }{ pop pop } ifelse
        } forall
        /Encoding EncodingVector def
        currentdict end definefont
} def
/Times-Roman starnetISO def
/Times-Italic starnetISO def
/Times-Bold starnetISO def
/Times-BoldItalic starnetISO def
/Helvetica starnetISO def
/Helvetica-Oblique starnetISO def
/Helvetica-Bold starnetISO def
/Helvetica-BoldOblique starnetISO def
/Courier starnetISO def
/Courier-Oblique starnetISO def
/Courier-Bold starnetISO def
/Courier-BoldOblique starnetISO def
cleartomark
} bind def

%%BeginResource: procset graphviz 0 0
/coord-font-family /Times-Roman def
/default-font-family /Times-Roman def
/coordfont coord-font-family findfont 8 scalefont def

/InvScaleFactor 1.0 def
/set_scale {
       dup 1 exch div /InvScaleFactor exch def
       scale
} bind def

% styles
/solid { [] 0 setdash } bind def
/dashed { [9 InvScaleFactor mul dup ] 0 setdash } bind def
/dotted { [1 InvScaleFactor mul 6 InvScaleFactor mul] 0 setdash } bind def
/invis {/fill {newpath} def /stroke {newpath} def /show {pop newpath} def} bind def
/bold { 2 setlinewidth } bind def
/filled { } bind def
/unfilled { } bind def
/rounded { } bind def
/diagonals { } bind def

% hooks for setting color 
/nodecolor { sethsbcolor } bind def
/edgecolor { sethsbcolor } bind def
/graphcolor { sethsbcolor } bind def
/nopcolor {pop pop pop} bind def

/beginpage {	% i j npages
	/npages exch def
	/j exch def
	/i exch def
	/str 10 string def
	npages 1 gt {
		gsave
			coordfont setfont
			0 0 moveto
			(\() show i str cvs show (,) show j str cvs show (\)) show
		grestore
	} if
} bind def

/set_font {
	findfont exch
	scalefont setfont
} def

% draw aligned label in bounding box aligned to current point
/alignedtext {			% width adj text
	/text exch def
	/adj exch def
	/width exch def
	gsave
		width 0 gt {
			text stringwidth pop adj mul 0 rmoveto
		} if
		[] 0 setdash
		text show
	grestore
} def

/boxprim {				% xcorner ycorner xsize ysize
		4 2 roll
		moveto
		2 copy
		exch 0 rlineto
		0 exch rlineto
		pop neg 0 rlineto
		closepath
} bind def

/ellipse_path {
	/ry exch def
	/rx exch def
	/y exch def
	/x exch def
	matrix currentmatrix
	newpath
	x y translate
	rx ry scale
	0 0 1 0 360 arc
	setmatrix
} bind def

/endpage { showpage } bind def
/showpage { } def

/layercolorseq
	[	% layer color sequence - darkest to lightest
		[0 0 0]
		[.2 .8 .8]
		[.4 .8 .8]
		[.6 .8 .8]
		[.8 .8 .8]
	]
def

/layerlen layercolorseq length def

/setlayer {/maxlayer exch def /curlayer exch def
	layercolorseq curlayer 1 sub layerlen mod get
	aload pop sethsbcolor
	/nodecolor {nopcolor} def
	/edgecolor {nopcolor} def
	/graphcolor {nopcolor} def
} bind def

/onlayer { curlayer ne {invis} if } def

/onlayers {
	/myupper exch def
	/mylower exch def
	curlayer mylower lt
	curlayer myupper gt
	or
	{invis} if
} def

/curlayer 0 def

%%EndResource
%%EndProlog
%%BeginSetup
14 default-font-family set_font
1 setmiterlimit
% /arrowlength 10 def
% /arrowwidth 5 def

% make sure pdfmark is harmless for PS-interpreters other than Distiller
/pdfmark where {pop} {userdict /pdfmark /cleartomark load put} ifelse
% make '<<' and '>>' safe on PS Level 1 devices
/languagelevel where {pop languagelevel}{1} ifelse
2 lt {
    userdict (<<) cvn ([) cvn load put
    userdict (>>) cvn ([) cvn load put
} if

%%EndSetup
setupLatin1
%%Page: 1 1
%%PageBoundingBox: 36 36 256 207
%%PageOrientation: Portrait
gsave
36 36 256 207 boxprim clip newpath
0 0 1 beginpage
1 1 set_scale 0 rotate 40 40 translate
% Node1
gsave
0.000 0.000 0.749 nodecolor
newpath 32 7 moveto
32 28 lineto
104 28 lineto
104 7 lineto
closepath fill
1 setlinewidth
filled
0.000 0.000 0.000 nodecolor
newpath 32 7 moveto
32 28 lineto
104 28 lineto
104 7 lineto
closepath stroke
0.000 0.000 0.000 nodecolor
10.00 /FreeSans.ttf set_font
68 14 moveto 56 -0.5 (NodoTrieS) alignedtext
grestore
% Node1->Node1
gsave
1 setlinewidth
dashed
0.776 0.753 0.804 edgecolor
newpath 93 31 moveto
108 35 122 30 122 18 curveto
122 4 102 0 85 7 curveto
stroke
0.776 0.753 0.804 edgecolor
newpath 93.584 27.5212 moveto
83 28 lineto
91.5725 34.2259 lineto
closepath fill
1 setlinewidth
solid
0.776 0.753 0.804 edgecolor
newpath 93.584 27.5212 moveto
83 28 lineto
91.5725 34.2259 lineto
closepath stroke
0.000 0.000 0.000 edgecolor
10.00 /FreeSans.ttf set_font
167 21 moveto 90 -0.5 (hermano_mayor) alignedtext
0.000 0.000 0.000 edgecolor
10.00 /FreeSans.ttf set_font
167 8 moveto 61 -0.5 (hijo_menor) alignedtext
grestore
% Node2
gsave
1 setlinewidth
0.000 0.000 0.749 nodecolor
newpath 0 81 moveto
0 102 lineto
74 102 lineto
74 81 lineto
closepath stroke
0.000 0.000 0.000 nodecolor
10.00 /FreeSans.ttf set_font
37 88 moveto 58 -0.5 (set< Pos >) alignedtext
grestore
% Node2->Node1
gsave
1 setlinewidth
dashed
0.776 0.753 0.804 edgecolor
newpath 43 71 moveto
46 64 50 56 53 49 curveto
56 42 60 34 63 28 curveto
stroke
0.776 0.753 0.804 edgecolor
newpath 39.5212 70.416 moveto
40 81 lineto
46.2259 72.4275 lineto
closepath fill
1 setlinewidth
solid
0.776 0.753 0.804 edgecolor
newpath 39.5212 70.416 moveto
40 81 lineto
46.2259 72.4275 lineto
closepath stroke
0.000 0.000 0.000 edgecolor
10.00 /FreeSans.ttf set_font
65 53 moveto 25 -0.5 (cpos) alignedtext
grestore
% Node3
gsave
1 setlinewidth
0.000 0.000 0.749 nodecolor
newpath 92 81 moveto
92 102 lineto
138 102 lineto
138 81 lineto
closepath stroke
0.000 0.000 0.000 nodecolor
10.00 /FreeSans.ttf set_font
115 88 moveto 30 -0.5 (string) alignedtext
grestore
% Node3->Node1
gsave
1 setlinewidth
dashed
0.776 0.753 0.804 edgecolor
newpath 103 73 moveto
94 58 82 39 75 28 curveto
stroke
0.776 0.753 0.804 edgecolor
newpath 99.732 74.375 moveto
108 81 lineto
105.668 70.665 lineto
closepath fill
1 setlinewidth
solid
0.776 0.753 0.804 edgecolor
newpath 99.732 74.375 moveto
108 81 lineto
105.668 70.665 lineto
closepath stroke
0.000 0.000 0.000 edgecolor
10.00 /FreeSans.ttf set_font
106 53 moveto 20 -0.5 (cad) alignedtext
grestore
% Node4
gsave
1 setlinewidth
0.000 0.000 0.749 nodecolor
newpath 52 141 moveto
52 162 lineto
179 162 lineto
179 141 lineto
closepath stroke
0.000 0.000 0.000 nodecolor
10.00 /FreeSans.ttf set_font
115 148 moveto 111 -0.5 (basic_string< char >) alignedtext
grestore
% Node4->Node3
gsave
1 setlinewidth
solid
0.667 0.776 0.439 edgecolor
newpath 115 131 moveto
115 121 115 110 115 102 curveto
stroke
0.667 0.776 0.439 edgecolor
newpath 111.5 131 moveto
115 141 lineto
118.5 131 lineto
closepath fill
1 setlinewidth
solid
0.667 0.776 0.439 edgecolor
newpath 111.5 131 moveto
115 141 lineto
118.5 131 lineto
closepath stroke
grestore
endpage
showpage
grestore
%%PageTrailer
%%EndPage: 1
%%Trailer
%%Pages: 1
%%BoundingBox: 36 36 256 207
end
restore
%%EOF
