%!PS-Adobe-2.0
%%Creator: Graphviz version 2.12 (Mon Nov 16 18:34:03 UTC 2009)
%%For: (vtamara) Vladimir
%%Title: G
%%Pages: (atend)
%%BoundingBox: (atend)
%%EndComments
save
%%BeginProlog
/DotDict 200 dict def
DotDict begin

/setupLatin1 {
mark
/EncodingVector 256 array def
 EncodingVector 0

ISOLatin1Encoding 0 255 getinterval putinterval
EncodingVector 45 /hyphen put

% Set up ISO Latin 1 character encoding
/starnetISO {
        dup dup findfont dup length dict begin
        { 1 index /FID ne { def }{ pop pop } ifelse
        } forall
        /Encoding EncodingVector def
        currentdict end definefont
} def
/Times-Roman starnetISO def
/Times-Italic starnetISO def
/Times-Bold starnetISO def
/Times-BoldItalic starnetISO def
/Helvetica starnetISO def
/Helvetica-Oblique starnetISO def
/Helvetica-Bold starnetISO def
/Helvetica-BoldOblique starnetISO def
/Courier starnetISO def
/Courier-Oblique starnetISO def
/Courier-Bold starnetISO def
/Courier-BoldOblique starnetISO def
cleartomark
} bind def

%%BeginResource: procset graphviz 0 0
/coord-font-family /Times-Roman def
/default-font-family /Times-Roman def
/coordfont coord-font-family findfont 8 scalefont def

/InvScaleFactor 1.0 def
/set_scale {
       dup 1 exch div /InvScaleFactor exch def
       scale
} bind def

% styles
/solid { [] 0 setdash } bind def
/dashed { [9 InvScaleFactor mul dup ] 0 setdash } bind def
/dotted { [1 InvScaleFactor mul 6 InvScaleFactor mul] 0 setdash } bind def
/invis {/fill {newpath} def /stroke {newpath} def /show {pop newpath} def} bind def
/bold { 2 setlinewidth } bind def
/filled { } bind def
/unfilled { } bind def
/rounded { } bind def
/diagonals { } bind def

% hooks for setting color 
/nodecolor { sethsbcolor } bind def
/edgecolor { sethsbcolor } bind def
/graphcolor { sethsbcolor } bind def
/nopcolor {pop pop pop} bind def

/beginpage {	% i j npages
	/npages exch def
	/j exch def
	/i exch def
	/str 10 string def
	npages 1 gt {
		gsave
			coordfont setfont
			0 0 moveto
			(\() show i str cvs show (,) show j str cvs show (\)) show
		grestore
	} if
} bind def

/set_font {
	findfont exch
	scalefont setfont
} def

% draw aligned label in bounding box aligned to current point
/alignedtext {			% width adj text
	/text exch def
	/adj exch def
	/width exch def
	gsave
		width 0 gt {
			text stringwidth pop adj mul 0 rmoveto
		} if
		[] 0 setdash
		text show
	grestore
} def

/boxprim {				% xcorner ycorner xsize ysize
		4 2 roll
		moveto
		2 copy
		exch 0 rlineto
		0 exch rlineto
		pop neg 0 rlineto
		closepath
} bind def

/ellipse_path {
	/ry exch def
	/rx exch def
	/y exch def
	/x exch def
	matrix currentmatrix
	newpath
	x y translate
	rx ry scale
	0 0 1 0 360 arc
	setmatrix
} bind def

/endpage { showpage } bind def
/showpage { } def

/layercolorseq
	[	% layer color sequence - darkest to lightest
		[0 0 0]
		[.2 .8 .8]
		[.4 .8 .8]
		[.6 .8 .8]
		[.8 .8 .8]
	]
def

/layerlen layercolorseq length def

/setlayer {/maxlayer exch def /curlayer exch def
	layercolorseq curlayer 1 sub layerlen mod get
	aload pop sethsbcolor
	/nodecolor {nopcolor} def
	/edgecolor {nopcolor} def
	/graphcolor {nopcolor} def
} bind def

/onlayer { curlayer ne {invis} if } def

/onlayers {
	/myupper exch def
	/mylower exch def
	curlayer mylower lt
	curlayer myupper gt
	or
	{invis} if
} def

/curlayer 0 def

%%EndResource
%%EndProlog
%%BeginSetup
14 default-font-family set_font
1 setmiterlimit
% /arrowlength 10 def
% /arrowwidth 5 def

% make sure pdfmark is harmless for PS-interpreters other than Distiller
/pdfmark where {pop} {userdict /pdfmark /cleartomark load put} ifelse
% make '<<' and '>>' safe on PS Level 1 devices
/languagelevel where {pop languagelevel}{1} ifelse
2 lt {
    userdict (<<) cvn ([) cvn load put
    userdict (>>) cvn ([) cvn load put
} if

%%EndSetup
setupLatin1
%%Page: 1 1
%%PageBoundingBox: 36 36 956 182
%%PageOrientation: Portrait
gsave
36 36 956 182 boxprim clip newpath
0 0 1 beginpage
1 1 set_scale 0 rotate 40 40 translate
% Node1
gsave
0.000 0.000 0.749 nodecolor
newpath 391 116 moveto
391 137 lineto
468 137 lineto
468 116 lineto
closepath fill
1 setlinewidth
filled
0.000 0.000 0.000 nodecolor
newpath 391 116 moveto
391 137 lineto
468 137 lineto
468 116 lineto
closepath stroke
0.000 0.000 0.000 nodecolor
10.00 /FreeSans.ttf set_font
429 123 moveto 61 -0.5 (comun.cpp) alignedtext
grestore
% Node2
gsave
1 setlinewidth
0.000 0.000 0.749 nodecolor
newpath 0 0 moveto
0 21 lineto
32 21 lineto
32 0 lineto
closepath stroke
0.000 0.000 0.000 nodecolor
10.00 /FreeSans.ttf set_font
16 7 moveto 16 -0.5 (set) alignedtext
grestore
% Node1->Node2
gsave
1 setlinewidth
solid
0.667 0.776 0.439 edgecolor
newpath 391 125 moveto
311 121 127 109 74 80 curveto
52 68 36 46 26 30 curveto
stroke
0.667 0.776 0.439 edgecolor
newpath 28.916 28.0418 moveto
21 21 lineto
22.7969 31.4414 lineto
closepath fill
1 setlinewidth
solid
0.667 0.776 0.439 edgecolor
newpath 28.916 28.0418 moveto
21 21 lineto
22.7969 31.4414 lineto
closepath stroke
grestore
% Node3
gsave
1 setlinewidth
0.000 0.000 0.749 nodecolor
newpath 196 58 moveto
196 79 lineto
260 79 lineto
260 58 lineto
closepath stroke
0.000 0.000 0.000 nodecolor
10.00 /FreeSans.ttf set_font
228 65 moveto 48 -0.5 (iostream) alignedtext
grestore
% Node1->Node3
gsave
1 setlinewidth
solid
0.667 0.776 0.439 edgecolor
newpath 391 116 moveto
356 106 306 91 270 81 curveto
stroke
0.667 0.776 0.439 edgecolor
newpath 270.584 77.5212 moveto
260 78 lineto
268.573 84.2259 lineto
closepath fill
1 setlinewidth
solid
0.667 0.776 0.439 edgecolor
newpath 270.584 77.5212 moveto
260 78 lineto
268.573 84.2259 lineto
closepath stroke
grestore
% Node4
gsave
1 setlinewidth
0.000 0.000 0.749 nodecolor
newpath 278 58 moveto
278 79 lineto
339 79 lineto
339 58 lineto
closepath stroke
0.000 0.000 0.000 nodecolor
10.00 /FreeSans.ttf set_font
308 65 moveto 45 -0.5 (iomanip) alignedtext
grestore
% Node1->Node4
gsave
1 setlinewidth
solid
0.667 0.776 0.439 edgecolor
newpath 406 116 moveto
387 107 359 93 338 83 curveto
stroke
0.667 0.776 0.439 edgecolor
newpath 339.56 79.8631 moveto
329 79 lineto
336.717 86.2598 lineto
closepath fill
1 setlinewidth
solid
0.667 0.776 0.439 edgecolor
newpath 339.56 79.8631 moveto
329 79 lineto
336.717 86.2598 lineto
closepath stroke
grestore
% Node5
gsave
1 setlinewidth
0.000 0.000 0.749 nodecolor
newpath 356 58 moveto
356 79 lineto
387 79 lineto
387 58 lineto
closepath stroke
0.000 0.000 0.000 nodecolor
10.00 /FreeSans.ttf set_font
371 65 moveto 15 -0.5 (list) alignedtext
grestore
% Node1->Node5
gsave
1 setlinewidth
solid
0.667 0.776 0.439 edgecolor
newpath 418 116 moveto
409 107 398 96 388 86 curveto
stroke
0.667 0.776 0.439 edgecolor
newpath 390.546 83.5962 moveto
381 79 lineto
385.596 88.546 lineto
closepath fill
1 setlinewidth
solid
0.667 0.776 0.439 edgecolor
newpath 390.546 83.5962 moveto
381 79 lineto
385.596 88.546 lineto
closepath stroke
grestore
% Node6
gsave
1 setlinewidth
0.000 0.000 0.749 nodecolor
newpath 404 58 moveto
404 79 lineto
454 79 lineto
454 58 lineto
closepath stroke
0.000 0.000 0.000 nodecolor
10.00 /FreeSans.ttf set_font
429 65 moveto 34 -0.5 (vector) alignedtext
grestore
% Node1->Node6
gsave
1 setlinewidth
solid
0.667 0.776 0.439 edgecolor
newpath 429 116 moveto
429 108 429 98 429 89 curveto
stroke
0.667 0.776 0.439 edgecolor
newpath 432.5 89 moveto
429 79 lineto
425.5 89 lineto
closepath fill
1 setlinewidth
solid
0.667 0.776 0.439 edgecolor
newpath 432.5 89 moveto
429 79 lineto
425.5 89 lineto
closepath stroke
grestore
% Node7
gsave
1 setlinewidth
0.000 0.000 0.749 nodecolor
newpath 472 58 moveto
472 79 lineto
530 79 lineto
530 58 lineto
closepath stroke
0.000 0.000 0.000 nodecolor
10.00 /FreeSans.ttf set_font
501 65 moveto 42 -0.5 (fstream) alignedtext
grestore
% Node1->Node7
gsave
1 setlinewidth
solid
0.667 0.776 0.439 edgecolor
newpath 443 116 moveto
454 107 469 95 481 85 curveto
stroke
0.667 0.776 0.439 edgecolor
newpath 483.1 87.8 moveto
489 79 lineto
478.9 82.2 lineto
closepath fill
1 setlinewidth
solid
0.667 0.776 0.439 edgecolor
newpath 483.1 87.8 moveto
489 79 lineto
478.9 82.2 lineto
closepath stroke
grestore
% Node8
gsave
1 setlinewidth
0.000 0.000 0.749 nodecolor
newpath 548 58 moveto
548 79 lineto
605 79 lineto
605 58 lineto
closepath stroke
0.000 0.000 0.000 nodecolor
10.00 /FreeSans.ttf set_font
576 65 moveto 41 -0.5 (istream) alignedtext
grestore
% Node1->Node8
gsave
1 setlinewidth
solid
0.667 0.776 0.439 edgecolor
newpath 457 116 moveto
481 106 516 93 542 83 curveto
stroke
0.667 0.776 0.439 edgecolor
newpath 543.283 86.2598 moveto
551 79 lineto
540.44 79.8631 lineto
closepath fill
1 setlinewidth
solid
0.667 0.776 0.439 edgecolor
newpath 543.283 86.2598 moveto
551 79 lineto
540.44 79.8631 lineto
closepath stroke
grestore
% Node9
gsave
1 setlinewidth
0.000 0.000 0.749 nodecolor
newpath 50 0 moveto
50 21 lineto
109 21 lineto
109 0 lineto
closepath stroke
0.000 0.000 0.000 nodecolor
10.00 /FreeSans.ttf set_font
79 7 moveto 43 -0.5 (sstream) alignedtext
grestore
% Node1->Node9
gsave
1 setlinewidth
solid
0.667 0.776 0.439 edgecolor
newpath 391 124 moveto
307 118 112 100 91 80 curveto
78 67 76 46 76 31 curveto
stroke
0.667 0.776 0.439 edgecolor
newpath 79.4875 31.2987 moveto
77 21 lineto
72.5222 30.6021 lineto
closepath fill
1 setlinewidth
solid
0.667 0.776 0.439 edgecolor
newpath 79.4875 31.2987 moveto
77 21 lineto
72.5222 30.6021 lineto
closepath stroke
grestore
% Node10
gsave
1 setlinewidth
0.000 0.000 0.749 nodecolor
newpath 622 58 moveto
622 79 lineto
696 79 lineto
696 58 lineto
closepath stroke
0.000 0.000 0.000 nodecolor
10.00 /FreeSans.ttf set_font
659 65 moveto 58 -0.5 (sys/types.h) alignedtext
grestore
% Node1->Node10
gsave
1 setlinewidth
solid
0.667 0.776 0.439 edgecolor
newpath 468 117 moveto
508 108 570 92 612 81 curveto
stroke
0.667 0.776 0.439 edgecolor
newpath 613.427 84.2259 moveto
622 78 lineto
611.416 77.5212 lineto
closepath fill
1 setlinewidth
solid
0.667 0.776 0.439 edgecolor
newpath 613.427 84.2259 moveto
622 78 lineto
611.416 77.5212 lineto
closepath stroke
grestore
% Node11
gsave
1 setlinewidth
0.000 0.000 0.749 nodecolor
newpath 714 58 moveto
714 79 lineto
779 79 lineto
779 58 lineto
closepath stroke
0.000 0.000 0.000 nodecolor
10.00 /FreeSans.ttf set_font
746 65 moveto 49 -0.5 (sys/stat.h) alignedtext
grestore
% Node1->Node11
gsave
1 setlinewidth
solid
0.667 0.776 0.439 edgecolor
newpath 468 121 moveto
520 113 614 99 704 80 curveto
stroke
0.667 0.776 0.439 edgecolor
newpath 704.881 83.3933 moveto
714 78 lineto
703.508 76.5292 lineto
closepath fill
1 setlinewidth
solid
0.667 0.776 0.439 edgecolor
newpath 704.881 83.3933 moveto
714 78 lineto
703.508 76.5292 lineto
closepath stroke
grestore
% Node12
gsave
1 setlinewidth
0.000 0.000 0.749 nodecolor
newpath 796 58 moveto
796 79 lineto
855 79 lineto
855 58 lineto
closepath stroke
0.000 0.000 0.000 nodecolor
10.00 /FreeSans.ttf set_font
825 65 moveto 43 -0.5 (unistd.h) alignedtext
grestore
% Node1->Node12
gsave
1 setlinewidth
solid
0.667 0.776 0.439 edgecolor
newpath 468 124 moveto
532 118 665 104 786 80 curveto
stroke
0.667 0.776 0.439 edgecolor
newpath 786.881 83.3933 moveto
796 78 lineto
785.508 76.5292 lineto
closepath fill
1 setlinewidth
solid
0.667 0.776 0.439 edgecolor
newpath 786.881 83.3933 moveto
796 78 lineto
785.508 76.5292 lineto
closepath stroke
grestore
% Node13
gsave
1 setlinewidth
0.000 0.000 0.749 nodecolor
newpath 872 58 moveto
872 79 lineto
913 79 lineto
913 58 lineto
closepath stroke
0.000 0.000 0.000 nodecolor
10.00 /FreeSans.ttf set_font
892 65 moveto 25 -0.5 (err.h) alignedtext
grestore
% Node1->Node13
gsave
1 setlinewidth
solid
0.667 0.776 0.439 edgecolor
newpath 468 126 moveto
543 123 713 114 862 79 curveto
stroke
0.667 0.776 0.439 edgecolor
newpath 862.881 82.3933 moveto
872 77 lineto
861.508 75.5292 lineto
closepath fill
1 setlinewidth
solid
0.667 0.776 0.439 edgecolor
newpath 862.881 82.3933 moveto
872 77 lineto
861.508 75.5292 lineto
closepath stroke
grestore
% Node14
gsave
[ /Rect [ 100 59 178 79 ]
  /Border [ 0 0 0 ]
  /Action << /Subtype /URI /URI ($comun_8hpp.html) >>
  /Subtype /Link
/ANN pdfmark
[ /Rect [ 100 59 178 79 ]
  /Border [ 0 0 0 ]
  /Action << /Subtype /URI /URI ($comun_8hpp.html) >>
  /Subtype /Link
/ANN pdfmark
1 setlinewidth
0.000 0.000 0.000 nodecolor
newpath 100 58 moveto
100 79 lineto
178 79 lineto
178 58 lineto
closepath stroke
0.000 0.000 0.000 nodecolor
10.00 /FreeSans.ttf set_font
139 65 moveto 62 -0.5 (comun.hpp) alignedtext
grestore
% Node1->Node14
gsave
1 setlinewidth
solid
0.667 0.776 0.439 edgecolor
newpath 391 120 moveto
345 111 266 96 188 80 curveto
stroke
0.667 0.776 0.439 edgecolor
newpath 188.492 76.5292 moveto
178 78 lineto
187.119 83.3933 lineto
closepath fill
1 setlinewidth
solid
0.667 0.776 0.439 edgecolor
newpath 188.492 76.5292 moveto
178 78 lineto
187.119 83.3933 lineto
closepath stroke
grestore
% Node14->Node2
gsave
1 setlinewidth
solid
0.667 0.776 0.439 edgecolor
newpath 116 58 moveto
94 48 63 33 41 23 curveto
stroke
0.667 0.776 0.439 edgecolor
newpath 42.5596 19.8631 moveto
32 19 lineto
39.7166 26.2598 lineto
closepath fill
1 setlinewidth
solid
0.667 0.776 0.439 edgecolor
newpath 42.5596 19.8631 moveto
32 19 lineto
39.7166 26.2598 lineto
closepath stroke
grestore
% Node14->Node9
gsave
1 setlinewidth
solid
0.667 0.776 0.439 edgecolor
newpath 127 58 moveto
118 49 107 38 97 28 curveto
stroke
0.667 0.776 0.439 edgecolor
newpath 98.8306 24.9511 moveto
89 21 lineto
94.221 30.2191 lineto
closepath fill
1 setlinewidth
solid
0.667 0.776 0.439 edgecolor
newpath 98.8306 24.9511 moveto
89 21 lineto
94.221 30.2191 lineto
closepath stroke
grestore
% Node15
gsave
1 setlinewidth
0.000 0.000 0.749 nodecolor
newpath 126 0 moveto
126 21 lineto
172 21 lineto
172 0 lineto
closepath stroke
0.000 0.000 0.000 nodecolor
10.00 /FreeSans.ttf set_font
149 7 moveto 30 -0.5 (string) alignedtext
grestore
% Node14->Node15
gsave
1 setlinewidth
solid
0.667 0.776 0.439 edgecolor
newpath 141 58 moveto
142 50 144 40 146 31 curveto
stroke
0.667 0.776 0.439 edgecolor
newpath 149.488 31.2987 moveto
147 21 lineto
142.522 30.6021 lineto
closepath fill
1 setlinewidth
solid
0.667 0.776 0.439 edgecolor
newpath 149.488 31.2987 moveto
147 21 lineto
142.522 30.6021 lineto
closepath stroke
grestore
% Node16
gsave
1 setlinewidth
0.000 0.000 0.749 nodecolor
newpath 190 0 moveto
190 21 lineto
251 21 lineto
251 0 lineto
closepath stroke
0.000 0.000 0.000 nodecolor
10.00 /FreeSans.ttf set_font
220 7 moveto 45 -0.5 (ostream) alignedtext
grestore
% Node14->Node16
gsave
1 setlinewidth
solid
0.667 0.776 0.439 edgecolor
newpath 155 58 moveto
167 49 184 37 198 27 curveto
stroke
0.667 0.776 0.439 edgecolor
newpath 200.1 29.8 moveto
206 21 lineto
195.9 24.2 lineto
closepath fill
1 setlinewidth
solid
0.667 0.776 0.439 edgecolor
newpath 200.1 29.8 moveto
206 21 lineto
195.9 24.2 lineto
closepath stroke
grestore
endpage
showpage
grestore
%%PageTrailer
%%EndPage: 1
%%Trailer
%%Pages: 1
%%BoundingBox: 36 36 956 182
end
restore
%%EOF
