%!PS-Adobe-2.0
%%Creator: Graphviz version 2.12 (Mon Nov 16 18:34:03 UTC 2009)
%%For: (vtamara) Vladimir
%%Title: G
%%Pages: (atend)
%%BoundingBox: (atend)
%%EndComments
save
%%BeginProlog
/DotDict 200 dict def
DotDict begin

/setupLatin1 {
mark
/EncodingVector 256 array def
 EncodingVector 0

ISOLatin1Encoding 0 255 getinterval putinterval
EncodingVector 45 /hyphen put

% Set up ISO Latin 1 character encoding
/starnetISO {
        dup dup findfont dup length dict begin
        { 1 index /FID ne { def }{ pop pop } ifelse
        } forall
        /Encoding EncodingVector def
        currentdict end definefont
} def
/Times-Roman starnetISO def
/Times-Italic starnetISO def
/Times-Bold starnetISO def
/Times-BoldItalic starnetISO def
/Helvetica starnetISO def
/Helvetica-Oblique starnetISO def
/Helvetica-Bold starnetISO def
/Helvetica-BoldOblique starnetISO def
/Courier starnetISO def
/Courier-Oblique starnetISO def
/Courier-Bold starnetISO def
/Courier-BoldOblique starnetISO def
cleartomark
} bind def

%%BeginResource: procset graphviz 0 0
/coord-font-family /Times-Roman def
/default-font-family /Times-Roman def
/coordfont coord-font-family findfont 8 scalefont def

/InvScaleFactor 1.0 def
/set_scale {
       dup 1 exch div /InvScaleFactor exch def
       scale
} bind def

% styles
/solid { [] 0 setdash } bind def
/dashed { [9 InvScaleFactor mul dup ] 0 setdash } bind def
/dotted { [1 InvScaleFactor mul 6 InvScaleFactor mul] 0 setdash } bind def
/invis {/fill {newpath} def /stroke {newpath} def /show {pop newpath} def} bind def
/bold { 2 setlinewidth } bind def
/filled { } bind def
/unfilled { } bind def
/rounded { } bind def
/diagonals { } bind def

% hooks for setting color 
/nodecolor { sethsbcolor } bind def
/edgecolor { sethsbcolor } bind def
/graphcolor { sethsbcolor } bind def
/nopcolor {pop pop pop} bind def

/beginpage {	% i j npages
	/npages exch def
	/j exch def
	/i exch def
	/str 10 string def
	npages 1 gt {
		gsave
			coordfont setfont
			0 0 moveto
			(\() show i str cvs show (,) show j str cvs show (\)) show
		grestore
	} if
} bind def

/set_font {
	findfont exch
	scalefont setfont
} def

% draw aligned label in bounding box aligned to current point
/alignedtext {			% width adj text
	/text exch def
	/adj exch def
	/width exch def
	gsave
		width 0 gt {
			text stringwidth pop adj mul 0 rmoveto
		} if
		[] 0 setdash
		text show
	grestore
} def

/boxprim {				% xcorner ycorner xsize ysize
		4 2 roll
		moveto
		2 copy
		exch 0 rlineto
		0 exch rlineto
		pop neg 0 rlineto
		closepath
} bind def

/ellipse_path {
	/ry exch def
	/rx exch def
	/y exch def
	/x exch def
	matrix currentmatrix
	newpath
	x y translate
	rx ry scale
	0 0 1 0 360 arc
	setmatrix
} bind def

/endpage { showpage } bind def
/showpage { } def

/layercolorseq
	[	% layer color sequence - darkest to lightest
		[0 0 0]
		[.2 .8 .8]
		[.4 .8 .8]
		[.6 .8 .8]
		[.8 .8 .8]
	]
def

/layerlen layercolorseq length def

/setlayer {/maxlayer exch def /curlayer exch def
	layercolorseq curlayer 1 sub layerlen mod get
	aload pop sethsbcolor
	/nodecolor {nopcolor} def
	/edgecolor {nopcolor} def
	/graphcolor {nopcolor} def
} bind def

/onlayer { curlayer ne {invis} if } def

/onlayers {
	/myupper exch def
	/mylower exch def
	curlayer mylower lt
	curlayer myupper gt
	or
	{invis} if
} def

/curlayer 0 def

%%EndResource
%%EndProlog
%%BeginSetup
14 default-font-family set_font
1 setmiterlimit
% /arrowlength 10 def
% /arrowwidth 5 def

% make sure pdfmark is harmless for PS-interpreters other than Distiller
/pdfmark where {pop} {userdict /pdfmark /cleartomark load put} ifelse
% make '<<' and '>>' safe on PS Level 1 devices
/languagelevel where {pop languagelevel}{1} ifelse
2 lt {
    userdict (<<) cvn ([) cvn load put
    userdict (>>) cvn ([) cvn load put
} if

%%EndSetup
setupLatin1
%%Page: 1 1
%%PageBoundingBox: 36 36 1862 414
%%PageOrientation: Portrait
gsave
36 36 1862 414 boxprim clip newpath
0 0 1 beginpage
1 1 set_scale 0 rotate 40 40 translate
% Node1
gsave
0.000 0.000 0.749 nodecolor
newpath 1267 348 moveto
1267 369 lineto
1345 369 lineto
1345 348 lineto
closepath fill
1 setlinewidth
filled
0.000 0.000 0.000 nodecolor
newpath 1267 348 moveto
1267 369 lineto
1345 369 lineto
1345 348 lineto
closepath stroke
0.000 0.000 0.000 nodecolor
10.00 /FreeSans.ttf set_font
1306 355 moveto 62 -0.5 (comun.hpp) alignedtext
grestore
% Node2
gsave
[ /Rect [ 989 291 1047 311 ]
  /Border [ 0 0 0 ]
  /Action << /Subtype /URI /URI ($Pos_8hpp.html) >>
  /Subtype /Link
/ANN pdfmark
[ /Rect [ 989 291 1047 311 ]
  /Border [ 0 0 0 ]
  /Action << /Subtype /URI /URI ($Pos_8hpp.html) >>
  /Subtype /Link
/ANN pdfmark
1 setlinewidth
0.000 0.000 0.000 nodecolor
newpath 989 290 moveto
989 311 lineto
1047 311 lineto
1047 290 lineto
closepath stroke
0.000 0.000 0.000 nodecolor
10.00 /FreeSans.ttf set_font
1018 297 moveto 42 -0.5 (Pos.hpp) alignedtext
grestore
% Node1->Node2
gsave
1 setlinewidth
solid
0.667 0.776 0.439 edgecolor
newpath 1257 349 moveto
1196 337 1096 316 1047 307 curveto
stroke
0.667 0.776 0.439 edgecolor
newpath 1256.51 352.471 moveto
1267 351 lineto
1257.88 345.607 lineto
closepath fill
1 setlinewidth
solid
0.667 0.776 0.439 edgecolor
newpath 1256.51 352.471 moveto
1267 351 lineto
1257.88 345.607 lineto
closepath stroke
grestore
% Node7
gsave
[ /Rect [ 1182 117 1276 137 ]
  /Border [ 0 0 0 ]
  /Action << /Subtype /URI /URI ($RamDisco_8hpp.html) >>
  /Subtype /Link
/ANN pdfmark
[ /Rect [ 1182 117 1276 137 ]
  /Border [ 0 0 0 ]
  /Action << /Subtype /URI /URI ($RamDisco_8hpp.html) >>
  /Subtype /Link
/ANN pdfmark
1 setlinewidth
0.000 0.000 0.000 nodecolor
newpath 1182 116 moveto
1182 137 lineto
1276 137 lineto
1276 116 lineto
closepath stroke
0.000 0.000 0.000 nodecolor
10.00 /FreeSans.ttf set_font
1229 123 moveto 78 -0.5 (RamDisco.hpp) alignedtext
grestore
% Node1->Node7
gsave
1 setlinewidth
solid
0.667 0.776 0.439 edgecolor
newpath 1355 349 moveto
1404 336 1478 309 1514 254 curveto
1532 223 1538 201 1515 174 curveto
1500 156 1353 139 1276 131 curveto
stroke
0.667 0.776 0.439 edgecolor
newpath 1353.57 345.774 moveto
1345 352 lineto
1355.58 352.479 lineto
closepath fill
1 setlinewidth
solid
0.667 0.776 0.439 edgecolor
newpath 1353.57 345.774 moveto
1345 352 lineto
1355.58 352.479 lineto
closepath stroke
grestore
% Node18
gsave
[ /Rect [ 209 117 289 137 ]
  /Border [ 0 0 0 ]
  /Action << /Subtype /URI /URI ($leeODT_8cpp.html) >>
  /Subtype /Link
/ANN pdfmark
[ /Rect [ 209 117 289 137 ]
  /Border [ 0 0 0 ]
  /Action << /Subtype /URI /URI ($leeODT_8cpp.html) >>
  /Subtype /Link
/ANN pdfmark
1 setlinewidth
0.000 0.000 0.000 nodecolor
newpath 209 116 moveto
209 137 lineto
289 137 lineto
289 116 lineto
closepath stroke
0.000 0.000 0.000 nodecolor
10.00 /FreeSans.ttf set_font
249 123 moveto 64 -0.5 (leeODT.cpp) alignedtext
grestore
% Node1->Node18
gsave
1 setlinewidth
solid
0.667 0.776 0.439 edgecolor
newpath 1257 355 moveto
1050 341 266 281 199 196 curveto
183 175 212 151 232 137 curveto
stroke
0.667 0.776 0.439 edgecolor
newpath 1256.7 358.488 moveto
1267 356 lineto
1257.4 351.522 lineto
closepath fill
1 setlinewidth
solid
0.667 0.776 0.439 edgecolor
newpath 1256.7 358.488 moveto
1267 356 lineto
1257.4 351.522 lineto
closepath stroke
grestore
% Node22
gsave
[ /Rect [ 0 175 76 195 ]
  /Border [ 0 0 0 ]
  /Action << /Subtype /URI /URI ($leePDF_8hpp.html) >>
  /Subtype /Link
/ANN pdfmark
[ /Rect [ 0 175 76 195 ]
  /Border [ 0 0 0 ]
  /Action << /Subtype /URI /URI ($leePDF_8hpp.html) >>
  /Subtype /Link
/ANN pdfmark
1 setlinewidth
0.000 0.000 0.000 nodecolor
newpath 0 174 moveto
0 195 lineto
76 195 lineto
76 174 lineto
closepath stroke
0.000 0.000 0.000 nodecolor
10.00 /FreeSans.ttf set_font
38 181 moveto 60 -0.5 (leePDF.hpp) alignedtext
grestore
% Node1->Node22
gsave
1 setlinewidth
solid
0.667 0.776 0.439 edgecolor
newpath 1257 358 moveto
1040 355 178 340 128 312 curveto
80 286 51 221 42 195 curveto
stroke
0.667 0.776 0.439 edgecolor
newpath 1257 361.5 moveto
1267 358 lineto
1257 354.5 lineto
closepath fill
1 setlinewidth
solid
0.667 0.776 0.439 edgecolor
newpath 1257 361.5 moveto
1267 358 lineto
1257 354.5 lineto
closepath stroke
grestore
% Node27
gsave
[ /Rect [ 1173 233 1229 253 ]
  /Border [ 0 0 0 ]
  /Action << /Subtype /URI /URI ($Pos_8cpp.html) >>
  /Subtype /Link
/ANN pdfmark
[ /Rect [ 1173 233 1229 253 ]
  /Border [ 0 0 0 ]
  /Action << /Subtype /URI /URI ($Pos_8cpp.html) >>
  /Subtype /Link
/ANN pdfmark
1 setlinewidth
0.000 0.000 0.000 nodecolor
newpath 1173 232 moveto
1173 253 lineto
1230 253 lineto
1230 232 lineto
closepath stroke
0.000 0.000 0.000 nodecolor
10.00 /FreeSans.ttf set_font
1201 239 moveto 41 -0.5 (Pos.cpp) alignedtext
grestore
% Node1->Node27
gsave
1 setlinewidth
solid
0.667 0.776 0.439 edgecolor
newpath 1289 340 moveto
1267 316 1228 273 1210 253 curveto
stroke
0.667 0.776 0.439 edgecolor
newpath 1286.78 342.779 moveto
1296 348 lineto
1292.05 338.169 lineto
closepath fill
1 setlinewidth
solid
0.667 0.776 0.439 edgecolor
newpath 1286.78 342.779 moveto
1296 348 lineto
1292.05 338.169 lineto
closepath stroke
grestore
% Node29
gsave
[ /Rect [ 1305 291 1365 311 ]
  /Border [ 0 0 0 ]
  /Action << /Subtype /URI /URI ($Doc_8hpp.html) >>
  /Subtype /Link
/ANN pdfmark
[ /Rect [ 1305 291 1365 311 ]
  /Border [ 0 0 0 ]
  /Action << /Subtype /URI /URI ($Doc_8hpp.html) >>
  /Subtype /Link
/ANN pdfmark
1 setlinewidth
0.000 0.000 0.000 nodecolor
newpath 1305 290 moveto
1305 311 lineto
1366 311 lineto
1366 290 lineto
closepath stroke
0.000 0.000 0.000 nodecolor
10.00 /FreeSans.ttf set_font
1335 297 moveto 45 -0.5 (Doc.hpp) alignedtext
grestore
% Node1->Node29
gsave
1 setlinewidth
solid
0.667 0.776 0.439 edgecolor
newpath 1316 339 moveto
1321 329 1326 318 1330 311 curveto
stroke
0.667 0.776 0.439 edgecolor
newpath 1312.86 337.44 moveto
1312 348 lineto
1319.26 340.283 lineto
closepath fill
1 setlinewidth
solid
0.667 0.776 0.439 edgecolor
newpath 1312.86 337.44 moveto
1312 348 lineto
1319.26 340.283 lineto
closepath stroke
grestore
% Node30
gsave
[ /Rect [ 1247 233 1307 253 ]
  /Border [ 0 0 0 ]
  /Action << /Subtype /URI /URI ($Doc_8cpp.html) >>
  /Subtype /Link
/ANN pdfmark
[ /Rect [ 1247 233 1307 253 ]
  /Border [ 0 0 0 ]
  /Action << /Subtype /URI /URI ($Doc_8cpp.html) >>
  /Subtype /Link
/ANN pdfmark
1 setlinewidth
0.000 0.000 0.000 nodecolor
newpath 1247 232 moveto
1247 253 lineto
1307 253 lineto
1307 232 lineto
closepath stroke
0.000 0.000 0.000 nodecolor
10.00 /FreeSans.ttf set_font
1277 239 moveto 44 -0.5 (Doc.cpp) alignedtext
grestore
% Node1->Node30
gsave
1 setlinewidth
solid
0.667 0.776 0.439 edgecolor
newpath 1301 338 moveto
1295 313 1284 272 1280 253 curveto
stroke
0.667 0.776 0.439 edgecolor
newpath 1297.61 338.881 moveto
1303 348 lineto
1304.47 337.508 lineto
closepath fill
1 setlinewidth
solid
0.667 0.776 0.439 edgecolor
newpath 1297.61 338.881 moveto
1303 348 lineto
1304.47 337.508 lineto
closepath stroke
grestore
% Node33
gsave
[ /Rect [ 1502 291 1578 311 ]
  /Border [ 0 0 0 ]
  /Action << /Subtype /URI /URI ($comun_8cpp.html) >>
  /Subtype /Link
/ANN pdfmark
[ /Rect [ 1502 291 1578 311 ]
  /Border [ 0 0 0 ]
  /Action << /Subtype /URI /URI ($comun_8cpp.html) >>
  /Subtype /Link
/ANN pdfmark
1 setlinewidth
0.000 0.000 0.000 nodecolor
newpath 1502 290 moveto
1502 311 lineto
1579 311 lineto
1579 290 lineto
closepath stroke
0.000 0.000 0.000 nodecolor
10.00 /FreeSans.ttf set_font
1540 297 moveto 61 -0.5 (comun.cpp) alignedtext
grestore
% Node1->Node33
gsave
1 setlinewidth
solid
0.667 0.776 0.439 edgecolor
newpath 1355 347 moveto
1399 336 1462 320 1502 310 curveto
stroke
0.667 0.776 0.439 edgecolor
newpath 1354.12 343.607 moveto
1345 349 lineto
1355.49 350.471 lineto
closepath fill
1 setlinewidth
solid
0.667 0.776 0.439 edgecolor
newpath 1354.12 343.607 moveto
1345 349 lineto
1355.49 350.471 lineto
closepath stroke
grestore
% Node34
gsave
[ /Rect [ 1596 291 1738 311 ]
  /Border [ 0 0 0 ]
  /Action << /Subtype /URI /URI ($comunCasoPrueba_8cpp.html) >>
  /Subtype /Link
/ANN pdfmark
[ /Rect [ 1596 291 1738 311 ]
  /Border [ 0 0 0 ]
  /Action << /Subtype /URI /URI ($comunCasoPrueba_8cpp.html) >>
  /Subtype /Link
/ANN pdfmark
1 setlinewidth
0.000 0.000 0.000 nodecolor
newpath 1596 290 moveto
1596 311 lineto
1738 311 lineto
1738 290 lineto
closepath stroke
0.000 0.000 0.000 nodecolor
10.00 /FreeSans.ttf set_font
1667 297 moveto 126 -0.5 (comunCasoPrueba.cpp) alignedtext
grestore
% Node1->Node34
gsave
1 setlinewidth
solid
0.667 0.776 0.439 edgecolor
newpath 1355 351 moveto
1420 341 1535 322 1605 311 curveto
stroke
0.667 0.776 0.439 edgecolor
newpath 1354.12 347.607 moveto
1345 353 lineto
1355.49 354.471 lineto
closepath fill
1 setlinewidth
solid
0.667 0.776 0.439 edgecolor
newpath 1354.12 347.607 moveto
1345 353 lineto
1355.49 354.471 lineto
closepath stroke
grestore
% Node35
gsave
[ /Rect [ 1756 291 1818 311 ]
  /Border [ 0 0 0 ]
  /Action << /Subtype /URI /URI ($Elias_8cpp.html) >>
  /Subtype /Link
/ANN pdfmark
[ /Rect [ 1756 291 1818 311 ]
  /Border [ 0 0 0 ]
  /Action << /Subtype /URI /URI ($Elias_8cpp.html) >>
  /Subtype /Link
/ANN pdfmark
1 setlinewidth
0.000 0.000 0.000 nodecolor
newpath 1756 290 moveto
1756 311 lineto
1819 311 lineto
1819 290 lineto
closepath stroke
0.000 0.000 0.000 nodecolor
10.00 /FreeSans.ttf set_font
1787 297 moveto 47 -0.5 (Elias.cpp) alignedtext
grestore
% Node1->Node35
gsave
1 setlinewidth
solid
0.667 0.776 0.439 edgecolor
newpath 1355 356 moveto
1437 351 1606 338 1747 312 curveto
1750 311 1753 311 1756 310 curveto
stroke
0.667 0.776 0.439 edgecolor
newpath 1354.6 352.522 moveto
1345 357 lineto
1355.3 359.488 lineto
closepath fill
1 setlinewidth
solid
0.667 0.776 0.439 edgecolor
newpath 1354.6 352.522 moveto
1345 357 lineto
1355.3 359.488 lineto
closepath stroke
grestore
% Node3
gsave
[ /Rect [ 798 117 886 137 ]
  /Border [ 0 0 0 ]
  /Action << /Subtype /URI /URI ($buscador_8cpp.html) >>
  /Subtype /Link
/ANN pdfmark
[ /Rect [ 798 117 886 137 ]
  /Border [ 0 0 0 ]
  /Action << /Subtype /URI /URI ($buscador_8cpp.html) >>
  /Subtype /Link
/ANN pdfmark
1 setlinewidth
0.000 0.000 0.000 nodecolor
newpath 798 116 moveto
798 137 lineto
887 137 lineto
887 116 lineto
closepath stroke
0.000 0.000 0.000 nodecolor
10.00 /FreeSans.ttf set_font
842 123 moveto 73 -0.5 (buscador.cpp) alignedtext
grestore
% Node2->Node3
gsave
1 setlinewidth
solid
0.667 0.776 0.439 edgecolor
newpath 984 285 moveto
970 277 953 266 942 254 curveto
915 224 927 204 901 174 curveto
889 159 871 146 858 137 curveto
stroke
0.667 0.776 0.439 edgecolor
newpath 982.559 288.203 moveto
993 290 lineto
985.958 282.084 lineto
closepath fill
1 setlinewidth
solid
0.667 0.776 0.439 edgecolor
newpath 982.559 288.203 moveto
993 290 lineto
985.958 282.084 lineto
closepath stroke
grestore
% Node4
gsave
[ /Rect [ 444 233 540 253 ]
  /Border [ 0 0 0 ]
  /Action << /Subtype /URI /URI ($NodoTrieS_8hpp.html) >>
  /Subtype /Link
/ANN pdfmark
[ /Rect [ 444 233 540 253 ]
  /Border [ 0 0 0 ]
  /Action << /Subtype /URI /URI ($NodoTrieS_8hpp.html) >>
  /Subtype /Link
/ANN pdfmark
1 setlinewidth
0.000 0.000 0.000 nodecolor
newpath 444 232 moveto
444 253 lineto
540 253 lineto
540 232 lineto
closepath stroke
0.000 0.000 0.000 nodecolor
10.00 /FreeSans.ttf set_font
492 239 moveto 80 -0.5 (NodoTrieS.hpp) alignedtext
grestore
% Node2->Node4
gsave
1 setlinewidth
solid
0.667 0.776 0.439 edgecolor
newpath 979 297 moveto
885 287 643 260 540 248 curveto
stroke
0.667 0.776 0.439 edgecolor
newpath 978.701 300.488 moveto
989 298 lineto
979.398 293.522 lineto
closepath fill
1 setlinewidth
solid
0.667 0.776 0.439 edgecolor
newpath 978.701 300.488 moveto
989 298 lineto
979.398 293.522 lineto
closepath stroke
grestore
% Node5
gsave
[ /Rect [ 948 175 1044 195 ]
  /Border [ 0 0 0 ]
  /Action << /Subtype /URI /URI ($TrieSDisco_8hpp.html) >>
  /Subtype /Link
/ANN pdfmark
[ /Rect [ 948 175 1044 195 ]
  /Border [ 0 0 0 ]
  /Action << /Subtype /URI /URI ($TrieSDisco_8hpp.html) >>
  /Subtype /Link
/ANN pdfmark
1 setlinewidth
0.000 0.000 0.000 nodecolor
newpath 948 174 moveto
948 195 lineto
1044 195 lineto
1044 174 lineto
closepath stroke
0.000 0.000 0.000 nodecolor
10.00 /FreeSans.ttf set_font
996 181 moveto 80 -0.5 (TrieSDisco.hpp) alignedtext
grestore
% Node2->Node5
gsave
1 setlinewidth
solid
0.667 0.776 0.439 edgecolor
newpath 981 285 moveto
968 278 955 268 948 254 curveto
937 232 962 208 981 195 curveto
stroke
0.667 0.776 0.439 edgecolor
newpath 979.559 288.203 moveto
990 290 lineto
982.958 282.084 lineto
closepath fill
1 setlinewidth
solid
0.667 0.776 0.439 edgecolor
newpath 979.559 288.203 moveto
990 290 lineto
982.958 282.084 lineto
closepath stroke
grestore
% Node6
gsave
[ /Rect [ 1054 117 1164 137 ]
  /Border [ 0 0 0 ]
  /Action << /Subtype /URI /URI ($depuraindice_8cpp.html) >>
  /Subtype /Link
/ANN pdfmark
[ /Rect [ 1054 117 1164 137 ]
  /Border [ 0 0 0 ]
  /Action << /Subtype /URI /URI ($depuraindice_8cpp.html) >>
  /Subtype /Link
/ANN pdfmark
1 setlinewidth
0.000 0.000 0.000 nodecolor
newpath 1054 116 moveto
1054 137 lineto
1165 137 lineto
1165 116 lineto
closepath stroke
0.000 0.000 0.000 nodecolor
10.00 /FreeSans.ttf set_font
1109 123 moveto 95 -0.5 (depuraindice.cpp) alignedtext
grestore
% Node2->Node6
gsave
1 setlinewidth
solid
0.667 0.776 0.439 edgecolor
newpath 1053 285 moveto
1066 277 1079 267 1088 254 curveto
1111 216 1111 160 1110 137 curveto
stroke
0.667 0.776 0.439 edgecolor
newpath 1051.04 282.084 moveto
1044 290 lineto
1054.44 288.203 lineto
closepath fill
1 setlinewidth
solid
0.667 0.776 0.439 edgecolor
newpath 1051.04 282.084 moveto
1044 290 lineto
1054.44 288.203 lineto
closepath stroke
grestore
% Node2->Node7
gsave
1 setlinewidth
solid
0.667 0.776 0.439 edgecolor
newpath 1051 285 moveto
1068 277 1088 266 1104 254 curveto
1153 217 1202 160 1221 137 curveto
stroke
0.667 0.776 0.439 edgecolor
newpath 1049.04 282.084 moveto
1042 290 lineto
1052.44 288.203 lineto
closepath fill
1 setlinewidth
solid
0.667 0.776 0.439 edgecolor
newpath 1049.04 282.084 moveto
1042 290 lineto
1052.44 288.203 lineto
closepath stroke
grestore
% Node25
gsave
[ /Rect [ 798 175 892 195 ]
  /Border [ 0 0 0 ]
  /Action << /Subtype /URI /URI ($NodoTrieS_8cpp.html) >>
  /Subtype /Link
/ANN pdfmark
[ /Rect [ 798 175 892 195 ]
  /Border [ 0 0 0 ]
  /Action << /Subtype /URI /URI ($NodoTrieS_8cpp.html) >>
  /Subtype /Link
/ANN pdfmark
1 setlinewidth
0.000 0.000 0.000 nodecolor
newpath 798 174 moveto
798 195 lineto
893 195 lineto
893 174 lineto
closepath stroke
0.000 0.000 0.000 nodecolor
10.00 /FreeSans.ttf set_font
845 181 moveto 79 -0.5 (NodoTrieS.cpp) alignedtext
grestore
% Node2->Node25
gsave
1 setlinewidth
solid
0.667 0.776 0.439 edgecolor
newpath 979 297 moveto
948 291 906 279 877 254 curveto
859 238 851 210 847 195 curveto
stroke
0.667 0.776 0.439 edgecolor
newpath 978.701 300.488 moveto
989 298 lineto
979.398 293.522 lineto
closepath fill
1 setlinewidth
solid
0.667 0.776 0.439 edgecolor
newpath 978.701 300.488 moveto
989 298 lineto
979.398 293.522 lineto
closepath stroke
grestore
% Node2->Node27
gsave
1 setlinewidth
solid
0.667 0.776 0.439 edgecolor
newpath 1057 289 moveto
1092 278 1142 262 1173 252 curveto
stroke
0.667 0.776 0.439 edgecolor
newpath 1055.57 285.774 moveto
1047 292 lineto
1057.58 292.479 lineto
closepath fill
1 setlinewidth
solid
0.667 0.776 0.439 edgecolor
newpath 1055.57 285.774 moveto
1047 292 lineto
1057.58 292.479 lineto
closepath stroke
grestore
% Node28
gsave
[ /Rect [ 957 233 1079 253 ]
  /Border [ 0 0 0 ]
  /Action << /Subtype /URI /URI ($PosCasoPrueba_8cpp.html) >>
  /Subtype /Link
/ANN pdfmark
[ /Rect [ 957 233 1079 253 ]
  /Border [ 0 0 0 ]
  /Action << /Subtype /URI /URI ($PosCasoPrueba_8cpp.html) >>
  /Subtype /Link
/ANN pdfmark
1 setlinewidth
0.000 0.000 0.000 nodecolor
newpath 957 232 moveto
957 253 lineto
1079 253 lineto
1079 232 lineto
closepath stroke
0.000 0.000 0.000 nodecolor
10.00 /FreeSans.ttf set_font
1018 239 moveto 106 -0.5 (PosCasoPrueba.cpp) alignedtext
grestore
% Node2->Node28
gsave
1 setlinewidth
solid
0.667 0.776 0.439 edgecolor
newpath 1018 280 moveto
1018 270 1018 260 1018 253 curveto
stroke
0.667 0.776 0.439 edgecolor
newpath 1014.5 280 moveto
1018 290 lineto
1021.5 280 lineto
closepath fill
1 setlinewidth
solid
0.667 0.776 0.439 edgecolor
newpath 1014.5 280 moveto
1018 290 lineto
1021.5 280 lineto
closepath stroke
grestore
% Node4->Node5
gsave
1 setlinewidth
solid
0.667 0.776 0.439 edgecolor
newpath 550 236 moveto
630 226 777 209 901 196 curveto
916 194 933 192 948 191 curveto
stroke
0.667 0.776 0.439 edgecolor
newpath 549.602 232.522 moveto
540 237 lineto
550.299 239.488 lineto
closepath fill
1 setlinewidth
solid
0.667 0.776 0.439 edgecolor
newpath 549.602 232.522 moveto
540 237 lineto
550.299 239.488 lineto
closepath stroke
grestore
% Node4->Node7
gsave
1 setlinewidth
solid
0.667 0.776 0.439 edgecolor
newpath 550 240 moveto
674 234 960 217 1053 196 curveto
1111 182 1176 152 1209 137 curveto
stroke
0.667 0.776 0.439 edgecolor
newpath 549.602 236.522 moveto
540 241 lineto
550.299 243.488 lineto
closepath fill
1 setlinewidth
solid
0.667 0.776 0.439 edgecolor
newpath 549.602 236.522 moveto
540 241 lineto
550.299 243.488 lineto
closepath stroke
grestore
% Node14
gsave
[ /Rect [ 810 59 970 79 ]
  /Border [ 0 0 0 ]
  /Action << /Subtype /URI /URI ($TrieSDiscoCasoPrueba_8cpp.html) >>
  /Subtype /Link
/ANN pdfmark
[ /Rect [ 810 59 970 79 ]
  /Border [ 0 0 0 ]
  /Action << /Subtype /URI /URI ($TrieSDiscoCasoPrueba_8cpp.html) >>
  /Subtype /Link
/ANN pdfmark
1 setlinewidth
0.000 0.000 0.000 nodecolor
newpath 810 58 moveto
810 79 lineto
970 79 lineto
970 58 lineto
closepath stroke
0.000 0.000 0.000 nodecolor
10.00 /FreeSans.ttf set_font
890 65 moveto 144 -0.5 (TrieSDiscoCasoPrueba.cpp) alignedtext
grestore
% Node4->Node14
gsave
1 setlinewidth
solid
0.667 0.776 0.439 edgecolor
newpath 550 238 moveto
617 233 721 219 751 196 curveto
783 172 762 143 789 116 curveto
807 98 833 86 854 79 curveto
stroke
0.667 0.776 0.439 edgecolor
newpath 549.602 234.522 moveto
540 239 lineto
550.299 241.488 lineto
closepath fill
1 setlinewidth
solid
0.667 0.776 0.439 edgecolor
newpath 549.602 234.522 moveto
540 239 lineto
550.299 241.488 lineto
closepath stroke
grestore
% Node16
gsave
[ /Rect [ 208 175 294 195 ]
  /Border [ 0 0 0 ]
  /Action << /Subtype /URI /URI ($leeHTML_8cpp.html) >>
  /Subtype /Link
/ANN pdfmark
[ /Rect [ 208 175 294 195 ]
  /Border [ 0 0 0 ]
  /Action << /Subtype /URI /URI ($leeHTML_8cpp.html) >>
  /Subtype /Link
/ANN pdfmark
1 setlinewidth
0.000 0.000 0.000 nodecolor
newpath 208 174 moveto
208 195 lineto
294 195 lineto
294 174 lineto
closepath stroke
0.000 0.000 0.000 nodecolor
10.00 /FreeSans.ttf set_font
251 181 moveto 70 -0.5 (leeHTML.cpp) alignedtext
grestore
% Node4->Node16
gsave
1 setlinewidth
solid
0.667 0.776 0.439 edgecolor
newpath 436 230 moveto
392 219 332 204 293 195 curveto
stroke
0.667 0.776 0.439 edgecolor
newpath 435.508 233.471 moveto
446 232 lineto
436.881 226.607 lineto
closepath fill
1 setlinewidth
solid
0.667 0.776 0.439 edgecolor
newpath 435.508 233.471 moveto
446 232 lineto
436.881 226.607 lineto
closepath stroke
grestore
% Node17
gsave
[ /Rect [ 447 59 533 79 ]
  /Border [ 0 0 0 ]
  /Action << /Subtype /URI /URI ($leeHTML_8hpp.html) >>
  /Subtype /Link
/ANN pdfmark
[ /Rect [ 447 59 533 79 ]
  /Border [ 0 0 0 ]
  /Action << /Subtype /URI /URI ($leeHTML_8hpp.html) >>
  /Subtype /Link
/ANN pdfmark
1 setlinewidth
0.000 0.000 0.000 nodecolor
newpath 447 58 moveto
447 79 lineto
534 79 lineto
534 58 lineto
closepath stroke
0.000 0.000 0.000 nodecolor
10.00 /FreeSans.ttf set_font
490 65 moveto 71 -0.5 (leeHTML.hpp) alignedtext
grestore
% Node4->Node17
gsave
1 setlinewidth
solid
0.667 0.776 0.439 edgecolor
newpath 484 222 moveto
481 214 478 205 477 196 curveto
471 152 482 101 487 79 curveto
stroke
0.667 0.776 0.439 edgecolor
newpath 481.036 224.015 moveto
488 232 lineto
487.536 221.415 lineto
closepath fill
1 setlinewidth
solid
0.667 0.776 0.439 edgecolor
newpath 481.036 224.015 moveto
488 232 lineto
487.536 221.415 lineto
closepath stroke
grestore
% Node4->Node18
gsave
1 setlinewidth
solid
0.667 0.776 0.439 edgecolor
newpath 434 229 moveto
406 221 371 210 341 196 curveto
309 179 277 152 260 137 curveto
stroke
0.667 0.776 0.439 edgecolor
newpath 433.416 232.479 moveto
444 232 lineto
435.427 225.774 lineto
closepath fill
1 setlinewidth
solid
0.667 0.776 0.439 edgecolor
newpath 433.416 232.479 moveto
444 232 lineto
435.427 225.774 lineto
closepath stroke
grestore
% Node19
gsave
[ /Rect [ 350 175 430 195 ]
  /Border [ 0 0 0 ]
  /Action << /Subtype /URI /URI ($leeODT_8hpp.html) >>
  /Subtype /Link
/ANN pdfmark
[ /Rect [ 350 175 430 195 ]
  /Border [ 0 0 0 ]
  /Action << /Subtype /URI /URI ($leeODT_8hpp.html) >>
  /Subtype /Link
/ANN pdfmark
1 setlinewidth
0.000 0.000 0.000 nodecolor
newpath 350 174 moveto
350 195 lineto
431 195 lineto
431 174 lineto
closepath stroke
0.000 0.000 0.000 nodecolor
10.00 /FreeSans.ttf set_font
390 181 moveto 65 -0.5 (leeODT.hpp) alignedtext
grestore
% Node4->Node19
gsave
1 setlinewidth
solid
0.667 0.776 0.439 edgecolor
newpath 463 227 moveto
446 216 423 204 408 195 curveto
stroke
0.667 0.776 0.439 edgecolor
newpath 461.559 230.203 moveto
472 232 lineto
464.958 224.084 lineto
closepath fill
1 setlinewidth
solid
0.667 0.776 0.439 edgecolor
newpath 461.559 230.203 moveto
472 232 lineto
464.958 224.084 lineto
closepath stroke
grestore
% Node21
gsave
[ /Rect [ 67 117 141 137 ]
  /Border [ 0 0 0 ]
  /Action << /Subtype /URI /URI ($leePDF_8cpp.html) >>
  /Subtype /Link
/ANN pdfmark
[ /Rect [ 67 117 141 137 ]
  /Border [ 0 0 0 ]
  /Action << /Subtype /URI /URI ($leePDF_8cpp.html) >>
  /Subtype /Link
/ANN pdfmark
1 setlinewidth
0.000 0.000 0.000 nodecolor
newpath 67 116 moveto
67 137 lineto
142 137 lineto
142 116 lineto
closepath stroke
0.000 0.000 0.000 nodecolor
10.00 /FreeSans.ttf set_font
104 123 moveto 59 -0.5 (leePDF.cpp) alignedtext
grestore
% Node4->Node21
gsave
1 setlinewidth
solid
0.667 0.776 0.439 edgecolor
newpath 434 239 moveto
353 233 211 220 166 196 curveto
140 182 120 153 110 137 curveto
stroke
0.667 0.776 0.439 edgecolor
newpath 433.701 242.488 moveto
444 240 lineto
434.398 235.522 lineto
closepath fill
1 setlinewidth
solid
0.667 0.776 0.439 edgecolor
newpath 433.701 242.488 moveto
444 240 lineto
434.398 235.522 lineto
closepath stroke
grestore
% Node4->Node22
gsave
1 setlinewidth
solid
0.667 0.776 0.439 edgecolor
newpath 434 238 moveto
355 231 212 216 90 196 curveto
86 195 81 194 76 193 curveto
stroke
0.667 0.776 0.439 edgecolor
newpath 433.701 241.488 moveto
444 239 lineto
434.398 234.522 lineto
closepath fill
1 setlinewidth
solid
0.667 0.776 0.439 edgecolor
newpath 433.701 241.488 moveto
444 239 lineto
434.398 234.522 lineto
closepath stroke
grestore
% Node23
gsave
[ /Rect [ 486 175 564 195 ]
  /Border [ 0 0 0 ]
  /Action << /Subtype /URI /URI ($leeXML_8cpp.html) >>
  /Subtype /Link
/ANN pdfmark
[ /Rect [ 486 175 564 195 ]
  /Border [ 0 0 0 ]
  /Action << /Subtype /URI /URI ($leeXML_8cpp.html) >>
  /Subtype /Link
/ANN pdfmark
1 setlinewidth
0.000 0.000 0.000 nodecolor
newpath 486 174 moveto
486 195 lineto
564 195 lineto
564 174 lineto
closepath stroke
0.000 0.000 0.000 nodecolor
10.00 /FreeSans.ttf set_font
525 181 moveto 62 -0.5 (leeXML.cpp) alignedtext
grestore
% Node4->Node23
gsave
1 setlinewidth
solid
0.667 0.776 0.439 edgecolor
newpath 503 223 moveto
508 213 514 203 519 195 curveto
stroke
0.667 0.776 0.439 edgecolor
newpath 499.797 221.559 moveto
498 232 lineto
505.916 224.958 lineto
closepath fill
1 setlinewidth
solid
0.667 0.776 0.439 edgecolor
newpath 499.797 221.559 moveto
498 232 lineto
505.916 224.958 lineto
closepath stroke
grestore
% Node24
gsave
[ /Rect [ 227 59 305 79 ]
  /Border [ 0 0 0 ]
  /Action << /Subtype /URI /URI ($leeXML_8hpp.html) >>
  /Subtype /Link
/ANN pdfmark
[ /Rect [ 227 59 305 79 ]
  /Border [ 0 0 0 ]
  /Action << /Subtype /URI /URI ($leeXML_8hpp.html) >>
  /Subtype /Link
/ANN pdfmark
1 setlinewidth
0.000 0.000 0.000 nodecolor
newpath 227 58 moveto
227 79 lineto
306 79 lineto
306 58 lineto
closepath stroke
0.000 0.000 0.000 nodecolor
10.00 /FreeSans.ttf set_font
266 65 moveto 63 -0.5 (leeXML.hpp) alignedtext
grestore
% Node4->Node24
gsave
1 setlinewidth
solid
0.667 0.776 0.439 edgecolor
newpath 434 238 moveto
353 230 214 213 199 196 curveto
192 187 182 150 200 116 curveto
209 99 227 87 242 79 curveto
stroke
0.667 0.776 0.439 edgecolor
newpath 433.701 241.488 moveto
444 239 lineto
434.398 234.522 lineto
closepath fill
1 setlinewidth
solid
0.667 0.776 0.439 edgecolor
newpath 433.701 241.488 moveto
444 239 lineto
434.398 234.522 lineto
closepath stroke
grestore
% Node4->Node25
gsave
1 setlinewidth
solid
0.667 0.776 0.439 edgecolor
newpath 550 234 moveto
609 224 704 210 784 196 curveto
788 195 793 194 798 194 curveto
stroke
0.667 0.776 0.439 edgecolor
newpath 549.119 230.607 moveto
540 236 lineto
550.492 237.471 lineto
closepath fill
1 setlinewidth
solid
0.667 0.776 0.439 edgecolor
newpath 549.119 230.607 moveto
540 236 lineto
550.492 237.471 lineto
closepath stroke
grestore
% Node26
gsave
[ /Rect [ 582 175 742 195 ]
  /Border [ 0 0 0 ]
  /Action << /Subtype /URI /URI ($NodoTrieSCasoPrueba_8cpp.html) >>
  /Subtype /Link
/ANN pdfmark
[ /Rect [ 582 175 742 195 ]
  /Border [ 0 0 0 ]
  /Action << /Subtype /URI /URI ($NodoTrieSCasoPrueba_8cpp.html) >>
  /Subtype /Link
/ANN pdfmark
1 setlinewidth
0.000 0.000 0.000 nodecolor
newpath 582 174 moveto
582 195 lineto
742 195 lineto
742 174 lineto
closepath stroke
0.000 0.000 0.000 nodecolor
10.00 /FreeSans.ttf set_font
662 181 moveto 144 -0.5 (NodoTrieSCasoPrueba.cpp) alignedtext
grestore
% Node4->Node26
gsave
1 setlinewidth
solid
0.667 0.776 0.439 edgecolor
newpath 534 229 moveto
565 218 605 204 633 195 curveto
stroke
0.667 0.776 0.439 edgecolor
newpath 532.573 225.774 moveto
524 232 lineto
534.584 232.479 lineto
closepath fill
1 setlinewidth
solid
0.667 0.776 0.439 edgecolor
newpath 532.573 225.774 moveto
524 232 lineto
534.584 232.479 lineto
closepath stroke
grestore
% Node5->Node3
gsave
1 setlinewidth
solid
0.667 0.776 0.439 edgecolor
newpath 958 170 moveto
930 160 893 146 869 137 curveto
stroke
0.667 0.776 0.439 edgecolor
newpath 956.44 173.137 moveto
967 174 lineto
959.283 166.74 lineto
closepath fill
1 setlinewidth
solid
0.667 0.776 0.439 edgecolor
newpath 956.44 173.137 moveto
967 174 lineto
959.283 166.74 lineto
closepath stroke
grestore
% Node5->Node6
gsave
1 setlinewidth
solid
0.667 0.776 0.439 edgecolor
newpath 1027 169 moveto
1047 159 1072 146 1089 137 curveto
stroke
0.667 0.776 0.439 edgecolor
newpath 1025.04 166.084 moveto
1018 174 lineto
1028.44 172.203 lineto
closepath fill
1 setlinewidth
solid
0.667 0.776 0.439 edgecolor
newpath 1025.04 166.084 moveto
1018 174 lineto
1028.44 172.203 lineto
closepath stroke
grestore
% Node5->Node7
gsave
1 setlinewidth
solid
0.667 0.776 0.439 edgecolor
newpath 1050 171 moveto
1092 161 1150 146 1189 137 curveto
stroke
0.667 0.776 0.439 edgecolor
newpath 1048.57 167.774 moveto
1040 174 lineto
1050.58 174.479 lineto
closepath fill
1 setlinewidth
solid
0.667 0.776 0.439 edgecolor
newpath 1048.57 167.774 moveto
1040 174 lineto
1050.58 174.479 lineto
closepath stroke
grestore
% Node5->Node14
gsave
1 setlinewidth
solid
0.667 0.776 0.439 edgecolor
newpath 970 168 moveto
958 160 943 149 933 138 curveto
916 119 902 93 895 79 curveto
stroke
0.667 0.776 0.439 edgecolor
newpath 967.9 170.8 moveto
978 174 lineto
972.1 165.2 lineto
closepath fill
1 setlinewidth
solid
0.667 0.776 0.439 edgecolor
newpath 967.9 170.8 moveto
978 174 lineto
972.1 165.2 lineto
closepath stroke
grestore
% Node15
gsave
[ /Rect [ 942 117 1036 137 ]
  /Border [ 0 0 0 ]
  /Action << /Subtype /URI /URI ($TrieSDisco_8cpp.html) >>
  /Subtype /Link
/ANN pdfmark
[ /Rect [ 942 117 1036 137 ]
  /Border [ 0 0 0 ]
  /Action << /Subtype /URI /URI ($TrieSDisco_8cpp.html) >>
  /Subtype /Link
/ANN pdfmark
1 setlinewidth
0.000 0.000 0.000 nodecolor
newpath 942 116 moveto
942 137 lineto
1037 137 lineto
1037 116 lineto
closepath stroke
0.000 0.000 0.000 nodecolor
10.00 /FreeSans.ttf set_font
989 123 moveto 79 -0.5 (TrieSDisco.cpp) alignedtext
grestore
% Node5->Node15
gsave
1 setlinewidth
solid
0.667 0.776 0.439 edgecolor
newpath 994 164 moveto
993 154 991 144 990 137 curveto
stroke
0.667 0.776 0.439 edgecolor
newpath 990.522 164.398 moveto
995 174 lineto
997.488 163.701 lineto
closepath fill
1 setlinewidth
solid
0.667 0.776 0.439 edgecolor
newpath 990.522 164.398 moveto
995 174 lineto
997.488 163.701 lineto
closepath stroke
grestore
% Node8
gsave
[ /Rect [ 1350 59 1458 79 ]
  /Border [ 0 0 0 ]
  /Action << /Subtype /URI /URI ($Operaciones_8hpp.html) >>
  /Subtype /Link
/ANN pdfmark
[ /Rect [ 1350 59 1458 79 ]
  /Border [ 0 0 0 ]
  /Action << /Subtype /URI /URI ($Operaciones_8hpp.html) >>
  /Subtype /Link
/ANN pdfmark
1 setlinewidth
0.000 0.000 0.000 nodecolor
newpath 1350 58 moveto
1350 79 lineto
1459 79 lineto
1459 58 lineto
closepath stroke
0.000 0.000 0.000 nodecolor
10.00 /FreeSans.ttf set_font
1404 65 moveto 93 -0.5 (Operaciones.hpp) alignedtext
grestore
% Node7->Node8
gsave
1 setlinewidth
solid
0.667 0.776 0.439 edgecolor
newpath 1272 113 moveto
1303 102 1346 88 1374 79 curveto
stroke
0.667 0.776 0.439 edgecolor
newpath 1270.57 109.774 moveto
1262 116 lineto
1272.58 116.479 lineto
closepath fill
1 setlinewidth
solid
0.667 0.776 0.439 edgecolor
newpath 1270.57 109.774 moveto
1262 116 lineto
1272.58 116.479 lineto
closepath stroke
grestore
% Node10
gsave
[ /Rect [ 400 1 508 21 ]
  /Border [ 0 0 0 ]
  /Action << /Subtype /URI /URI ($Operaciones_8cpp.html) >>
  /Subtype /Link
/ANN pdfmark
[ /Rect [ 400 1 508 21 ]
  /Border [ 0 0 0 ]
  /Action << /Subtype /URI /URI ($Operaciones_8cpp.html) >>
  /Subtype /Link
/ANN pdfmark
1 setlinewidth
0.000 0.000 0.000 nodecolor
newpath 400 0 moveto
400 21 lineto
508 21 lineto
508 0 lineto
closepath stroke
0.000 0.000 0.000 nodecolor
10.00 /FreeSans.ttf set_font
454 7 moveto 92 -0.5 (Operaciones.cpp) alignedtext
grestore
% Node7->Node10
gsave
1 setlinewidth
solid
0.667 0.776 0.439 edgecolor
newpath 1173 114 moveto
1136 105 1087 92 1045 80 curveto
1016 71 1010 64 979 58 curveto
891 39 624 21 508 14 curveto
stroke
0.667 0.776 0.439 edgecolor
newpath 1172.51 117.471 moveto
1183 116 lineto
1173.88 110.607 lineto
closepath fill
1 setlinewidth
solid
0.667 0.776 0.439 edgecolor
newpath 1172.51 117.471 moveto
1183 116 lineto
1173.88 110.607 lineto
closepath stroke
grestore
% Node11
gsave
[ /Rect [ 1109 1 1213 21 ]
  /Border [ 0 0 0 ]
  /Action << /Subtype /URI /URI ($operaindice_8cpp.html) >>
  /Subtype /Link
/ANN pdfmark
[ /Rect [ 1109 1 1213 21 ]
  /Border [ 0 0 0 ]
  /Action << /Subtype /URI /URI ($operaindice_8cpp.html) >>
  /Subtype /Link
/ANN pdfmark
1 setlinewidth
0.000 0.000 0.000 nodecolor
newpath 1109 0 moveto
1109 21 lineto
1213 21 lineto
1213 0 lineto
closepath stroke
0.000 0.000 0.000 nodecolor
10.00 /FreeSans.ttf set_font
1161 7 moveto 88 -0.5 (operaindice.cpp) alignedtext
grestore
% Node7->Node11
gsave
1 setlinewidth
solid
0.667 0.776 0.439 edgecolor
newpath 1172 115 moveto
1124 104 1062 89 1055 80 curveto
1034 52 1080 32 1118 21 curveto
stroke
0.667 0.776 0.439 edgecolor
newpath 1171.51 118.471 moveto
1182 117 lineto
1172.88 111.607 lineto
closepath fill
1 setlinewidth
solid
0.667 0.776 0.439 edgecolor
newpath 1171.51 118.471 moveto
1182 117 lineto
1172.88 111.607 lineto
closepath stroke
grestore
% Node12
gsave
[ /Rect [ 1064 59 1156 79 ]
  /Border [ 0 0 0 ]
  /Action << /Subtype /URI /URI ($RamDisco_8cpp.html) >>
  /Subtype /Link
/ANN pdfmark
[ /Rect [ 1064 59 1156 79 ]
  /Border [ 0 0 0 ]
  /Action << /Subtype /URI /URI ($RamDisco_8cpp.html) >>
  /Subtype /Link
/ANN pdfmark
1 setlinewidth
0.000 0.000 0.000 nodecolor
newpath 1064 58 moveto
1064 79 lineto
1157 79 lineto
1157 58 lineto
closepath stroke
0.000 0.000 0.000 nodecolor
10.00 /FreeSans.ttf set_font
1110 65 moveto 77 -0.5 (RamDisco.cpp) alignedtext
grestore
% Node7->Node12
gsave
1 setlinewidth
solid
0.667 0.776 0.439 edgecolor
newpath 1197 112 moveto
1176 101 1149 88 1131 79 curveto
stroke
0.667 0.776 0.439 edgecolor
newpath 1195.44 115.137 moveto
1206 116 lineto
1198.28 108.74 lineto
closepath fill
1 setlinewidth
solid
0.667 0.776 0.439 edgecolor
newpath 1195.44 115.137 moveto
1206 116 lineto
1198.28 108.74 lineto
closepath stroke
grestore
% Node13
gsave
[ /Rect [ 1174 59 1332 79 ]
  /Border [ 0 0 0 ]
  /Action << /Subtype /URI /URI ($RamDiscoCasoPrueba_8cpp.html) >>
  /Subtype /Link
/ANN pdfmark
[ /Rect [ 1174 59 1332 79 ]
  /Border [ 0 0 0 ]
  /Action << /Subtype /URI /URI ($RamDiscoCasoPrueba_8cpp.html) >>
  /Subtype /Link
/ANN pdfmark
1 setlinewidth
0.000 0.000 0.000 nodecolor
newpath 1174 58 moveto
1174 79 lineto
1332 79 lineto
1332 58 lineto
closepath stroke
0.000 0.000 0.000 nodecolor
10.00 /FreeSans.ttf set_font
1253 65 moveto 142 -0.5 (RamDiscoCasoPrueba.cpp) alignedtext
grestore
% Node7->Node13
gsave
1 setlinewidth
solid
0.667 0.776 0.439 edgecolor
newpath 1238 106 moveto
1242 97 1246 86 1249 79 curveto
stroke
0.667 0.776 0.439 edgecolor
newpath 1234.46 105.415 moveto
1234 116 lineto
1240.96 108.015 lineto
closepath fill
1 setlinewidth
solid
0.667 0.776 0.439 edgecolor
newpath 1234.46 105.415 moveto
1234 116 lineto
1240.96 108.015 lineto
closepath stroke
grestore
% Node7->Node14
gsave
1 setlinewidth
solid
0.667 0.776 0.439 edgecolor
newpath 1172 116 moveto
1091 101 1010 88 954 79 curveto
stroke
0.667 0.776 0.439 edgecolor
newpath 1171.51 119.471 moveto
1182 118 lineto
1172.88 112.607 lineto
closepath fill
1 setlinewidth
solid
0.667 0.776 0.439 edgecolor
newpath 1171.51 119.471 moveto
1182 118 lineto
1172.88 112.607 lineto
closepath stroke
grestore
% Node9
gsave
[ /Rect [ 1357 1 1451 21 ]
  /Border [ 0 0 0 ]
  /Action << /Subtype /URI /URI ($indexador_8cpp.html) >>
  /Subtype /Link
/ANN pdfmark
[ /Rect [ 1357 1 1451 21 ]
  /Border [ 0 0 0 ]
  /Action << /Subtype /URI /URI ($indexador_8cpp.html) >>
  /Subtype /Link
/ANN pdfmark
1 setlinewidth
0.000 0.000 0.000 nodecolor
newpath 1357 0 moveto
1357 21 lineto
1451 21 lineto
1451 0 lineto
closepath stroke
0.000 0.000 0.000 nodecolor
10.00 /FreeSans.ttf set_font
1404 7 moveto 78 -0.5 (indexador.cpp) alignedtext
grestore
% Node8->Node9
gsave
1 setlinewidth
solid
0.667 0.776 0.439 edgecolor
newpath 1404 48 moveto
1404 38 1404 28 1404 21 curveto
stroke
0.667 0.776 0.439 edgecolor
newpath 1400.5 48 moveto
1404 58 lineto
1407.5 48 lineto
closepath fill
1 setlinewidth
solid
0.667 0.776 0.439 edgecolor
newpath 1400.5 48 moveto
1404 58 lineto
1407.5 48 lineto
closepath stroke
grestore
% Node8->Node10
gsave
1 setlinewidth
solid
0.667 0.776 0.439 edgecolor
newpath 1340 58 moveto
1019 22 646 14 508 12 curveto
stroke
0.667 0.776 0.439 edgecolor
newpath 1339.7 61.4875 moveto
1350 59 lineto
1340.4 54.5222 lineto
closepath fill
1 setlinewidth
solid
0.667 0.776 0.439 edgecolor
newpath 1339.7 61.4875 moveto
1350 59 lineto
1340.4 54.5222 lineto
closepath stroke
grestore
% Node8->Node11
gsave
1 setlinewidth
solid
0.667 0.776 0.439 edgecolor
newpath 1348 56 moveto
1304 45 1243 30 1203 21 curveto
stroke
0.667 0.776 0.439 edgecolor
newpath 1347.51 59.4708 moveto
1358 58 lineto
1348.88 52.6067 lineto
closepath fill
1 setlinewidth
solid
0.667 0.776 0.439 edgecolor
newpath 1347.51 59.4708 moveto
1358 58 lineto
1348.88 52.6067 lineto
closepath stroke
grestore
% Node17->Node10
gsave
1 setlinewidth
solid
0.667 0.776 0.439 edgecolor
newpath 478 49 moveto
472 40 465 29 460 21 curveto
stroke
0.667 0.776 0.439 edgecolor
newpath 475.084 50.9582 moveto
483 58 lineto
481.203 47.5586 lineto
closepath fill
1 setlinewidth
solid
0.667 0.776 0.439 edgecolor
newpath 475.084 50.9582 moveto
483 58 lineto
481.203 47.5586 lineto
closepath stroke
grestore
% Node19->Node10
gsave
1 setlinewidth
solid
0.667 0.776 0.439 edgecolor
newpath 398 165 moveto
412 127 440 49 450 21 curveto
stroke
0.667 0.776 0.439 edgecolor
newpath 394.863 163.44 moveto
394 174 lineto
401.26 166.283 lineto
closepath fill
1 setlinewidth
solid
0.667 0.776 0.439 edgecolor
newpath 394.863 163.44 moveto
394 174 lineto
401.26 166.283 lineto
closepath stroke
grestore
% Node19->Node18
gsave
1 setlinewidth
solid
0.667 0.776 0.439 edgecolor
newpath 354 170 moveto
328 159 295 146 273 137 curveto
stroke
0.667 0.776 0.439 edgecolor
newpath 352.44 173.137 moveto
363 174 lineto
355.283 166.74 lineto
closepath fill
1 setlinewidth
solid
0.667 0.776 0.439 edgecolor
newpath 352.44 173.137 moveto
363 174 lineto
355.283 166.74 lineto
closepath stroke
grestore
% Node20
gsave
[ /Rect [ 307 117 391 137 ]
  /Border [ 0 0 0 ]
  /Action << /Subtype /URI /URI ($txtdeodt_8cpp.html) >>
  /Subtype /Link
/ANN pdfmark
[ /Rect [ 307 117 391 137 ]
  /Border [ 0 0 0 ]
  /Action << /Subtype /URI /URI ($txtdeodt_8cpp.html) >>
  /Subtype /Link
/ANN pdfmark
1 setlinewidth
0.000 0.000 0.000 nodecolor
newpath 307 116 moveto
307 137 lineto
392 137 lineto
392 116 lineto
closepath stroke
0.000 0.000 0.000 nodecolor
10.00 /FreeSans.ttf set_font
349 123 moveto 69 -0.5 (txtdeodt.cpp) alignedtext
grestore
% Node19->Node20
gsave
1 setlinewidth
solid
0.667 0.776 0.439 edgecolor
newpath 376 166 moveto
369 156 361 145 356 137 curveto
stroke
0.667 0.776 0.439 edgecolor
newpath 373.2 168.1 moveto
382 174 lineto
378.8 163.9 lineto
closepath fill
1 setlinewidth
solid
0.667 0.776 0.439 edgecolor
newpath 373.2 168.1 moveto
382 174 lineto
378.8 163.9 lineto
closepath stroke
grestore
% Node22->Node10
gsave
1 setlinewidth
solid
0.667 0.776 0.439 edgecolor
newpath 39 164 moveto
41 149 46 129 58 116 curveto
105 66 303 32 400 18 curveto
stroke
0.667 0.776 0.439 edgecolor
newpath 35.5125 163.701 moveto
38 174 lineto
42.4778 164.398 lineto
closepath fill
1 setlinewidth
solid
0.667 0.776 0.439 edgecolor
newpath 35.5125 163.701 moveto
38 174 lineto
42.4778 164.398 lineto
closepath stroke
grestore
% Node22->Node21
gsave
1 setlinewidth
solid
0.667 0.776 0.439 edgecolor
newpath 59 167 moveto
70 157 83 145 93 137 curveto
stroke
0.667 0.776 0.439 edgecolor
newpath 56.221 164.781 moveto
51 174 lineto
60.8306 170.049 lineto
closepath fill
1 setlinewidth
solid
0.667 0.776 0.439 edgecolor
newpath 56.221 164.781 moveto
51 174 lineto
60.8306 170.049 lineto
closepath stroke
grestore
% Node24->Node10
gsave
1 setlinewidth
solid
0.667 0.776 0.439 edgecolor
newpath 312 55 moveto
345 44 391 30 421 21 curveto
stroke
0.667 0.776 0.439 edgecolor
newpath 310.573 51.7741 moveto
302 58 lineto
312.584 58.4788 lineto
closepath fill
1 setlinewidth
solid
0.667 0.776 0.439 edgecolor
newpath 310.573 51.7741 moveto
302 58 lineto
312.584 58.4788 lineto
closepath stroke
grestore
% Node29->Node5
gsave
1 setlinewidth
solid
0.667 0.776 0.439 edgecolor
newpath 1335 280 moveto
1333 264 1329 244 1316 232 curveto
1296 214 1129 197 1044 189 curveto
stroke
0.667 0.776 0.439 edgecolor
newpath 1331.5 280 moveto
1335 290 lineto
1338.5 280 lineto
closepath fill
1 setlinewidth
solid
0.667 0.776 0.439 edgecolor
newpath 1331.5 280 moveto
1335 290 lineto
1338.5 280 lineto
closepath stroke
grestore
% Node29->Node7
gsave
1 setlinewidth
solid
0.667 0.776 0.439 edgecolor
newpath 1376 295 moveto
1420 288 1483 273 1498 254 curveto
1507 241 1519 200 1497 174 curveto
1469 141 1345 131 1276 128 curveto
stroke
0.667 0.776 0.439 edgecolor
newpath 1375.6 291.522 moveto
1366 296 lineto
1376.3 298.488 lineto
closepath fill
1 setlinewidth
solid
0.667 0.776 0.439 edgecolor
newpath 1375.6 291.522 moveto
1366 296 lineto
1376.3 298.488 lineto
closepath stroke
grestore
% Node29->Node30
gsave
1 setlinewidth
solid
0.667 0.776 0.439 edgecolor
newpath 1317 283 moveto
1307 273 1295 261 1287 253 curveto
stroke
0.667 0.776 0.439 edgecolor
newpath 1314.45 285.404 moveto
1324 290 lineto
1319.4 280.454 lineto
closepath fill
1 setlinewidth
solid
0.667 0.776 0.439 edgecolor
newpath 1314.45 285.404 moveto
1324 290 lineto
1319.4 280.454 lineto
closepath stroke
grestore
% Node31
gsave
[ /Rect [ 1363 233 1489 253 ]
  /Border [ 0 0 0 ]
  /Action << /Subtype /URI /URI ($DocCasoPrueba_8hpp.html) >>
  /Subtype /Link
/ANN pdfmark
[ /Rect [ 1363 233 1489 253 ]
  /Border [ 0 0 0 ]
  /Action << /Subtype /URI /URI ($DocCasoPrueba_8hpp.html) >>
  /Subtype /Link
/ANN pdfmark
1 setlinewidth
0.000 0.000 0.000 nodecolor
newpath 1363 232 moveto
1363 253 lineto
1489 253 lineto
1489 232 lineto
closepath stroke
0.000 0.000 0.000 nodecolor
10.00 /FreeSans.ttf set_font
1426 239 moveto 110 -0.5 (DocCasoPrueba.hpp) alignedtext
grestore
% Node29->Node31
gsave
1 setlinewidth
solid
0.667 0.776 0.439 edgecolor
newpath 1362 284 moveto
1377 274 1397 261 1410 253 curveto
stroke
0.667 0.776 0.439 edgecolor
newpath 1359.38 281.541 moveto
1353 290 lineto
1363.26 287.365 lineto
closepath fill
1 setlinewidth
solid
0.667 0.776 0.439 edgecolor
newpath 1359.38 281.541 moveto
1353 290 lineto
1363.26 287.365 lineto
closepath stroke
grestore
% Node32
gsave
[ /Rect [ 1364 175 1488 195 ]
  /Border [ 0 0 0 ]
  /Action << /Subtype /URI /URI ($DocCasoPrueba_8cpp.html) >>
  /Subtype /Link
/ANN pdfmark
[ /Rect [ 1364 175 1488 195 ]
  /Border [ 0 0 0 ]
  /Action << /Subtype /URI /URI ($DocCasoPrueba_8cpp.html) >>
  /Subtype /Link
/ANN pdfmark
1 setlinewidth
0.000 0.000 0.000 nodecolor
newpath 1364 174 moveto
1364 195 lineto
1489 195 lineto
1489 174 lineto
closepath stroke
0.000 0.000 0.000 nodecolor
10.00 /FreeSans.ttf set_font
1426 181 moveto 109 -0.5 (DocCasoPrueba.cpp) alignedtext
grestore
% Node31->Node32
gsave
1 setlinewidth
solid
0.667 0.776 0.439 edgecolor
newpath 1426 222 moveto
1426 212 1426 202 1426 195 curveto
stroke
0.667 0.776 0.439 edgecolor
newpath 1422.5 222 moveto
1426 232 lineto
1429.5 222 lineto
closepath fill
1 setlinewidth
solid
0.667 0.776 0.439 edgecolor
newpath 1422.5 222 moveto
1426 232 lineto
1429.5 222 lineto
closepath stroke
grestore
endpage
showpage
grestore
%%PageTrailer
%%EndPage: 1
%%Trailer
%%Pages: 1
%%BoundingBox: 36 36 1862 414
end
restore
%%EOF
