%!PS-Adobe-2.0
%%Creator: Graphviz version 2.12 (Mon Nov 16 18:34:03 UTC 2009)
%%For: (vtamara) Vladimir
%%Title: G
%%Pages: (atend)
%%BoundingBox: (atend)
%%EndComments
save
%%BeginProlog
/DotDict 200 dict def
DotDict begin

/setupLatin1 {
mark
/EncodingVector 256 array def
 EncodingVector 0

ISOLatin1Encoding 0 255 getinterval putinterval
EncodingVector 45 /hyphen put

% Set up ISO Latin 1 character encoding
/starnetISO {
        dup dup findfont dup length dict begin
        { 1 index /FID ne { def }{ pop pop } ifelse
        } forall
        /Encoding EncodingVector def
        currentdict end definefont
} def
/Times-Roman starnetISO def
/Times-Italic starnetISO def
/Times-Bold starnetISO def
/Times-BoldItalic starnetISO def
/Helvetica starnetISO def
/Helvetica-Oblique starnetISO def
/Helvetica-Bold starnetISO def
/Helvetica-BoldOblique starnetISO def
/Courier starnetISO def
/Courier-Oblique starnetISO def
/Courier-Bold starnetISO def
/Courier-BoldOblique starnetISO def
cleartomark
} bind def

%%BeginResource: procset graphviz 0 0
/coord-font-family /Times-Roman def
/default-font-family /Times-Roman def
/coordfont coord-font-family findfont 8 scalefont def

/InvScaleFactor 1.0 def
/set_scale {
       dup 1 exch div /InvScaleFactor exch def
       scale
} bind def

% styles
/solid { [] 0 setdash } bind def
/dashed { [9 InvScaleFactor mul dup ] 0 setdash } bind def
/dotted { [1 InvScaleFactor mul 6 InvScaleFactor mul] 0 setdash } bind def
/invis {/fill {newpath} def /stroke {newpath} def /show {pop newpath} def} bind def
/bold { 2 setlinewidth } bind def
/filled { } bind def
/unfilled { } bind def
/rounded { } bind def
/diagonals { } bind def

% hooks for setting color 
/nodecolor { sethsbcolor } bind def
/edgecolor { sethsbcolor } bind def
/graphcolor { sethsbcolor } bind def
/nopcolor {pop pop pop} bind def

/beginpage {	% i j npages
	/npages exch def
	/j exch def
	/i exch def
	/str 10 string def
	npages 1 gt {
		gsave
			coordfont setfont
			0 0 moveto
			(\() show i str cvs show (,) show j str cvs show (\)) show
		grestore
	} if
} bind def

/set_font {
	findfont exch
	scalefont setfont
} def

% draw aligned label in bounding box aligned to current point
/alignedtext {			% width adj text
	/text exch def
	/adj exch def
	/width exch def
	gsave
		width 0 gt {
			text stringwidth pop adj mul 0 rmoveto
		} if
		[] 0 setdash
		text show
	grestore
} def

/boxprim {				% xcorner ycorner xsize ysize
		4 2 roll
		moveto
		2 copy
		exch 0 rlineto
		0 exch rlineto
		pop neg 0 rlineto
		closepath
} bind def

/ellipse_path {
	/ry exch def
	/rx exch def
	/y exch def
	/x exch def
	matrix currentmatrix
	newpath
	x y translate
	rx ry scale
	0 0 1 0 360 arc
	setmatrix
} bind def

/endpage { showpage } bind def
/showpage { } def

/layercolorseq
	[	% layer color sequence - darkest to lightest
		[0 0 0]
		[.2 .8 .8]
		[.4 .8 .8]
		[.6 .8 .8]
		[.8 .8 .8]
	]
def

/layerlen layercolorseq length def

/setlayer {/maxlayer exch def /curlayer exch def
	layercolorseq curlayer 1 sub layerlen mod get
	aload pop sethsbcolor
	/nodecolor {nopcolor} def
	/edgecolor {nopcolor} def
	/graphcolor {nopcolor} def
} bind def

/onlayer { curlayer ne {invis} if } def

/onlayers {
	/myupper exch def
	/mylower exch def
	curlayer mylower lt
	curlayer myupper gt
	or
	{invis} if
} def

/curlayer 0 def

%%EndResource
%%EndProlog
%%BeginSetup
14 default-font-family set_font
1 setmiterlimit
% /arrowlength 10 def
% /arrowwidth 5 def

% make sure pdfmark is harmless for PS-interpreters other than Distiller
/pdfmark where {pop} {userdict /pdfmark /cleartomark load put} ifelse
% make '<<' and '>>' safe on PS Level 1 devices
/languagelevel where {pop languagelevel}{1} ifelse
2 lt {
    userdict (<<) cvn ([) cvn load put
    userdict (>>) cvn ([) cvn load put
} if

%%EndSetup
setupLatin1
%%Page: 1 1
%%PageBoundingBox: 36 36 490 216
%%PageOrientation: Portrait
gsave
36 36 490 216 boxprim clip newpath
0 0 1 beginpage
1 1 set_scale 0 rotate 40 40 translate
% Node1
gsave
0.000 0.000 0.749 nodecolor
newpath 0 75 moveto
0 96 lineto
44 96 lineto
44 75 lineto
closepath fill
1 setlinewidth
filled
0.000 0.000 0.000 nodecolor
newpath 0 75 moveto
0 96 lineto
44 96 lineto
44 75 lineto
closepath stroke
0.000 0.000 0.000 nodecolor
10.00 /FreeSans.ttf set_font
22 82 moveto 28 -0.5 (main) alignedtext
grestore
% Node2
gsave
[ /Rect [ 242 152 296 172 ]
  /Border [ 0 0 0 ]
  /Action << /Subtype /URI /URI ($comun_8cpp.html#4a359aa93f2dd4e34badd70c0e1f7082) >>
  /Subtype /Link
/ANN pdfmark
[ /Rect [ 242 152 296 172 ]
  /Border [ 0 0 0 ]
  /Action << /Subtype /URI /URI ($comun_8cpp.html#4a359aa93f2dd4e34badd70c0e1f7082) >>
  /Subtype /Link
/ANN pdfmark
1 setlinewidth
0.000 0.000 0.000 nodecolor
newpath 242 151 moveto
242 172 lineto
297 172 lineto
297 151 lineto
closepath stroke
0.000 0.000 0.000 nodecolor
10.00 /FreeSans.ttf set_font
269 158 moveto 39 -0.5 (leeCad) alignedtext
grestore
% Node1->Node2
gsave
1 setlinewidth
solid
0.667 0.776 0.439 edgecolor
newpath 29 96 moveto
39 110 58 132 80 143 curveto
129 165 192 167 232 165 curveto
stroke
0.667 0.776 0.439 edgecolor
newpath 232 168.5 moveto
242 165 lineto
232 161.5 lineto
closepath fill
1 setlinewidth
solid
0.667 0.776 0.439 edgecolor
newpath 232 168.5 moveto
242 165 lineto
232 161.5 lineto
closepath stroke
grestore
% Node4
gsave
[ /Rect [ 96 114 164 134 ]
  /Border [ 0 0 0 ]
  /Action << /Subtype /URI /URI ($comun_8hpp.html#9871d7357fc245ec5b7a227a9a62eb36) >>
  /Subtype /Link
/ANN pdfmark
[ /Rect [ 96 114 164 134 ]
  /Border [ 0 0 0 ]
  /Action << /Subtype /URI /URI ($comun_8hpp.html#9871d7357fc245ec5b7a227a9a62eb36) >>
  /Subtype /Link
/ANN pdfmark
1 setlinewidth
0.000 0.000 0.000 nodecolor
newpath 96 113 moveto
96 134 lineto
164 134 lineto
164 113 lineto
closepath stroke
0.000 0.000 0.000 nodecolor
10.00 /FreeSans.ttf set_font
130 120 moveto 52 -0.5 (leeNDesp) alignedtext
grestore
% Node1->Node4
gsave
1 setlinewidth
solid
0.667 0.776 0.439 edgecolor
newpath 44 94 moveto
57 98 74 104 89 110 curveto
stroke
0.667 0.776 0.439 edgecolor
newpath 88.416 113.479 moveto
99 113 lineto
90.4275 106.774 lineto
closepath fill
1 setlinewidth
solid
0.667 0.776 0.439 edgecolor
newpath 88.416 113.479 moveto
99 113 lineto
90.4275 106.774 lineto
closepath stroke
grestore
% Node6
gsave
[ /Rect [ 105 76 155 96 ]
  /Border [ 0 0 0 ]
  /Action << /Subtype /URI /URI ($Pos_8cpp.html#36b67a50cba6dc1789825a3111bee9d2) >>
  /Subtype /Link
/ANN pdfmark
[ /Rect [ 105 76 155 96 ]
  /Border [ 0 0 0 ]
  /Action << /Subtype /URI /URI ($Pos_8cpp.html#36b67a50cba6dc1789825a3111bee9d2) >>
  /Subtype /Link
/ANN pdfmark
1 setlinewidth
0.000 0.000 0.000 nodecolor
newpath 105 75 moveto
105 96 lineto
156 96 lineto
156 75 lineto
closepath stroke
0.000 0.000 0.000 nodecolor
10.00 /FreeSans.ttf set_font
130 82 moveto 35 -0.5 (leePos) alignedtext
grestore
% Node1->Node6
gsave
1 setlinewidth
solid
0.667 0.776 0.439 edgecolor
newpath 44 86 moveto
59 86 78 86 95 86 curveto
stroke
0.667 0.776 0.439 edgecolor
newpath 95 89.5001 moveto
105 86 lineto
95 82.5001 lineto
closepath fill
1 setlinewidth
solid
0.667 0.776 0.439 edgecolor
newpath 95 89.5001 moveto
105 86 lineto
95 82.5001 lineto
closepath stroke
grestore
% Node8
gsave
[ /Rect [ 225 0 313 20 ]
  /Border [ 0 0 0 ]
  /Action << /Subtype /URI /URI ($TrieSDisco_8cpp.html#3b55801abcb3987a49125a0ddc9ff76c) >>
  /Subtype /Link
/ANN pdfmark
[ /Rect [ 225 0 313 20 ]
  /Border [ 0 0 0 ]
  /Action << /Subtype /URI /URI ($TrieSDisco_8cpp.html#3b55801abcb3987a49125a0ddc9ff76c) >>
  /Subtype /Link
/ANN pdfmark
1 setlinewidth
0.000 0.000 0.000 nodecolor
newpath 225 -1 moveto
225 20 lineto
314 20 lineto
314 -1 lineto
closepath stroke
0.000 0.000 0.000 nodecolor
10.00 /FreeSans.ttf set_font
269 6 moveto 73 -0.5 (verificaIndice) alignedtext
grestore
% Node1->Node8
gsave
1 setlinewidth
solid
0.667 0.776 0.439 edgecolor
newpath 44 79 moveto
55 75 68 71 80 67 curveto
130 51 186 34 224 23 curveto
stroke
0.667 0.776 0.439 edgecolor
newpath 225.427 26.2259 moveto
234 20 lineto
223.416 19.5212 lineto
closepath fill
1 setlinewidth
solid
0.667 0.776 0.439 edgecolor
newpath 225.427 26.2259 moveto
234 20 lineto
223.416 19.5212 lineto
closepath stroke
grestore
% Node9
gsave
[ /Rect [ 80 0 180 20 ]
  /Border [ 0 0 0 ]
  /Action << /Subtype /URI /URI ($comun_8cpp.html#ecd3ce9c133c650ebb919dcce6f77003) >>
  /Subtype /Link
/ANN pdfmark
[ /Rect [ 80 0 180 20 ]
  /Border [ 0 0 0 ]
  /Action << /Subtype /URI /URI ($comun_8cpp.html#ecd3ce9c133c650ebb919dcce6f77003) >>
  /Subtype /Link
/ANN pdfmark
1 setlinewidth
0.000 0.000 0.000 nodecolor
newpath 80 -1 moveto
80 20 lineto
180 20 lineto
180 -1 lineto
closepath stroke
0.000 0.000 0.000 nodecolor
10.00 /FreeSans.ttf set_font
130 6 moveto 84 -0.5 (verificaNombre) alignedtext
grestore
% Node1->Node9
gsave
1 setlinewidth
solid
0.667 0.776 0.439 edgecolor
newpath 33 75 moveto
44 64 62 46 80 34 curveto
85 31 91 27 97 24 curveto
stroke
0.667 0.776 0.439 edgecolor
newpath 98.2834 27.2598 moveto
106 20 lineto
95.4404 20.8631 lineto
closepath fill
1 setlinewidth
solid
0.667 0.776 0.439 edgecolor
newpath 98.2834 27.2598 moveto
106 20 lineto
95.4404 20.8631 lineto
closepath stroke
grestore
% Node3
gsave
[ /Rect [ 358 76 446 96 ]
  /Border [ 0 0 0 ]
  /Action << /Subtype /URI /URI ($comun_8cpp.html#88ffeb20e447cad877c37bb473033590) >>
  /Subtype /Link
/ANN pdfmark
[ /Rect [ 358 76 446 96 ]
  /Border [ 0 0 0 ]
  /Action << /Subtype /URI /URI ($comun_8cpp.html#88ffeb20e447cad877c37bb473033590) >>
  /Subtype /Link
/ANN pdfmark
1 setlinewidth
0.000 0.000 0.000 nodecolor
newpath 358 75 moveto
358 96 lineto
446 96 lineto
446 75 lineto
closepath stroke
0.000 0.000 0.000 nodecolor
10.00 /FreeSans.ttf set_font
402 82 moveto 72 -0.5 (errorFormato) alignedtext
grestore
% Node2->Node3
gsave
1 setlinewidth
solid
0.667 0.776 0.439 edgecolor
newpath 297 153 moveto
305 150 314 147 322 143 curveto
344 131 367 114 382 102 curveto
stroke
0.667 0.776 0.439 edgecolor
newpath 384.1 104.8 moveto
390 96 lineto
379.9 99.2 lineto
closepath fill
1 setlinewidth
solid
0.667 0.776 0.439 edgecolor
newpath 384.1 104.8 moveto
390 96 lineto
379.9 99.2 lineto
closepath stroke
grestore
% Node5
gsave
[ /Rect [ 239 114 299 134 ]
  /Border [ 0 0 0 ]
  /Action << /Subtype /URI /URI ($comun_8cpp.html#c7bf9e68bbdccea36ce786b806244ea1) >>
  /Subtype /Link
/ANN pdfmark
[ /Rect [ 239 114 299 134 ]
  /Border [ 0 0 0 ]
  /Action << /Subtype /URI /URI ($comun_8cpp.html#c7bf9e68bbdccea36ce786b806244ea1) >>
  /Subtype /Link
/ANN pdfmark
1 setlinewidth
0.000 0.000 0.000 nodecolor
newpath 239 113 moveto
239 134 lineto
299 134 lineto
299 113 lineto
closepath stroke
0.000 0.000 0.000 nodecolor
10.00 /FreeSans.ttf set_font
269 120 moveto 44 -0.5 (lee128b) alignedtext
grestore
% Node4->Node5
gsave
1 setlinewidth
solid
0.667 0.776 0.439 edgecolor
newpath 164 124 moveto
184 124 208 124 229 124 curveto
stroke
0.667 0.776 0.439 edgecolor
newpath 229 127.5 moveto
239 124 lineto
229 120.5 lineto
closepath fill
1 setlinewidth
solid
0.667 0.776 0.439 edgecolor
newpath 229 127.5 moveto
239 124 lineto
229 120.5 lineto
closepath stroke
grestore
% Node5->Node3
gsave
1 setlinewidth
solid
0.667 0.776 0.439 edgecolor
newpath 299 115 moveto
316 110 337 104 356 99 curveto
stroke
0.667 0.776 0.439 edgecolor
newpath 357.427 102.226 moveto
366 96 lineto
355.416 95.5212 lineto
closepath fill
1 setlinewidth
solid
0.667 0.776 0.439 edgecolor
newpath 357.427 102.226 moveto
366 96 lineto
355.416 95.5212 lineto
closepath stroke
grestore
% Node6->Node3
gsave
1 setlinewidth
solid
0.667 0.776 0.439 edgecolor
newpath 156 86 moveto
199 86 289 86 348 86 curveto
stroke
0.667 0.776 0.439 edgecolor
newpath 348 89.5001 moveto
358 86 lineto
348 82.5001 lineto
closepath fill
1 setlinewidth
solid
0.667 0.776 0.439 edgecolor
newpath 348 89.5001 moveto
358 86 lineto
348 82.5001 lineto
closepath stroke
grestore
% Node7
gsave
[ /Rect [ 216 38 322 58 ]
  /Border [ 0 0 0 ]
  /Action << /Subtype /URI /URI ($Elias_8cpp.html#95ee5a0ffb91f203612d2ce9d063ec36) >>
  /Subtype /Link
/ANN pdfmark
[ /Rect [ 216 38 322 58 ]
  /Border [ 0 0 0 ]
  /Action << /Subtype /URI /URI ($Elias_8cpp.html#95ee5a0ffb91f203612d2ce9d063ec36) >>
  /Subtype /Link
/ANN pdfmark
1 setlinewidth
0.000 0.000 0.000 nodecolor
newpath 216 37 moveto
216 58 lineto
322 58 lineto
322 37 lineto
closepath stroke
0.000 0.000 0.000 nodecolor
10.00 /FreeSans.ttf set_font
269 44 moveto 90 -0.5 (lee_elias_gama2) alignedtext
grestore
% Node6->Node7
gsave
1 setlinewidth
solid
0.667 0.776 0.439 edgecolor
newpath 156 79 moveto
174 74 200 67 222 61 curveto
stroke
0.667 0.776 0.439 edgecolor
newpath 223.427 64.2259 moveto
232 58 lineto
221.416 57.5212 lineto
closepath fill
1 setlinewidth
solid
0.667 0.776 0.439 edgecolor
newpath 223.427 64.2259 moveto
232 58 lineto
221.416 57.5212 lineto
closepath stroke
grestore
% Node7->Node3
gsave
1 setlinewidth
solid
0.667 0.776 0.439 edgecolor
newpath 304 58 moveto
320 62 338 68 354 72 curveto
stroke
0.667 0.776 0.439 edgecolor
newpath 353.416 75.4788 moveto
364 75 lineto
355.427 68.7741 lineto
closepath fill
1 setlinewidth
solid
0.667 0.776 0.439 edgecolor
newpath 353.416 75.4788 moveto
364 75 lineto
355.427 68.7741 lineto
closepath stroke
grestore
% Node8->Node3
gsave
1 setlinewidth
solid
0.667 0.776 0.439 edgecolor
newpath 302 20 moveto
309 23 316 26 322 29 curveto
343 40 366 56 381 68 curveto
stroke
0.667 0.776 0.439 edgecolor
newpath 379.169 71.0489 moveto
389 75 lineto
383.779 65.7809 lineto
closepath fill
1 setlinewidth
solid
0.667 0.776 0.439 edgecolor
newpath 379.169 71.0489 moveto
389 75 lineto
383.779 65.7809 lineto
closepath stroke
grestore
endpage
showpage
grestore
%%PageTrailer
%%EndPage: 1
%%Trailer
%%Pages: 1
%%BoundingBox: 36 36 490 216
end
restore
%%EOF
