%!PS-Adobe-2.0
%%Creator: Graphviz version 2.12 (Mon Nov 16 18:34:03 UTC 2009)
%%For: (vtamara) Vladimir
%%Title: G
%%Pages: (atend)
%%BoundingBox: (atend)
%%EndComments
save
%%BeginProlog
/DotDict 200 dict def
DotDict begin

/setupLatin1 {
mark
/EncodingVector 256 array def
 EncodingVector 0

ISOLatin1Encoding 0 255 getinterval putinterval
EncodingVector 45 /hyphen put

% Set up ISO Latin 1 character encoding
/starnetISO {
        dup dup findfont dup length dict begin
        { 1 index /FID ne { def }{ pop pop } ifelse
        } forall
        /Encoding EncodingVector def
        currentdict end definefont
} def
/Times-Roman starnetISO def
/Times-Italic starnetISO def
/Times-Bold starnetISO def
/Times-BoldItalic starnetISO def
/Helvetica starnetISO def
/Helvetica-Oblique starnetISO def
/Helvetica-Bold starnetISO def
/Helvetica-BoldOblique starnetISO def
/Courier starnetISO def
/Courier-Oblique starnetISO def
/Courier-Bold starnetISO def
/Courier-BoldOblique starnetISO def
cleartomark
} bind def

%%BeginResource: procset graphviz 0 0
/coord-font-family /Times-Roman def
/default-font-family /Times-Roman def
/coordfont coord-font-family findfont 8 scalefont def

/InvScaleFactor 1.0 def
/set_scale {
       dup 1 exch div /InvScaleFactor exch def
       scale
} bind def

% styles
/solid { [] 0 setdash } bind def
/dashed { [9 InvScaleFactor mul dup ] 0 setdash } bind def
/dotted { [1 InvScaleFactor mul 6 InvScaleFactor mul] 0 setdash } bind def
/invis {/fill {newpath} def /stroke {newpath} def /show {pop newpath} def} bind def
/bold { 2 setlinewidth } bind def
/filled { } bind def
/unfilled { } bind def
/rounded { } bind def
/diagonals { } bind def

% hooks for setting color 
/nodecolor { sethsbcolor } bind def
/edgecolor { sethsbcolor } bind def
/graphcolor { sethsbcolor } bind def
/nopcolor {pop pop pop} bind def

/beginpage {	% i j npages
	/npages exch def
	/j exch def
	/i exch def
	/str 10 string def
	npages 1 gt {
		gsave
			coordfont setfont
			0 0 moveto
			(\() show i str cvs show (,) show j str cvs show (\)) show
		grestore
	} if
} bind def

/set_font {
	findfont exch
	scalefont setfont
} def

% draw aligned label in bounding box aligned to current point
/alignedtext {			% width adj text
	/text exch def
	/adj exch def
	/width exch def
	gsave
		width 0 gt {
			text stringwidth pop adj mul 0 rmoveto
		} if
		[] 0 setdash
		text show
	grestore
} def

/boxprim {				% xcorner ycorner xsize ysize
		4 2 roll
		moveto
		2 copy
		exch 0 rlineto
		0 exch rlineto
		pop neg 0 rlineto
		closepath
} bind def

/ellipse_path {
	/ry exch def
	/rx exch def
	/y exch def
	/x exch def
	matrix currentmatrix
	newpath
	x y translate
	rx ry scale
	0 0 1 0 360 arc
	setmatrix
} bind def

/endpage { showpage } bind def
/showpage { } def

/layercolorseq
	[	% layer color sequence - darkest to lightest
		[0 0 0]
		[.2 .8 .8]
		[.4 .8 .8]
		[.6 .8 .8]
		[.8 .8 .8]
	]
def

/layerlen layercolorseq length def

/setlayer {/maxlayer exch def /curlayer exch def
	layercolorseq curlayer 1 sub layerlen mod get
	aload pop sethsbcolor
	/nodecolor {nopcolor} def
	/edgecolor {nopcolor} def
	/graphcolor {nopcolor} def
} bind def

/onlayer { curlayer ne {invis} if } def

/onlayers {
	/myupper exch def
	/mylower exch def
	curlayer mylower lt
	curlayer myupper gt
	or
	{invis} if
} def

/curlayer 0 def

%%EndResource
%%EndProlog
%%BeginSetup
14 default-font-family set_font
1 setmiterlimit
% /arrowlength 10 def
% /arrowwidth 5 def

% make sure pdfmark is harmless for PS-interpreters other than Distiller
/pdfmark where {pop} {userdict /pdfmark /cleartomark load put} ifelse
% make '<<' and '>>' safe on PS Level 1 devices
/languagelevel where {pop languagelevel}{1} ifelse
2 lt {
    userdict (<<) cvn ([) cvn load put
    userdict (>>) cvn ([) cvn load put
} if

%%EndSetup
setupLatin1
%%Page: 1 1
%%PageBoundingBox: 36 36 1039 356
%%PageOrientation: Portrait
gsave
36 36 1039 356 boxprim clip newpath
0 0 1 beginpage
1 1 set_scale 0 rotate 40 40 translate
% Node1
gsave
0.000 0.000 0.749 nodecolor
newpath 505 290 moveto
505 311 lineto
616 311 lineto
616 290 lineto
closepath fill
1 setlinewidth
filled
0.000 0.000 0.000 nodecolor
newpath 505 290 moveto
505 311 lineto
616 311 lineto
616 290 lineto
closepath stroke
0.000 0.000 0.000 nodecolor
10.00 /FreeSans.ttf set_font
560 297 moveto 95 -0.5 (depuraindice.cpp) alignedtext
grestore
% Node2
gsave
1 setlinewidth
0.000 0.000 0.749 nodecolor
newpath 95 174 moveto
95 195 lineto
159 195 lineto
159 174 lineto
closepath stroke
0.000 0.000 0.000 nodecolor
10.00 /FreeSans.ttf set_font
127 181 moveto 48 -0.5 (iostream) alignedtext
grestore
% Node1->Node2
gsave
1 setlinewidth
solid
0.667 0.776 0.439 edgecolor
newpath 505 298 moveto
442 294 336 283 251 254 curveto
214 241 174 216 150 201 curveto
stroke
0.667 0.776 0.439 edgecolor
newpath 152.1 198.2 moveto
142 195 lineto
147.9 203.8 lineto
closepath fill
1 setlinewidth
solid
0.667 0.776 0.439 edgecolor
newpath 152.1 198.2 moveto
142 195 lineto
147.9 203.8 lineto
closepath stroke
grestore
% Node3
gsave
1 setlinewidth
0.000 0.000 0.749 nodecolor
newpath 177 174 moveto
177 195 lineto
238 195 lineto
238 174 lineto
closepath stroke
0.000 0.000 0.000 nodecolor
10.00 /FreeSans.ttf set_font
207 181 moveto 45 -0.5 (iomanip) alignedtext
grestore
% Node1->Node3
gsave
1 setlinewidth
solid
0.667 0.776 0.439 edgecolor
newpath 505 295 moveto
436 287 322 272 284 254 curveto
259 242 236 219 222 203 curveto
stroke
0.667 0.776 0.439 edgecolor
newpath 224.219 200.221 moveto
215 195 lineto
218.951 204.831 lineto
closepath fill
1 setlinewidth
solid
0.667 0.776 0.439 edgecolor
newpath 224.219 200.221 moveto
215 195 lineto
218.951 204.831 lineto
closepath stroke
grestore
% Node4
gsave
1 setlinewidth
0.000 0.000 0.749 nodecolor
newpath 483 174 moveto
483 195 lineto
514 195 lineto
514 174 lineto
closepath stroke
0.000 0.000 0.000 nodecolor
10.00 /FreeSans.ttf set_font
498 181 moveto 15 -0.5 (list) alignedtext
grestore
% Node1->Node4
gsave
1 setlinewidth
solid
0.667 0.776 0.439 edgecolor
newpath 551 290 moveto
544 280 534 267 527 254 curveto
517 238 510 219 505 205 curveto
stroke
0.667 0.776 0.439 edgecolor
newpath 507.964 202.985 moveto
501 195 lineto
501.464 205.585 lineto
closepath fill
1 setlinewidth
solid
0.667 0.776 0.439 edgecolor
newpath 507.964 202.985 moveto
501 195 lineto
501.464 205.585 lineto
closepath stroke
grestore
% Node5
gsave
1 setlinewidth
0.000 0.000 0.749 nodecolor
newpath 438 116 moveto
438 137 lineto
488 137 lineto
488 116 lineto
closepath stroke
0.000 0.000 0.000 nodecolor
10.00 /FreeSans.ttf set_font
463 123 moveto 34 -0.5 (vector) alignedtext
grestore
% Node1->Node5
gsave
1 setlinewidth
solid
0.667 0.776 0.439 edgecolor
newpath 559 290 moveto
556 266 547 211 522 174 curveto
513 161 501 151 490 143 curveto
stroke
0.667 0.776 0.439 edgecolor
newpath 491.262 139.635 moveto
481 137 lineto
487.379 145.459 lineto
closepath fill
1 setlinewidth
solid
0.667 0.776 0.439 edgecolor
newpath 491.262 139.635 moveto
481 137 lineto
487.379 145.459 lineto
closepath stroke
grestore
% Node6
gsave
1 setlinewidth
0.000 0.000 0.749 nodecolor
newpath 413 0 moveto
413 21 lineto
445 21 lineto
445 0 lineto
closepath stroke
0.000 0.000 0.000 nodecolor
10.00 /FreeSans.ttf set_font
429 7 moveto 16 -0.5 (set) alignedtext
grestore
% Node1->Node6
gsave
1 setlinewidth
solid
0.667 0.776 0.439 edgecolor
newpath 563 290 moveto
568 269 579 224 579 185 curveto
579 185 579 185 579 127 curveto
579 64 498 31 455 18 curveto
stroke
0.667 0.776 0.439 edgecolor
newpath 455.584 14.5212 moveto
445 15 lineto
453.573 21.2259 lineto
closepath fill
1 setlinewidth
solid
0.667 0.776 0.439 edgecolor
newpath 455.584 14.5212 moveto
445 15 lineto
453.573 21.2259 lineto
closepath stroke
grestore
% Node7
gsave
1 setlinewidth
0.000 0.000 0.749 nodecolor
newpath 607 232 moveto
607 253 lineto
665 253 lineto
665 232 lineto
closepath stroke
0.000 0.000 0.000 nodecolor
10.00 /FreeSans.ttf set_font
636 239 moveto 42 -0.5 (fstream) alignedtext
grestore
% Node1->Node7
gsave
1 setlinewidth
solid
0.667 0.776 0.439 edgecolor
newpath 575 290 moveto
586 281 602 269 615 259 curveto
stroke
0.667 0.776 0.439 edgecolor
newpath 617.1 261.8 moveto
623 253 lineto
612.9 256.2 lineto
closepath fill
1 setlinewidth
solid
0.667 0.776 0.439 edgecolor
newpath 617.1 261.8 moveto
623 253 lineto
612.9 256.2 lineto
closepath stroke
grestore
% Node8
gsave
1 setlinewidth
0.000 0.000 0.749 nodecolor
newpath 683 232 moveto
683 253 lineto
740 253 lineto
740 232 lineto
closepath stroke
0.000 0.000 0.000 nodecolor
10.00 /FreeSans.ttf set_font
711 239 moveto 41 -0.5 (istream) alignedtext
grestore
% Node1->Node8
gsave
1 setlinewidth
solid
0.667 0.776 0.439 edgecolor
newpath 589 290 moveto
614 280 649 267 675 257 curveto
stroke
0.667 0.776 0.439 edgecolor
newpath 677.015 259.964 moveto
685 253 lineto
674.415 253.464 lineto
closepath fill
1 setlinewidth
solid
0.667 0.776 0.439 edgecolor
newpath 677.015 259.964 moveto
685 253 lineto
674.415 253.464 lineto
closepath stroke
grestore
% Node9
gsave
1 setlinewidth
0.000 0.000 0.749 nodecolor
newpath 757 232 moveto
757 253 lineto
826 253 lineto
826 232 lineto
closepath stroke
0.000 0.000 0.000 nodecolor
10.00 /FreeSans.ttf set_font
791 239 moveto 53 -0.5 (algorithm) alignedtext
grestore
% Node1->Node9
gsave
1 setlinewidth
solid
0.667 0.776 0.439 edgecolor
newpath 604 290 moveto
640 281 693 268 747 254 curveto
stroke
0.667 0.776 0.439 edgecolor
newpath 747.881 257.393 moveto
757 252 lineto
746.508 250.529 lineto
closepath fill
1 setlinewidth
solid
0.667 0.776 0.439 edgecolor
newpath 747.881 257.393 moveto
757 252 lineto
746.508 250.529 lineto
closepath stroke
grestore
% Node10
gsave
1 setlinewidth
0.000 0.000 0.749 nodecolor
newpath 843 232 moveto
843 253 lineto
913 253 lineto
913 232 lineto
closepath stroke
0.000 0.000 0.000 nodecolor
10.00 /FreeSans.ttf set_font
878 239 moveto 54 -0.5 (sys/time.h) alignedtext
grestore
% Node1->Node10
gsave
1 setlinewidth
solid
0.667 0.776 0.439 edgecolor
newpath 616 293 moveto
670 284 752 271 833 254 curveto
stroke
0.667 0.776 0.439 edgecolor
newpath 833.881 257.393 moveto
843 252 lineto
832.508 250.529 lineto
closepath fill
1 setlinewidth
solid
0.667 0.776 0.439 edgecolor
newpath 833.881 257.393 moveto
843 252 lineto
832.508 250.529 lineto
closepath stroke
grestore
% Node11
gsave
1 setlinewidth
0.000 0.000 0.749 nodecolor
newpath 931 232 moveto
931 253 lineto
996 253 lineto
996 232 lineto
closepath stroke
0.000 0.000 0.000 nodecolor
10.00 /FreeSans.ttf set_font
963 239 moveto 49 -0.5 (sys/stat.h) alignedtext
grestore
% Node1->Node11
gsave
1 setlinewidth
solid
0.667 0.776 0.439 edgecolor
newpath 616 296 moveto
685 289 807 276 921 254 curveto
stroke
0.667 0.776 0.439 edgecolor
newpath 921.881 257.393 moveto
931 252 lineto
920.508 250.529 lineto
closepath fill
1 setlinewidth
solid
0.667 0.776 0.439 edgecolor
newpath 921.881 257.393 moveto
931 252 lineto
920.508 250.529 lineto
closepath stroke
grestore
% Node12
gsave
[ /Rect [ 280 117 338 137 ]
  /Border [ 0 0 0 ]
  /Action << /Subtype /URI /URI ($Pos_8hpp.html) >>
  /Subtype /Link
/ANN pdfmark
[ /Rect [ 280 117 338 137 ]
  /Border [ 0 0 0 ]
  /Action << /Subtype /URI /URI ($Pos_8hpp.html) >>
  /Subtype /Link
/ANN pdfmark
1 setlinewidth
0.000 0.000 0.000 nodecolor
newpath 280 116 moveto
280 137 lineto
338 137 lineto
338 116 lineto
closepath stroke
0.000 0.000 0.000 nodecolor
10.00 /FreeSans.ttf set_font
309 123 moveto 42 -0.5 (Pos.hpp) alignedtext
grestore
% Node1->Node12
gsave
1 setlinewidth
solid
0.667 0.776 0.439 edgecolor
newpath 505 298 moveto
390 291 130 266 86 196 curveto
26 97 0 201 270 137 curveto
stroke
0.667 0.776 0.439 edgecolor
newpath 270.881 140.393 moveto
280 135 lineto
269.508 133.529 lineto
closepath fill
1 setlinewidth
solid
0.667 0.776 0.439 edgecolor
newpath 270.881 140.393 moveto
280 135 lineto
269.508 133.529 lineto
closepath stroke
grestore
% Node17
gsave
[ /Rect [ 293 233 389 253 ]
  /Border [ 0 0 0 ]
  /Action << /Subtype /URI /URI ($TrieSDisco_8hpp.html) >>
  /Subtype /Link
/ANN pdfmark
[ /Rect [ 293 233 389 253 ]
  /Border [ 0 0 0 ]
  /Action << /Subtype /URI /URI ($TrieSDisco_8hpp.html) >>
  /Subtype /Link
/ANN pdfmark
1 setlinewidth
0.000 0.000 0.000 nodecolor
newpath 293 232 moveto
293 253 lineto
389 253 lineto
389 232 lineto
closepath stroke
0.000 0.000 0.000 nodecolor
10.00 /FreeSans.ttf set_font
341 239 moveto 80 -0.5 (TrieSDisco.hpp) alignedtext
grestore
% Node1->Node17
gsave
1 setlinewidth
solid
0.667 0.776 0.439 edgecolor
newpath 518 290 moveto
481 280 428 266 389 256 curveto
stroke
0.667 0.776 0.439 edgecolor
newpath 389.584 252.521 moveto
379 253 lineto
387.573 259.226 lineto
closepath fill
1 setlinewidth
solid
0.667 0.776 0.439 edgecolor
newpath 389.584 252.521 moveto
379 253 lineto
387.573 259.226 lineto
closepath stroke
grestore
% Node13
gsave
[ /Rect [ 264 59 342 79 ]
  /Border [ 0 0 0 ]
  /Action << /Subtype /URI /URI ($comun_8hpp.html) >>
  /Subtype /Link
/ANN pdfmark
[ /Rect [ 264 59 342 79 ]
  /Border [ 0 0 0 ]
  /Action << /Subtype /URI /URI ($comun_8hpp.html) >>
  /Subtype /Link
/ANN pdfmark
1 setlinewidth
0.000 0.000 0.000 nodecolor
newpath 264 58 moveto
264 79 lineto
342 79 lineto
342 58 lineto
closepath stroke
0.000 0.000 0.000 nodecolor
10.00 /FreeSans.ttf set_font
303 65 moveto 62 -0.5 (comun.hpp) alignedtext
grestore
% Node12->Node13
gsave
1 setlinewidth
solid
0.667 0.776 0.439 edgecolor
newpath 308 116 moveto
307 108 306 98 305 89 curveto
stroke
0.667 0.776 0.439 edgecolor
newpath 308.478 88.6021 moveto
304 79 lineto
301.512 89.2987 lineto
closepath fill
1 setlinewidth
solid
0.667 0.776 0.439 edgecolor
newpath 308.478 88.6021 moveto
304 79 lineto
301.512 89.2987 lineto
closepath stroke
grestore
% Node13->Node6
gsave
1 setlinewidth
solid
0.667 0.776 0.439 edgecolor
newpath 327 58 moveto
349 48 381 33 404 22 curveto
stroke
0.667 0.776 0.439 edgecolor
newpath 405.283 25.2598 moveto
413 18 lineto
402.44 18.8631 lineto
closepath fill
1 setlinewidth
solid
0.667 0.776 0.439 edgecolor
newpath 405.283 25.2598 moveto
413 18 lineto
402.44 18.8631 lineto
closepath stroke
grestore
% Node14
gsave
1 setlinewidth
0.000 0.000 0.749 nodecolor
newpath 349 0 moveto
349 21 lineto
395 21 lineto
395 0 lineto
closepath stroke
0.000 0.000 0.000 nodecolor
10.00 /FreeSans.ttf set_font
372 7 moveto 30 -0.5 (string) alignedtext
grestore
% Node13->Node14
gsave
1 setlinewidth
solid
0.667 0.776 0.439 edgecolor
newpath 316 58 moveto
326 49 341 37 352 27 curveto
stroke
0.667 0.776 0.439 edgecolor
newpath 354.1 29.8 moveto
360 21 lineto
349.9 24.2 lineto
closepath fill
1 setlinewidth
solid
0.667 0.776 0.439 edgecolor
newpath 354.1 29.8 moveto
360 21 lineto
349.9 24.2 lineto
closepath stroke
grestore
% Node15
gsave
1 setlinewidth
0.000 0.000 0.749 nodecolor
newpath 271 0 moveto
271 21 lineto
332 21 lineto
332 0 lineto
closepath stroke
0.000 0.000 0.000 nodecolor
10.00 /FreeSans.ttf set_font
301 7 moveto 45 -0.5 (ostream) alignedtext
grestore
% Node13->Node15
gsave
1 setlinewidth
solid
0.667 0.776 0.439 edgecolor
newpath 303 58 moveto
302 50 302 40 302 31 curveto
stroke
0.667 0.776 0.439 edgecolor
newpath 305.478 30.6021 moveto
301 21 lineto
298.512 31.2987 lineto
closepath fill
1 setlinewidth
solid
0.667 0.776 0.439 edgecolor
newpath 305.478 30.6021 moveto
301 21 lineto
298.512 31.2987 lineto
closepath stroke
grestore
% Node16
gsave
1 setlinewidth
0.000 0.000 0.749 nodecolor
newpath 195 0 moveto
195 21 lineto
254 21 lineto
254 0 lineto
closepath stroke
0.000 0.000 0.000 nodecolor
10.00 /FreeSans.ttf set_font
224 7 moveto 43 -0.5 (sstream) alignedtext
grestore
% Node13->Node16
gsave
1 setlinewidth
solid
0.667 0.776 0.439 edgecolor
newpath 288 58 moveto
276 49 259 37 246 27 curveto
stroke
0.667 0.776 0.439 edgecolor
newpath 248.1 24.2 moveto
238 21 lineto
243.9 29.8 lineto
closepath fill
1 setlinewidth
solid
0.667 0.776 0.439 edgecolor
newpath 248.1 24.2 moveto
238 21 lineto
243.9 29.8 lineto
closepath stroke
grestore
% Node17->Node2
gsave
1 setlinewidth
solid
0.667 0.776 0.439 edgecolor
newpath 300 232 moveto
262 222 207 207 169 197 curveto
stroke
0.667 0.776 0.439 edgecolor
newpath 169.584 193.521 moveto
159 194 lineto
167.573 200.226 lineto
closepath fill
1 setlinewidth
solid
0.667 0.776 0.439 edgecolor
newpath 169.584 193.521 moveto
159 194 lineto
167.573 200.226 lineto
closepath stroke
grestore
% Node17->Node3
gsave
1 setlinewidth
solid
0.667 0.776 0.439 edgecolor
newpath 315 232 moveto
294 222 263 209 239 199 curveto
stroke
0.667 0.776 0.439 edgecolor
newpath 240.56 195.863 moveto
230 195 lineto
237.717 202.26 lineto
closepath fill
1 setlinewidth
solid
0.667 0.776 0.439 edgecolor
newpath 240.56 195.863 moveto
230 195 lineto
237.717 202.26 lineto
closepath stroke
grestore
% Node17->Node4
gsave
1 setlinewidth
solid
0.667 0.776 0.439 edgecolor
newpath 371 232 moveto
397 222 435 208 469 196 curveto
470 195 472 195 473 194 curveto
stroke
0.667 0.776 0.439 edgecolor
newpath 474.427 197.226 moveto
483 191 lineto
472.416 190.521 lineto
closepath fill
1 setlinewidth
solid
0.667 0.776 0.439 edgecolor
newpath 474.427 197.226 moveto
483 191 lineto
472.416 190.521 lineto
closepath stroke
grestore
% Node17->Node5
gsave
1 setlinewidth
solid
0.667 0.776 0.439 edgecolor
newpath 377 232 moveto
397 224 420 213 436 196 curveto
448 182 455 162 459 147 curveto
stroke
0.667 0.776 0.439 edgecolor
newpath 462.471 147.492 moveto
461 137 lineto
455.607 146.119 lineto
closepath fill
1 setlinewidth
solid
0.667 0.776 0.439 edgecolor
newpath 462.471 147.492 moveto
461 137 lineto
455.607 146.119 lineto
closepath stroke
grestore
% Node17->Node12
gsave
1 setlinewidth
solid
0.667 0.776 0.439 edgecolor
newpath 336 232 moveto
331 222 326 208 322 196 curveto
317 180 314 161 312 147 curveto
stroke
0.667 0.776 0.439 edgecolor
newpath 315.393 146.119 moveto
310 137 lineto
308.529 147.492 lineto
closepath fill
1 setlinewidth
solid
0.667 0.776 0.439 edgecolor
newpath 315.393 146.119 moveto
310 137 lineto
308.529 147.492 lineto
closepath stroke
grestore
% Node18
gsave
[ /Rect [ 331 175 427 195 ]
  /Border [ 0 0 0 ]
  /Action << /Subtype /URI /URI ($NodoTrieS_8hpp.html) >>
  /Subtype /Link
/ANN pdfmark
[ /Rect [ 331 175 427 195 ]
  /Border [ 0 0 0 ]
  /Action << /Subtype /URI /URI ($NodoTrieS_8hpp.html) >>
  /Subtype /Link
/ANN pdfmark
1 setlinewidth
0.000 0.000 0.000 nodecolor
newpath 331 174 moveto
331 195 lineto
427 195 lineto
427 174 lineto
closepath stroke
0.000 0.000 0.000 nodecolor
10.00 /FreeSans.ttf set_font
379 181 moveto 80 -0.5 (NodoTrieS.hpp) alignedtext
grestore
% Node17->Node18
gsave
1 setlinewidth
solid
0.667 0.776 0.439 edgecolor
newpath 348 232 moveto
353 224 361 213 367 204 curveto
stroke
0.667 0.776 0.439 edgecolor
newpath 370.203 205.441 moveto
372 195 lineto
364.084 202.042 lineto
closepath fill
1 setlinewidth
solid
0.667 0.776 0.439 edgecolor
newpath 370.203 205.441 moveto
372 195 lineto
364.084 202.042 lineto
closepath stroke
grestore
% Node19
gsave
[ /Rect [ 202 117 262 137 ]
  /Border [ 0 0 0 ]
  /Action << /Subtype /URI /URI ($Doc_8hpp.html) >>
  /Subtype /Link
/ANN pdfmark
[ /Rect [ 202 117 262 137 ]
  /Border [ 0 0 0 ]
  /Action << /Subtype /URI /URI ($Doc_8hpp.html) >>
  /Subtype /Link
/ANN pdfmark
1 setlinewidth
0.000 0.000 0.000 nodecolor
newpath 202 116 moveto
202 137 lineto
263 137 lineto
263 116 lineto
closepath stroke
0.000 0.000 0.000 nodecolor
10.00 /FreeSans.ttf set_font
232 123 moveto 45 -0.5 (Doc.hpp) alignedtext
grestore
% Node17->Node19
gsave
1 setlinewidth
solid
0.667 0.776 0.439 edgecolor
newpath 331 232 moveto
311 212 271 169 249 145 curveto
stroke
0.667 0.776 0.439 edgecolor
newpath 251.219 142.221 moveto
242 137 lineto
245.951 146.831 lineto
closepath fill
1 setlinewidth
solid
0.667 0.776 0.439 edgecolor
newpath 251.219 142.221 moveto
242 137 lineto
245.951 146.831 lineto
closepath stroke
grestore
% Node18->Node5
gsave
1 setlinewidth
solid
0.667 0.776 0.439 edgecolor
newpath 395 174 moveto
408 165 426 152 441 143 curveto
stroke
0.667 0.776 0.439 edgecolor
newpath 443.1 145.8 moveto
449 137 lineto
438.9 140.2 lineto
closepath fill
1 setlinewidth
solid
0.667 0.776 0.439 edgecolor
newpath 443.1 145.8 moveto
449 137 lineto
438.9 140.2 lineto
closepath stroke
grestore
% Node18->Node6
gsave
1 setlinewidth
solid
0.667 0.776 0.439 edgecolor
newpath 382 174 moveto
390 145 412 68 423 31 curveto
stroke
0.667 0.776 0.439 edgecolor
newpath 426.479 31.584 moveto
426 21 lineto
419.774 29.5725 lineto
closepath fill
1 setlinewidth
solid
0.667 0.776 0.439 edgecolor
newpath 426.479 31.584 moveto
426 21 lineto
419.774 29.5725 lineto
closepath stroke
grestore
% Node18->Node12
gsave
1 setlinewidth
solid
0.667 0.776 0.439 edgecolor
newpath 366 174 moveto
356 165 341 153 329 143 curveto
stroke
0.667 0.776 0.439 edgecolor
newpath 331.1 140.2 moveto
321 137 lineto
326.9 145.8 lineto
closepath fill
1 setlinewidth
solid
0.667 0.776 0.439 edgecolor
newpath 331.1 140.2 moveto
321 137 lineto
326.9 145.8 lineto
closepath stroke
grestore
% Node18->Node14
gsave
1 setlinewidth
solid
0.667 0.776 0.439 edgecolor
newpath 379 174 moveto
377 145 375 68 373 31 curveto
stroke
0.667 0.776 0.439 edgecolor
newpath 376.478 30.6021 moveto
372 21 lineto
369.512 31.2987 lineto
closepath fill
1 setlinewidth
solid
0.667 0.776 0.439 edgecolor
newpath 376.478 30.6021 moveto
372 21 lineto
369.512 31.2987 lineto
closepath stroke
grestore
% Node19->Node13
gsave
1 setlinewidth
solid
0.667 0.776 0.439 edgecolor
newpath 246 116 moveto
257 107 271 95 283 85 curveto
stroke
0.667 0.776 0.439 edgecolor
newpath 285.1 87.8 moveto
291 79 lineto
280.9 82.2 lineto
closepath fill
1 setlinewidth
solid
0.667 0.776 0.439 edgecolor
newpath 285.1 87.8 moveto
291 79 lineto
280.9 82.2 lineto
closepath stroke
grestore
endpage
showpage
grestore
%%PageTrailer
%%EndPage: 1
%%Trailer
%%Pages: 1
%%BoundingBox: 36 36 1039 356
end
restore
%%EOF
