%!PS-Adobe-2.0
%%Creator: Graphviz version 2.12 (Mon Nov 16 18:34:03 UTC 2009)
%%For: (vtamara) Vladimir
%%Title: G
%%Pages: (atend)
%%BoundingBox: (atend)
%%EndComments
save
%%BeginProlog
/DotDict 200 dict def
DotDict begin

/setupLatin1 {
mark
/EncodingVector 256 array def
 EncodingVector 0

ISOLatin1Encoding 0 255 getinterval putinterval
EncodingVector 45 /hyphen put

% Set up ISO Latin 1 character encoding
/starnetISO {
        dup dup findfont dup length dict begin
        { 1 index /FID ne { def }{ pop pop } ifelse
        } forall
        /Encoding EncodingVector def
        currentdict end definefont
} def
/Times-Roman starnetISO def
/Times-Italic starnetISO def
/Times-Bold starnetISO def
/Times-BoldItalic starnetISO def
/Helvetica starnetISO def
/Helvetica-Oblique starnetISO def
/Helvetica-Bold starnetISO def
/Helvetica-BoldOblique starnetISO def
/Courier starnetISO def
/Courier-Oblique starnetISO def
/Courier-Bold starnetISO def
/Courier-BoldOblique starnetISO def
cleartomark
} bind def

%%BeginResource: procset graphviz 0 0
/coord-font-family /Times-Roman def
/default-font-family /Times-Roman def
/coordfont coord-font-family findfont 8 scalefont def

/InvScaleFactor 1.0 def
/set_scale {
       dup 1 exch div /InvScaleFactor exch def
       scale
} bind def

% styles
/solid { [] 0 setdash } bind def
/dashed { [9 InvScaleFactor mul dup ] 0 setdash } bind def
/dotted { [1 InvScaleFactor mul 6 InvScaleFactor mul] 0 setdash } bind def
/invis {/fill {newpath} def /stroke {newpath} def /show {pop newpath} def} bind def
/bold { 2 setlinewidth } bind def
/filled { } bind def
/unfilled { } bind def
/rounded { } bind def
/diagonals { } bind def

% hooks for setting color 
/nodecolor { sethsbcolor } bind def
/edgecolor { sethsbcolor } bind def
/graphcolor { sethsbcolor } bind def
/nopcolor {pop pop pop} bind def

/beginpage {	% i j npages
	/npages exch def
	/j exch def
	/i exch def
	/str 10 string def
	npages 1 gt {
		gsave
			coordfont setfont
			0 0 moveto
			(\() show i str cvs show (,) show j str cvs show (\)) show
		grestore
	} if
} bind def

/set_font {
	findfont exch
	scalefont setfont
} def

% draw aligned label in bounding box aligned to current point
/alignedtext {			% width adj text
	/text exch def
	/adj exch def
	/width exch def
	gsave
		width 0 gt {
			text stringwidth pop adj mul 0 rmoveto
		} if
		[] 0 setdash
		text show
	grestore
} def

/boxprim {				% xcorner ycorner xsize ysize
		4 2 roll
		moveto
		2 copy
		exch 0 rlineto
		0 exch rlineto
		pop neg 0 rlineto
		closepath
} bind def

/ellipse_path {
	/ry exch def
	/rx exch def
	/y exch def
	/x exch def
	matrix currentmatrix
	newpath
	x y translate
	rx ry scale
	0 0 1 0 360 arc
	setmatrix
} bind def

/endpage { showpage } bind def
/showpage { } def

/layercolorseq
	[	% layer color sequence - darkest to lightest
		[0 0 0]
		[.2 .8 .8]
		[.4 .8 .8]
		[.6 .8 .8]
		[.8 .8 .8]
	]
def

/layerlen layercolorseq length def

/setlayer {/maxlayer exch def /curlayer exch def
	layercolorseq curlayer 1 sub layerlen mod get
	aload pop sethsbcolor
	/nodecolor {nopcolor} def
	/edgecolor {nopcolor} def
	/graphcolor {nopcolor} def
} bind def

/onlayer { curlayer ne {invis} if } def

/onlayers {
	/myupper exch def
	/mylower exch def
	curlayer mylower lt
	curlayer myupper gt
	or
	{invis} if
} def

/curlayer 0 def

%%EndResource
%%EndProlog
%%BeginSetup
14 default-font-family set_font
1 setmiterlimit
% /arrowlength 10 def
% /arrowwidth 5 def

% make sure pdfmark is harmless for PS-interpreters other than Distiller
/pdfmark where {pop} {userdict /pdfmark /cleartomark load put} ifelse
% make '<<' and '>>' safe on PS Level 1 devices
/languagelevel where {pop languagelevel}{1} ifelse
2 lt {
    userdict (<<) cvn ([) cvn load put
    userdict (>>) cvn ([) cvn load put
} if

%%EndSetup
setupLatin1
%%Page: 1 1
%%PageBoundingBox: 36 36 701 240
%%PageOrientation: Portrait
gsave
36 36 701 240 boxprim clip newpath
0 0 1 beginpage
1 1 set_scale 0 rotate 40 40 translate
% Node1
gsave
0.000 0.000 0.749 nodecolor
newpath 275 174 moveto
275 195 lineto
335 195 lineto
335 174 lineto
closepath fill
1 setlinewidth
filled
0.000 0.000 0.000 nodecolor
newpath 275 174 moveto
275 195 lineto
335 195 lineto
335 174 lineto
closepath stroke
0.000 0.000 0.000 nodecolor
10.00 /FreeSans.ttf set_font
305 181 moveto 44 -0.5 (Doc.cpp) alignedtext
grestore
% Node2
gsave
1 setlinewidth
0.000 0.000 0.749 nodecolor
newpath 0 116 moveto
0 137 lineto
50 137 lineto
50 116 lineto
closepath stroke
0.000 0.000 0.000 nodecolor
10.00 /FreeSans.ttf set_font
25 123 moveto 34 -0.5 (vector) alignedtext
grestore
% Node1->Node2
gsave
1 setlinewidth
solid
0.667 0.776 0.439 edgecolor
newpath 275 180 moveto
230 173 142 158 60 137 curveto
stroke
0.667 0.776 0.439 edgecolor
newpath 60.4922 133.529 moveto
50 135 lineto
59.1194 140.393 lineto
closepath fill
1 setlinewidth
solid
0.667 0.776 0.439 edgecolor
newpath 60.4922 133.529 moveto
50 135 lineto
59.1194 140.393 lineto
closepath stroke
grestore
% Node3
gsave
1 setlinewidth
0.000 0.000 0.749 nodecolor
newpath 68 116 moveto
68 137 lineto
132 137 lineto
132 116 lineto
closepath stroke
0.000 0.000 0.000 nodecolor
10.00 /FreeSans.ttf set_font
100 123 moveto 48 -0.5 (iostream) alignedtext
grestore
% Node1->Node3
gsave
1 setlinewidth
solid
0.667 0.776 0.439 edgecolor
newpath 275 176 moveto
240 166 181 150 142 139 curveto
stroke
0.667 0.776 0.439 edgecolor
newpath 142.584 135.521 moveto
132 136 lineto
140.573 142.226 lineto
closepath fill
1 setlinewidth
solid
0.667 0.776 0.439 edgecolor
newpath 142.584 135.521 moveto
132 136 lineto
140.573 142.226 lineto
closepath stroke
grestore
% Node4
gsave
1 setlinewidth
0.000 0.000 0.749 nodecolor
newpath 150 116 moveto
150 137 lineto
211 137 lineto
211 116 lineto
closepath stroke
0.000 0.000 0.000 nodecolor
10.00 /FreeSans.ttf set_font
180 123 moveto 45 -0.5 (iomanip) alignedtext
grestore
% Node1->Node4
gsave
1 setlinewidth
solid
0.667 0.776 0.439 edgecolor
newpath 281 174 moveto
261 164 233 151 211 141 curveto
stroke
0.667 0.776 0.439 edgecolor
newpath 212.56 137.863 moveto
202 137 lineto
209.717 144.26 lineto
closepath fill
1 setlinewidth
solid
0.667 0.776 0.439 edgecolor
newpath 212.56 137.863 moveto
202 137 lineto
209.717 144.26 lineto
closepath stroke
grestore
% Node5
gsave
1 setlinewidth
0.000 0.000 0.749 nodecolor
newpath 228 116 moveto
228 137 lineto
259 137 lineto
259 116 lineto
closepath stroke
0.000 0.000 0.000 nodecolor
10.00 /FreeSans.ttf set_font
243 123 moveto 15 -0.5 (list) alignedtext
grestore
% Node1->Node5
gsave
1 setlinewidth
solid
0.667 0.776 0.439 edgecolor
newpath 293 174 moveto
284 165 272 154 262 144 curveto
stroke
0.667 0.776 0.439 edgecolor
newpath 263.831 140.951 moveto
254 137 lineto
259.221 146.219 lineto
closepath fill
1 setlinewidth
solid
0.667 0.776 0.439 edgecolor
newpath 263.831 140.951 moveto
254 137 lineto
259.221 146.219 lineto
closepath stroke
grestore
% Node6
gsave
1 setlinewidth
0.000 0.000 0.749 nodecolor
newpath 276 116 moveto
276 137 lineto
334 137 lineto
334 116 lineto
closepath stroke
0.000 0.000 0.000 nodecolor
10.00 /FreeSans.ttf set_font
305 123 moveto 42 -0.5 (fstream) alignedtext
grestore
% Node1->Node6
gsave
1 setlinewidth
solid
0.667 0.776 0.439 edgecolor
newpath 305 174 moveto
305 166 305 156 305 147 curveto
stroke
0.667 0.776 0.439 edgecolor
newpath 308.5 147 moveto
305 137 lineto
301.5 147 lineto
closepath fill
1 setlinewidth
solid
0.667 0.776 0.439 edgecolor
newpath 308.5 147 moveto
305 137 lineto
301.5 147 lineto
closepath stroke
grestore
% Node7
gsave
1 setlinewidth
0.000 0.000 0.749 nodecolor
newpath 352 116 moveto
352 137 lineto
409 137 lineto
409 116 lineto
closepath stroke
0.000 0.000 0.000 nodecolor
10.00 /FreeSans.ttf set_font
380 123 moveto 41 -0.5 (istream) alignedtext
grestore
% Node1->Node7
gsave
1 setlinewidth
solid
0.667 0.776 0.439 edgecolor
newpath 319 174 moveto
330 165 346 153 359 143 curveto
stroke
0.667 0.776 0.439 edgecolor
newpath 361.1 145.8 moveto
367 137 lineto
356.9 140.2 lineto
closepath fill
1 setlinewidth
solid
0.667 0.776 0.439 edgecolor
newpath 361.1 145.8 moveto
367 137 lineto
356.9 140.2 lineto
closepath stroke
grestore
% Node8
gsave
1 setlinewidth
0.000 0.000 0.749 nodecolor
newpath 407 0 moveto
407 21 lineto
466 21 lineto
466 0 lineto
closepath stroke
0.000 0.000 0.000 nodecolor
10.00 /FreeSans.ttf set_font
436 7 moveto 43 -0.5 (sstream) alignedtext
grestore
% Node1->Node8
gsave
1 setlinewidth
solid
0.667 0.776 0.439 edgecolor
newpath 335 180 moveto
361 175 397 163 417 138 curveto
441 107 441 58 439 31 curveto
stroke
0.667 0.776 0.439 edgecolor
newpath 442.478 30.6021 moveto
438 21 lineto
435.512 31.2987 lineto
closepath fill
1 setlinewidth
solid
0.667 0.776 0.439 edgecolor
newpath 442.478 30.6021 moveto
438 21 lineto
435.512 31.2987 lineto
closepath stroke
grestore
% Node9
gsave
[ /Rect [ 478 59 556 79 ]
  /Border [ 0 0 0 ]
  /Action << /Subtype /URI /URI ($comun_8hpp.html) >>
  /Subtype /Link
/ANN pdfmark
[ /Rect [ 478 59 556 79 ]
  /Border [ 0 0 0 ]
  /Action << /Subtype /URI /URI ($comun_8hpp.html) >>
  /Subtype /Link
/ANN pdfmark
1 setlinewidth
0.000 0.000 0.000 nodecolor
newpath 478 58 moveto
478 79 lineto
556 79 lineto
556 58 lineto
closepath stroke
0.000 0.000 0.000 nodecolor
10.00 /FreeSans.ttf set_font
517 65 moveto 62 -0.5 (comun.hpp) alignedtext
grestore
% Node1->Node9
gsave
1 setlinewidth
solid
0.667 0.776 0.439 edgecolor
newpath 335 179 moveto
366 173 414 160 450 138 curveto
471 125 490 103 503 87 curveto
stroke
0.667 0.776 0.439 edgecolor
newpath 505.8 89.1 moveto
509 79 lineto
500.2 84.9 lineto
closepath fill
1 setlinewidth
solid
0.667 0.776 0.439 edgecolor
newpath 505.8 89.1 moveto
509 79 lineto
500.2 84.9 lineto
closepath stroke
grestore
% Node13
gsave
[ /Rect [ 502 117 562 137 ]
  /Border [ 0 0 0 ]
  /Action << /Subtype /URI /URI ($Doc_8hpp.html) >>
  /Subtype /Link
/ANN pdfmark
[ /Rect [ 502 117 562 137 ]
  /Border [ 0 0 0 ]
  /Action << /Subtype /URI /URI ($Doc_8hpp.html) >>
  /Subtype /Link
/ANN pdfmark
1 setlinewidth
0.000 0.000 0.000 nodecolor
newpath 502 116 moveto
502 137 lineto
563 137 lineto
563 116 lineto
closepath stroke
0.000 0.000 0.000 nodecolor
10.00 /FreeSans.ttf set_font
532 123 moveto 45 -0.5 (Doc.hpp) alignedtext
grestore
% Node1->Node13
gsave
1 setlinewidth
solid
0.667 0.776 0.439 edgecolor
newpath 335 177 moveto
376 167 447 149 492 137 curveto
stroke
0.667 0.776 0.439 edgecolor
newpath 492.881 140.393 moveto
502 135 lineto
491.508 133.529 lineto
closepath fill
1 setlinewidth
solid
0.667 0.776 0.439 edgecolor
newpath 492.881 140.393 moveto
502 135 lineto
491.508 133.529 lineto
closepath stroke
grestore
% Node9->Node8
gsave
1 setlinewidth
solid
0.667 0.776 0.439 edgecolor
newpath 501 58 moveto
489 49 472 37 458 27 curveto
stroke
0.667 0.776 0.439 edgecolor
newpath 460.1 24.2 moveto
450 21 lineto
455.9 29.8 lineto
closepath fill
1 setlinewidth
solid
0.667 0.776 0.439 edgecolor
newpath 460.1 24.2 moveto
450 21 lineto
455.9 29.8 lineto
closepath stroke
grestore
% Node10
gsave
1 setlinewidth
0.000 0.000 0.749 nodecolor
newpath 483 0 moveto
483 21 lineto
515 21 lineto
515 0 lineto
closepath stroke
0.000 0.000 0.000 nodecolor
10.00 /FreeSans.ttf set_font
499 7 moveto 16 -0.5 (set) alignedtext
grestore
% Node9->Node10
gsave
1 setlinewidth
solid
0.667 0.776 0.439 edgecolor
newpath 514 58 moveto
511 50 508 40 505 31 curveto
stroke
0.667 0.776 0.439 edgecolor
newpath 508.226 29.5725 moveto
502 21 lineto
501.521 31.584 lineto
closepath fill
1 setlinewidth
solid
0.667 0.776 0.439 edgecolor
newpath 508.226 29.5725 moveto
502 21 lineto
501.521 31.584 lineto
closepath stroke
grestore
% Node11
gsave
1 setlinewidth
0.000 0.000 0.749 nodecolor
newpath 533 0 moveto
533 21 lineto
579 21 lineto
579 0 lineto
closepath stroke
0.000 0.000 0.000 nodecolor
10.00 /FreeSans.ttf set_font
556 7 moveto 30 -0.5 (string) alignedtext
grestore
% Node9->Node11
gsave
1 setlinewidth
solid
0.667 0.776 0.439 edgecolor
newpath 525 58 moveto
530 50 538 39 544 30 curveto
stroke
0.667 0.776 0.439 edgecolor
newpath 547.203 31.4414 moveto
549 21 lineto
541.084 28.0418 lineto
closepath fill
1 setlinewidth
solid
0.667 0.776 0.439 edgecolor
newpath 547.203 31.4414 moveto
549 21 lineto
541.084 28.0418 lineto
closepath stroke
grestore
% Node12
gsave
1 setlinewidth
0.000 0.000 0.749 nodecolor
newpath 597 0 moveto
597 21 lineto
658 21 lineto
658 0 lineto
closepath stroke
0.000 0.000 0.000 nodecolor
10.00 /FreeSans.ttf set_font
627 7 moveto 45 -0.5 (ostream) alignedtext
grestore
% Node9->Node12
gsave
1 setlinewidth
solid
0.667 0.776 0.439 edgecolor
newpath 538 58 moveto
555 49 580 36 599 26 curveto
stroke
0.667 0.776 0.439 edgecolor
newpath 600.958 28.916 moveto
608 21 lineto
597.559 22.7969 lineto
closepath fill
1 setlinewidth
solid
0.667 0.776 0.439 edgecolor
newpath 600.958 28.916 moveto
608 21 lineto
597.559 22.7969 lineto
closepath stroke
grestore
% Node13->Node9
gsave
1 setlinewidth
solid
0.667 0.776 0.439 edgecolor
newpath 529 116 moveto
527 108 524 98 522 89 curveto
stroke
0.667 0.776 0.439 edgecolor
newpath 525.393 88.1194 moveto
520 79 lineto
518.529 89.4922 lineto
closepath fill
1 setlinewidth
solid
0.667 0.776 0.439 edgecolor
newpath 525.393 88.1194 moveto
520 79 lineto
518.529 89.4922 lineto
closepath stroke
grestore
endpage
showpage
grestore
%%PageTrailer
%%EndPage: 1
%%Trailer
%%Pages: 1
%%BoundingBox: 36 36 701 240
end
restore
%%EOF
