%!PS-Adobe-2.0
%%Creator: Graphviz version 2.12 (Mon Nov 16 18:34:03 UTC 2009)
%%For: (vtamara) Vladimir
%%Title: G
%%Pages: (atend)
%%BoundingBox: (atend)
%%EndComments
save
%%BeginProlog
/DotDict 200 dict def
DotDict begin

/setupLatin1 {
mark
/EncodingVector 256 array def
 EncodingVector 0

ISOLatin1Encoding 0 255 getinterval putinterval
EncodingVector 45 /hyphen put

% Set up ISO Latin 1 character encoding
/starnetISO {
        dup dup findfont dup length dict begin
        { 1 index /FID ne { def }{ pop pop } ifelse
        } forall
        /Encoding EncodingVector def
        currentdict end definefont
} def
/Times-Roman starnetISO def
/Times-Italic starnetISO def
/Times-Bold starnetISO def
/Times-BoldItalic starnetISO def
/Helvetica starnetISO def
/Helvetica-Oblique starnetISO def
/Helvetica-Bold starnetISO def
/Helvetica-BoldOblique starnetISO def
/Courier starnetISO def
/Courier-Oblique starnetISO def
/Courier-Bold starnetISO def
/Courier-BoldOblique starnetISO def
cleartomark
} bind def

%%BeginResource: procset graphviz 0 0
/coord-font-family /Times-Roman def
/default-font-family /Times-Roman def
/coordfont coord-font-family findfont 8 scalefont def

/InvScaleFactor 1.0 def
/set_scale {
       dup 1 exch div /InvScaleFactor exch def
       scale
} bind def

% styles
/solid { [] 0 setdash } bind def
/dashed { [9 InvScaleFactor mul dup ] 0 setdash } bind def
/dotted { [1 InvScaleFactor mul 6 InvScaleFactor mul] 0 setdash } bind def
/invis {/fill {newpath} def /stroke {newpath} def /show {pop newpath} def} bind def
/bold { 2 setlinewidth } bind def
/filled { } bind def
/unfilled { } bind def
/rounded { } bind def
/diagonals { } bind def

% hooks for setting color 
/nodecolor { sethsbcolor } bind def
/edgecolor { sethsbcolor } bind def
/graphcolor { sethsbcolor } bind def
/nopcolor {pop pop pop} bind def

/beginpage {	% i j npages
	/npages exch def
	/j exch def
	/i exch def
	/str 10 string def
	npages 1 gt {
		gsave
			coordfont setfont
			0 0 moveto
			(\() show i str cvs show (,) show j str cvs show (\)) show
		grestore
	} if
} bind def

/set_font {
	findfont exch
	scalefont setfont
} def

% draw aligned label in bounding box aligned to current point
/alignedtext {			% width adj text
	/text exch def
	/adj exch def
	/width exch def
	gsave
		width 0 gt {
			text stringwidth pop adj mul 0 rmoveto
		} if
		[] 0 setdash
		text show
	grestore
} def

/boxprim {				% xcorner ycorner xsize ysize
		4 2 roll
		moveto
		2 copy
		exch 0 rlineto
		0 exch rlineto
		pop neg 0 rlineto
		closepath
} bind def

/ellipse_path {
	/ry exch def
	/rx exch def
	/y exch def
	/x exch def
	matrix currentmatrix
	newpath
	x y translate
	rx ry scale
	0 0 1 0 360 arc
	setmatrix
} bind def

/endpage { showpage } bind def
/showpage { } def

/layercolorseq
	[	% layer color sequence - darkest to lightest
		[0 0 0]
		[.2 .8 .8]
		[.4 .8 .8]
		[.6 .8 .8]
		[.8 .8 .8]
	]
def

/layerlen layercolorseq length def

/setlayer {/maxlayer exch def /curlayer exch def
	layercolorseq curlayer 1 sub layerlen mod get
	aload pop sethsbcolor
	/nodecolor {nopcolor} def
	/edgecolor {nopcolor} def
	/graphcolor {nopcolor} def
} bind def

/onlayer { curlayer ne {invis} if } def

/onlayers {
	/myupper exch def
	/mylower exch def
	curlayer mylower lt
	curlayer myupper gt
	or
	{invis} if
} def

/curlayer 0 def

%%EndResource
%%EndProlog
%%BeginSetup
14 default-font-family set_font
1 setmiterlimit
% /arrowlength 10 def
% /arrowwidth 5 def

% make sure pdfmark is harmless for PS-interpreters other than Distiller
/pdfmark where {pop} {userdict /pdfmark /cleartomark load put} ifelse
% make '<<' and '>>' safe on PS Level 1 devices
/languagelevel where {pop languagelevel}{1} ifelse
2 lt {
    userdict (<<) cvn ([) cvn load put
    userdict (>>) cvn ([) cvn load put
} if

%%EndSetup
setupLatin1
%%Page: 1 1
%%PageBoundingBox: 36 36 905 298
%%PageOrientation: Portrait
gsave
36 36 905 298 boxprim clip newpath
0 0 1 beginpage
1 1 set_scale 0 rotate 40 40 translate
% Node1
gsave
0.000 0.000 0.749 nodecolor
newpath 409 232 moveto
409 253 lineto
470 253 lineto
470 232 lineto
closepath fill
1 setlinewidth
filled
0.000 0.000 0.000 nodecolor
newpath 409 232 moveto
409 253 lineto
470 253 lineto
470 232 lineto
closepath stroke
0.000 0.000 0.000 nodecolor
10.00 /FreeSans.ttf set_font
439 239 moveto 45 -0.5 (Doc.hpp) alignedtext
grestore
% Node2
gsave
[ /Rect [ 250 175 346 195 ]
  /Border [ 0 0 0 ]
  /Action << /Subtype /URI /URI ($TrieSDisco_8hpp.html) >>
  /Subtype /Link
/ANN pdfmark
[ /Rect [ 250 175 346 195 ]
  /Border [ 0 0 0 ]
  /Action << /Subtype /URI /URI ($TrieSDisco_8hpp.html) >>
  /Subtype /Link
/ANN pdfmark
1 setlinewidth
0.000 0.000 0.000 nodecolor
newpath 250 174 moveto
250 195 lineto
346 195 lineto
346 174 lineto
closepath stroke
0.000 0.000 0.000 nodecolor
10.00 /FreeSans.ttf set_font
298 181 moveto 80 -0.5 (TrieSDisco.hpp) alignedtext
grestore
% Node1->Node2
gsave
1 setlinewidth
solid
0.667 0.776 0.439 edgecolor
newpath 403 228 moveto
377 217 344 204 322 195 curveto
stroke
0.667 0.776 0.439 edgecolor
newpath 401.44 231.137 moveto
412 232 lineto
404.283 224.74 lineto
closepath fill
1 setlinewidth
solid
0.667 0.776 0.439 edgecolor
newpath 401.44 231.137 moveto
412 232 lineto
404.283 224.74 lineto
closepath stroke
grestore
% Node5
gsave
[ /Rect [ 384 117 478 137 ]
  /Border [ 0 0 0 ]
  /Action << /Subtype /URI /URI ($RamDisco_8hpp.html) >>
  /Subtype /Link
/ANN pdfmark
[ /Rect [ 384 117 478 137 ]
  /Border [ 0 0 0 ]
  /Action << /Subtype /URI /URI ($RamDisco_8hpp.html) >>
  /Subtype /Link
/ANN pdfmark
1 setlinewidth
0.000 0.000 0.000 nodecolor
newpath 384 116 moveto
384 137 lineto
478 137 lineto
478 116 lineto
closepath stroke
0.000 0.000 0.000 nodecolor
10.00 /FreeSans.ttf set_font
431 123 moveto 78 -0.5 (RamDisco.hpp) alignedtext
grestore
% Node1->Node5
gsave
1 setlinewidth
solid
0.667 0.776 0.439 edgecolor
newpath 434 222 moveto
432 214 430 204 429 196 curveto
427 175 429 151 430 137 curveto
stroke
0.667 0.776 0.439 edgecolor
newpath 430.607 222.881 moveto
436 232 lineto
437.471 221.508 lineto
closepath fill
1 setlinewidth
solid
0.667 0.776 0.439 edgecolor
newpath 430.607 222.881 moveto
436 232 lineto
437.471 221.508 lineto
closepath stroke
grestore
% Node14
gsave
[ /Rect [ 438 175 498 195 ]
  /Border [ 0 0 0 ]
  /Action << /Subtype /URI /URI ($Doc_8cpp.html) >>
  /Subtype /Link
/ANN pdfmark
[ /Rect [ 438 175 498 195 ]
  /Border [ 0 0 0 ]
  /Action << /Subtype /URI /URI ($Doc_8cpp.html) >>
  /Subtype /Link
/ANN pdfmark
1 setlinewidth
0.000 0.000 0.000 nodecolor
newpath 438 174 moveto
438 195 lineto
498 195 lineto
498 174 lineto
closepath stroke
0.000 0.000 0.000 nodecolor
10.00 /FreeSans.ttf set_font
468 181 moveto 44 -0.5 (Doc.cpp) alignedtext
grestore
% Node1->Node14
gsave
1 setlinewidth
solid
0.667 0.776 0.439 edgecolor
newpath 449 223 moveto
454 213 459 202 463 195 curveto
stroke
0.667 0.776 0.439 edgecolor
newpath 445.863 221.44 moveto
445 232 lineto
452.26 224.283 lineto
closepath fill
1 setlinewidth
solid
0.667 0.776 0.439 edgecolor
newpath 445.863 221.44 moveto
445 232 lineto
452.26 224.283 lineto
closepath stroke
grestore
% Node15
gsave
[ /Rect [ 516 175 642 195 ]
  /Border [ 0 0 0 ]
  /Action << /Subtype /URI /URI ($DocCasoPrueba_8hpp.html) >>
  /Subtype /Link
/ANN pdfmark
[ /Rect [ 516 175 642 195 ]
  /Border [ 0 0 0 ]
  /Action << /Subtype /URI /URI ($DocCasoPrueba_8hpp.html) >>
  /Subtype /Link
/ANN pdfmark
1 setlinewidth
0.000 0.000 0.000 nodecolor
newpath 516 174 moveto
516 195 lineto
642 195 lineto
642 174 lineto
closepath stroke
0.000 0.000 0.000 nodecolor
10.00 /FreeSans.ttf set_font
579 181 moveto 110 -0.5 (DocCasoPrueba.hpp) alignedtext
grestore
% Node1->Node15
gsave
1 setlinewidth
solid
0.667 0.776 0.439 edgecolor
newpath 475 228 moveto
500 217 533 204 555 195 curveto
stroke
0.667 0.776 0.439 edgecolor
newpath 473.717 224.74 moveto
466 232 lineto
476.56 231.137 lineto
closepath fill
1 setlinewidth
solid
0.667 0.776 0.439 edgecolor
newpath 473.717 224.74 moveto
466 232 lineto
476.56 231.137 lineto
closepath stroke
grestore
% Node3
gsave
[ /Rect [ 240 117 328 137 ]
  /Border [ 0 0 0 ]
  /Action << /Subtype /URI /URI ($buscador_8cpp.html) >>
  /Subtype /Link
/ANN pdfmark
[ /Rect [ 240 117 328 137 ]
  /Border [ 0 0 0 ]
  /Action << /Subtype /URI /URI ($buscador_8cpp.html) >>
  /Subtype /Link
/ANN pdfmark
1 setlinewidth
0.000 0.000 0.000 nodecolor
newpath 240 116 moveto
240 137 lineto
329 137 lineto
329 116 lineto
closepath stroke
0.000 0.000 0.000 nodecolor
10.00 /FreeSans.ttf set_font
284 123 moveto 73 -0.5 (buscador.cpp) alignedtext
grestore
% Node2->Node3
gsave
1 setlinewidth
solid
0.667 0.776 0.439 edgecolor
newpath 293 164 moveto
290 155 288 144 286 137 curveto
stroke
0.667 0.776 0.439 edgecolor
newpath 289.607 164.881 moveto
295 174 lineto
296.471 163.508 lineto
closepath fill
1 setlinewidth
solid
0.667 0.776 0.439 edgecolor
newpath 289.607 164.881 moveto
295 174 lineto
296.471 163.508 lineto
closepath stroke
grestore
% Node4
gsave
[ /Rect [ 112 117 222 137 ]
  /Border [ 0 0 0 ]
  /Action << /Subtype /URI /URI ($depuraindice_8cpp.html) >>
  /Subtype /Link
/ANN pdfmark
[ /Rect [ 112 117 222 137 ]
  /Border [ 0 0 0 ]
  /Action << /Subtype /URI /URI ($depuraindice_8cpp.html) >>
  /Subtype /Link
/ANN pdfmark
1 setlinewidth
0.000 0.000 0.000 nodecolor
newpath 112 116 moveto
112 137 lineto
223 137 lineto
223 116 lineto
closepath stroke
0.000 0.000 0.000 nodecolor
10.00 /FreeSans.ttf set_font
167 123 moveto 95 -0.5 (depuraindice.cpp) alignedtext
grestore
% Node2->Node4
gsave
1 setlinewidth
solid
0.667 0.776 0.439 edgecolor
newpath 264 170 moveto
240 159 210 146 190 137 curveto
stroke
0.667 0.776 0.439 edgecolor
newpath 262.44 173.137 moveto
273 174 lineto
265.283 166.74 lineto
closepath fill
1 setlinewidth
solid
0.667 0.776 0.439 edgecolor
newpath 262.44 173.137 moveto
273 174 lineto
265.283 166.74 lineto
closepath stroke
grestore
% Node2->Node5
gsave
1 setlinewidth
solid
0.667 0.776 0.439 edgecolor
newpath 332 170 moveto
356 159 387 146 408 137 curveto
stroke
0.667 0.776 0.439 edgecolor
newpath 330.717 166.74 moveto
323 174 lineto
333.56 173.137 lineto
closepath fill
1 setlinewidth
solid
0.667 0.776 0.439 edgecolor
newpath 330.717 166.74 moveto
323 174 lineto
333.56 173.137 lineto
closepath stroke
grestore
% Node12
gsave
[ /Rect [ 169 59 329 79 ]
  /Border [ 0 0 0 ]
  /Action << /Subtype /URI /URI ($TrieSDiscoCasoPrueba_8cpp.html) >>
  /Subtype /Link
/ANN pdfmark
[ /Rect [ 169 59 329 79 ]
  /Border [ 0 0 0 ]
  /Action << /Subtype /URI /URI ($TrieSDiscoCasoPrueba_8cpp.html) >>
  /Subtype /Link
/ANN pdfmark
1 setlinewidth
0.000 0.000 0.000 nodecolor
newpath 169 58 moveto
169 79 lineto
329 79 lineto
329 58 lineto
closepath stroke
0.000 0.000 0.000 nodecolor
10.00 /FreeSans.ttf set_font
249 65 moveto 144 -0.5 (TrieSDiscoCasoPrueba.cpp) alignedtext
grestore
% Node2->Node12
gsave
1 setlinewidth
solid
0.667 0.776 0.439 edgecolor
newpath 319 167 moveto
334 153 348 133 337 116 curveto
327 98 306 86 288 79 curveto
stroke
0.667 0.776 0.439 edgecolor
newpath 316.596 164.454 moveto
312 174 lineto
321.546 169.404 lineto
closepath fill
1 setlinewidth
solid
0.667 0.776 0.439 edgecolor
newpath 316.596 164.454 moveto
312 174 lineto
321.546 169.404 lineto
closepath stroke
grestore
% Node13
gsave
[ /Rect [ 0 117 94 137 ]
  /Border [ 0 0 0 ]
  /Action << /Subtype /URI /URI ($TrieSDisco_8cpp.html) >>
  /Subtype /Link
/ANN pdfmark
[ /Rect [ 0 117 94 137 ]
  /Border [ 0 0 0 ]
  /Action << /Subtype /URI /URI ($TrieSDisco_8cpp.html) >>
  /Subtype /Link
/ANN pdfmark
1 setlinewidth
0.000 0.000 0.000 nodecolor
newpath 0 116 moveto
0 137 lineto
95 137 lineto
95 116 lineto
closepath stroke
0.000 0.000 0.000 nodecolor
10.00 /FreeSans.ttf set_font
47 123 moveto 79 -0.5 (TrieSDisco.cpp) alignedtext
grestore
% Node2->Node13
gsave
1 setlinewidth
solid
0.667 0.776 0.439 edgecolor
newpath 240 172 moveto
195 161 132 146 90 137 curveto
stroke
0.667 0.776 0.439 edgecolor
newpath 239.508 175.471 moveto
250 174 lineto
240.881 168.607 lineto
closepath fill
1 setlinewidth
solid
0.667 0.776 0.439 edgecolor
newpath 239.508 175.471 moveto
250 174 lineto
240.881 168.607 lineto
closepath stroke
grestore
% Node6
gsave
[ /Rect [ 671 59 779 79 ]
  /Border [ 0 0 0 ]
  /Action << /Subtype /URI /URI ($Operaciones_8hpp.html) >>
  /Subtype /Link
/ANN pdfmark
[ /Rect [ 671 59 779 79 ]
  /Border [ 0 0 0 ]
  /Action << /Subtype /URI /URI ($Operaciones_8hpp.html) >>
  /Subtype /Link
/ANN pdfmark
1 setlinewidth
0.000 0.000 0.000 nodecolor
newpath 671 58 moveto
671 79 lineto
780 79 lineto
780 58 lineto
closepath stroke
0.000 0.000 0.000 nodecolor
10.00 /FreeSans.ttf set_font
725 65 moveto 93 -0.5 (Operaciones.hpp) alignedtext
grestore
% Node5->Node6
gsave
1 setlinewidth
solid
0.667 0.776 0.439 edgecolor
newpath 488 116 moveto
542 105 622 89 674 79 curveto
stroke
0.667 0.776 0.439 edgecolor
newpath 487.119 112.607 moveto
478 118 lineto
488.492 119.471 lineto
closepath fill
1 setlinewidth
solid
0.667 0.776 0.439 edgecolor
newpath 487.119 112.607 moveto
478 118 lineto
488.492 119.471 lineto
closepath stroke
grestore
% Node8
gsave
[ /Rect [ 753 1 861 21 ]
  /Border [ 0 0 0 ]
  /Action << /Subtype /URI /URI ($Operaciones_8cpp.html) >>
  /Subtype /Link
/ANN pdfmark
[ /Rect [ 753 1 861 21 ]
  /Border [ 0 0 0 ]
  /Action << /Subtype /URI /URI ($Operaciones_8cpp.html) >>
  /Subtype /Link
/ANN pdfmark
1 setlinewidth
0.000 0.000 0.000 nodecolor
newpath 753 0 moveto
753 21 lineto
861 21 lineto
861 0 lineto
closepath stroke
0.000 0.000 0.000 nodecolor
10.00 /FreeSans.ttf set_font
807 7 moveto 92 -0.5 (Operaciones.cpp) alignedtext
grestore
% Node5->Node8
gsave
1 setlinewidth
solid
0.667 0.776 0.439 edgecolor
newpath 488 118 moveto
495 117 501 117 508 116 curveto
570 107 740 121 788 80 curveto
805 65 807 36 807 21 curveto
stroke
0.667 0.776 0.439 edgecolor
newpath 487.119 114.607 moveto
478 120 lineto
488.492 121.471 lineto
closepath fill
1 setlinewidth
solid
0.667 0.776 0.439 edgecolor
newpath 487.119 114.607 moveto
478 120 lineto
488.492 121.471 lineto
closepath stroke
grestore
% Node9
gsave
[ /Rect [ 412 1 516 21 ]
  /Border [ 0 0 0 ]
  /Action << /Subtype /URI /URI ($operaindice_8cpp.html) >>
  /Subtype /Link
/ANN pdfmark
[ /Rect [ 412 1 516 21 ]
  /Border [ 0 0 0 ]
  /Action << /Subtype /URI /URI ($operaindice_8cpp.html) >>
  /Subtype /Link
/ANN pdfmark
1 setlinewidth
0.000 0.000 0.000 nodecolor
newpath 412 0 moveto
412 21 lineto
516 21 lineto
516 0 lineto
closepath stroke
0.000 0.000 0.000 nodecolor
10.00 /FreeSans.ttf set_font
464 7 moveto 88 -0.5 (operaindice.cpp) alignedtext
grestore
% Node5->Node9
gsave
1 setlinewidth
solid
0.667 0.776 0.439 edgecolor
newpath 403 110 moveto
384 97 365 77 376 58 curveto
387 40 407 28 425 21 curveto
stroke
0.667 0.776 0.439 edgecolor
newpath 400.9 112.8 moveto
411 116 lineto
405.1 107.2 lineto
closepath fill
1 setlinewidth
solid
0.667 0.776 0.439 edgecolor
newpath 400.9 112.8 moveto
411 116 lineto
405.1 107.2 lineto
closepath stroke
grestore
% Node10
gsave
[ /Rect [ 385 59 477 79 ]
  /Border [ 0 0 0 ]
  /Action << /Subtype /URI /URI ($RamDisco_8cpp.html) >>
  /Subtype /Link
/ANN pdfmark
[ /Rect [ 385 59 477 79 ]
  /Border [ 0 0 0 ]
  /Action << /Subtype /URI /URI ($RamDisco_8cpp.html) >>
  /Subtype /Link
/ANN pdfmark
1 setlinewidth
0.000 0.000 0.000 nodecolor
newpath 385 58 moveto
385 79 lineto
478 79 lineto
478 58 lineto
closepath stroke
0.000 0.000 0.000 nodecolor
10.00 /FreeSans.ttf set_font
431 65 moveto 77 -0.5 (RamDisco.cpp) alignedtext
grestore
% Node5->Node10
gsave
1 setlinewidth
solid
0.667 0.776 0.439 edgecolor
newpath 431 106 moveto
431 96 431 86 431 79 curveto
stroke
0.667 0.776 0.439 edgecolor
newpath 427.5 106 moveto
431 116 lineto
434.5 106 lineto
closepath fill
1 setlinewidth
solid
0.667 0.776 0.439 edgecolor
newpath 427.5 106 moveto
431 116 lineto
434.5 106 lineto
closepath stroke
grestore
% Node11
gsave
[ /Rect [ 495 59 653 79 ]
  /Border [ 0 0 0 ]
  /Action << /Subtype /URI /URI ($RamDiscoCasoPrueba_8cpp.html) >>
  /Subtype /Link
/ANN pdfmark
[ /Rect [ 495 59 653 79 ]
  /Border [ 0 0 0 ]
  /Action << /Subtype /URI /URI ($RamDiscoCasoPrueba_8cpp.html) >>
  /Subtype /Link
/ANN pdfmark
1 setlinewidth
0.000 0.000 0.000 nodecolor
newpath 495 58 moveto
495 79 lineto
653 79 lineto
653 58 lineto
closepath stroke
0.000 0.000 0.000 nodecolor
10.00 /FreeSans.ttf set_font
574 65 moveto 142 -0.5 (RamDiscoCasoPrueba.cpp) alignedtext
grestore
% Node5->Node11
gsave
1 setlinewidth
solid
0.667 0.776 0.439 edgecolor
newpath 468 112 moveto
494 101 527 88 549 79 curveto
stroke
0.667 0.776 0.439 edgecolor
newpath 465.985 109.036 moveto
458 116 lineto
468.585 115.536 lineto
closepath fill
1 setlinewidth
solid
0.667 0.776 0.439 edgecolor
newpath 465.985 109.036 moveto
458 116 lineto
468.585 115.536 lineto
closepath stroke
grestore
% Node5->Node12
gsave
1 setlinewidth
solid
0.667 0.776 0.439 edgecolor
newpath 386 113 moveto
354 102 310 88 281 79 curveto
stroke
0.667 0.776 0.439 edgecolor
newpath 385.416 116.479 moveto
396 116 lineto
387.427 109.774 lineto
closepath fill
1 setlinewidth
solid
0.667 0.776 0.439 edgecolor
newpath 385.416 116.479 moveto
396 116 lineto
387.427 109.774 lineto
closepath stroke
grestore
% Node7
gsave
[ /Rect [ 641 1 735 21 ]
  /Border [ 0 0 0 ]
  /Action << /Subtype /URI /URI ($indexador_8cpp.html) >>
  /Subtype /Link
/ANN pdfmark
[ /Rect [ 641 1 735 21 ]
  /Border [ 0 0 0 ]
  /Action << /Subtype /URI /URI ($indexador_8cpp.html) >>
  /Subtype /Link
/ANN pdfmark
1 setlinewidth
0.000 0.000 0.000 nodecolor
newpath 641 0 moveto
641 21 lineto
735 21 lineto
735 0 lineto
closepath stroke
0.000 0.000 0.000 nodecolor
10.00 /FreeSans.ttf set_font
688 7 moveto 78 -0.5 (indexador.cpp) alignedtext
grestore
% Node6->Node7
gsave
1 setlinewidth
solid
0.667 0.776 0.439 edgecolor
newpath 712 49 moveto
706 40 699 29 694 21 curveto
stroke
0.667 0.776 0.439 edgecolor
newpath 709.541 51.6209 moveto
718 58 lineto
715.365 47.738 lineto
closepath fill
1 setlinewidth
solid
0.667 0.776 0.439 edgecolor
newpath 709.541 51.6209 moveto
718 58 lineto
715.365 47.738 lineto
closepath stroke
grestore
% Node6->Node8
gsave
1 setlinewidth
solid
0.667 0.776 0.439 edgecolor
newpath 749 52 moveto
764 42 781 29 793 21 curveto
stroke
0.667 0.776 0.439 edgecolor
newpath 746.9 49.2 moveto
741 58 lineto
751.1 54.8 lineto
closepath fill
1 setlinewidth
solid
0.667 0.776 0.439 edgecolor
newpath 746.9 49.2 moveto
741 58 lineto
751.1 54.8 lineto
closepath stroke
grestore
% Node6->Node9
gsave
1 setlinewidth
solid
0.667 0.776 0.439 edgecolor
newpath 665 56 moveto
618 45 553 30 509 21 curveto
stroke
0.667 0.776 0.439 edgecolor
newpath 664.508 59.4708 moveto
675 58 lineto
665.881 52.6067 lineto
closepath fill
1 setlinewidth
solid
0.667 0.776 0.439 edgecolor
newpath 664.508 59.4708 moveto
675 58 lineto
665.881 52.6067 lineto
closepath stroke
grestore
% Node16
gsave
[ /Rect [ 517 117 641 137 ]
  /Border [ 0 0 0 ]
  /Action << /Subtype /URI /URI ($DocCasoPrueba_8cpp.html) >>
  /Subtype /Link
/ANN pdfmark
[ /Rect [ 517 117 641 137 ]
  /Border [ 0 0 0 ]
  /Action << /Subtype /URI /URI ($DocCasoPrueba_8cpp.html) >>
  /Subtype /Link
/ANN pdfmark
1 setlinewidth
0.000 0.000 0.000 nodecolor
newpath 517 116 moveto
517 137 lineto
642 137 lineto
642 116 lineto
closepath stroke
0.000 0.000 0.000 nodecolor
10.00 /FreeSans.ttf set_font
579 123 moveto 109 -0.5 (DocCasoPrueba.cpp) alignedtext
grestore
% Node15->Node16
gsave
1 setlinewidth
solid
0.667 0.776 0.439 edgecolor
newpath 579 164 moveto
579 154 579 144 579 137 curveto
stroke
0.667 0.776 0.439 edgecolor
newpath 575.5 164 moveto
579 174 lineto
582.5 164 lineto
closepath fill
1 setlinewidth
solid
0.667 0.776 0.439 edgecolor
newpath 575.5 164 moveto
579 174 lineto
582.5 164 lineto
closepath stroke
grestore
endpage
showpage
grestore
%%PageTrailer
%%EndPage: 1
%%Trailer
%%Pages: 1
%%BoundingBox: 36 36 905 298
end
restore
%%EOF
