%!PS-Adobe-2.0
%%Creator: Graphviz version 2.12 (Mon Nov 16 18:34:03 UTC 2009)
%%For: (vtamara) Vladimir
%%Title: G
%%Pages: (atend)
%%BoundingBox: (atend)
%%EndComments
save
%%BeginProlog
/DotDict 200 dict def
DotDict begin

/setupLatin1 {
mark
/EncodingVector 256 array def
 EncodingVector 0

ISOLatin1Encoding 0 255 getinterval putinterval
EncodingVector 45 /hyphen put

% Set up ISO Latin 1 character encoding
/starnetISO {
        dup dup findfont dup length dict begin
        { 1 index /FID ne { def }{ pop pop } ifelse
        } forall
        /Encoding EncodingVector def
        currentdict end definefont
} def
/Times-Roman starnetISO def
/Times-Italic starnetISO def
/Times-Bold starnetISO def
/Times-BoldItalic starnetISO def
/Helvetica starnetISO def
/Helvetica-Oblique starnetISO def
/Helvetica-Bold starnetISO def
/Helvetica-BoldOblique starnetISO def
/Courier starnetISO def
/Courier-Oblique starnetISO def
/Courier-Bold starnetISO def
/Courier-BoldOblique starnetISO def
cleartomark
} bind def

%%BeginResource: procset graphviz 0 0
/coord-font-family /Times-Roman def
/default-font-family /Times-Roman def
/coordfont coord-font-family findfont 8 scalefont def

/InvScaleFactor 1.0 def
/set_scale {
       dup 1 exch div /InvScaleFactor exch def
       scale
} bind def

% styles
/solid { [] 0 setdash } bind def
/dashed { [9 InvScaleFactor mul dup ] 0 setdash } bind def
/dotted { [1 InvScaleFactor mul 6 InvScaleFactor mul] 0 setdash } bind def
/invis {/fill {newpath} def /stroke {newpath} def /show {pop newpath} def} bind def
/bold { 2 setlinewidth } bind def
/filled { } bind def
/unfilled { } bind def
/rounded { } bind def
/diagonals { } bind def

% hooks for setting color 
/nodecolor { sethsbcolor } bind def
/edgecolor { sethsbcolor } bind def
/graphcolor { sethsbcolor } bind def
/nopcolor {pop pop pop} bind def

/beginpage {	% i j npages
	/npages exch def
	/j exch def
	/i exch def
	/str 10 string def
	npages 1 gt {
		gsave
			coordfont setfont
			0 0 moveto
			(\() show i str cvs show (,) show j str cvs show (\)) show
		grestore
	} if
} bind def

/set_font {
	findfont exch
	scalefont setfont
} def

% draw aligned label in bounding box aligned to current point
/alignedtext {			% width adj text
	/text exch def
	/adj exch def
	/width exch def
	gsave
		width 0 gt {
			text stringwidth pop adj mul 0 rmoveto
		} if
		[] 0 setdash
		text show
	grestore
} def

/boxprim {				% xcorner ycorner xsize ysize
		4 2 roll
		moveto
		2 copy
		exch 0 rlineto
		0 exch rlineto
		pop neg 0 rlineto
		closepath
} bind def

/ellipse_path {
	/ry exch def
	/rx exch def
	/y exch def
	/x exch def
	matrix currentmatrix
	newpath
	x y translate
	rx ry scale
	0 0 1 0 360 arc
	setmatrix
} bind def

/endpage { showpage } bind def
/showpage { } def

/layercolorseq
	[	% layer color sequence - darkest to lightest
		[0 0 0]
		[.2 .8 .8]
		[.4 .8 .8]
		[.6 .8 .8]
		[.8 .8 .8]
	]
def

/layerlen layercolorseq length def

/setlayer {/maxlayer exch def /curlayer exch def
	layercolorseq curlayer 1 sub layerlen mod get
	aload pop sethsbcolor
	/nodecolor {nopcolor} def
	/edgecolor {nopcolor} def
	/graphcolor {nopcolor} def
} bind def

/onlayer { curlayer ne {invis} if } def

/onlayers {
	/myupper exch def
	/mylower exch def
	curlayer mylower lt
	curlayer myupper gt
	or
	{invis} if
} def

/curlayer 0 def

%%EndResource
%%EndProlog
%%BeginSetup
14 default-font-family set_font
1 setmiterlimit
% /arrowlength 10 def
% /arrowwidth 5 def

% make sure pdfmark is harmless for PS-interpreters other than Distiller
/pdfmark where {pop} {userdict /pdfmark /cleartomark load put} ifelse
% make '<<' and '>>' safe on PS Level 1 devices
/languagelevel where {pop languagelevel}{1} ifelse
2 lt {
    userdict (<<) cvn ([) cvn load put
    userdict (>>) cvn ([) cvn load put
} if

%%EndSetup
setupLatin1
%%Page: 1 1
%%PageBoundingBox: 36 36 394 298
%%PageOrientation: Portrait
gsave
36 36 394 298 boxprim clip newpath
0 0 1 beginpage
1 1 set_scale 0 rotate 40 40 translate
% Node1
gsave
0.000 0.000 0.749 nodecolor
newpath 0 232 moveto
0 253 lineto
125 253 lineto
125 232 lineto
closepath fill
1 setlinewidth
filled
0.000 0.000 0.000 nodecolor
newpath 0 232 moveto
0 253 lineto
125 253 lineto
125 232 lineto
closepath stroke
0.000 0.000 0.000 nodecolor
10.00 /FreeSans.ttf set_font
62 239 moveto 109 -0.5 (DocCasoPrueba.cpp) alignedtext
grestore
% Node2
gsave
1 setlinewidth
0.000 0.000 0.749 nodecolor
newpath 60 0 moveto
60 21 lineto
119 21 lineto
119 0 lineto
closepath stroke
0.000 0.000 0.000 nodecolor
10.00 /FreeSans.ttf set_font
89 7 moveto 43 -0.5 (sstream) alignedtext
grestore
% Node1->Node2
gsave
1 setlinewidth
solid
0.667 0.776 0.439 edgecolor
newpath 50 232 moveto
42 223 32 210 28 196 curveto
17 162 18 150 28 116 curveto
37 82 59 49 75 29 curveto
stroke
0.667 0.776 0.439 edgecolor
newpath 77.8 31.1 moveto
81 21 lineto
72.2 26.9 lineto
closepath fill
1 setlinewidth
solid
0.667 0.776 0.439 edgecolor
newpath 77.8 31.1 moveto
81 21 lineto
72.2 26.9 lineto
closepath stroke
grestore
% Node3
gsave
1 setlinewidth
0.000 0.000 0.749 nodecolor
newpath 37 174 moveto
37 195 lineto
87 195 lineto
87 174 lineto
closepath stroke
0.000 0.000 0.000 nodecolor
10.00 /FreeSans.ttf set_font
62 181 moveto 34 -0.5 (vector) alignedtext
grestore
% Node1->Node3
gsave
1 setlinewidth
solid
0.667 0.776 0.439 edgecolor
newpath 62 232 moveto
62 224 62 214 62 205 curveto
stroke
0.667 0.776 0.439 edgecolor
newpath 65.5001 205 moveto
62 195 lineto
58.5001 205 lineto
closepath fill
1 setlinewidth
solid
0.667 0.776 0.439 edgecolor
newpath 65.5001 205 moveto
62 195 lineto
58.5001 205 lineto
closepath stroke
grestore
% Node4
gsave
[ /Rect [ 105 175 231 195 ]
  /Border [ 0 0 0 ]
  /Action << /Subtype /URI /URI ($DocCasoPrueba_8hpp.html) >>
  /Subtype /Link
/ANN pdfmark
[ /Rect [ 105 175 231 195 ]
  /Border [ 0 0 0 ]
  /Action << /Subtype /URI /URI ($DocCasoPrueba_8hpp.html) >>
  /Subtype /Link
/ANN pdfmark
1 setlinewidth
0.000 0.000 0.000 nodecolor
newpath 105 174 moveto
105 195 lineto
231 195 lineto
231 174 lineto
closepath stroke
0.000 0.000 0.000 nodecolor
10.00 /FreeSans.ttf set_font
168 181 moveto 110 -0.5 (DocCasoPrueba.hpp) alignedtext
grestore
% Node1->Node4
gsave
1 setlinewidth
solid
0.667 0.776 0.439 edgecolor
newpath 82 232 moveto
99 223 123 210 141 200 curveto
stroke
0.667 0.776 0.439 edgecolor
newpath 142.958 202.916 moveto
150 195 lineto
139.559 196.797 lineto
closepath fill
1 setlinewidth
solid
0.667 0.776 0.439 edgecolor
newpath 142.958 202.916 moveto
150 195 lineto
139.559 196.797 lineto
closepath stroke
grestore
% Node5
gsave
1 setlinewidth
0.000 0.000 0.749 nodecolor
newpath 37 116 moveto
37 137 lineto
242 137 lineto
242 116 lineto
closepath stroke
0.000 0.000 0.000 nodecolor
10.00 /FreeSans.ttf set_font
139 123 moveto 189 -0.5 (cppunit/extensions/HelperMacros.h) alignedtext
grestore
% Node4->Node5
gsave
1 setlinewidth
solid
0.667 0.776 0.439 edgecolor
newpath 162 174 moveto
158 166 153 155 149 146 curveto
stroke
0.667 0.776 0.439 edgecolor
newpath 151.916 144.042 moveto
144 137 lineto
145.797 147.441 lineto
closepath fill
1 setlinewidth
solid
0.667 0.776 0.439 edgecolor
newpath 151.916 144.042 moveto
144 137 lineto
145.797 147.441 lineto
closepath stroke
grestore
% Node6
gsave
[ /Rect [ 259 117 319 137 ]
  /Border [ 0 0 0 ]
  /Action << /Subtype /URI /URI ($Doc_8hpp.html) >>
  /Subtype /Link
/ANN pdfmark
[ /Rect [ 259 117 319 137 ]
  /Border [ 0 0 0 ]
  /Action << /Subtype /URI /URI ($Doc_8hpp.html) >>
  /Subtype /Link
/ANN pdfmark
1 setlinewidth
0.000 0.000 0.000 nodecolor
newpath 259 116 moveto
259 137 lineto
320 137 lineto
320 116 lineto
closepath stroke
0.000 0.000 0.000 nodecolor
10.00 /FreeSans.ttf set_font
289 123 moveto 45 -0.5 (Doc.hpp) alignedtext
grestore
% Node4->Node6
gsave
1 setlinewidth
solid
0.667 0.776 0.439 edgecolor
newpath 191 174 moveto
210 165 238 151 259 141 curveto
stroke
0.667 0.776 0.439 edgecolor
newpath 260.283 144.26 moveto
268 137 lineto
257.44 137.863 lineto
closepath fill
1 setlinewidth
solid
0.667 0.776 0.439 edgecolor
newpath 260.283 144.26 moveto
268 137 lineto
257.44 137.863 lineto
closepath stroke
grestore
% Node7
gsave
[ /Rect [ 210 59 288 79 ]
  /Border [ 0 0 0 ]
  /Action << /Subtype /URI /URI ($comun_8hpp.html) >>
  /Subtype /Link
/ANN pdfmark
[ /Rect [ 210 59 288 79 ]
  /Border [ 0 0 0 ]
  /Action << /Subtype /URI /URI ($comun_8hpp.html) >>
  /Subtype /Link
/ANN pdfmark
1 setlinewidth
0.000 0.000 0.000 nodecolor
newpath 210 58 moveto
210 79 lineto
288 79 lineto
288 58 lineto
closepath stroke
0.000 0.000 0.000 nodecolor
10.00 /FreeSans.ttf set_font
249 65 moveto 62 -0.5 (comun.hpp) alignedtext
grestore
% Node6->Node7
gsave
1 setlinewidth
solid
0.667 0.776 0.439 edgecolor
newpath 281 116 moveto
276 108 268 97 262 87 curveto
stroke
0.667 0.776 0.439 edgecolor
newpath 264.8 84.9 moveto
256 79 lineto
259.2 89.1 lineto
closepath fill
1 setlinewidth
solid
0.667 0.776 0.439 edgecolor
newpath 264.8 84.9 moveto
256 79 lineto
259.2 89.1 lineto
closepath stroke
grestore
% Node7->Node2
gsave
1 setlinewidth
solid
0.667 0.776 0.439 edgecolor
newpath 219 58 moveto
192 48 154 34 127 24 curveto
stroke
0.667 0.776 0.439 edgecolor
newpath 127.584 20.5212 moveto
117 21 lineto
125.573 27.2259 lineto
closepath fill
1 setlinewidth
solid
0.667 0.776 0.439 edgecolor
newpath 127.584 20.5212 moveto
117 21 lineto
125.573 27.2259 lineto
closepath stroke
grestore
% Node8
gsave
1 setlinewidth
0.000 0.000 0.749 nodecolor
newpath 176 0 moveto
176 21 lineto
208 21 lineto
208 0 lineto
closepath stroke
0.000 0.000 0.000 nodecolor
10.00 /FreeSans.ttf set_font
192 7 moveto 16 -0.5 (set) alignedtext
grestore
% Node7->Node8
gsave
1 setlinewidth
solid
0.667 0.776 0.439 edgecolor
newpath 238 58 moveto
229 49 218 38 209 28 curveto
stroke
0.667 0.776 0.439 edgecolor
newpath 211.546 25.5962 moveto
202 21 lineto
206.596 30.546 lineto
closepath fill
1 setlinewidth
solid
0.667 0.776 0.439 edgecolor
newpath 211.546 25.5962 moveto
202 21 lineto
206.596 30.546 lineto
closepath stroke
grestore
% Node9
gsave
1 setlinewidth
0.000 0.000 0.749 nodecolor
newpath 226 0 moveto
226 21 lineto
272 21 lineto
272 0 lineto
closepath stroke
0.000 0.000 0.000 nodecolor
10.00 /FreeSans.ttf set_font
249 7 moveto 30 -0.5 (string) alignedtext
grestore
% Node7->Node9
gsave
1 setlinewidth
solid
0.667 0.776 0.439 edgecolor
newpath 249 58 moveto
249 50 249 40 249 31 curveto
stroke
0.667 0.776 0.439 edgecolor
newpath 252.5 31 moveto
249 21 lineto
245.5 31 lineto
closepath fill
1 setlinewidth
solid
0.667 0.776 0.439 edgecolor
newpath 252.5 31 moveto
249 21 lineto
245.5 31 lineto
closepath stroke
grestore
% Node10
gsave
1 setlinewidth
0.000 0.000 0.749 nodecolor
newpath 290 0 moveto
290 21 lineto
351 21 lineto
351 0 lineto
closepath stroke
0.000 0.000 0.000 nodecolor
10.00 /FreeSans.ttf set_font
320 7 moveto 45 -0.5 (ostream) alignedtext
grestore
% Node7->Node10
gsave
1 setlinewidth
solid
0.667 0.776 0.439 edgecolor
newpath 263 58 moveto
274 49 288 37 300 27 curveto
stroke
0.667 0.776 0.439 edgecolor
newpath 302.1 29.8 moveto
308 21 lineto
297.9 24.2 lineto
closepath fill
1 setlinewidth
solid
0.667 0.776 0.439 edgecolor
newpath 302.1 29.8 moveto
308 21 lineto
297.9 24.2 lineto
closepath stroke
grestore
endpage
showpage
grestore
%%PageTrailer
%%EndPage: 1
%%Trailer
%%Pages: 1
%%BoundingBox: 36 36 394 298
end
restore
%%EOF
