%!PS-Adobe-2.0
%%Creator: Graphviz version 2.12 (Mon Nov 16 18:34:03 UTC 2009)
%%For: (vtamara) Vladimir
%%Title: G
%%Pages: (atend)
%%BoundingBox: (atend)
%%EndComments
save
%%BeginProlog
/DotDict 200 dict def
DotDict begin

/setupLatin1 {
mark
/EncodingVector 256 array def
 EncodingVector 0

ISOLatin1Encoding 0 255 getinterval putinterval
EncodingVector 45 /hyphen put

% Set up ISO Latin 1 character encoding
/starnetISO {
        dup dup findfont dup length dict begin
        { 1 index /FID ne { def }{ pop pop } ifelse
        } forall
        /Encoding EncodingVector def
        currentdict end definefont
} def
/Times-Roman starnetISO def
/Times-Italic starnetISO def
/Times-Bold starnetISO def
/Times-BoldItalic starnetISO def
/Helvetica starnetISO def
/Helvetica-Oblique starnetISO def
/Helvetica-Bold starnetISO def
/Helvetica-BoldOblique starnetISO def
/Courier starnetISO def
/Courier-Oblique starnetISO def
/Courier-Bold starnetISO def
/Courier-BoldOblique starnetISO def
cleartomark
} bind def

%%BeginResource: procset graphviz 0 0
/coord-font-family /Times-Roman def
/default-font-family /Times-Roman def
/coordfont coord-font-family findfont 8 scalefont def

/InvScaleFactor 1.0 def
/set_scale {
       dup 1 exch div /InvScaleFactor exch def
       scale
} bind def

% styles
/solid { [] 0 setdash } bind def
/dashed { [9 InvScaleFactor mul dup ] 0 setdash } bind def
/dotted { [1 InvScaleFactor mul 6 InvScaleFactor mul] 0 setdash } bind def
/invis {/fill {newpath} def /stroke {newpath} def /show {pop newpath} def} bind def
/bold { 2 setlinewidth } bind def
/filled { } bind def
/unfilled { } bind def
/rounded { } bind def
/diagonals { } bind def

% hooks for setting color 
/nodecolor { sethsbcolor } bind def
/edgecolor { sethsbcolor } bind def
/graphcolor { sethsbcolor } bind def
/nopcolor {pop pop pop} bind def

/beginpage {	% i j npages
	/npages exch def
	/j exch def
	/i exch def
	/str 10 string def
	npages 1 gt {
		gsave
			coordfont setfont
			0 0 moveto
			(\() show i str cvs show (,) show j str cvs show (\)) show
		grestore
	} if
} bind def

/set_font {
	findfont exch
	scalefont setfont
} def

% draw aligned label in bounding box aligned to current point
/alignedtext {			% width adj text
	/text exch def
	/adj exch def
	/width exch def
	gsave
		width 0 gt {
			text stringwidth pop adj mul 0 rmoveto
		} if
		[] 0 setdash
		text show
	grestore
} def

/boxprim {				% xcorner ycorner xsize ysize
		4 2 roll
		moveto
		2 copy
		exch 0 rlineto
		0 exch rlineto
		pop neg 0 rlineto
		closepath
} bind def

/ellipse_path {
	/ry exch def
	/rx exch def
	/y exch def
	/x exch def
	matrix currentmatrix
	newpath
	x y translate
	rx ry scale
	0 0 1 0 360 arc
	setmatrix
} bind def

/endpage { showpage } bind def
/showpage { } def

/layercolorseq
	[	% layer color sequence - darkest to lightest
		[0 0 0]
		[.2 .8 .8]
		[.4 .8 .8]
		[.6 .8 .8]
		[.8 .8 .8]
	]
def

/layerlen layercolorseq length def

/setlayer {/maxlayer exch def /curlayer exch def
	layercolorseq curlayer 1 sub layerlen mod get
	aload pop sethsbcolor
	/nodecolor {nopcolor} def
	/edgecolor {nopcolor} def
	/graphcolor {nopcolor} def
} bind def

/onlayer { curlayer ne {invis} if } def

/onlayers {
	/myupper exch def
	/mylower exch def
	curlayer mylower lt
	curlayer myupper gt
	or
	{invis} if
} def

/curlayer 0 def

%%EndResource
%%EndProlog
%%BeginSetup
14 default-font-family set_font
1 setmiterlimit
% /arrowlength 10 def
% /arrowwidth 5 def

% make sure pdfmark is harmless for PS-interpreters other than Distiller
/pdfmark where {pop} {userdict /pdfmark /cleartomark load put} ifelse
% make '<<' and '>>' safe on PS Level 1 devices
/languagelevel where {pop languagelevel}{1} ifelse
2 lt {
    userdict (<<) cvn ([) cvn load put
    userdict (>>) cvn ([) cvn load put
} if

%%EndSetup
setupLatin1
%%Page: 1 1
%%PageBoundingBox: 36 36 554 182
%%PageOrientation: Portrait
gsave
36 36 554 182 boxprim clip newpath
0 0 1 beginpage
1 1 set_scale 0 rotate 40 40 translate
% Node1
gsave
0.000 0.000 0.749 nodecolor
newpath 174 116 moveto
174 137 lineto
237 137 lineto
237 116 lineto
closepath fill
1 setlinewidth
filled
0.000 0.000 0.000 nodecolor
newpath 174 116 moveto
174 137 lineto
237 137 lineto
237 116 lineto
closepath stroke
0.000 0.000 0.000 nodecolor
10.00 /FreeSans.ttf set_font
205 123 moveto 47 -0.5 (Elias.cpp) alignedtext
grestore
% Node2
gsave
1 setlinewidth
0.000 0.000 0.749 nodecolor
newpath 0 0 moveto
0 21 lineto
50 21 lineto
50 0 lineto
closepath stroke
0.000 0.000 0.000 nodecolor
10.00 /FreeSans.ttf set_font
25 7 moveto 34 -0.5 (vector) alignedtext
grestore
% Node1->Node2
gsave
1 setlinewidth
solid
0.667 0.776 0.439 edgecolor
newpath 174 123 moveto
129 116 51 101 33 80 curveto
22 66 21 46 22 31 curveto
stroke
0.667 0.776 0.439 edgecolor
newpath 25.4875 31.2987 moveto
23 21 lineto
18.5222 30.6021 lineto
closepath fill
1 setlinewidth
solid
0.667 0.776 0.439 edgecolor
newpath 25.4875 31.2987 moveto
23 21 lineto
18.5222 30.6021 lineto
closepath stroke
grestore
% Node3
gsave
1 setlinewidth
0.000 0.000 0.749 nodecolor
newpath 143 0 moveto
143 21 lineto
202 21 lineto
202 0 lineto
closepath stroke
0.000 0.000 0.000 nodecolor
10.00 /FreeSans.ttf set_font
172 7 moveto 43 -0.5 (sstream) alignedtext
grestore
% Node1->Node3
gsave
1 setlinewidth
solid
0.667 0.776 0.439 edgecolor
newpath 202 116 moveto
199 106 195 92 191 80 curveto
186 63 181 45 177 31 curveto
stroke
0.667 0.776 0.439 edgecolor
newpath 180.393 30.1194 moveto
175 21 lineto
173.529 31.4922 lineto
closepath fill
1 setlinewidth
solid
0.667 0.776 0.439 edgecolor
newpath 180.393 30.1194 moveto
175 21 lineto
173.529 31.4922 lineto
closepath stroke
grestore
% Node4
gsave
1 setlinewidth
0.000 0.000 0.749 nodecolor
newpath 79 0 moveto
79 21 lineto
125 21 lineto
125 0 lineto
closepath stroke
0.000 0.000 0.000 nodecolor
10.00 /FreeSans.ttf set_font
102 7 moveto 30 -0.5 (string) alignedtext
grestore
% Node1->Node4
gsave
1 setlinewidth
solid
0.667 0.776 0.439 edgecolor
newpath 195 116 moveto
177 96 139 53 118 29 curveto
stroke
0.667 0.776 0.439 edgecolor
newpath 120.219 26.221 moveto
111 21 lineto
114.951 30.8306 lineto
closepath fill
1 setlinewidth
solid
0.667 0.776 0.439 edgecolor
newpath 120.219 26.221 moveto
111 21 lineto
114.951 30.8306 lineto
closepath stroke
grestore
% Node5
gsave
1 setlinewidth
0.000 0.000 0.749 nodecolor
newpath 296 58 moveto
296 79 lineto
360 79 lineto
360 58 lineto
closepath stroke
0.000 0.000 0.000 nodecolor
10.00 /FreeSans.ttf set_font
328 65 moveto 48 -0.5 (iostream) alignedtext
grestore
% Node1->Node5
gsave
1 setlinewidth
solid
0.667 0.776 0.439 edgecolor
newpath 228 116 moveto
248 106 276 93 298 83 curveto
stroke
0.667 0.776 0.439 edgecolor
newpath 299.283 86.2598 moveto
307 79 lineto
296.44 79.8631 lineto
closepath fill
1 setlinewidth
solid
0.667 0.776 0.439 edgecolor
newpath 299.283 86.2598 moveto
307 79 lineto
296.44 79.8631 lineto
closepath stroke
grestore
% Node6
gsave
1 setlinewidth
0.000 0.000 0.749 nodecolor
newpath 378 58 moveto
378 79 lineto
439 79 lineto
439 58 lineto
closepath stroke
0.000 0.000 0.000 nodecolor
10.00 /FreeSans.ttf set_font
408 65 moveto 45 -0.5 (iomanip) alignedtext
grestore
% Node1->Node6
gsave
1 setlinewidth
solid
0.667 0.776 0.439 edgecolor
newpath 237 118 moveto
273 108 330 91 368 80 curveto
stroke
0.667 0.776 0.439 edgecolor
newpath 369.427 83.2259 moveto
378 77 lineto
367.416 76.5212 lineto
closepath fill
1 setlinewidth
solid
0.667 0.776 0.439 edgecolor
newpath 369.427 83.2259 moveto
378 77 lineto
367.416 76.5212 lineto
closepath stroke
grestore
% Node7
gsave
1 setlinewidth
0.000 0.000 0.749 nodecolor
newpath 456 58 moveto
456 79 lineto
511 79 lineto
511 58 lineto
closepath stroke
0.000 0.000 0.000 nodecolor
10.00 /FreeSans.ttf set_font
483 65 moveto 39 -0.5 (math.h) alignedtext
grestore
% Node1->Node7
gsave
1 setlinewidth
solid
0.667 0.776 0.439 edgecolor
newpath 237 122 moveto
282 114 365 99 446 79 curveto
stroke
0.667 0.776 0.439 edgecolor
newpath 446.881 82.3933 moveto
456 77 lineto
445.508 75.5292 lineto
closepath fill
1 setlinewidth
solid
0.667 0.776 0.439 edgecolor
newpath 446.881 82.3933 moveto
456 77 lineto
445.508 75.5292 lineto
closepath stroke
grestore
% Node8
gsave
[ /Rect [ 200 59 278 79 ]
  /Border [ 0 0 0 ]
  /Action << /Subtype /URI /URI ($comun_8hpp.html) >>
  /Subtype /Link
/ANN pdfmark
[ /Rect [ 200 59 278 79 ]
  /Border [ 0 0 0 ]
  /Action << /Subtype /URI /URI ($comun_8hpp.html) >>
  /Subtype /Link
/ANN pdfmark
1 setlinewidth
0.000 0.000 0.000 nodecolor
newpath 200 58 moveto
200 79 lineto
278 79 lineto
278 58 lineto
closepath stroke
0.000 0.000 0.000 nodecolor
10.00 /FreeSans.ttf set_font
239 65 moveto 62 -0.5 (comun.hpp) alignedtext
grestore
% Node1->Node8
gsave
1 setlinewidth
solid
0.667 0.776 0.439 edgecolor
newpath 212 116 moveto
216 108 223 97 228 88 curveto
stroke
0.667 0.776 0.439 edgecolor
newpath 231.203 89.4414 moveto
233 79 lineto
225.084 86.0418 lineto
closepath fill
1 setlinewidth
solid
0.667 0.776 0.439 edgecolor
newpath 231.203 89.4414 moveto
233 79 lineto
225.084 86.0418 lineto
closepath stroke
grestore
% Node11
gsave
[ /Rect [ 42 59 106 79 ]
  /Border [ 0 0 0 ]
  /Action << /Subtype /URI /URI ($Elias_8hpp.html) >>
  /Subtype /Link
/ANN pdfmark
[ /Rect [ 42 59 106 79 ]
  /Border [ 0 0 0 ]
  /Action << /Subtype /URI /URI ($Elias_8hpp.html) >>
  /Subtype /Link
/ANN pdfmark
1 setlinewidth
0.000 0.000 0.000 nodecolor
newpath 42 58 moveto
42 79 lineto
106 79 lineto
106 58 lineto
closepath stroke
0.000 0.000 0.000 nodecolor
10.00 /FreeSans.ttf set_font
74 65 moveto 48 -0.5 (Elias.hpp) alignedtext
grestore
% Node1->Node11
gsave
1 setlinewidth
solid
0.667 0.776 0.439 edgecolor
newpath 180 116 moveto
159 106 129 93 106 83 curveto
stroke
0.667 0.776 0.439 edgecolor
newpath 107.56 79.8631 moveto
97 79 lineto
104.717 86.2598 lineto
closepath fill
1 setlinewidth
solid
0.667 0.776 0.439 edgecolor
newpath 107.56 79.8631 moveto
97 79 lineto
104.717 86.2598 lineto
closepath stroke
grestore
% Node8->Node3
gsave
1 setlinewidth
solid
0.667 0.776 0.439 edgecolor
newpath 226 58 moveto
216 49 203 37 192 28 curveto
stroke
0.667 0.776 0.439 edgecolor
newpath 193.831 24.9511 moveto
184 21 lineto
189.221 30.2191 lineto
closepath fill
1 setlinewidth
solid
0.667 0.776 0.439 edgecolor
newpath 193.831 24.9511 moveto
184 21 lineto
189.221 30.2191 lineto
closepath stroke
grestore
% Node8->Node4
gsave
1 setlinewidth
solid
0.667 0.776 0.439 edgecolor
newpath 213 58 moveto
191 48 158 35 134 25 curveto
stroke
0.667 0.776 0.439 edgecolor
newpath 135.56 21.8631 moveto
125 21 lineto
132.717 28.2598 lineto
closepath fill
1 setlinewidth
solid
0.667 0.776 0.439 edgecolor
newpath 135.56 21.8631 moveto
125 21 lineto
132.717 28.2598 lineto
closepath stroke
grestore
% Node9
gsave
1 setlinewidth
0.000 0.000 0.749 nodecolor
newpath 297 0 moveto
297 21 lineto
329 21 lineto
329 0 lineto
closepath stroke
0.000 0.000 0.000 nodecolor
10.00 /FreeSans.ttf set_font
313 7 moveto 16 -0.5 (set) alignedtext
grestore
% Node8->Node9
gsave
1 setlinewidth
solid
0.667 0.776 0.439 edgecolor
newpath 253 58 moveto
264 49 280 37 292 27 curveto
stroke
0.667 0.776 0.439 edgecolor
newpath 294.1 29.8 moveto
300 21 lineto
289.9 24.2 lineto
closepath fill
1 setlinewidth
solid
0.667 0.776 0.439 edgecolor
newpath 294.1 29.8 moveto
300 21 lineto
289.9 24.2 lineto
closepath stroke
grestore
% Node10
gsave
1 setlinewidth
0.000 0.000 0.749 nodecolor
newpath 219 0 moveto
219 21 lineto
280 21 lineto
280 0 lineto
closepath stroke
0.000 0.000 0.000 nodecolor
10.00 /FreeSans.ttf set_font
249 7 moveto 45 -0.5 (ostream) alignedtext
grestore
% Node8->Node10
gsave
1 setlinewidth
solid
0.667 0.776 0.439 edgecolor
newpath 241 58 moveto
242 50 244 40 246 31 curveto
stroke
0.667 0.776 0.439 edgecolor
newpath 249.488 31.2987 moveto
247 21 lineto
242.522 30.6021 lineto
closepath fill
1 setlinewidth
solid
0.667 0.776 0.439 edgecolor
newpath 249.488 31.2987 moveto
247 21 lineto
242.522 30.6021 lineto
closepath stroke
grestore
% Node11->Node2
gsave
1 setlinewidth
solid
0.667 0.776 0.439 edgecolor
newpath 65 58 moveto
58 49 48 38 40 29 curveto
stroke
0.667 0.776 0.439 edgecolor
newpath 42.2191 26.221 moveto
33 21 lineto
36.9511 30.8306 lineto
closepath fill
1 setlinewidth
solid
0.667 0.776 0.439 edgecolor
newpath 42.2191 26.221 moveto
33 21 lineto
36.9511 30.8306 lineto
closepath stroke
grestore
% Node11->Node4
gsave
1 setlinewidth
solid
0.667 0.776 0.439 edgecolor
newpath 79 58 moveto
83 50 88 39 93 30 curveto
stroke
0.667 0.776 0.439 edgecolor
newpath 96.1369 31.5596 moveto
97 21 lineto
89.7402 28.7166 lineto
closepath fill
1 setlinewidth
solid
0.667 0.776 0.439 edgecolor
newpath 96.1369 31.5596 moveto
97 21 lineto
89.7402 28.7166 lineto
closepath stroke
grestore
endpage
showpage
grestore
%%PageTrailer
%%EndPage: 1
%%Trailer
%%Pages: 1
%%BoundingBox: 36 36 554 182
end
restore
%%EOF
