%!PS-Adobe-2.0
%%Creator: Graphviz version 2.12 (Mon Nov 16 18:34:03 UTC 2009)
%%For: (vtamara) Vladimir
%%Title: G
%%Pages: (atend)
%%BoundingBox: (atend)
%%EndComments
save
%%BeginProlog
/DotDict 200 dict def
DotDict begin

/setupLatin1 {
mark
/EncodingVector 256 array def
 EncodingVector 0

ISOLatin1Encoding 0 255 getinterval putinterval
EncodingVector 45 /hyphen put

% Set up ISO Latin 1 character encoding
/starnetISO {
        dup dup findfont dup length dict begin
        { 1 index /FID ne { def }{ pop pop } ifelse
        } forall
        /Encoding EncodingVector def
        currentdict end definefont
} def
/Times-Roman starnetISO def
/Times-Italic starnetISO def
/Times-Bold starnetISO def
/Times-BoldItalic starnetISO def
/Helvetica starnetISO def
/Helvetica-Oblique starnetISO def
/Helvetica-Bold starnetISO def
/Helvetica-BoldOblique starnetISO def
/Courier starnetISO def
/Courier-Oblique starnetISO def
/Courier-Bold starnetISO def
/Courier-BoldOblique starnetISO def
cleartomark
} bind def

%%BeginResource: procset graphviz 0 0
/coord-font-family /Times-Roman def
/default-font-family /Times-Roman def
/coordfont coord-font-family findfont 8 scalefont def

/InvScaleFactor 1.0 def
/set_scale {
       dup 1 exch div /InvScaleFactor exch def
       scale
} bind def

% styles
/solid { [] 0 setdash } bind def
/dashed { [9 InvScaleFactor mul dup ] 0 setdash } bind def
/dotted { [1 InvScaleFactor mul 6 InvScaleFactor mul] 0 setdash } bind def
/invis {/fill {newpath} def /stroke {newpath} def /show {pop newpath} def} bind def
/bold { 2 setlinewidth } bind def
/filled { } bind def
/unfilled { } bind def
/rounded { } bind def
/diagonals { } bind def

% hooks for setting color 
/nodecolor { sethsbcolor } bind def
/edgecolor { sethsbcolor } bind def
/graphcolor { sethsbcolor } bind def
/nopcolor {pop pop pop} bind def

/beginpage {	% i j npages
	/npages exch def
	/j exch def
	/i exch def
	/str 10 string def
	npages 1 gt {
		gsave
			coordfont setfont
			0 0 moveto
			(\() show i str cvs show (,) show j str cvs show (\)) show
		grestore
	} if
} bind def

/set_font {
	findfont exch
	scalefont setfont
} def

% draw aligned label in bounding box aligned to current point
/alignedtext {			% width adj text
	/text exch def
	/adj exch def
	/width exch def
	gsave
		width 0 gt {
			text stringwidth pop adj mul 0 rmoveto
		} if
		[] 0 setdash
		text show
	grestore
} def

/boxprim {				% xcorner ycorner xsize ysize
		4 2 roll
		moveto
		2 copy
		exch 0 rlineto
		0 exch rlineto
		pop neg 0 rlineto
		closepath
} bind def

/ellipse_path {
	/ry exch def
	/rx exch def
	/y exch def
	/x exch def
	matrix currentmatrix
	newpath
	x y translate
	rx ry scale
	0 0 1 0 360 arc
	setmatrix
} bind def

/endpage { showpage } bind def
/showpage { } def

/layercolorseq
	[	% layer color sequence - darkest to lightest
		[0 0 0]
		[.2 .8 .8]
		[.4 .8 .8]
		[.6 .8 .8]
		[.8 .8 .8]
	]
def

/layerlen layercolorseq length def

/setlayer {/maxlayer exch def /curlayer exch def
	layercolorseq curlayer 1 sub layerlen mod get
	aload pop sethsbcolor
	/nodecolor {nopcolor} def
	/edgecolor {nopcolor} def
	/graphcolor {nopcolor} def
} bind def

/onlayer { curlayer ne {invis} if } def

/onlayers {
	/myupper exch def
	/mylower exch def
	curlayer mylower lt
	curlayer myupper gt
	or
	{invis} if
} def

/curlayer 0 def

%%EndResource
%%EndProlog
%%BeginSetup
14 default-font-family set_font
1 setmiterlimit
% /arrowlength 10 def
% /arrowwidth 5 def

% make sure pdfmark is harmless for PS-interpreters other than Distiller
/pdfmark where {pop} {userdict /pdfmark /cleartomark load put} ifelse
% make '<<' and '>>' safe on PS Level 1 devices
/languagelevel where {pop languagelevel}{1} ifelse
2 lt {
    userdict (<<) cvn ([) cvn load put
    userdict (>>) cvn ([) cvn load put
} if

%%EndSetup
setupLatin1
%%Page: 1 1
%%PageBoundingBox: 36 36 1070 1184
%%PageOrientation: Portrait
gsave
36 36 1070 1184 boxprim clip newpath
0 0 1 beginpage
1 1 set_scale 0 rotate 40 40 translate
% Node1
gsave
0.000 0.000 0.749 nodecolor
newpath 0 321 moveto
0 342 lineto
44 342 lineto
44 321 lineto
closepath fill
1 setlinewidth
filled
0.000 0.000 0.000 nodecolor
newpath 0 321 moveto
0 342 lineto
44 342 lineto
44 321 lineto
closepath stroke
0.000 0.000 0.000 nodecolor
10.00 /FreeSans.ttf set_font
22 328 moveto 28 -0.5 (main) alignedtext
grestore
% Node2
gsave
[ /Rect [ 81 189 205 209 ]
  /Border [ 0 0 0 ]
  /Action << /Subtype /URI /URI ($RamDisco_8cpp.html#f0c232886a7851d8db3a647add9ae455) >>
  /Subtype /Link
/ANN pdfmark
[ /Rect [ 81 189 205 209 ]
  /Border [ 0 0 0 ]
  /Action << /Subtype /URI /URI ($RamDisco_8cpp.html#f0c232886a7851d8db3a647add9ae455) >>
  /Subtype /Link
/ANN pdfmark
1 setlinewidth
0.000 0.000 0.000 nodecolor
newpath 81 188 moveto
81 209 lineto
206 209 lineto
206 188 lineto
closepath stroke
0.000 0.000 0.000 nodecolor
10.00 /FreeSans.ttf set_font
143 195 moveto 109 -0.5 (escribePlanoStream) alignedtext
grestore
% Node1->Node2
gsave
1 setlinewidth
solid
0.667 0.776 0.439 edgecolor
newpath 32 321 moveto
54 297 102 244 127 217 curveto
stroke
0.667 0.776 0.439 edgecolor
newpath 130.049 218.831 moveto
134 209 lineto
124.781 214.221 lineto
closepath fill
1 setlinewidth
solid
0.667 0.776 0.439 edgecolor
newpath 130.049 218.831 moveto
134 209 lineto
124.781 214.221 lineto
closepath stroke
grestore
% Node12
gsave
[ /Rect [ 92 151 194 171 ]
  /Border [ 0 0 0 ]
  /Action << /Subtype /URI /URI ($TrieSDisco_8cpp.html#df0711974693615ed7a5a7d1a2b050a7) >>
  /Subtype /Link
/ANN pdfmark
[ /Rect [ 92 151 194 171 ]
  /Border [ 0 0 0 ]
  /Action << /Subtype /URI /URI ($TrieSDisco_8cpp.html#df0711974693615ed7a5a7d1a2b050a7) >>
  /Subtype /Link
/ANN pdfmark
1 setlinewidth
0.000 0.000 0.000 nodecolor
newpath 92 150 moveto
92 171 lineto
194 171 lineto
194 150 lineto
closepath stroke
0.000 0.000 0.000 nodecolor
10.00 /FreeSans.ttf set_font
143 157 moveto 86 -0.5 (escribeRelacion) alignedtext
grestore
% Node1->Node12
gsave
1 setlinewidth
solid
0.667 0.776 0.439 edgecolor
newpath 23 321 moveto
26 293 38 219 80 180 curveto
81 179 83 177 84 176 curveto
stroke
0.667 0.776 0.439 edgecolor
newpath 85.9582 178.916 moveto
93 171 lineto
82.5586 172.797 lineto
closepath fill
1 setlinewidth
solid
0.667 0.776 0.439 edgecolor
newpath 85.9582 178.916 moveto
93 171 lineto
82.5586 172.797 lineto
closepath stroke
grestore
% Node14
gsave
[ /Rect [ 117 398 169 418 ]
  /Border [ 0 0 0 ]
  /Action << /Subtype /URI /URI ($Operaciones_8cpp.html#7b0b2f4ed1f93e2239f4d9d7cd303384) >>
  /Subtype /Link
/ANN pdfmark
[ /Rect [ 117 398 169 418 ]
  /Border [ 0 0 0 ]
  /Action << /Subtype /URI /URI ($Operaciones_8cpp.html#7b0b2f4ed1f93e2239f4d9d7cd303384) >>
  /Subtype /Link
/ANN pdfmark
1 setlinewidth
0.000 0.000 0.000 nodecolor
newpath 117 397 moveto
117 418 lineto
170 418 lineto
170 397 lineto
closepath stroke
0.000 0.000 0.000 nodecolor
10.00 /FreeSans.ttf set_font
143 404 moveto 37 -0.5 (indexa) alignedtext
grestore
% Node1->Node14
gsave
1 setlinewidth
solid
0.667 0.776 0.439 edgecolor
newpath 38 342 moveto
58 354 93 376 117 392 curveto
stroke
0.667 0.776 0.439 edgecolor
newpath 114.665 394.668 moveto
125 397 lineto
118.375 388.732 lineto
closepath fill
1 setlinewidth
solid
0.667 0.776 0.439 edgecolor
newpath 114.665 394.668 moveto
125 397 lineto
118.375 388.732 lineto
closepath stroke
grestore
% Node39
gsave
[ /Rect [ 88 835 198 855 ]
  /Border [ 0 0 0 ]
  /Action << /Subtype /URI /URI ($RamDisco_8cpp.html#9889da3dbb12ee73c109e4998e1269f4) >>
  /Subtype /Link
/ANN pdfmark
[ /Rect [ 88 835 198 855 ]
  /Border [ 0 0 0 ]
  /Action << /Subtype /URI /URI ($RamDisco_8cpp.html#9889da3dbb12ee73c109e4998e1269f4) >>
  /Subtype /Link
/ANN pdfmark
1 setlinewidth
0.000 0.000 0.000 nodecolor
newpath 88 834 moveto
88 855 lineto
198 855 lineto
198 834 lineto
closepath stroke
0.000 0.000 0.000 nodecolor
10.00 /FreeSans.ttf set_font
143 841 moveto 94 -0.5 (mezclaDiscoRam) alignedtext
grestore
% Node1->Node39
gsave
1 setlinewidth
solid
0.667 0.776 0.439 edgecolor
newpath 24 342 moveto
38 405 117 737 138 824 curveto
stroke
0.667 0.776 0.439 edgecolor
newpath 134.607 824.881 moveto
140 834 lineto
141.471 823.508 lineto
closepath fill
1 setlinewidth
solid
0.667 0.776 0.439 edgecolor
newpath 134.607 824.881 moveto
140 834 lineto
141.471 823.508 lineto
closepath stroke
grestore
% Node49
gsave
[ /Rect [ 99 1005 187 1025 ]
  /Border [ 0 0 0 ]
  /Action << /Subtype /URI /URI ($TrieSDisco_8cpp.html#3b55801abcb3987a49125a0ddc9ff76c) >>
  /Subtype /Link
/ANN pdfmark
[ /Rect [ 99 1005 187 1025 ]
  /Border [ 0 0 0 ]
  /Action << /Subtype /URI /URI ($TrieSDisco_8cpp.html#3b55801abcb3987a49125a0ddc9ff76c) >>
  /Subtype /Link
/ANN pdfmark
1 setlinewidth
0.000 0.000 0.000 nodecolor
newpath 99 1004 moveto
99 1025 lineto
188 1025 lineto
188 1004 lineto
closepath stroke
0.000 0.000 0.000 nodecolor
10.00 /FreeSans.ttf set_font
143 1011 moveto 73 -0.5 (verificaIndice) alignedtext
grestore
% Node1->Node49
gsave
1 setlinewidth
solid
0.667 0.776 0.439 edgecolor
newpath 23 342 moveto
27 408 50 774 80 882 curveto
92 923 116 970 131 995 curveto
stroke
0.667 0.776 0.439 edgecolor
newpath 128.084 996.958 moveto
136 1004 lineto
134.203 993.559 lineto
closepath fill
1 setlinewidth
solid
0.667 0.776 0.439 edgecolor
newpath 128.084 996.958 moveto
136 1004 lineto
134.203 993.559 lineto
closepath stroke
grestore
% Node50
gsave
[ /Rect [ 93 113 193 133 ]
  /Border [ 0 0 0 ]
  /Action << /Subtype /URI /URI ($comun_8cpp.html#ecd3ce9c133c650ebb919dcce6f77003) >>
  /Subtype /Link
/ANN pdfmark
[ /Rect [ 93 113 193 133 ]
  /Border [ 0 0 0 ]
  /Action << /Subtype /URI /URI ($comun_8cpp.html#ecd3ce9c133c650ebb919dcce6f77003) >>
  /Subtype /Link
/ANN pdfmark
1 setlinewidth
0.000 0.000 0.000 nodecolor
newpath 93 112 moveto
93 133 lineto
193 133 lineto
193 112 lineto
closepath stroke
0.000 0.000 0.000 nodecolor
10.00 /FreeSans.ttf set_font
143 119 moveto 84 -0.5 (verificaNombre) alignedtext
grestore
% Node1->Node50
gsave
1 setlinewidth
solid
0.667 0.776 0.439 edgecolor
newpath 24 321 moveto
31 284 54 168 80 142 curveto
81 141 83 139 84 138 curveto
stroke
0.667 0.776 0.439 edgecolor
newpath 85.9582 140.916 moveto
93 133 lineto
82.5586 134.797 lineto
closepath fill
1 setlinewidth
solid
0.667 0.776 0.439 edgecolor
newpath 85.9582 140.916 moveto
93 133 lineto
82.5586 134.797 lineto
closepath stroke
grestore
% Node3
gsave
[ /Rect [ 499 787 583 807 ]
  /Border [ 0 0 0 ]
  /Action << /Subtype /URI /URI ($TrieSDisco_8cpp.html#95dfc28ebaa02e82d3d1ffce08251628) >>
  /Subtype /Link
/ANN pdfmark
[ /Rect [ 499 787 583 807 ]
  /Border [ 0 0 0 ]
  /Action << /Subtype /URI /URI ($TrieSDisco_8cpp.html#95dfc28ebaa02e82d3d1ffce08251628) >>
  /Subtype /Link
/ANN pdfmark
1 setlinewidth
0.000 0.000 0.000 nodecolor
newpath 499 786 moveto
499 807 lineto
583 807 lineto
583 786 lineto
closepath stroke
0.000 0.000 0.000 nodecolor
10.00 /FreeSans.ttf set_font
541 793 moveto 68 -0.5 (escribeNodo) alignedtext
grestore
% Node2->Node3
gsave
1 setlinewidth
solid
0.667 0.776 0.439 edgecolor
newpath 167 209 moveto
187 217 216 229 242 237 curveto
313 258 356 218 404 275 curveto
476 358 371 683 440 769 curveto
452 783 471 791 489 794 curveto
stroke
0.667 0.776 0.439 edgecolor
newpath 488.508 797.471 moveto
499 796 lineto
489.881 790.607 lineto
closepath fill
1 setlinewidth
solid
0.667 0.776 0.439 edgecolor
newpath 488.508 797.471 moveto
499 796 lineto
489.881 790.607 lineto
closepath stroke
grestore
% Node7
gsave
[ /Rect [ 678 76 834 96 ]
  /Border [ 0 0 0 ]
  /Action << /Subtype /URI /URI ($TrieSDisco_8cpp.html#453b277936104f13edb4f8158e015eba) >>
  /Subtype /Link
/ANN pdfmark
[ /Rect [ 678 76 834 96 ]
  /Border [ 0 0 0 ]
  /Action << /Subtype /URI /URI ($TrieSDisco_8cpp.html#453b277936104f13edb4f8158e015eba) >>
  /Subtype /Link
/ANN pdfmark
1 setlinewidth
0.000 0.000 0.000 nodecolor
newpath 678 75 moveto
678 96 lineto
834 96 lineto
834 75 lineto
closepath stroke
0.000 0.000 0.000 nodecolor
10.00 /FreeSans.ttf set_font
756 82 moveto 140 -0.5 (precalcula_escribe_actual) alignedtext
grestore
% Node2->Node7
gsave
1 setlinewidth
solid
0.667 0.776 0.439 edgecolor
newpath 195 188 moveto
199 186 203 183 206 180 curveto
244 143 200 98 242 67 curveto
311 17 563 52 687 73 curveto
stroke
0.667 0.776 0.439 edgecolor
newpath 686.508 76.4708 moveto
697 75 lineto
687.881 69.6067 lineto
closepath fill
1 setlinewidth
solid
0.667 0.776 0.439 edgecolor
newpath 686.508 76.4708 moveto
697 75 lineto
687.881 69.6067 lineto
closepath stroke
grestore
% Node10
gsave
[ /Rect [ 265 76 381 96 ]
  /Border [ 0 0 0 ]
  /Action << /Subtype /URI /URI ($RamDisco_8cpp.html#6b1b44682de6eb9fccd3df71e404154a) >>
  /Subtype /Link
/ANN pdfmark
[ /Rect [ 265 76 381 96 ]
  /Border [ 0 0 0 ]
  /Action << /Subtype /URI /URI ($RamDisco_8cpp.html#6b1b44682de6eb9fccd3df71e404154a) >>
  /Subtype /Link
/ANN pdfmark
1 setlinewidth
0.000 0.000 0.000 nodecolor
newpath 265 75 moveto
265 96 lineto
382 96 lineto
382 75 lineto
closepath stroke
0.000 0.000 0.000 nodecolor
10.00 /FreeSans.ttf set_font
323 82 moveto 101 -0.5 (precalcula_escribe) alignedtext
grestore
% Node2->Node10
gsave
1 setlinewidth
solid
0.667 0.776 0.439 edgecolor
newpath 192 188 moveto
197 186 202 183 206 180 curveto
229 163 221 146 242 128 curveto
255 117 272 107 287 100 curveto
stroke
0.667 0.776 0.439 edgecolor
newpath 288.283 103.26 moveto
296 96 lineto
285.44 96.8631 lineto
closepath fill
1 setlinewidth
solid
0.667 0.776 0.439 edgecolor
newpath 288.283 103.26 moveto
296 96 lineto
285.44 96.8631 lineto
closepath stroke
grestore
% Node11
gsave
[ /Rect [ 440 76 642 96 ]
  /Border [ 0 0 0 ]
  /Action << /Subtype /URI /URI ($RamDisco_8cpp.html#5b79fc3f073aeb2481fb1d51274a52a6) >>
  /Subtype /Link
/ANN pdfmark
[ /Rect [ 440 76 642 96 ]
  /Border [ 0 0 0 ]
  /Action << /Subtype /URI /URI ($RamDisco_8cpp.html#5b79fc3f073aeb2481fb1d51274a52a6) >>
  /Subtype /Link
/ANN pdfmark
1 setlinewidth
0.000 0.000 0.000 nodecolor
newpath 440 75 moveto
440 96 lineto
642 96 lineto
642 75 lineto
closepath stroke
0.000 0.000 0.000 nodecolor
10.00 /FreeSans.ttf set_font
541 82 moveto 186 -0.5 (precalcula_escribe_con_hermanos) alignedtext
grestore
% Node2->Node11
gsave
1 setlinewidth
solid
0.667 0.776 0.439 edgecolor
newpath 184 188 moveto
191 186 199 183 206 180 curveto
223 173 226 167 242 161 curveto
312 135 335 148 404 123 curveto
421 116 424 110 440 105 curveto
447 102 455 100 463 98 curveto
stroke
0.667 0.776 0.439 edgecolor
newpath 463.881 101.393 moveto
473 96 lineto
462.508 94.5292 lineto
closepath fill
1 setlinewidth
solid
0.667 0.776 0.439 edgecolor
newpath 463.881 101.393 moveto
473 96 lineto
462.508 94.5292 lineto
closepath stroke
grestore
% Node4
gsave
[ /Rect [ 711 872 801 892 ]
  /Border [ 0 0 0 ]
  /Action << /Subtype /URI /URI ($comun_8hpp.html#96402bda6527bf98dd8e49d62ae182f8) >>
  /Subtype /Link
/ANN pdfmark
[ /Rect [ 711 872 801 892 ]
  /Border [ 0 0 0 ]
  /Action << /Subtype /URI /URI ($comun_8hpp.html#96402bda6527bf98dd8e49d62ae182f8) >>
  /Subtype /Link
/ANN pdfmark
1 setlinewidth
0.000 0.000 0.000 nodecolor
newpath 711 871 moveto
711 892 lineto
801 892 lineto
801 871 lineto
closepath stroke
0.000 0.000 0.000 nodecolor
10.00 /FreeSans.ttf set_font
756 878 moveto 74 -0.5 (escribeNDesp) alignedtext
grestore
% Node3->Node4
gsave
1 setlinewidth
solid
0.667 0.776 0.439 edgecolor
newpath 583 804 moveto
602 808 623 814 642 821 curveto
674 832 708 852 730 866 curveto
stroke
0.667 0.776 0.439 edgecolor
newpath 728.559 869.203 moveto
739 871 lineto
731.958 863.084 lineto
closepath fill
1 setlinewidth
solid
0.667 0.776 0.439 edgecolor
newpath 728.559 869.203 moveto
739 871 lineto
731.958 863.084 lineto
closepath stroke
grestore
% Node6
gsave
[ /Rect [ 720 787 792 807 ]
  /Border [ 0 0 0 ]
  /Action << /Subtype /URI /URI ($Pos_8cpp.html#42c2daaa880eeb397c024b6ffa22c8cf) >>
  /Subtype /Link
/ANN pdfmark
[ /Rect [ 720 787 792 807 ]
  /Border [ 0 0 0 ]
  /Action << /Subtype /URI /URI ($Pos_8cpp.html#42c2daaa880eeb397c024b6ffa22c8cf) >>
  /Subtype /Link
/ANN pdfmark
1 setlinewidth
0.000 1.000 1.000 nodecolor
newpath 720 786 moveto
720 807 lineto
793 807 lineto
793 786 lineto
closepath stroke
0.000 0.000 0.000 nodecolor
10.00 /FreeSans.ttf set_font
756 793 moveto 57 -0.5 (escribePos) alignedtext
grestore
% Node3->Node6
gsave
1 setlinewidth
solid
0.667 0.776 0.439 edgecolor
newpath 583 797 moveto
620 797 672 797 710 797 curveto
stroke
0.667 0.776 0.439 edgecolor
newpath 710 800.5 moveto
720 797 lineto
710 793.5 lineto
closepath fill
1 setlinewidth
solid
0.667 0.776 0.439 edgecolor
newpath 710 800.5 moveto
720 797 lineto
710 793.5 lineto
closepath stroke
grestore
% Node3->Node7
gsave
1 setlinewidth
solid
0.667 0.776 0.439 edgecolor
newpath 583 796 moveto
604 793 628 786 642 769 curveto
712 684 653 382 678 276 curveto
693 211 728 139 745 105 curveto
stroke
0.667 0.776 0.439 edgecolor
newpath 748.203 106.441 moveto
750 96 lineto
742.084 103.042 lineto
closepath fill
1 setlinewidth
solid
0.667 0.776 0.439 edgecolor
newpath 748.203 106.441 moveto
750 96 lineto
742.084 103.042 lineto
closepath stroke
grestore
% Node5
gsave
[ /Rect [ 907 872 989 892 ]
  /Border [ 0 0 0 ]
  /Action << /Subtype /URI /URI ($comun_8cpp.html#b5388a972300b0a3d2e70c16097a3781) >>
  /Subtype /Link
/ANN pdfmark
[ /Rect [ 907 872 989 892 ]
  /Border [ 0 0 0 ]
  /Action << /Subtype /URI /URI ($comun_8cpp.html#b5388a972300b0a3d2e70c16097a3781) >>
  /Subtype /Link
/ANN pdfmark
1 setlinewidth
0.000 0.000 0.000 nodecolor
newpath 907 871 moveto
907 892 lineto
989 892 lineto
989 871 lineto
closepath stroke
0.000 0.000 0.000 nodecolor
10.00 /FreeSans.ttf set_font
948 878 moveto 66 -0.5 (escribe128b) alignedtext
grestore
% Node4->Node5
gsave
1 setlinewidth
solid
0.667 0.776 0.439 edgecolor
newpath 801 882 moveto
830 882 867 882 897 882 curveto
stroke
0.667 0.776 0.439 edgecolor
newpath 897 885.5 moveto
907 882 lineto
897 878.5 lineto
closepath fill
1 setlinewidth
solid
0.667 0.776 0.439 edgecolor
newpath 897 885.5 moveto
907 882 lineto
897 878.5 lineto
closepath stroke
grestore
% Node8
gsave
[ /Rect [ 911 95 985 115 ]
  /Border [ 0 0 0 ]
  /Action << /Subtype /URI /URI ($comun_8hpp.html#3f1f97c70ac3ffba1584b0fc02661cab) >>
  /Subtype /Link
/ANN pdfmark
[ /Rect [ 911 95 985 115 ]
  /Border [ 0 0 0 ]
  /Action << /Subtype /URI /URI ($comun_8hpp.html#3f1f97c70ac3ffba1584b0fc02661cab) >>
  /Subtype /Link
/ANN pdfmark
1 setlinewidth
0.000 0.000 0.000 nodecolor
newpath 911 94 moveto
911 115 lineto
986 115 lineto
986 94 lineto
closepath stroke
0.000 0.000 0.000 nodecolor
10.00 /FreeSans.ttf set_font
948 101 moveto 59 -0.5 (longNDesp) alignedtext
grestore
% Node7->Node8
gsave
1 setlinewidth
solid
0.667 0.776 0.439 edgecolor
newpath 834 94 moveto
856 97 880 98 901 100 curveto
stroke
0.667 0.776 0.439 edgecolor
newpath 900.701 103.488 moveto
911 101 lineto
901.398 96.5222 lineto
closepath fill
1 setlinewidth
solid
0.667 0.776 0.439 edgecolor
newpath 900.701 103.488 moveto
911 101 lineto
901.398 96.5222 lineto
closepath stroke
grestore
% Node9
gsave
[ /Rect [ 919 57 977 77 ]
  /Border [ 0 0 0 ]
  /Action << /Subtype /URI /URI ($Pos_8cpp.html#ad8740377e9e19836d654491a170ac9a) >>
  /Subtype /Link
/ANN pdfmark
[ /Rect [ 919 57 977 77 ]
  /Border [ 0 0 0 ]
  /Action << /Subtype /URI /URI ($Pos_8cpp.html#ad8740377e9e19836d654491a170ac9a) >>
  /Subtype /Link
/ANN pdfmark
1 setlinewidth
0.000 1.000 1.000 nodecolor
newpath 919 56 moveto
919 77 lineto
977 77 lineto
977 56 lineto
closepath stroke
0.000 0.000 0.000 nodecolor
10.00 /FreeSans.ttf set_font
948 63 moveto 42 -0.5 (longPos) alignedtext
grestore
% Node7->Node9
gsave
1 setlinewidth
solid
0.667 0.776 0.439 edgecolor
newpath 834 78 moveto
860 75 887 73 909 71 curveto
stroke
0.667 0.776 0.439 edgecolor
newpath 909.398 74.4778 moveto
919 70 lineto
908.701 67.5125 lineto
closepath fill
1 setlinewidth
solid
0.667 0.776 0.439 edgecolor
newpath 909.398 74.4778 moveto
919 70 lineto
908.701 67.5125 lineto
closepath stroke
grestore
% Node10->Node10
gsave
1 setlinewidth
solid
0.667 0.776 0.439 edgecolor
newpath 266 96 moveto
241 105 260 114 323 114 curveto
375 114 397 108 389 101 curveto
stroke
0.667 0.776 0.439 edgecolor
newpath 390.441 97.7969 moveto
380 96 lineto
387.042 103.916 lineto
closepath fill
1 setlinewidth
solid
0.667 0.776 0.439 edgecolor
newpath 390.441 97.7969 moveto
380 96 lineto
387.042 103.916 lineto
closepath stroke
grestore
% Node10->Node11
gsave
1 setlinewidth
solid
0.667 0.776 0.439 edgecolor
newpath 382 86 moveto
397 86 413 86 430 86 curveto
stroke
0.667 0.776 0.439 edgecolor
newpath 430 89.5001 moveto
440 86 lineto
430 82.5001 lineto
closepath fill
1 setlinewidth
solid
0.667 0.776 0.439 edgecolor
newpath 430 89.5001 moveto
440 86 lineto
430 82.5001 lineto
closepath stroke
grestore
% Node11->Node7
gsave
1 setlinewidth
solid
0.667 0.776 0.439 edgecolor
newpath 642 86 moveto
651 86 659 86 668 86 curveto
stroke
0.667 0.776 0.439 edgecolor
newpath 668 89.5001 moveto
678 86 lineto
668 82.5001 lineto
closepath fill
1 setlinewidth
solid
0.667 0.776 0.439 edgecolor
newpath 668 89.5001 moveto
678 86 lineto
668 82.5001 lineto
closepath stroke
grestore
% Node13
gsave
[ /Rect [ 283 0 363 20 ]
  /Border [ 0 0 0 ]
  /Action << /Subtype /URI /URI ($Doc_8cpp.html#ccfa223b5e7e9f380b58db51687ff9a5) >>
  /Subtype /Link
/ANN pdfmark
[ /Rect [ 283 0 363 20 ]
  /Border [ 0 0 0 ]
  /Action << /Subtype /URI /URI ($Doc_8cpp.html#ccfa223b5e7e9f380b58db51687ff9a5) >>
  /Subtype /Link
/ANN pdfmark
1 setlinewidth
0.000 0.000 0.000 nodecolor
newpath 283 -1 moveto
283 20 lineto
364 20 lineto
364 -1 lineto
closepath stroke
0.000 0.000 0.000 nodecolor
10.00 /FreeSans.ttf set_font
323 6 moveto 65 -0.5 (escribeDocs) alignedtext
grestore
% Node12->Node13
gsave
1 setlinewidth
solid
0.667 0.776 0.439 edgecolor
newpath 194 150 moveto
199 148 203 145 206 142 curveto
243 106 206 69 242 34 curveto
251 25 262 20 273 16 curveto
stroke
0.667 0.776 0.439 edgecolor
newpath 273.881 19.3933 moveto
283 14 lineto
272.508 12.5292 lineto
closepath fill
1 setlinewidth
solid
0.667 0.776 0.439 edgecolor
newpath 273.881 19.3933 moveto
283 14 lineto
272.508 12.5292 lineto
closepath stroke
grestore
% Node15
gsave
[ /Rect [ 264 398 382 418 ]
  /Border [ 0 0 0 ]
  /Action << /Subtype /URI /URI ($Operaciones_8cpp.html#962fb5669dbd34dd87d7bbfbffa042cc) >>
  /Subtype /Link
/ANN pdfmark
[ /Rect [ 264 398 382 418 ]
  /Border [ 0 0 0 ]
  /Action << /Subtype /URI /URI ($Operaciones_8cpp.html#962fb5669dbd34dd87d7bbfbffa042cc) >>
  /Subtype /Link
/ANN pdfmark
1 setlinewidth
0.000 0.000 0.000 nodecolor
newpath 264 397 moveto
264 418 lineto
383 418 lineto
383 397 lineto
closepath stroke
0.000 0.000 0.000 nodecolor
10.00 /FreeSans.ttf set_font
323 404 moveto 103 -0.5 (determinaFormato) alignedtext
grestore
% Node14->Node15
gsave
1 setlinewidth
solid
0.667 0.776 0.439 edgecolor
newpath 170 408 moveto
192 408 224 408 254 408 curveto
stroke
0.667 0.776 0.439 edgecolor
newpath 254 411.5 moveto
264 408 lineto
254 404.5 lineto
closepath fill
1 setlinewidth
solid
0.667 0.776 0.439 edgecolor
newpath 254 411.5 moveto
264 408 lineto
254 404.5 lineto
closepath stroke
grestore
% Node16
gsave
[ /Rect [ 297 360 349 380 ]
  /Border [ 0 0 0 ]
  /Action << /Subtype /URI /URI ($comun_8cpp.html#e156c1dd4bf7eda3abfcdf5d86cb85aa) >>
  /Subtype /Link
/ANN pdfmark
[ /Rect [ 297 360 349 380 ]
  /Border [ 0 0 0 ]
  /Action << /Subtype /URI /URI ($comun_8cpp.html#e156c1dd4bf7eda3abfcdf5d86cb85aa) >>
  /Subtype /Link
/ANN pdfmark
1 setlinewidth
0.000 0.000 0.000 nodecolor
newpath 297 359 moveto
297 380 lineto
349 380 lineto
349 359 lineto
closepath stroke
0.000 0.000 0.000 nodecolor
10.00 /FreeSans.ttf set_font
323 366 moveto 36 -0.5 (estalla) alignedtext
grestore
% Node14->Node16
gsave
1 setlinewidth
solid
0.667 0.776 0.439 edgecolor
newpath 170 402 moveto
202 396 252 385 287 378 curveto
stroke
0.667 0.776 0.439 edgecolor
newpath 287.881 381.393 moveto
297 376 lineto
286.508 374.529 lineto
closepath fill
1 setlinewidth
solid
0.667 0.776 0.439 edgecolor
newpath 287.881 381.393 moveto
297 376 lineto
286.508 374.529 lineto
closepath stroke
grestore
% Node17
gsave
[ /Rect [ 699 494 813 514 ]
  /Border [ 0 0 0 ]
  /Action << /Subtype /URI /URI ($classNodoTrieS.html#2fc30ff9fad0ba7dff585e913f34cc84) >>
  /Subtype /Link
/ANN pdfmark
[ /Rect [ 699 494 813 514 ]
  /Border [ 0 0 0 ]
  /Action << /Subtype /URI /URI ($classNodoTrieS.html#2fc30ff9fad0ba7dff585e913f34cc84) >>
  /Subtype /Link
/ANN pdfmark
1 setlinewidth
0.000 0.000 0.000 nodecolor
newpath 699 493 moveto
699 514 lineto
814 514 lineto
814 493 lineto
closepath stroke
0.000 0.000 0.000 nodecolor
10.00 /FreeSans.ttf set_font
756 500 moveto 99 -0.5 (NodoTrieS::inserta) alignedtext
grestore
% Node14->Node17
gsave
1 setlinewidth
solid
0.667 0.776 0.439 edgecolor
newpath 157 397 moveto
175 383 209 360 242 351 curveto
312 332 333 339 404 351 curveto
514 368 543 378 642 427 curveto
677 443 713 469 735 487 curveto
stroke
0.667 0.776 0.439 edgecolor
newpath 732.9 489.8 moveto
743 493 lineto
737.1 484.2 lineto
closepath fill
1 setlinewidth
solid
0.667 0.776 0.439 edgecolor
newpath 732.9 489.8 moveto
743 493 lineto
737.1 484.2 lineto
closepath stroke
grestore
% Node20
gsave
[ /Rect [ 450 607 632 627 ]
  /Border [ 0 0 0 ]
  /Action << /Subtype /URI /URI ($classNodoTrieS.html#3fec20c7c9b038e391e5a0fc07085927) >>
  /Subtype /Link
/ANN pdfmark
[ /Rect [ 450 607 632 627 ]
  /Border [ 0 0 0 ]
  /Action << /Subtype /URI /URI ($classNodoTrieS.html#3fec20c7c9b038e391e5a0fc07085927) >>
  /Subtype /Link
/ANN pdfmark
1 setlinewidth
0.000 0.000 0.000 nodecolor
newpath 450 606 moveto
450 627 lineto
632 627 lineto
632 606 lineto
closepath stroke
0.000 0.000 0.000 nodecolor
10.00 /FreeSans.ttf set_font
541 613 moveto 166 -0.5 (NodoTrieS::insertaConEtiqueta) alignedtext
grestore
% Node14->Node20
gsave
1 setlinewidth
solid
0.667 0.776 0.439 edgecolor
newpath 148 418 moveto
159 443 193 508 242 541 curveto
304 581 333 560 404 579 curveto
434 586 468 596 494 603 curveto
stroke
0.667 0.776 0.439 edgecolor
newpath 493.416 606.479 moveto
504 606 lineto
495.427 599.774 lineto
closepath fill
1 setlinewidth
solid
0.667 0.776 0.439 edgecolor
newpath 493.416 606.479 moveto
504 606 lineto
495.427 599.774 lineto
closepath stroke
grestore
% Node22
gsave
[ /Rect [ 721 550 791 570 ]
  /Border [ 0 0 0 ]
  /Action << /Subtype /URI /URI ($comun_8cpp.html#1f33d728a35dd4b43d2622c5471f5157) >>
  /Subtype /Link
/ANN pdfmark
[ /Rect [ 721 550 791 570 ]
  /Border [ 0 0 0 ]
  /Action << /Subtype /URI /URI ($comun_8cpp.html#1f33d728a35dd4b43d2622c5471f5157) >>
  /Subtype /Link
/ANN pdfmark
1 setlinewidth
0.000 0.000 0.000 nodecolor
newpath 721 549 moveto
721 570 lineto
792 570 lineto
792 549 lineto
closepath stroke
0.000 0.000 0.000 nodecolor
10.00 /FreeSans.ttf set_font
756 556 moveto 55 -0.5 (normaliza) alignedtext
grestore
% Node14->Node22
gsave
1 setlinewidth
solid
0.667 0.776 0.439 edgecolor
newpath 144 418 moveto
149 454 169 571 242 617 curveto
303 655 335 634 404 617 curveto
422 612 423 603 440 598 curveto
534 569 649 562 711 560 curveto
stroke
0.667 0.776 0.439 edgecolor
newpath 711 563.5 moveto
721 560 lineto
711 556.5 lineto
closepath fill
1 setlinewidth
solid
0.667 0.776 0.439 edgecolor
newpath 711 563.5 moveto
721 560 lineto
711 556.5 lineto
closepath stroke
grestore
% Node24
gsave
[ /Rect [ 292 512 354 532 ]
  /Border [ 0 0 0 ]
  /Action << /Subtype /URI /URI ($leeHTML_8cpp.html#250ca448b53ddf40ef05ee20dbe3a235) >>
  /Subtype /Link
/ANN pdfmark
[ /Rect [ 292 512 354 532 ]
  /Border [ 0 0 0 ]
  /Action << /Subtype /URI /URI ($leeHTML_8cpp.html#250ca448b53ddf40ef05ee20dbe3a235) >>
  /Subtype /Link
/ANN pdfmark
1 setlinewidth
0.000 0.000 0.000 nodecolor
newpath 292 511 moveto
292 532 lineto
355 532 lineto
355 511 lineto
closepath stroke
0.000 0.000 0.000 nodecolor
10.00 /FreeSans.ttf set_font
323 518 moveto 47 -0.5 (leeHTML) alignedtext
grestore
% Node14->Node24
gsave
1 setlinewidth
solid
0.667 0.776 0.439 edgecolor
newpath 152 418 moveto
168 437 204 476 242 498 curveto
254 504 269 510 282 513 curveto
stroke
0.667 0.776 0.439 edgecolor
newpath 281.416 516.479 moveto
292 516 lineto
283.427 509.774 lineto
closepath fill
1 setlinewidth
solid
0.667 0.776 0.439 edgecolor
newpath 281.416 516.479 moveto
292 516 lineto
283.427 509.774 lineto
closepath stroke
grestore
% Node26
gsave
[ /Rect [ 295 436 351 456 ]
  /Border [ 0 0 0 ]
  /Action << /Subtype /URI /URI ($leeODT_8cpp.html#c69c2cacaeed4d55fa0e9e1d1f3d9abb) >>
  /Subtype /Link
/ANN pdfmark
[ /Rect [ 295 436 351 456 ]
  /Border [ 0 0 0 ]
  /Action << /Subtype /URI /URI ($leeODT_8cpp.html#c69c2cacaeed4d55fa0e9e1d1f3d9abb) >>
  /Subtype /Link
/ANN pdfmark
1 setlinewidth
0.000 0.000 0.000 nodecolor
newpath 295 435 moveto
295 456 lineto
352 456 lineto
352 435 lineto
closepath stroke
0.000 0.000 0.000 nodecolor
10.00 /FreeSans.ttf set_font
323 442 moveto 41 -0.5 (leeODT) alignedtext
grestore
% Node14->Node26
gsave
1 setlinewidth
solid
0.667 0.776 0.439 edgecolor
newpath 170 414 moveto
201 420 251 431 285 438 curveto
stroke
0.667 0.776 0.439 edgecolor
newpath 284.508 441.471 moveto
295 440 lineto
285.881 434.607 lineto
closepath fill
1 setlinewidth
solid
0.667 0.776 0.439 edgecolor
newpath 284.508 441.471 moveto
295 440 lineto
285.881 434.607 lineto
closepath stroke
grestore
% Node28
gsave
[ /Rect [ 510 436 572 456 ]
  /Border [ 0 0 0 ]
  /Action << /Subtype /URI /URI ($NodoTrieS_8cpp.html#e8422311e58bfd8cfdfcc83509128cf7) >>
  /Subtype /Link
/ANN pdfmark
[ /Rect [ 510 436 572 456 ]
  /Border [ 0 0 0 ]
  /Action << /Subtype /URI /URI ($NodoTrieS_8cpp.html#e8422311e58bfd8cfdfcc83509128cf7) >>
  /Subtype /Link
/ANN pdfmark
1 setlinewidth
0.000 0.000 0.000 nodecolor
newpath 510 435 moveto
510 456 lineto
573 456 lineto
573 435 lineto
closepath stroke
0.000 0.000 0.000 nodecolor
10.00 /FreeSans.ttf set_font
541 442 moveto 47 -0.5 (leeTexto) alignedtext
grestore
% Node14->Node28
gsave
1 setlinewidth
solid
0.667 0.776 0.439 edgecolor
newpath 156 418 moveto
174 432 208 455 242 465 curveto
312 483 333 469 404 465 curveto
437 462 473 457 500 453 curveto
stroke
0.667 0.776 0.439 edgecolor
newpath 500.881 456.393 moveto
510 451 lineto
499.508 449.529 lineto
closepath fill
1 setlinewidth
solid
0.667 0.776 0.439 edgecolor
newpath 500.881 456.393 moveto
510 451 lineto
499.508 449.529 lineto
closepath stroke
grestore
% Node31
gsave
[ /Rect [ 297 208 349 228 ]
  /Border [ 0 0 0 ]
  /Action << /Subtype /URI /URI ($leePDF_8cpp.html#a38881dfe2f1239b61a3421cf9fd6290) >>
  /Subtype /Link
/ANN pdfmark
[ /Rect [ 297 208 349 228 ]
  /Border [ 0 0 0 ]
  /Action << /Subtype /URI /URI ($leePDF_8cpp.html#a38881dfe2f1239b61a3421cf9fd6290) >>
  /Subtype /Link
/ANN pdfmark
1 setlinewidth
0.000 0.000 0.000 nodecolor
newpath 297 207 moveto
297 228 lineto
350 228 lineto
350 207 lineto
closepath stroke
0.000 0.000 0.000 nodecolor
10.00 /FreeSans.ttf set_font
323 214 moveto 37 -0.5 (leePDF) alignedtext
grestore
% Node14->Node31
gsave
1 setlinewidth
solid
0.667 0.776 0.439 edgecolor
newpath 150 397 moveto
165 372 202 314 242 275 curveto
259 259 280 244 296 233 curveto
stroke
0.667 0.776 0.439 edgecolor
newpath 297.958 235.916 moveto
305 228 lineto
294.559 229.797 lineto
closepath fill
1 setlinewidth
solid
0.667 0.776 0.439 edgecolor
newpath 297.958 235.916 moveto
305 228 lineto
294.559 229.797 lineto
closepath stroke
grestore
% Node32
gsave
[ /Rect [ 296 284 350 304 ]
  /Border [ 0 0 0 ]
  /Action << /Subtype /URI /URI ($leeXML_8cpp.html#43301893734e326281369fc4c857caf1) >>
  /Subtype /Link
/ANN pdfmark
[ /Rect [ 296 284 350 304 ]
  /Border [ 0 0 0 ]
  /Action << /Subtype /URI /URI ($leeXML_8cpp.html#43301893734e326281369fc4c857caf1) >>
  /Subtype /Link
/ANN pdfmark
1 setlinewidth
0.000 0.000 0.000 nodecolor
newpath 296 283 moveto
296 304 lineto
351 304 lineto
351 283 lineto
closepath stroke
0.000 0.000 0.000 nodecolor
10.00 /FreeSans.ttf set_font
323 290 moveto 39 -0.5 (leeXML) alignedtext
grestore
% Node14->Node32
gsave
1 setlinewidth
solid
0.667 0.776 0.439 edgecolor
newpath 152 397 moveto
169 378 205 339 242 318 curveto
256 310 272 304 286 301 curveto
stroke
0.667 0.776 0.439 edgecolor
newpath 286.881 304.393 moveto
296 299 lineto
285.508 297.529 lineto
closepath fill
1 setlinewidth
solid
0.667 0.776 0.439 edgecolor
newpath 286.881 304.393 moveto
296 299 lineto
285.508 297.529 lineto
closepath stroke
grestore
% Node33
gsave
[ /Rect [ 282 588 364 608 ]
  /Border [ 0 0 0 ]
  /Action << /Subtype /URI /URI ($Operaciones_8cpp.html#e28ef4ade6bbd39872a25057c6037582) >>
  /Subtype /Link
/ANN pdfmark
[ /Rect [ 282 588 364 608 ]
  /Border [ 0 0 0 ]
  /Action << /Subtype /URI /URI ($Operaciones_8cpp.html#e28ef4ade6bbd39872a25057c6037582) >>
  /Subtype /Link
/ANN pdfmark
1 setlinewidth
0.000 0.000 0.000 nodecolor
newpath 282 587 moveto
282 608 lineto
364 608 lineto
364 587 lineto
closepath stroke
0.000 0.000 0.000 nodecolor
10.00 /FreeSans.ttf set_font
323 594 moveto 66 -0.5 (prefijoASitio) alignedtext
grestore
% Node14->Node33
gsave
1 setlinewidth
solid
0.667 0.776 0.439 edgecolor
newpath 146 418 moveto
156 447 187 531 242 574 curveto
251 581 261 586 272 589 curveto
stroke
0.667 0.776 0.439 edgecolor
newpath 271.416 592.479 moveto
282 592 lineto
273.427 585.774 lineto
closepath fill
1 setlinewidth
solid
0.667 0.776 0.439 edgecolor
newpath 271.416 592.479 moveto
282 592 lineto
273.427 585.774 lineto
closepath stroke
grestore
% Node34
gsave
[ /Rect [ 276 170 370 190 ]
  /Border [ 0 0 0 ]
  /Action << /Subtype /URI /URI ($sha256_8cpp.html#23c461a74498c51def2406c5ab6aae67) >>
  /Subtype /Link
/ANN pdfmark
[ /Rect [ 276 170 370 190 ]
  /Border [ 0 0 0 ]
  /Action << /Subtype /URI /URI ($sha256_8cpp.html#23c461a74498c51def2406c5ab6aae67) >>
  /Subtype /Link
/ANN pdfmark
1 setlinewidth
0.000 0.000 0.000 nodecolor
newpath 276 169 moveto
276 190 lineto
370 190 lineto
370 169 lineto
closepath stroke
0.000 0.000 0.000 nodecolor
10.00 /FreeSans.ttf set_font
323 176 moveto 78 -0.5 (sha256archivo) alignedtext
grestore
% Node14->Node34
gsave
1 setlinewidth
solid
0.667 0.776 0.439 edgecolor
newpath 145 397 moveto
151 362 176 252 242 199 curveto
249 193 258 189 266 186 curveto
stroke
0.667 0.776 0.439 edgecolor
newpath 267.427 189.226 moveto
276 183 lineto
265.416 182.521 lineto
closepath fill
1 setlinewidth
solid
0.667 0.776 0.439 edgecolor
newpath 267.427 189.226 moveto
276 183 lineto
265.416 182.521 lineto
closepath stroke
grestore
% Node17->Node17
gsave
1 setlinewidth
solid
0.667 0.776 0.439 edgecolor
newpath 699 513 moveto
667 522 686 532 756 532 curveto
816 532 838 524 823 517 curveto
stroke
0.667 0.776 0.439 edgecolor
newpath 824.56 513.863 moveto
814 513 lineto
821.717 520.26 lineto
closepath fill
1 setlinewidth
solid
0.667 0.776 0.439 edgecolor
newpath 824.56 513.863 moveto
814 513 lineto
821.717 520.26 lineto
closepath stroke
grestore
% Node18
gsave
[ /Rect [ 881 494 1015 514 ]
  /Border [ 0 0 0 ]
  /Action << /Subtype /URI /URI ($classNodoTrieS.html#4f1525cf7f147f71e7be74c15d4f87a0) >>
  /Subtype /Link
/ANN pdfmark
[ /Rect [ 881 494 1015 514 ]
  /Border [ 0 0 0 ]
  /Action << /Subtype /URI /URI ($classNodoTrieS.html#4f1525cf7f147f71e7be74c15d4f87a0) >>
  /Subtype /Link
/ANN pdfmark
1 setlinewidth
0.000 0.000 0.000 nodecolor
newpath 881 493 moveto
881 514 lineto
1015 514 lineto
1015 493 lineto
closepath stroke
0.000 0.000 0.000 nodecolor
10.00 /FreeSans.ttf set_font
948 500 moveto 118 -0.5 (NodoTrieS::NodoTrieS) alignedtext
grestore
% Node17->Node18
gsave
1 setlinewidth
solid
0.667 0.776 0.439 edgecolor
newpath 814 504 moveto
832 504 852 504 871 504 curveto
stroke
0.667 0.776 0.439 edgecolor
newpath 871 507.5 moveto
881 504 lineto
871 500.5 lineto
closepath fill
1 setlinewidth
solid
0.667 0.776 0.439 edgecolor
newpath 871 507.5 moveto
881 504 lineto
871 500.5 lineto
closepath stroke
grestore
% Node19
gsave
[ /Rect [ 871 537 1025 557 ]
  /Border [ 0 0 0 ]
  /Action << /Subtype /URI /URI ($comun_8cpp.html#c74356d5b37d454e0ddce0de8fac34f8) >>
  /Subtype /Link
/ANN pdfmark
[ /Rect [ 871 537 1025 557 ]
  /Border [ 0 0 0 ]
  /Action << /Subtype /URI /URI ($comun_8cpp.html#c74356d5b37d454e0ddce0de8fac34f8) >>
  /Subtype /Link
/ANN pdfmark
1 setlinewidth
0.000 0.000 0.000 nodecolor
newpath 871 536 moveto
871 557 lineto
1026 557 lineto
1026 536 lineto
closepath stroke
0.000 0.000 0.000 nodecolor
10.00 /FreeSans.ttf set_font
948 543 moveto 139 -0.5 (prefijo_comun_mas_largo) alignedtext
grestore
% Node17->Node19
gsave
1 setlinewidth
solid
0.667 0.776 0.439 edgecolor
newpath 801 514 moveto
827 520 861 527 889 534 curveto
stroke
0.667 0.776 0.439 edgecolor
newpath 888.508 537.471 moveto
899 536 lineto
889.881 530.607 lineto
closepath fill
1 setlinewidth
solid
0.667 0.776 0.439 edgecolor
newpath 888.508 537.471 moveto
899 536 lineto
889.881 530.607 lineto
closepath stroke
grestore
% Node20->Node17
gsave
1 setlinewidth
solid
0.667 0.776 0.439 edgecolor
newpath 560 606 moveto
586 591 636 562 678 541 curveto
693 533 710 525 725 518 curveto
stroke
0.667 0.776 0.439 edgecolor
newpath 726.283 521.26 moveto
734 514 lineto
723.44 514.863 lineto
closepath fill
1 setlinewidth
solid
0.667 0.776 0.439 edgecolor
newpath 726.283 521.26 moveto
734 514 lineto
723.44 514.863 lineto
closepath stroke
grestore
% Node21
gsave
[ /Rect [ 710 626 802 646 ]
  /Border [ 0 0 0 ]
  /Action << /Subtype /URI /URI ($NodoTrieS_8cpp.html#059ce4cc73c3c7588eb0edc6cb879942) >>
  /Subtype /Link
/ANN pdfmark
[ /Rect [ 710 626 802 646 ]
  /Border [ 0 0 0 ]
  /Action << /Subtype /URI /URI ($NodoTrieS_8cpp.html#059ce4cc73c3c7588eb0edc6cb879942) >>
  /Subtype /Link
/ANN pdfmark
1 setlinewidth
0.000 0.000 0.000 nodecolor
newpath 710 625 moveto
710 646 lineto
802 646 lineto
802 625 lineto
closepath stroke
0.000 0.000 0.000 nodecolor
10.00 /FreeSans.ttf set_font
756 632 moveto 76 -0.5 (es_signo_punt) alignedtext
grestore
% Node20->Node21
gsave
1 setlinewidth
solid
0.667 0.776 0.439 edgecolor
newpath 632 625 moveto
655 627 679 629 700 631 curveto
stroke
0.667 0.776 0.439 edgecolor
newpath 699.701 634.488 moveto
710 632 lineto
700.398 627.522 lineto
closepath fill
1 setlinewidth
solid
0.667 0.776 0.439 edgecolor
newpath 699.701 634.488 moveto
710 632 lineto
700.398 627.522 lineto
closepath stroke
grestore
% Node20->Node22
gsave
1 setlinewidth
solid
0.667 0.776 0.439 edgecolor
newpath 588 606 moveto
605 602 625 597 642 593 curveto
666 587 692 579 713 573 curveto
stroke
0.667 0.776 0.439 edgecolor
newpath 714.427 576.226 moveto
723 570 lineto
712.416 569.521 lineto
closepath fill
1 setlinewidth
solid
0.667 0.776 0.439 edgecolor
newpath 714.427 576.226 moveto
723 570 lineto
712.416 569.521 lineto
closepath stroke
grestore
% Node23
gsave
[ /Rect [ 889 579 1007 599 ]
  /Border [ 0 0 0 ]
  /Action << /Subtype /URI /URI ($comun_8cpp.html#bc69e612ecd81636d091e0b60fdf327e) >>
  /Subtype /Link
/ANN pdfmark
[ /Rect [ 889 579 1007 599 ]
  /Border [ 0 0 0 ]
  /Action << /Subtype /URI /URI ($comun_8cpp.html#bc69e612ecd81636d091e0b60fdf327e) >>
  /Subtype /Link
/ANN pdfmark
1 setlinewidth
0.000 0.000 0.000 nodecolor
newpath 889 578 moveto
889 599 lineto
1007 599 lineto
1007 578 lineto
closepath stroke
0.000 0.000 0.000 nodecolor
10.00 /FreeSans.ttf set_font
948 585 moveto 102 -0.5 (normalizaCaracter) alignedtext
grestore
% Node20->Node23
gsave
1 setlinewidth
solid
0.667 0.776 0.439 edgecolor
newpath 632 611 moveto
707 605 811 599 879 594 curveto
stroke
0.667 0.776 0.439 edgecolor
newpath 879.398 597.478 moveto
889 593 lineto
878.701 590.512 lineto
closepath fill
1 setlinewidth
solid
0.667 0.776 0.439 edgecolor
newpath 879.398 597.478 moveto
889 593 lineto
878.701 590.512 lineto
closepath stroke
grestore
% Node22->Node23
gsave
1 setlinewidth
solid
0.667 0.776 0.439 edgecolor
newpath 792 565 moveto
816 569 849 574 879 578 curveto
stroke
0.667 0.776 0.439 edgecolor
newpath 878.508 581.471 moveto
889 580 lineto
879.881 574.607 lineto
closepath fill
1 setlinewidth
solid
0.667 0.776 0.439 edgecolor
newpath 878.508 581.471 moveto
889 580 lineto
879.881 574.607 lineto
closepath stroke
grestore
% Node25
gsave
[ /Rect [ 480 512 602 532 ]
  /Border [ 0 0 0 ]
  /Action << /Subtype /URI /URI ($leeHTML_8cpp.html#098130ed8eab7e70593552c3450c5fee) >>
  /Subtype /Link
/ANN pdfmark
[ /Rect [ 480 512 602 532 ]
  /Border [ 0 0 0 ]
  /Action << /Subtype /URI /URI ($leeHTML_8cpp.html#098130ed8eab7e70593552c3450c5fee) >>
  /Subtype /Link
/ANN pdfmark
1 setlinewidth
0.000 0.000 0.000 nodecolor
newpath 480 511 moveto
480 532 lineto
603 532 lineto
603 511 lineto
closepath stroke
0.000 0.000 0.000 nodecolor
10.00 /FreeSans.ttf set_font
541 518 moveto 107 -0.5 (insertaNormalizada) alignedtext
grestore
% Node24->Node25
gsave
1 setlinewidth
solid
0.667 0.776 0.439 edgecolor
newpath 355 522 moveto
385 522 431 522 470 522 curveto
stroke
0.667 0.776 0.439 edgecolor
newpath 470 525.5 moveto
480 522 lineto
470 518.5 lineto
closepath fill
1 setlinewidth
solid
0.667 0.776 0.439 edgecolor
newpath 470 525.5 moveto
480 522 lineto
470 518.5 lineto
closepath stroke
grestore
% Node25->Node17
gsave
1 setlinewidth
solid
0.667 0.776 0.439 edgecolor
newpath 603 517 moveto
630 514 661 512 689 510 curveto
stroke
0.667 0.776 0.439 edgecolor
newpath 689.398 513.478 moveto
699 509 lineto
688.701 506.512 lineto
closepath fill
1 setlinewidth
solid
0.667 0.776 0.439 edgecolor
newpath 689.398 513.478 moveto
699 509 lineto
688.701 506.512 lineto
closepath stroke
grestore
% Node25->Node22
gsave
1 setlinewidth
solid
0.667 0.776 0.439 edgecolor
newpath 598 532 moveto
633 538 678 546 711 552 curveto
stroke
0.667 0.776 0.439 edgecolor
newpath 710.508 555.471 moveto
721 554 lineto
711.881 548.607 lineto
closepath fill
1 setlinewidth
solid
0.667 0.776 0.439 edgecolor
newpath 710.508 555.471 moveto
721 554 lineto
711.881 548.607 lineto
closepath stroke
grestore
% Node27
gsave
[ /Rect [ 504 474 578 494 ]
  /Border [ 0 0 0 ]
  /Action << /Subtype /URI /URI ($leeODT_8cpp.html#481a5a769b145674dc3274f02d21fdbb) >>
  /Subtype /Link
/ANN pdfmark
[ /Rect [ 504 474 578 494 ]
  /Border [ 0 0 0 ]
  /Action << /Subtype /URI /URI ($leeODT_8cpp.html#481a5a769b145674dc3274f02d21fdbb) >>
  /Subtype /Link
/ANN pdfmark
1 setlinewidth
0.000 0.000 0.000 nodecolor
newpath 504 473 moveto
504 494 lineto
579 494 lineto
579 473 lineto
closepath stroke
0.000 0.000 0.000 nodecolor
10.00 /FreeSans.ttf set_font
541 480 moveto 59 -0.5 (aplicaXSLT) alignedtext
grestore
% Node26->Node27
gsave
1 setlinewidth
solid
0.667 0.776 0.439 edgecolor
newpath 352 451 moveto
388 457 451 468 494 475 curveto
stroke
0.667 0.776 0.439 edgecolor
newpath 493.508 478.471 moveto
504 477 lineto
494.881 471.607 lineto
closepath fill
1 setlinewidth
solid
0.667 0.776 0.439 edgecolor
newpath 493.508 478.471 moveto
504 477 lineto
494.881 471.607 lineto
closepath stroke
grestore
% Node26->Node28
gsave
1 setlinewidth
solid
0.667 0.776 0.439 edgecolor
newpath 352 446 moveto
390 446 457 446 500 446 curveto
stroke
0.667 0.776 0.439 edgecolor
newpath 500 449.5 moveto
510 446 lineto
500 442.5 lineto
closepath fill
1 setlinewidth
solid
0.667 0.776 0.439 edgecolor
newpath 500 449.5 moveto
510 446 lineto
500 442.5 lineto
closepath stroke
grestore
% Node29
gsave
[ /Rect [ 512 304 570 324 ]
  /Border [ 0 0 0 ]
  /Action << /Subtype /URI /URI ($leeODT_8cpp.html#b61277e3d14b11c5a54b80773dcae95a) >>
  /Subtype /Link
/ANN pdfmark
[ /Rect [ 512 304 570 324 ]
  /Border [ 0 0 0 ]
  /Action << /Subtype /URI /URI ($leeODT_8cpp.html#b61277e3d14b11c5a54b80773dcae95a) >>
  /Subtype /Link
/ANN pdfmark
1 setlinewidth
0.000 1.000 1.000 nodecolor
newpath 512 303 moveto
512 324 lineto
571 324 lineto
571 303 lineto
closepath stroke
0.000 0.000 0.000 nodecolor
10.00 /FreeSans.ttf set_font
541 310 moveto 43 -0.5 (prepara) alignedtext
grestore
% Node26->Node29
gsave
1 setlinewidth
solid
0.667 0.776 0.439 edgecolor
newpath 352 442 moveto
368 440 388 435 404 427 curveto
454 402 501 356 525 331 curveto
stroke
0.667 0.776 0.439 edgecolor
newpath 527.404 333.546 moveto
532 324 lineto
522.454 328.596 lineto
closepath fill
1 setlinewidth
solid
0.667 0.776 0.439 edgecolor
newpath 527.404 333.546 moveto
532 324 lineto
522.454 328.596 lineto
closepath stroke
grestore
% Node28->Node17
gsave
1 setlinewidth
solid
0.667 0.776 0.439 edgecolor
newpath 573 451 moveto
593 454 619 459 642 465 curveto
668 471 697 481 719 489 curveto
stroke
0.667 0.776 0.439 edgecolor
newpath 717.44 492.137 moveto
728 493 lineto
720.283 485.74 lineto
closepath fill
1 setlinewidth
solid
0.667 0.776 0.439 edgecolor
newpath 717.44 492.137 moveto
728 493 lineto
720.283 485.74 lineto
closepath stroke
grestore
% Node28->Node22
gsave
1 setlinewidth
solid
0.667 0.776 0.439 edgecolor
newpath 573 445 moveto
595 446 623 450 642 465 curveto
672 487 650 517 678 541 curveto
687 549 699 553 711 556 curveto
stroke
0.667 0.776 0.439 edgecolor
newpath 710.508 559.471 moveto
721 558 lineto
711.881 552.607 lineto
closepath fill
1 setlinewidth
solid
0.667 0.776 0.439 edgecolor
newpath 710.508 559.471 moveto
721 558 lineto
711.881 552.607 lineto
closepath stroke
grestore
% Node30
gsave
[ /Rect [ 705 285 807 305 ]
  /Border [ 0 0 0 ]
  /Action << /Subtype /URI /URI ($comun_8cpp.html#55db9e79615822cbc40390b2c2ab10fd) >>
  /Subtype /Link
/ANN pdfmark
[ /Rect [ 705 285 807 305 ]
  /Border [ 0 0 0 ]
  /Action << /Subtype /URI /URI ($comun_8cpp.html#55db9e79615822cbc40390b2c2ab10fd) >>
  /Subtype /Link
/ANN pdfmark
1 setlinewidth
0.000 0.000 0.000 nodecolor
newpath 705 284 moveto
705 305 lineto
807 305 lineto
807 284 lineto
closepath stroke
0.000 0.000 0.000 nodecolor
10.00 /FreeSans.ttf set_font
756 291 moveto 86 -0.5 (directorio_temp) alignedtext
grestore
% Node29->Node30
gsave
1 setlinewidth
solid
0.667 0.776 0.439 edgecolor
newpath 571 311 moveto
603 308 654 304 695 300 curveto
stroke
0.667 0.776 0.439 edgecolor
newpath 695.398 303.478 moveto
705 299 lineto
694.701 296.512 lineto
closepath fill
1 setlinewidth
solid
0.667 0.776 0.439 edgecolor
newpath 695.398 303.478 moveto
705 299 lineto
694.701 296.512 lineto
closepath stroke
grestore
% Node31->Node28
gsave
1 setlinewidth
solid
0.667 0.776 0.439 edgecolor
newpath 350 220 moveto
368 222 390 228 404 242 curveto
437 271 418 295 440 333 curveto
463 370 499 407 521 428 curveto
stroke
0.667 0.776 0.439 edgecolor
newpath 519.169 431.049 moveto
529 435 lineto
523.779 425.781 lineto
closepath fill
1 setlinewidth
solid
0.667 0.776 0.439 edgecolor
newpath 519.169 431.049 moveto
529 435 lineto
523.779 425.781 lineto
closepath stroke
grestore
% Node31->Node30
gsave
1 setlinewidth
solid
0.667 0.776 0.439 edgecolor
newpath 350 225 moveto
366 229 386 235 404 242 curveto
421 247 424 252 440 257 curveto
527 279 630 288 695 292 curveto
stroke
0.667 0.776 0.439 edgecolor
newpath 694.701 295.488 moveto
705 293 lineto
695.398 288.522 lineto
closepath fill
1 setlinewidth
solid
0.667 0.776 0.439 edgecolor
newpath 694.701 295.488 moveto
705 293 lineto
695.398 288.522 lineto
closepath stroke
grestore
% Node35
gsave
[ /Rect [ 499 190 583 210 ]
  /Border [ 0 0 0 ]
  /Action << /Subtype /URI /URI ($sha256_8cpp.html#342ef15f8c70a70f56bfbe5e0d785646) >>
  /Subtype /Link
/ANN pdfmark
[ /Rect [ 499 190 583 210 ]
  /Border [ 0 0 0 ]
  /Action << /Subtype /URI /URI ($sha256_8cpp.html#342ef15f8c70a70f56bfbe5e0d785646) >>
  /Subtype /Link
/ANN pdfmark
1 setlinewidth
0.000 0.000 0.000 nodecolor
newpath 499 189 moveto
499 210 lineto
584 210 lineto
584 189 lineto
closepath stroke
0.000 0.000 0.000 nodecolor
10.00 /FreeSans.ttf set_font
541 196 moveto 69 -0.5 (hexaDeHash) alignedtext
grestore
% Node34->Node35
gsave
1 setlinewidth
solid
0.667 0.776 0.439 edgecolor
newpath 370 184 moveto
405 188 452 192 489 195 curveto
stroke
0.667 0.776 0.439 edgecolor
newpath 488.701 198.488 moveto
499 196 lineto
489.398 191.522 lineto
closepath fill
1 setlinewidth
solid
0.667 0.776 0.439 edgecolor
newpath 488.701 198.488 moveto
499 196 lineto
489.398 191.522 lineto
closepath stroke
grestore
% Node36
gsave
[ /Rect [ 498 152 584 172 ]
  /Border [ 0 0 0 ]
  /Action << /Subtype /URI /URI ($sha256_8cpp.html#53db56f3eb9f35c59b134533be31c301) >>
  /Subtype /Link
/ANN pdfmark
[ /Rect [ 498 152 584 172 ]
  /Border [ 0 0 0 ]
  /Action << /Subtype /URI /URI ($sha256_8cpp.html#53db56f3eb9f35c59b134533be31c301) >>
  /Subtype /Link
/ANN pdfmark
1 setlinewidth
0.000 0.000 0.000 nodecolor
newpath 498 151 moveto
498 172 lineto
585 172 lineto
585 151 lineto
closepath stroke
0.000 0.000 0.000 nodecolor
10.00 /FreeSans.ttf set_font
541 158 moveto 71 -0.5 (sha256_done) alignedtext
grestore
% Node34->Node36
gsave
1 setlinewidth
solid
0.667 0.776 0.439 edgecolor
newpath 370 176 moveto
405 173 452 170 488 167 curveto
stroke
0.667 0.776 0.439 edgecolor
newpath 488.398 170.478 moveto
498 166 lineto
487.701 163.512 lineto
closepath fill
1 setlinewidth
solid
0.667 0.776 0.439 edgecolor
newpath 488.398 170.478 moveto
498 166 lineto
487.701 163.512 lineto
closepath stroke
grestore
% Node37
gsave
[ /Rect [ 503 114 579 134 ]
  /Border [ 0 0 0 ]
  /Action << /Subtype /URI /URI ($sha256_8cpp.html#6290ad544b02c822c2ca6c30b8d1ee07) >>
  /Subtype /Link
/ANN pdfmark
[ /Rect [ 503 114 579 134 ]
  /Border [ 0 0 0 ]
  /Action << /Subtype /URI /URI ($sha256_8cpp.html#6290ad544b02c822c2ca6c30b8d1ee07) >>
  /Subtype /Link
/ANN pdfmark
1 setlinewidth
0.000 0.000 0.000 nodecolor
newpath 503 113 moveto
503 134 lineto
579 134 lineto
579 113 lineto
closepath stroke
0.000 0.000 0.000 nodecolor
10.00 /FreeSans.ttf set_font
541 120 moveto 60 -0.5 (sha256_init) alignedtext
grestore
% Node34->Node37
gsave
1 setlinewidth
solid
0.667 0.776 0.439 edgecolor
newpath 361 169 moveto
375 165 390 160 404 156 curveto
421 150 424 147 440 143 curveto
457 138 476 134 493 131 curveto
stroke
0.667 0.776 0.439 edgecolor
newpath 493.881 134.393 moveto
503 129 lineto
492.508 127.529 lineto
closepath fill
1 setlinewidth
solid
0.667 0.776 0.439 edgecolor
newpath 493.881 134.393 moveto
503 129 lineto
492.508 127.529 lineto
closepath stroke
grestore
% Node38
gsave
[ /Rect [ 491 228 591 248 ]
  /Border [ 0 0 0 ]
  /Action << /Subtype /URI /URI ($sha256_8hpp.html#8b983a80c9edd5d997a3937963ae7856) >>
  /Subtype /Link
/ANN pdfmark
[ /Rect [ 491 228 591 248 ]
  /Border [ 0 0 0 ]
  /Action << /Subtype /URI /URI ($sha256_8hpp.html#8b983a80c9edd5d997a3937963ae7856) >>
  /Subtype /Link
/ANN pdfmark
1 setlinewidth
0.000 0.000 0.000 nodecolor
newpath 491 227 moveto
491 248 lineto
591 248 lineto
591 227 lineto
closepath stroke
0.000 0.000 0.000 nodecolor
10.00 /FreeSans.ttf set_font
541 234 moveto 84 -0.5 (sha256_process) alignedtext
grestore
% Node34->Node38
gsave
1 setlinewidth
solid
0.667 0.776 0.439 edgecolor
newpath 370 188 moveto
381 191 393 195 404 199 curveto
422 205 423 212 440 219 curveto
453 224 467 227 481 230 curveto
stroke
0.667 0.776 0.439 edgecolor
newpath 480.508 233.471 moveto
491 232 lineto
481.881 226.607 lineto
closepath fill
1 setlinewidth
solid
0.667 0.776 0.439 edgecolor
newpath 480.508 233.471 moveto
491 232 lineto
481.881 226.607 lineto
closepath stroke
grestore
% Node39->Node3
gsave
1 setlinewidth
solid
0.667 0.776 0.439 edgecolor
newpath 165 834 moveto
185 825 215 812 242 807 curveto
327 789 428 791 489 794 curveto
stroke
0.667 0.776 0.439 edgecolor
newpath 489 797.5 moveto
499 794 lineto
489 790.5 lineto
closepath fill
1 setlinewidth
solid
0.667 0.776 0.439 edgecolor
newpath 489 797.5 moveto
499 794 lineto
489 790.5 lineto
closepath stroke
grestore
% Node39->Node4
gsave
1 setlinewidth
solid
0.667 0.776 0.439 edgecolor
newpath 145 855 moveto
152 887 177 986 242 1025 curveto
319 1070 562 1063 642 1025 curveto
657 1019 716 937 743 900 curveto
stroke
0.667 0.776 0.439 edgecolor
newpath 745.8 902.1 moveto
749 892 lineto
740.2 897.9 lineto
closepath fill
1 setlinewidth
solid
0.667 0.776 0.439 edgecolor
newpath 745.8 902.1 moveto
749 892 lineto
740.2 897.9 lineto
closepath stroke
grestore
% Node39->Node19
gsave
1 setlinewidth
solid
0.667 0.776 0.439 edgecolor
newpath 147 834 moveto
158 806 189 734 242 705 curveto
472 573 621 809 834 655 curveto
868 630 840 597 870 570 curveto
873 567 877 564 881 562 curveto
stroke
0.667 0.776 0.439 edgecolor
newpath 882.958 564.916 moveto
890 557 lineto
879.559 558.797 lineto
closepath fill
1 setlinewidth
solid
0.667 0.776 0.439 edgecolor
newpath 882.958 564.916 moveto
890 557 lineto
879.559 558.797 lineto
closepath stroke
grestore
% Node39->Node39
gsave
1 setlinewidth
solid
0.667 0.776 0.439 edgecolor
newpath 105 855 moveto
88 864 101 873 143 873 curveto
174 873 189 868 188 862 curveto
stroke
0.667 0.776 0.439 edgecolor
newpath 190.546 859.596 moveto
181 855 lineto
185.596 864.546 lineto
closepath fill
1 setlinewidth
solid
0.667 0.776 0.439 edgecolor
newpath 190.546 859.596 moveto
181 855 lineto
185.596 864.546 lineto
closepath stroke
grestore
% Node40
gsave
[ /Rect [ 509 740 573 760 ]
  /Border [ 0 0 0 ]
  /Action << /Subtype /URI /URI ($Pos_8cpp.html#3c3cc0b0ac5ee434c66362380dda8ce8) >>
  /Subtype /Link
/ANN pdfmark
[ /Rect [ 509 740 573 760 ]
  /Border [ 0 0 0 ]
  /Action << /Subtype /URI /URI ($Pos_8cpp.html#3c3cc0b0ac5ee434c66362380dda8ce8) >>
  /Subtype /Link
/ANN pdfmark
1 setlinewidth
0.000 0.000 0.000 nodecolor
newpath 509 739 moveto
509 760 lineto
573 760 lineto
573 739 lineto
closepath stroke
0.000 0.000 0.000 nodecolor
10.00 /FreeSans.ttf set_font
541 746 moveto 48 -0.5 (copiaPos) alignedtext
grestore
% Node39->Node40
gsave
1 setlinewidth
solid
0.667 0.776 0.439 edgecolor
newpath 148 834 moveto
161 809 195 752 242 731 curveto
328 691 442 717 501 736 curveto
stroke
0.667 0.776 0.439 edgecolor
newpath 500.416 739.479 moveto
511 739 lineto
502.427 732.774 lineto
closepath fill
1 setlinewidth
solid
0.667 0.776 0.439 edgecolor
newpath 500.416 739.479 moveto
511 739 lineto
502.427 732.774 lineto
closepath stroke
grestore
% Node41
gsave
[ /Rect [ 265 892 381 912 ]
  /Border [ 0 0 0 ]
  /Action << /Subtype /URI /URI ($TrieSDisco_8cpp.html#4cc0e861f2e192242a40d6337c70fc5f) >>
  /Subtype /Link
/ANN pdfmark
[ /Rect [ 265 892 381 912 ]
  /Border [ 0 0 0 ]
  /Action << /Subtype /URI /URI ($TrieSDisco_8cpp.html#4cc0e861f2e192242a40d6337c70fc5f) >>
  /Subtype /Link
/ANN pdfmark
1 setlinewidth
0.000 0.000 0.000 nodecolor
newpath 265 891 moveto
265 912 lineto
381 912 lineto
381 891 lineto
closepath stroke
0.000 0.000 0.000 nodecolor
10.00 /FreeSans.ttf set_font
323 898 moveto 100 -0.5 (escribeCopiaNodo) alignedtext
grestore
% Node39->Node41
gsave
1 setlinewidth
solid
0.667 0.776 0.439 edgecolor
newpath 172 855 moveto
192 862 219 871 242 878 curveto
253 881 264 885 275 888 curveto
stroke
0.667 0.776 0.439 edgecolor
newpath 274.416 891.479 moveto
285 891 lineto
276.427 884.774 lineto
closepath fill
1 setlinewidth
solid
0.667 0.776 0.439 edgecolor
newpath 274.416 891.479 moveto
285 891 lineto
276.427 884.774 lineto
closepath stroke
grestore
% Node42
gsave
[ /Rect [ 514 996 568 1016 ]
  /Border [ 0 0 0 ]
  /Action << /Subtype /URI /URI ($comun_8cpp.html#4a359aa93f2dd4e34badd70c0e1f7082) >>
  /Subtype /Link
/ANN pdfmark
[ /Rect [ 514 996 568 1016 ]
  /Border [ 0 0 0 ]
  /Action << /Subtype /URI /URI ($comun_8cpp.html#4a359aa93f2dd4e34badd70c0e1f7082) >>
  /Subtype /Link
/ANN pdfmark
1 setlinewidth
0.000 0.000 0.000 nodecolor
newpath 514 995 moveto
514 1016 lineto
569 1016 lineto
569 995 lineto
closepath stroke
0.000 0.000 0.000 nodecolor
10.00 /FreeSans.ttf set_font
541 1002 moveto 39 -0.5 (leeCad) alignedtext
grestore
% Node39->Node42
gsave
1 setlinewidth
solid
0.667 0.776 0.439 edgecolor
newpath 146 855 moveto
155 883 186 963 242 996 curveto
326 1043 444 1027 504 1015 curveto
stroke
0.667 0.776 0.439 edgecolor
newpath 504.881 1018.39 moveto
514 1013 lineto
503.508 1011.53 lineto
closepath fill
1 setlinewidth
solid
0.667 0.776 0.439 edgecolor
newpath 504.881 1018.39 moveto
514 1013 lineto
503.508 1011.53 lineto
closepath stroke
grestore
% Node44
gsave
[ /Rect [ 507 958 575 978 ]
  /Border [ 0 0 0 ]
  /Action << /Subtype /URI /URI ($comun_8hpp.html#9871d7357fc245ec5b7a227a9a62eb36) >>
  /Subtype /Link
/ANN pdfmark
[ /Rect [ 507 958 575 978 ]
  /Border [ 0 0 0 ]
  /Action << /Subtype /URI /URI ($comun_8hpp.html#9871d7357fc245ec5b7a227a9a62eb36) >>
  /Subtype /Link
/ANN pdfmark
1 setlinewidth
0.000 1.000 1.000 nodecolor
newpath 507 957 moveto
507 978 lineto
575 978 lineto
575 957 lineto
closepath stroke
0.000 0.000 0.000 nodecolor
10.00 /FreeSans.ttf set_font
541 964 moveto 52 -0.5 (leeNDesp) alignedtext
grestore
% Node39->Node44
gsave
1 setlinewidth
solid
0.667 0.776 0.439 edgecolor
newpath 147 855 moveto
157 881 190 950 242 977 curveto
286 998 425 984 497 974 curveto
stroke
0.667 0.776 0.439 edgecolor
newpath 497.398 977.478 moveto
507 973 lineto
496.701 970.512 lineto
closepath fill
1 setlinewidth
solid
0.667 0.776 0.439 edgecolor
newpath 497.398 977.478 moveto
507 973 lineto
496.701 970.512 lineto
closepath stroke
grestore
% Node45
gsave
[ /Rect [ 516 882 566 902 ]
  /Border [ 0 0 0 ]
  /Action << /Subtype /URI /URI ($Pos_8cpp.html#36b67a50cba6dc1789825a3111bee9d2) >>
  /Subtype /Link
/ANN pdfmark
[ /Rect [ 516 882 566 902 ]
  /Border [ 0 0 0 ]
  /Action << /Subtype /URI /URI ($Pos_8cpp.html#36b67a50cba6dc1789825a3111bee9d2) >>
  /Subtype /Link
/ANN pdfmark
1 setlinewidth
0.000 1.000 1.000 nodecolor
newpath 516 881 moveto
516 902 lineto
567 902 lineto
567 881 lineto
closepath stroke
0.000 0.000 0.000 nodecolor
10.00 /FreeSans.ttf set_font
541 888 moveto 35 -0.5 (leePos) alignedtext
grestore
% Node39->Node45
gsave
1 setlinewidth
solid
0.667 0.776 0.439 edgecolor
newpath 198 852 moveto
282 862 436 879 506 888 curveto
stroke
0.667 0.776 0.439 edgecolor
newpath 505.701 891.488 moveto
516 889 lineto
506.398 884.522 lineto
closepath fill
1 setlinewidth
solid
0.667 0.776 0.439 edgecolor
newpath 505.701 891.488 moveto
516 889 lineto
506.398 884.522 lineto
closepath stroke
grestore
% Node46
gsave
[ /Rect [ 253 740 393 760 ]
  /Border [ 0 0 0 ]
  /Action << /Subtype /URI /URI ($RamDisco_8cpp.html#2cef55a7d5a3eb177f0d3b5a067f9e17) >>
  /Subtype /Link
/ANN pdfmark
[ /Rect [ 253 740 393 760 ]
  /Border [ 0 0 0 ]
  /Action << /Subtype /URI /URI ($RamDisco_8cpp.html#2cef55a7d5a3eb177f0d3b5a067f9e17) >>
  /Subtype /Link
/ANN pdfmark
1 setlinewidth
0.000 0.000 0.000 nodecolor
newpath 253 739 moveto
253 760 lineto
394 760 lineto
394 739 lineto
closepath stroke
0.000 0.000 0.000 nodecolor
10.00 /FreeSans.ttf set_font
323 746 moveto 125 -0.5 (escribeCopiaNodoRam) alignedtext
grestore
% Node39->Node46
gsave
1 setlinewidth
solid
0.667 0.776 0.439 edgecolor
newpath 155 834 moveto
173 818 208 790 242 774 curveto
251 770 260 766 269 763 curveto
stroke
0.667 0.776 0.439 edgecolor
newpath 270.427 766.226 moveto
279 760 lineto
268.416 759.521 lineto
closepath fill
1 setlinewidth
solid
0.667 0.776 0.439 edgecolor
newpath 270.427 766.226 moveto
279 760 lineto
268.416 759.521 lineto
closepath stroke
grestore
% Node47
gsave
[ /Rect [ 255 930 391 950 ]
  /Border [ 0 0 0 ]
  /Action << /Subtype /URI /URI ($TrieSDisco_8cpp.html#485d02d9d7ec4ae0114122861420c1d1) >>
  /Subtype /Link
/ANN pdfmark
[ /Rect [ 255 930 391 950 ]
  /Border [ 0 0 0 ]
  /Action << /Subtype /URI /URI ($TrieSDisco_8cpp.html#485d02d9d7ec4ae0114122861420c1d1) >>
  /Subtype /Link
/ANN pdfmark
1 setlinewidth
0.000 0.000 0.000 nodecolor
newpath 255 929 moveto
255 950 lineto
391 950 lineto
391 929 lineto
closepath stroke
0.000 0.000 0.000 nodecolor
10.00 /FreeSans.ttf set_font
323 936 moveto 120 -0.5 (escribeCopiaSubarbol) alignedtext
grestore
% Node39->Node47
gsave
1 setlinewidth
solid
0.667 0.776 0.439 edgecolor
newpath 153 855 moveto
170 871 206 904 242 921 curveto
246 923 250 924 254 926 curveto
stroke
0.667 0.776 0.439 edgecolor
newpath 253.416 929.479 moveto
264 929 lineto
255.427 922.774 lineto
closepath fill
1 setlinewidth
solid
0.667 0.776 0.439 edgecolor
newpath 253.416 929.479 moveto
264 929 lineto
255.427 922.774 lineto
closepath stroke
grestore
% Node48
gsave
[ /Rect [ 243 816 403 836 ]
  /Border [ 0 0 0 ]
  /Action << /Subtype /URI /URI ($RamDisco_8cpp.html#1d654f71e19a8010c6fec648e8cf9899) >>
  /Subtype /Link
/ANN pdfmark
[ /Rect [ 243 816 403 836 ]
  /Border [ 0 0 0 ]
  /Action << /Subtype /URI /URI ($RamDisco_8cpp.html#1d654f71e19a8010c6fec648e8cf9899) >>
  /Subtype /Link
/ANN pdfmark
1 setlinewidth
0.000 0.000 0.000 nodecolor
newpath 243 815 moveto
243 836 lineto
404 836 lineto
404 815 lineto
closepath stroke
0.000 0.000 0.000 nodecolor
10.00 /FreeSans.ttf set_font
323 822 moveto 145 -0.5 (escribeCopiaSubarbolRam) alignedtext
grestore
% Node39->Node48
gsave
1 setlinewidth
solid
0.667 0.776 0.439 edgecolor
newpath 198 839 moveto
209 838 221 837 233 836 curveto
stroke
0.667 0.776 0.439 edgecolor
newpath 233.398 839.478 moveto
243 835 lineto
232.701 832.512 lineto
closepath fill
1 setlinewidth
solid
0.667 0.776 0.439 edgecolor
newpath 233.398 839.478 moveto
243 835 lineto
232.701 832.512 lineto
closepath stroke
grestore
% Node41->Node3
gsave
1 setlinewidth
solid
0.667 0.776 0.439 edgecolor
newpath 346 891 moveto
386 871 467 833 511 811 curveto
stroke
0.667 0.776 0.439 edgecolor
newpath 512.283 814.26 moveto
520 807 lineto
509.44 807.863 lineto
closepath fill
1 setlinewidth
solid
0.667 0.776 0.439 edgecolor
newpath 512.283 814.26 moveto
520 807 lineto
509.44 807.863 lineto
closepath stroke
grestore
% Node41->Node42
gsave
1 setlinewidth
solid
0.667 0.776 0.439 edgecolor
newpath 381 909 moveto
389 912 397 916 404 921 curveto
431 941 413 967 440 987 curveto
458 1000 483 1005 504 1006 curveto
stroke
0.667 0.776 0.439 edgecolor
newpath 503.701 1009.49 moveto
514 1007 lineto
504.398 1002.52 lineto
closepath fill
1 setlinewidth
solid
0.667 0.776 0.439 edgecolor
newpath 503.701 1009.49 moveto
514 1007 lineto
504.398 1002.52 lineto
closepath stroke
grestore
% Node41->Node44
gsave
1 setlinewidth
solid
0.667 0.776 0.439 edgecolor
newpath 371 912 moveto
382 915 393 918 404 921 curveto
438 930 476 944 503 954 curveto
stroke
0.667 0.776 0.439 edgecolor
newpath 501.406 957.158 moveto
512 957 lineto
503.62 950.517 lineto
closepath fill
1 setlinewidth
solid
0.667 0.776 0.439 edgecolor
newpath 501.406 957.158 moveto
512 957 lineto
503.62 950.517 lineto
closepath stroke
grestore
% Node41->Node45
gsave
1 setlinewidth
solid
0.667 0.776 0.439 edgecolor
newpath 381 899 moveto
421 897 472 895 506 893 curveto
stroke
0.667 0.776 0.439 edgecolor
newpath 506 896.5 moveto
516 893 lineto
506 889.5 lineto
closepath fill
1 setlinewidth
solid
0.667 0.776 0.439 edgecolor
newpath 506 896.5 moveto
516 893 lineto
506 889.5 lineto
closepath stroke
grestore
% Node43
gsave
[ /Rect [ 712 996 800 1016 ]
  /Border [ 0 0 0 ]
  /Action << /Subtype /URI /URI ($comun_8cpp.html#88ffeb20e447cad877c37bb473033590) >>
  /Subtype /Link
/ANN pdfmark
[ /Rect [ 712 996 800 1016 ]
  /Border [ 0 0 0 ]
  /Action << /Subtype /URI /URI ($comun_8cpp.html#88ffeb20e447cad877c37bb473033590) >>
  /Subtype /Link
/ANN pdfmark
1 setlinewidth
0.000 0.000 0.000 nodecolor
newpath 712 995 moveto
712 1016 lineto
800 1016 lineto
800 995 lineto
closepath stroke
0.000 0.000 0.000 nodecolor
10.00 /FreeSans.ttf set_font
756 1002 moveto 72 -0.5 (errorFormato) alignedtext
grestore
% Node42->Node43
gsave
1 setlinewidth
solid
0.667 0.776 0.439 edgecolor
newpath 569 1006 moveto
602 1006 659 1006 702 1006 curveto
stroke
0.667 0.776 0.439 edgecolor
newpath 702 1009.5 moveto
712 1006 lineto
702 1002.5 lineto
closepath fill
1 setlinewidth
solid
0.667 0.776 0.439 edgecolor
newpath 702 1009.5 moveto
712 1006 lineto
702 1002.5 lineto
closepath stroke
grestore
% Node45->Node43
gsave
1 setlinewidth
solid
0.667 0.776 0.439 edgecolor
newpath 560 902 moveto
597 922 681 966 726 990 curveto
stroke
0.667 0.776 0.439 edgecolor
newpath 724.559 993.203 moveto
735 995 lineto
727.958 987.084 lineto
closepath fill
1 setlinewidth
solid
0.667 0.776 0.439 edgecolor
newpath 724.559 993.203 moveto
735 995 lineto
727.958 987.084 lineto
closepath stroke
grestore
% Node46->Node3
gsave
1 setlinewidth
solid
0.667 0.776 0.439 edgecolor
newpath 369 760 moveto
405 767 453 778 489 786 curveto
stroke
0.667 0.776 0.439 edgecolor
newpath 488.508 789.471 moveto
499 788 lineto
489.881 782.607 lineto
closepath fill
1 setlinewidth
solid
0.667 0.776 0.439 edgecolor
newpath 488.508 789.471 moveto
499 788 lineto
489.881 782.607 lineto
closepath stroke
grestore
% Node46->Node11
gsave
1 setlinewidth
solid
0.667 0.776 0.439 edgecolor
newpath 332 739 moveto
350 717 388 666 404 617 curveto
439 508 365 190 440 105 curveto
441 104 441 104 442 103 curveto
stroke
0.667 0.776 0.439 edgecolor
newpath 444.779 105.219 moveto
450 96 lineto
440.169 99.9511 lineto
closepath fill
1 setlinewidth
solid
0.667 0.776 0.439 edgecolor
newpath 444.779 105.219 moveto
450 96 lineto
440.169 99.9511 lineto
closepath stroke
grestore
% Node46->Node40
gsave
1 setlinewidth
solid
0.667 0.776 0.439 edgecolor
newpath 394 750 moveto
429 750 469 750 499 750 curveto
stroke
0.667 0.776 0.439 edgecolor
newpath 499 753.5 moveto
509 750 lineto
499 746.5 lineto
closepath fill
1 setlinewidth
solid
0.667 0.776 0.439 edgecolor
newpath 499 753.5 moveto
509 750 lineto
499 746.5 lineto
closepath stroke
grestore
% Node47->Node3
gsave
1 setlinewidth
solid
0.667 0.776 0.439 edgecolor
newpath 389 929 moveto
394 927 399 924 404 921 curveto
427 906 422 891 440 873 curveto
464 849 495 827 516 812 curveto
stroke
0.667 0.776 0.439 edgecolor
newpath 517.958 814.916 moveto
525 807 lineto
514.559 808.797 lineto
closepath fill
1 setlinewidth
solid
0.667 0.776 0.439 edgecolor
newpath 517.958 814.916 moveto
525 807 lineto
514.559 808.797 lineto
closepath stroke
grestore
% Node47->Node4
gsave
1 setlinewidth
solid
0.667 0.776 0.439 edgecolor
newpath 391 937 moveto
456 933 556 926 642 911 curveto
665 907 691 900 712 895 curveto
stroke
0.667 0.776 0.439 edgecolor
newpath 713.427 898.226 moveto
722 892 lineto
711.416 891.521 lineto
closepath fill
1 setlinewidth
solid
0.667 0.776 0.439 edgecolor
newpath 713.427 898.226 moveto
722 892 lineto
711.416 891.521 lineto
closepath stroke
grestore
% Node47->Node42
gsave
1 setlinewidth
solid
0.667 0.776 0.439 edgecolor
newpath 345 950 moveto
368 961 406 977 440 987 curveto
461 993 485 997 504 1000 curveto
stroke
0.667 0.776 0.439 edgecolor
newpath 503.508 1003.47 moveto
514 1002 lineto
504.881 996.607 lineto
closepath fill
1 setlinewidth
solid
0.667 0.776 0.439 edgecolor
newpath 503.508 1003.47 moveto
514 1002 lineto
504.881 996.607 lineto
closepath stroke
grestore
% Node47->Node44
gsave
1 setlinewidth
solid
0.667 0.776 0.439 edgecolor
newpath 391 949 moveto
425 953 466 959 497 963 curveto
stroke
0.667 0.776 0.439 edgecolor
newpath 496.701 966.488 moveto
507 964 lineto
497.398 959.522 lineto
closepath fill
1 setlinewidth
solid
0.667 0.776 0.439 edgecolor
newpath 496.701 966.488 moveto
507 964 lineto
497.398 959.522 lineto
closepath stroke
grestore
% Node47->Node45
gsave
1 setlinewidth
solid
0.667 0.776 0.439 edgecolor
newpath 373 929 moveto
413 920 470 907 506 900 curveto
stroke
0.667 0.776 0.439 edgecolor
newpath 506.881 903.393 moveto
516 898 lineto
505.508 896.529 lineto
closepath fill
1 setlinewidth
solid
0.667 0.776 0.439 edgecolor
newpath 506.881 903.393 moveto
516 898 lineto
505.508 896.529 lineto
closepath stroke
grestore
% Node47->Node47
gsave
1 setlinewidth
solid
0.667 0.776 0.439 edgecolor
newpath 266 950 moveto
241 959 260 968 323 968 curveto
375 968 397 962 389 955 curveto
stroke
0.667 0.776 0.439 edgecolor
newpath 390.441 951.797 moveto
380 950 lineto
387.042 957.916 lineto
closepath fill
1 setlinewidth
solid
0.667 0.776 0.439 edgecolor
newpath 390.441 951.797 moveto
380 950 lineto
387.042 957.916 lineto
closepath stroke
grestore
% Node48->Node3
gsave
1 setlinewidth
solid
0.667 0.776 0.439 edgecolor
newpath 404 815 moveto
432 811 463 807 489 804 curveto
stroke
0.667 0.776 0.439 edgecolor
newpath 489.398 807.478 moveto
499 803 lineto
488.701 800.512 lineto
closepath fill
1 setlinewidth
solid
0.667 0.776 0.439 edgecolor
newpath 489.398 807.478 moveto
499 803 lineto
488.701 800.512 lineto
closepath stroke
grestore
% Node48->Node4
gsave
1 setlinewidth
solid
0.667 0.776 0.439 edgecolor
newpath 400 836 moveto
487 847 625 865 701 875 curveto
stroke
0.667 0.776 0.439 edgecolor
newpath 700.701 878.488 moveto
711 876 lineto
701.398 871.522 lineto
closepath fill
1 setlinewidth
solid
0.667 0.776 0.439 edgecolor
newpath 700.701 878.488 moveto
711 876 lineto
701.398 871.522 lineto
closepath stroke
grestore
% Node48->Node40
gsave
1 setlinewidth
solid
0.667 0.776 0.439 edgecolor
newpath 347 815 moveto
371 805 407 789 440 778 curveto
459 771 481 765 499 760 curveto
stroke
0.667 0.776 0.439 edgecolor
newpath 499.881 763.393 moveto
509 758 lineto
498.508 756.529 lineto
closepath fill
1 setlinewidth
solid
0.667 0.776 0.439 edgecolor
newpath 499.881 763.393 moveto
509 758 lineto
498.508 756.529 lineto
closepath stroke
grestore
% Node49->Node43
gsave
1 setlinewidth
solid
0.667 0.776 0.439 edgecolor
newpath 153 1025 moveto
169 1042 205 1074 242 1086 curveto
412 1140 473 1139 642 1086 curveto
682 1074 718 1043 739 1023 curveto
stroke
0.667 0.776 0.439 edgecolor
newpath 741.404 1025.55 moveto
746 1016 lineto
736.454 1020.6 lineto
closepath fill
1 setlinewidth
solid
0.667 0.776 0.439 edgecolor
newpath 741.404 1025.55 moveto
746 1016 lineto
736.454 1020.6 lineto
closepath stroke
grestore
endpage
showpage
grestore
%%PageTrailer
%%EndPage: 1
%%Trailer
%%Pages: 1
%%BoundingBox: 36 36 1070 1184
end
restore
%%EOF
