%!PS-Adobe-2.0
%%Creator: Graphviz version 2.12 (Mon Nov 16 18:34:03 UTC 2009)
%%For: (vtamara) Vladimir
%%Title: G
%%Pages: (atend)
%%BoundingBox: (atend)
%%EndComments
save
%%BeginProlog
/DotDict 200 dict def
DotDict begin

/setupLatin1 {
mark
/EncodingVector 256 array def
 EncodingVector 0

ISOLatin1Encoding 0 255 getinterval putinterval
EncodingVector 45 /hyphen put

% Set up ISO Latin 1 character encoding
/starnetISO {
        dup dup findfont dup length dict begin
        { 1 index /FID ne { def }{ pop pop } ifelse
        } forall
        /Encoding EncodingVector def
        currentdict end definefont
} def
/Times-Roman starnetISO def
/Times-Italic starnetISO def
/Times-Bold starnetISO def
/Times-BoldItalic starnetISO def
/Helvetica starnetISO def
/Helvetica-Oblique starnetISO def
/Helvetica-Bold starnetISO def
/Helvetica-BoldOblique starnetISO def
/Courier starnetISO def
/Courier-Oblique starnetISO def
/Courier-Bold starnetISO def
/Courier-BoldOblique starnetISO def
cleartomark
} bind def

%%BeginResource: procset graphviz 0 0
/coord-font-family /Times-Roman def
/default-font-family /Times-Roman def
/coordfont coord-font-family findfont 8 scalefont def

/InvScaleFactor 1.0 def
/set_scale {
       dup 1 exch div /InvScaleFactor exch def
       scale
} bind def

% styles
/solid { [] 0 setdash } bind def
/dashed { [9 InvScaleFactor mul dup ] 0 setdash } bind def
/dotted { [1 InvScaleFactor mul 6 InvScaleFactor mul] 0 setdash } bind def
/invis {/fill {newpath} def /stroke {newpath} def /show {pop newpath} def} bind def
/bold { 2 setlinewidth } bind def
/filled { } bind def
/unfilled { } bind def
/rounded { } bind def
/diagonals { } bind def

% hooks for setting color 
/nodecolor { sethsbcolor } bind def
/edgecolor { sethsbcolor } bind def
/graphcolor { sethsbcolor } bind def
/nopcolor {pop pop pop} bind def

/beginpage {	% i j npages
	/npages exch def
	/j exch def
	/i exch def
	/str 10 string def
	npages 1 gt {
		gsave
			coordfont setfont
			0 0 moveto
			(\() show i str cvs show (,) show j str cvs show (\)) show
		grestore
	} if
} bind def

/set_font {
	findfont exch
	scalefont setfont
} def

% draw aligned label in bounding box aligned to current point
/alignedtext {			% width adj text
	/text exch def
	/adj exch def
	/width exch def
	gsave
		width 0 gt {
			text stringwidth pop adj mul 0 rmoveto
		} if
		[] 0 setdash
		text show
	grestore
} def

/boxprim {				% xcorner ycorner xsize ysize
		4 2 roll
		moveto
		2 copy
		exch 0 rlineto
		0 exch rlineto
		pop neg 0 rlineto
		closepath
} bind def

/ellipse_path {
	/ry exch def
	/rx exch def
	/y exch def
	/x exch def
	matrix currentmatrix
	newpath
	x y translate
	rx ry scale
	0 0 1 0 360 arc
	setmatrix
} bind def

/endpage { showpage } bind def
/showpage { } def

/layercolorseq
	[	% layer color sequence - darkest to lightest
		[0 0 0]
		[.2 .8 .8]
		[.4 .8 .8]
		[.6 .8 .8]
		[.8 .8 .8]
	]
def

/layerlen layercolorseq length def

/setlayer {/maxlayer exch def /curlayer exch def
	layercolorseq curlayer 1 sub layerlen mod get
	aload pop sethsbcolor
	/nodecolor {nopcolor} def
	/edgecolor {nopcolor} def
	/graphcolor {nopcolor} def
} bind def

/onlayer { curlayer ne {invis} if } def

/onlayers {
	/myupper exch def
	/mylower exch def
	curlayer mylower lt
	curlayer myupper gt
	or
	{invis} if
} def

/curlayer 0 def

%%EndResource
%%EndProlog
%%BeginSetup
14 default-font-family set_font
1 setmiterlimit
% /arrowlength 10 def
% /arrowwidth 5 def

% make sure pdfmark is harmless for PS-interpreters other than Distiller
/pdfmark where {pop} {userdict /pdfmark /cleartomark load put} ifelse
% make '<<' and '>>' safe on PS Level 1 devices
/languagelevel where {pop languagelevel}{1} ifelse
2 lt {
    userdict (<<) cvn ([) cvn load put
    userdict (>>) cvn ([) cvn load put
} if

%%EndSetup
setupLatin1
%%Page: 1 1
%%PageBoundingBox: 36 36 429 298
%%PageOrientation: Portrait
gsave
36 36 429 298 boxprim clip newpath
0 0 1 beginpage
1 1 set_scale 0 rotate 40 40 translate
% Node1
gsave
0.000 0.000 0.749 nodecolor
newpath 98 232 moveto
98 253 lineto
184 253 lineto
184 232 lineto
closepath fill
1 setlinewidth
filled
0.000 0.000 0.000 nodecolor
newpath 98 232 moveto
98 253 lineto
184 253 lineto
184 232 lineto
closepath stroke
0.000 0.000 0.000 nodecolor
10.00 /FreeSans.ttf set_font
141 239 moveto 70 -0.5 (leeHTML.cpp) alignedtext
grestore
% Node2
gsave
1 setlinewidth
0.000 0.000 0.749 nodecolor
newpath 0 174 moveto
0 195 lineto
52 195 lineto
52 174 lineto
closepath stroke
0.000 0.000 0.000 nodecolor
10.00 /FreeSans.ttf set_font
26 181 moveto 36 -0.5 (stdio.h) alignedtext
grestore
% Node1->Node2
gsave
1 setlinewidth
solid
0.667 0.776 0.439 edgecolor
newpath 119 232 moveto
101 223 75 209 55 200 curveto
stroke
0.667 0.776 0.439 edgecolor
newpath 56.4414 196.797 moveto
46 195 lineto
53.0418 202.916 lineto
closepath fill
1 setlinewidth
solid
0.667 0.776 0.439 edgecolor
newpath 56.4414 196.797 moveto
46 195 lineto
53.0418 202.916 lineto
closepath stroke
grestore
% Node3
gsave
1 setlinewidth
0.000 0.000 0.749 nodecolor
newpath 70 174 moveto
70 195 lineto
134 195 lineto
134 174 lineto
closepath stroke
0.000 0.000 0.000 nodecolor
10.00 /FreeSans.ttf set_font
102 181 moveto 48 -0.5 (iostream) alignedtext
grestore
% Node1->Node3
gsave
1 setlinewidth
solid
0.667 0.776 0.439 edgecolor
newpath 133 232 moveto
128 224 120 213 114 204 curveto
stroke
0.667 0.776 0.439 edgecolor
newpath 116.916 202.042 moveto
109 195 lineto
110.797 205.441 lineto
closepath fill
1 setlinewidth
solid
0.667 0.776 0.439 edgecolor
newpath 116.916 202.042 moveto
109 195 lineto
110.797 205.441 lineto
closepath stroke
grestore
% Node4
gsave
1 setlinewidth
0.000 0.000 0.749 nodecolor
newpath 152 174 moveto
152 195 lineto
210 195 lineto
210 174 lineto
closepath stroke
0.000 0.000 0.000 nodecolor
10.00 /FreeSans.ttf set_font
181 181 moveto 42 -0.5 (fstream) alignedtext
grestore
% Node1->Node4
gsave
1 setlinewidth
solid
0.667 0.776 0.439 edgecolor
newpath 149 232 moveto
154 224 162 213 168 203 curveto
stroke
0.667 0.776 0.439 edgecolor
newpath 170.8 205.1 moveto
174 195 lineto
165.2 200.9 lineto
closepath fill
1 setlinewidth
solid
0.667 0.776 0.439 edgecolor
newpath 170.8 205.1 moveto
174 195 lineto
165.2 200.9 lineto
closepath stroke
grestore
% Node5
gsave
[ /Rect [ 228 175 324 195 ]
  /Border [ 0 0 0 ]
  /Action << /Subtype /URI /URI ($NodoTrieS_8hpp.html) >>
  /Subtype /Link
/ANN pdfmark
[ /Rect [ 228 175 324 195 ]
  /Border [ 0 0 0 ]
  /Action << /Subtype /URI /URI ($NodoTrieS_8hpp.html) >>
  /Subtype /Link
/ANN pdfmark
1 setlinewidth
0.000 0.000 0.000 nodecolor
newpath 228 174 moveto
228 195 lineto
324 195 lineto
324 174 lineto
closepath stroke
0.000 0.000 0.000 nodecolor
10.00 /FreeSans.ttf set_font
276 181 moveto 80 -0.5 (NodoTrieS.hpp) alignedtext
grestore
% Node1->Node5
gsave
1 setlinewidth
solid
0.667 0.776 0.439 edgecolor
newpath 167 232 moveto
189 222 220 209 244 199 curveto
stroke
0.667 0.776 0.439 edgecolor
newpath 245.283 202.26 moveto
253 195 lineto
242.44 195.863 lineto
closepath fill
1 setlinewidth
solid
0.667 0.776 0.439 edgecolor
newpath 245.283 202.26 moveto
253 195 lineto
242.44 195.863 lineto
closepath stroke
grestore
% Node6
gsave
1 setlinewidth
0.000 0.000 0.749 nodecolor
newpath 102 0 moveto
102 21 lineto
134 21 lineto
134 0 lineto
closepath stroke
0.000 0.000 0.000 nodecolor
10.00 /FreeSans.ttf set_font
118 7 moveto 16 -0.5 (set) alignedtext
grestore
% Node5->Node6
gsave
1 setlinewidth
solid
0.667 0.776 0.439 edgecolor
newpath 256 174 moveto
241 165 221 152 207 138 curveto
172 104 143 56 128 30 curveto
stroke
0.667 0.776 0.439 edgecolor
newpath 130.916 28.0418 moveto
123 21 lineto
124.797 31.4414 lineto
closepath fill
1 setlinewidth
solid
0.667 0.776 0.439 edgecolor
newpath 130.916 28.0418 moveto
123 21 lineto
124.797 31.4414 lineto
closepath stroke
grestore
% Node7
gsave
1 setlinewidth
0.000 0.000 0.749 nodecolor
newpath 306 0 moveto
306 21 lineto
352 21 lineto
352 0 lineto
closepath stroke
0.000 0.000 0.000 nodecolor
10.00 /FreeSans.ttf set_font
329 7 moveto 30 -0.5 (string) alignedtext
grestore
% Node5->Node7
gsave
1 setlinewidth
solid
0.667 0.776 0.439 edgecolor
newpath 279 174 moveto
288 145 311 68 323 31 curveto
stroke
0.667 0.776 0.439 edgecolor
newpath 326.479 31.584 moveto
326 21 lineto
319.774 29.5725 lineto
closepath fill
1 setlinewidth
solid
0.667 0.776 0.439 edgecolor
newpath 326.479 31.584 moveto
326 21 lineto
319.774 29.5725 lineto
closepath stroke
grestore
% Node8
gsave
1 setlinewidth
0.000 0.000 0.749 nodecolor
newpath 335 116 moveto
335 137 lineto
385 137 lineto
385 116 lineto
closepath stroke
0.000 0.000 0.000 nodecolor
10.00 /FreeSans.ttf set_font
360 123 moveto 34 -0.5 (vector) alignedtext
grestore
% Node5->Node8
gsave
1 setlinewidth
solid
0.667 0.776 0.439 edgecolor
newpath 292 174 moveto
305 165 323 152 338 143 curveto
stroke
0.667 0.776 0.439 edgecolor
newpath 340.1 145.8 moveto
346 137 lineto
335.9 140.2 lineto
closepath fill
1 setlinewidth
solid
0.667 0.776 0.439 edgecolor
newpath 340.1 145.8 moveto
346 137 lineto
335.9 140.2 lineto
closepath stroke
grestore
% Node9
gsave
[ /Rect [ 216 117 274 137 ]
  /Border [ 0 0 0 ]
  /Action << /Subtype /URI /URI ($Pos_8hpp.html) >>
  /Subtype /Link
/ANN pdfmark
[ /Rect [ 216 117 274 137 ]
  /Border [ 0 0 0 ]
  /Action << /Subtype /URI /URI ($Pos_8hpp.html) >>
  /Subtype /Link
/ANN pdfmark
1 setlinewidth
0.000 0.000 0.000 nodecolor
newpath 216 116 moveto
216 137 lineto
274 137 lineto
274 116 lineto
closepath stroke
0.000 0.000 0.000 nodecolor
10.00 /FreeSans.ttf set_font
245 123 moveto 42 -0.5 (Pos.hpp) alignedtext
grestore
% Node5->Node9
gsave
1 setlinewidth
solid
0.667 0.776 0.439 edgecolor
newpath 270 174 moveto
266 166 260 155 255 146 curveto
stroke
0.667 0.776 0.439 edgecolor
newpath 257.916 144.042 moveto
250 137 lineto
251.797 147.441 lineto
closepath fill
1 setlinewidth
solid
0.667 0.776 0.439 edgecolor
newpath 257.916 144.042 moveto
250 137 lineto
251.797 147.441 lineto
closepath stroke
grestore
% Node10
gsave
[ /Rect [ 201 59 279 79 ]
  /Border [ 0 0 0 ]
  /Action << /Subtype /URI /URI ($comun_8hpp.html) >>
  /Subtype /Link
/ANN pdfmark
[ /Rect [ 201 59 279 79 ]
  /Border [ 0 0 0 ]
  /Action << /Subtype /URI /URI ($comun_8hpp.html) >>
  /Subtype /Link
/ANN pdfmark
1 setlinewidth
0.000 0.000 0.000 nodecolor
newpath 201 58 moveto
201 79 lineto
279 79 lineto
279 58 lineto
closepath stroke
0.000 0.000 0.000 nodecolor
10.00 /FreeSans.ttf set_font
240 65 moveto 62 -0.5 (comun.hpp) alignedtext
grestore
% Node9->Node10
gsave
1 setlinewidth
solid
0.667 0.776 0.439 edgecolor
newpath 244 116 moveto
243 108 243 98 242 89 curveto
stroke
0.667 0.776 0.439 edgecolor
newpath 245.478 88.6021 moveto
241 79 lineto
238.512 89.2987 lineto
closepath fill
1 setlinewidth
solid
0.667 0.776 0.439 edgecolor
newpath 245.478 88.6021 moveto
241 79 lineto
238.512 89.2987 lineto
closepath stroke
grestore
% Node10->Node6
gsave
1 setlinewidth
solid
0.667 0.776 0.439 edgecolor
newpath 217 58 moveto
195 48 165 33 143 23 curveto
stroke
0.667 0.776 0.439 edgecolor
newpath 144.56 19.8631 moveto
134 19 lineto
141.717 26.2598 lineto
closepath fill
1 setlinewidth
solid
0.667 0.776 0.439 edgecolor
newpath 144.56 19.8631 moveto
134 19 lineto
141.717 26.2598 lineto
closepath stroke
grestore
% Node10->Node7
gsave
1 setlinewidth
solid
0.667 0.776 0.439 edgecolor
newpath 257 58 moveto
270 49 290 36 305 26 curveto
stroke
0.667 0.776 0.439 edgecolor
newpath 306.958 28.916 moveto
314 21 lineto
303.559 22.7969 lineto
closepath fill
1 setlinewidth
solid
0.667 0.776 0.439 edgecolor
newpath 306.958 28.916 moveto
314 21 lineto
303.559 22.7969 lineto
closepath stroke
grestore
% Node11
gsave
1 setlinewidth
0.000 0.000 0.749 nodecolor
newpath 152 0 moveto
152 21 lineto
213 21 lineto
213 0 lineto
closepath stroke
0.000 0.000 0.000 nodecolor
10.00 /FreeSans.ttf set_font
182 7 moveto 45 -0.5 (ostream) alignedtext
grestore
% Node10->Node11
gsave
1 setlinewidth
solid
0.667 0.776 0.439 edgecolor
newpath 229 58 moveto
220 49 209 38 199 28 curveto
stroke
0.667 0.776 0.439 edgecolor
newpath 201.546 25.5962 moveto
192 21 lineto
196.596 30.546 lineto
closepath fill
1 setlinewidth
solid
0.667 0.776 0.439 edgecolor
newpath 201.546 25.5962 moveto
192 21 lineto
196.596 30.546 lineto
closepath stroke
grestore
% Node12
gsave
1 setlinewidth
0.000 0.000 0.749 nodecolor
newpath 230 0 moveto
230 21 lineto
289 21 lineto
289 0 lineto
closepath stroke
0.000 0.000 0.000 nodecolor
10.00 /FreeSans.ttf set_font
259 7 moveto 43 -0.5 (sstream) alignedtext
grestore
% Node10->Node12
gsave
1 setlinewidth
solid
0.667 0.776 0.439 edgecolor
newpath 244 58 moveto
246 50 249 40 252 31 curveto
stroke
0.667 0.776 0.439 edgecolor
newpath 255.536 31.5847 moveto
256 21 lineto
249.036 28.9849 lineto
closepath fill
1 setlinewidth
solid
0.667 0.776 0.439 edgecolor
newpath 255.536 31.5847 moveto
256 21 lineto
249.036 28.9849 lineto
closepath stroke
grestore
endpage
showpage
grestore
%%PageTrailer
%%EndPage: 1
%%Trailer
%%Pages: 1
%%BoundingBox: 36 36 429 298
end
restore
%%EOF
