%!PS-Adobe-2.0
%%Creator: Graphviz version 2.12 (Mon Nov 16 18:34:03 UTC 2009)
%%For: (vtamara) Vladimir
%%Title: G
%%Pages: (atend)
%%BoundingBox: (atend)
%%EndComments
save
%%BeginProlog
/DotDict 200 dict def
DotDict begin

/setupLatin1 {
mark
/EncodingVector 256 array def
 EncodingVector 0

ISOLatin1Encoding 0 255 getinterval putinterval
EncodingVector 45 /hyphen put

% Set up ISO Latin 1 character encoding
/starnetISO {
        dup dup findfont dup length dict begin
        { 1 index /FID ne { def }{ pop pop } ifelse
        } forall
        /Encoding EncodingVector def
        currentdict end definefont
} def
/Times-Roman starnetISO def
/Times-Italic starnetISO def
/Times-Bold starnetISO def
/Times-BoldItalic starnetISO def
/Helvetica starnetISO def
/Helvetica-Oblique starnetISO def
/Helvetica-Bold starnetISO def
/Helvetica-BoldOblique starnetISO def
/Courier starnetISO def
/Courier-Oblique starnetISO def
/Courier-Bold starnetISO def
/Courier-BoldOblique starnetISO def
cleartomark
} bind def

%%BeginResource: procset graphviz 0 0
/coord-font-family /Times-Roman def
/default-font-family /Times-Roman def
/coordfont coord-font-family findfont 8 scalefont def

/InvScaleFactor 1.0 def
/set_scale {
       dup 1 exch div /InvScaleFactor exch def
       scale
} bind def

% styles
/solid { [] 0 setdash } bind def
/dashed { [9 InvScaleFactor mul dup ] 0 setdash } bind def
/dotted { [1 InvScaleFactor mul 6 InvScaleFactor mul] 0 setdash } bind def
/invis {/fill {newpath} def /stroke {newpath} def /show {pop newpath} def} bind def
/bold { 2 setlinewidth } bind def
/filled { } bind def
/unfilled { } bind def
/rounded { } bind def
/diagonals { } bind def

% hooks for setting color 
/nodecolor { sethsbcolor } bind def
/edgecolor { sethsbcolor } bind def
/graphcolor { sethsbcolor } bind def
/nopcolor {pop pop pop} bind def

/beginpage {	% i j npages
	/npages exch def
	/j exch def
	/i exch def
	/str 10 string def
	npages 1 gt {
		gsave
			coordfont setfont
			0 0 moveto
			(\() show i str cvs show (,) show j str cvs show (\)) show
		grestore
	} if
} bind def

/set_font {
	findfont exch
	scalefont setfont
} def

% draw aligned label in bounding box aligned to current point
/alignedtext {			% width adj text
	/text exch def
	/adj exch def
	/width exch def
	gsave
		width 0 gt {
			text stringwidth pop adj mul 0 rmoveto
		} if
		[] 0 setdash
		text show
	grestore
} def

/boxprim {				% xcorner ycorner xsize ysize
		4 2 roll
		moveto
		2 copy
		exch 0 rlineto
		0 exch rlineto
		pop neg 0 rlineto
		closepath
} bind def

/ellipse_path {
	/ry exch def
	/rx exch def
	/y exch def
	/x exch def
	matrix currentmatrix
	newpath
	x y translate
	rx ry scale
	0 0 1 0 360 arc
	setmatrix
} bind def

/endpage { showpage } bind def
/showpage { } def

/layercolorseq
	[	% layer color sequence - darkest to lightest
		[0 0 0]
		[.2 .8 .8]
		[.4 .8 .8]
		[.6 .8 .8]
		[.8 .8 .8]
	]
def

/layerlen layercolorseq length def

/setlayer {/maxlayer exch def /curlayer exch def
	layercolorseq curlayer 1 sub layerlen mod get
	aload pop sethsbcolor
	/nodecolor {nopcolor} def
	/edgecolor {nopcolor} def
	/graphcolor {nopcolor} def
} bind def

/onlayer { curlayer ne {invis} if } def

/onlayers {
	/myupper exch def
	/mylower exch def
	curlayer mylower lt
	curlayer myupper gt
	or
	{invis} if
} def

/curlayer 0 def

%%EndResource
%%EndProlog
%%BeginSetup
14 default-font-family set_font
1 setmiterlimit
% /arrowlength 10 def
% /arrowwidth 5 def

% make sure pdfmark is harmless for PS-interpreters other than Distiller
/pdfmark where {pop} {userdict /pdfmark /cleartomark load put} ifelse
% make '<<' and '>>' safe on PS Level 1 devices
/languagelevel where {pop languagelevel}{1} ifelse
2 lt {
    userdict (<<) cvn ([) cvn load put
    userdict (>>) cvn ([) cvn load put
} if

%%EndSetup
setupLatin1
%%Page: 1 1
%%PageBoundingBox: 36 36 2253 356
%%PageOrientation: Portrait
gsave
36 36 2253 356 boxprim clip newpath
0 0 1 beginpage
1 1 set_scale 0 rotate 40 40 translate
% Node1
gsave
0.000 0.000 0.749 nodecolor
newpath 896 290 moveto
896 311 lineto
976 311 lineto
976 290 lineto
closepath fill
1 setlinewidth
filled
0.000 0.000 0.000 nodecolor
newpath 896 290 moveto
896 311 lineto
976 311 lineto
976 290 lineto
closepath stroke
0.000 0.000 0.000 nodecolor
10.00 /FreeSans.ttf set_font
936 297 moveto 64 -0.5 (leeODT.cpp) alignedtext
grestore
% Node2
gsave
1 setlinewidth
0.000 0.000 0.749 nodecolor
newpath 0 232 moveto
0 253 lineto
74 253 lineto
74 232 lineto
closepath stroke
0.000 0.000 0.000 nodecolor
10.00 /FreeSans.ttf set_font
37 239 moveto 58 -0.5 (sys/types.h) alignedtext
grestore
% Node1->Node2
gsave
1 setlinewidth
solid
0.667 0.776 0.439 edgecolor
newpath 896 300 moveto
752 295 262 278 84 253 curveto
stroke
0.667 0.776 0.439 edgecolor
newpath 84.2987 249.512 moveto
74 252 lineto
83.6021 256.478 lineto
closepath fill
1 setlinewidth
solid
0.667 0.776 0.439 edgecolor
newpath 84.2987 249.512 moveto
74 252 lineto
83.6021 256.478 lineto
closepath stroke
grestore
% Node3
gsave
1 setlinewidth
0.000 0.000 0.749 nodecolor
newpath 92 232 moveto
92 253 lineto
157 253 lineto
157 232 lineto
closepath stroke
0.000 0.000 0.000 nodecolor
10.00 /FreeSans.ttf set_font
124 239 moveto 49 -0.5 (sys/stat.h) alignedtext
grestore
% Node1->Node3
gsave
1 setlinewidth
solid
0.667 0.776 0.439 edgecolor
newpath 896 300 moveto
762 295 327 278 167 254 curveto
stroke
0.667 0.776 0.439 edgecolor
newpath 167.492 250.529 moveto
157 252 lineto
166.119 257.393 lineto
closepath fill
1 setlinewidth
solid
0.667 0.776 0.439 edgecolor
newpath 167.492 250.529 moveto
157 252 lineto
166.119 257.393 lineto
closepath stroke
grestore
% Node4
gsave
1 setlinewidth
0.000 0.000 0.749 nodecolor
newpath 174 232 moveto
174 253 lineto
229 253 lineto
229 232 lineto
closepath stroke
0.000 0.000 0.000 nodecolor
10.00 /FreeSans.ttf set_font
201 239 moveto 39 -0.5 (stdlib.h) alignedtext
grestore
% Node1->Node4
gsave
1 setlinewidth
solid
0.667 0.776 0.439 edgecolor
newpath 896 299 moveto
768 294 370 275 242 254 curveto
241 254 240 254 239 253 curveto
stroke
0.667 0.776 0.439 edgecolor
newpath 239.492 249.529 moveto
229 251 lineto
238.119 256.393 lineto
closepath fill
1 setlinewidth
solid
0.667 0.776 0.439 edgecolor
newpath 239.492 249.529 moveto
229 251 lineto
238.119 256.393 lineto
closepath stroke
grestore
% Node5
gsave
1 setlinewidth
0.000 0.000 0.749 nodecolor
newpath 968 174 moveto
968 195 lineto
1020 195 lineto
1020 174 lineto
closepath stroke
0.000 0.000 0.000 nodecolor
10.00 /FreeSans.ttf set_font
994 181 moveto 36 -0.5 (stdio.h) alignedtext
grestore
% Node1->Node5
gsave
1 setlinewidth
solid
0.667 0.776 0.439 edgecolor
newpath 896 301 moveto
772 299 407 292 371 254 curveto
365 246 365 239 371 232 curveto
391 210 827 191 958 186 curveto
stroke
0.667 0.776 0.439 edgecolor
newpath 958 189.5 moveto
968 186 lineto
958 182.5 lineto
closepath fill
1 setlinewidth
solid
0.667 0.776 0.439 edgecolor
newpath 958 189.5 moveto
968 186 lineto
958 182.5 lineto
closepath stroke
grestore
% Node6
gsave
1 setlinewidth
0.000 0.000 0.749 nodecolor
newpath 284 232 moveto
284 253 lineto
325 253 lineto
325 232 lineto
closepath stroke
0.000 0.000 0.000 nodecolor
10.00 /FreeSans.ttf set_font
304 239 moveto 25 -0.5 (err.h) alignedtext
grestore
% Node1->Node6
gsave
1 setlinewidth
solid
0.667 0.776 0.439 edgecolor
newpath 896 299 moveto
780 293 446 275 338 254 curveto
337 254 336 254 335 253 curveto
stroke
0.667 0.776 0.439 edgecolor
newpath 335.584 249.521 moveto
325 250 lineto
333.573 256.226 lineto
closepath fill
1 setlinewidth
solid
0.667 0.776 0.439 edgecolor
newpath 335.584 249.521 moveto
325 250 lineto
333.573 256.226 lineto
closepath stroke
grestore
% Node7
gsave
1 setlinewidth
0.000 0.000 0.749 nodecolor
newpath 1858 0 moveto
1858 21 lineto
1904 21 lineto
1904 0 lineto
closepath stroke
0.000 0.000 0.000 nodecolor
10.00 /FreeSans.ttf set_font
1881 7 moveto 30 -0.5 (string) alignedtext
grestore
% Node1->Node7
gsave
1 setlinewidth
solid
0.667 0.776 0.439 edgecolor
newpath 896 301 moveto
760 300 323 293 275 254 curveto
251 233 256 216 256 185 curveto
256 185 256 185 256 127 curveto
256 43 1615 16 1848 11 curveto
stroke
0.667 0.776 0.439 edgecolor
newpath 1848 14.5001 moveto
1858 11 lineto
1848 7.5001 lineto
closepath fill
1 setlinewidth
solid
0.667 0.776 0.439 edgecolor
newpath 1848 14.5001 moveto
1858 11 lineto
1848 7.5001 lineto
closepath stroke
grestore
% Node8
gsave
1 setlinewidth
0.000 0.000 0.749 nodecolor
newpath 380 232 moveto
380 253 lineto
444 253 lineto
444 232 lineto
closepath stroke
0.000 0.000 0.000 nodecolor
10.00 /FreeSans.ttf set_font
412 239 moveto 48 -0.5 (iostream) alignedtext
grestore
% Node1->Node8
gsave
1 setlinewidth
solid
0.667 0.776 0.439 edgecolor
newpath 896 299 moveto
815 295 623 283 454 254 curveto
stroke
0.667 0.776 0.439 edgecolor
newpath 454.492 250.529 moveto
444 252 lineto
453.119 257.393 lineto
closepath fill
1 setlinewidth
solid
0.667 0.776 0.439 edgecolor
newpath 454.492 250.529 moveto
444 252 lineto
453.119 257.393 lineto
closepath stroke
grestore
% Node9
gsave
1 setlinewidth
0.000 0.000 0.749 nodecolor
newpath 462 232 moveto
462 253 lineto
520 253 lineto
520 232 lineto
closepath stroke
0.000 0.000 0.000 nodecolor
10.00 /FreeSans.ttf set_font
491 239 moveto 42 -0.5 (fstream) alignedtext
grestore
% Node1->Node9
gsave
1 setlinewidth
solid
0.667 0.776 0.439 edgecolor
newpath 896 298 moveto
825 293 669 281 530 254 curveto
stroke
0.667 0.776 0.439 edgecolor
newpath 530.492 250.529 moveto
520 252 lineto
529.119 257.393 lineto
closepath fill
1 setlinewidth
solid
0.667 0.776 0.439 edgecolor
newpath 530.492 250.529 moveto
520 252 lineto
529.119 257.393 lineto
closepath stroke
grestore
% Node10
gsave
1 setlinewidth
0.000 0.000 0.749 nodecolor
newpath 538 232 moveto
538 253 lineto
665 253 lineto
665 232 lineto
closepath stroke
0.000 0.000 0.000 nodecolor
10.00 /FreeSans.ttf set_font
601 239 moveto 111 -0.5 (libxml/xmlmemory.h) alignedtext
grestore
% Node1->Node10
gsave
1 setlinewidth
solid
0.667 0.776 0.439 edgecolor
newpath 896 294 moveto
840 284 737 267 668 255 curveto
stroke
0.667 0.776 0.439 edgecolor
newpath 668.492 251.529 moveto
658 253 lineto
667.119 258.393 lineto
closepath fill
1 setlinewidth
solid
0.667 0.776 0.439 edgecolor
newpath 668.492 251.529 moveto
658 253 lineto
667.119 258.393 lineto
closepath stroke
grestore
% Node11
gsave
1 setlinewidth
0.000 0.000 0.749 nodecolor
newpath 682 232 moveto
682 253 lineto
801 253 lineto
801 232 lineto
closepath stroke
0.000 0.000 0.000 nodecolor
10.00 /FreeSans.ttf set_font
741 239 moveto 103 -0.5 (libxml/debugXML.h) alignedtext
grestore
% Node1->Node11
gsave
1 setlinewidth
solid
0.667 0.776 0.439 edgecolor
newpath 899 290 moveto
866 280 819 266 785 256 curveto
stroke
0.667 0.776 0.439 edgecolor
newpath 785.584 252.521 moveto
775 253 lineto
783.573 259.226 lineto
closepath fill
1 setlinewidth
solid
0.667 0.776 0.439 edgecolor
newpath 785.584 252.521 moveto
775 253 lineto
783.573 259.226 lineto
closepath stroke
grestore
% Node12
gsave
1 setlinewidth
0.000 0.000 0.749 nodecolor
newpath 818 232 moveto
818 253 lineto
932 253 lineto
932 232 lineto
closepath stroke
0.000 0.000 0.000 nodecolor
10.00 /FreeSans.ttf set_font
875 239 moveto 98 -0.5 (libxml/HTMLtree.h) alignedtext
grestore
% Node1->Node12
gsave
1 setlinewidth
solid
0.667 0.776 0.439 edgecolor
newpath 924 290 moveto
915 281 903 270 893 260 curveto
stroke
0.667 0.776 0.439 edgecolor
newpath 895.546 257.596 moveto
886 253 lineto
890.596 262.546 lineto
closepath fill
1 setlinewidth
solid
0.667 0.776 0.439 edgecolor
newpath 895.546 257.596 moveto
886 253 lineto
890.596 262.546 lineto
closepath stroke
grestore
% Node13
gsave
1 setlinewidth
0.000 0.000 0.749 nodecolor
newpath 950 232 moveto
950 253 lineto
1044 253 lineto
1044 232 lineto
closepath stroke
0.000 0.000 0.000 nodecolor
10.00 /FreeSans.ttf set_font
997 239 moveto 78 -0.5 (libxml/xmlIO.h) alignedtext
grestore
% Node1->Node13
gsave
1 setlinewidth
solid
0.667 0.776 0.439 edgecolor
newpath 948 290 moveto
957 281 969 270 979 260 curveto
stroke
0.667 0.776 0.439 edgecolor
newpath 981.404 262.546 moveto
986 253 lineto
976.454 257.596 lineto
closepath fill
1 setlinewidth
solid
0.667 0.776 0.439 edgecolor
newpath 981.404 262.546 moveto
986 253 lineto
976.454 257.596 lineto
closepath stroke
grestore
% Node14
gsave
1 setlinewidth
0.000 0.000 0.749 nodecolor
newpath 1062 232 moveto
1062 253 lineto
1170 253 lineto
1170 232 lineto
closepath stroke
0.000 0.000 0.000 nodecolor
10.00 /FreeSans.ttf set_font
1116 239 moveto 92 -0.5 (libxml/xinclude.h) alignedtext
grestore
% Node1->Node14
gsave
1 setlinewidth
solid
0.667 0.776 0.439 edgecolor
newpath 970 290 moveto
1001 280 1044 266 1075 256 curveto
stroke
0.667 0.776 0.439 edgecolor
newpath 1076.43 259.226 moveto
1085 253 lineto
1074.42 252.521 lineto
closepath fill
1 setlinewidth
solid
0.667 0.776 0.439 edgecolor
newpath 1076.43 259.226 moveto
1085 253 lineto
1074.42 252.521 lineto
closepath stroke
grestore
% Node15
gsave
1 setlinewidth
0.000 0.000 0.749 nodecolor
newpath 1188 232 moveto
1188 253 lineto
1291 253 lineto
1291 232 lineto
closepath stroke
0.000 0.000 0.000 nodecolor
10.00 /FreeSans.ttf set_font
1239 239 moveto 87 -0.5 (libxml/catalog.h) alignedtext
grestore
% Node1->Node15
gsave
1 setlinewidth
solid
0.667 0.776 0.439 edgecolor
newpath 976 293 moveto
1028 284 1118 266 1178 255 curveto
stroke
0.667 0.776 0.439 edgecolor
newpath 1178.88 258.393 moveto
1188 253 lineto
1177.51 251.529 lineto
closepath fill
1 setlinewidth
solid
0.667 0.776 0.439 edgecolor
newpath 1178.88 258.393 moveto
1188 253 lineto
1177.51 251.529 lineto
closepath stroke
grestore
% Node16
gsave
1 setlinewidth
0.000 0.000 0.749 nodecolor
newpath 1308 232 moveto
1308 253 lineto
1386 253 lineto
1386 232 lineto
closepath stroke
0.000 0.000 0.000 nodecolor
10.00 /FreeSans.ttf set_font
1347 239 moveto 62 -0.5 (libxslt/xslt.h) alignedtext
grestore
% Node1->Node16
gsave
1 setlinewidth
solid
0.667 0.776 0.439 edgecolor
newpath 976 297 moveto
1041 290 1176 275 1298 254 curveto
stroke
0.667 0.776 0.439 edgecolor
newpath 1298.88 257.393 moveto
1308 252 lineto
1297.51 250.529 lineto
closepath fill
1 setlinewidth
solid
0.667 0.776 0.439 edgecolor
newpath 1298.88 257.393 moveto
1308 252 lineto
1297.51 250.529 lineto
closepath stroke
grestore
% Node17
gsave
1 setlinewidth
0.000 0.000 0.749 nodecolor
newpath 1404 232 moveto
1404 253 lineto
1529 253 lineto
1529 232 lineto
closepath stroke
0.000 0.000 0.000 nodecolor
10.00 /FreeSans.ttf set_font
1466 239 moveto 109 -0.5 (libxslt/xsltInternals.h) alignedtext
grestore
% Node1->Node17
gsave
1 setlinewidth
solid
0.667 0.776 0.439 edgecolor
newpath 976 298 moveto
1054 291 1233 275 1394 254 curveto
stroke
0.667 0.776 0.439 edgecolor
newpath 1394.4 257.478 moveto
1404 253 lineto
1393.7 250.512 lineto
closepath fill
1 setlinewidth
solid
0.667 0.776 0.439 edgecolor
newpath 1394.4 257.478 moveto
1404 253 lineto
1393.7 250.512 lineto
closepath stroke
grestore
% Node18
gsave
1 setlinewidth
0.000 0.000 0.749 nodecolor
newpath 1546 232 moveto
1546 253 lineto
1659 253 lineto
1659 232 lineto
closepath stroke
0.000 0.000 0.000 nodecolor
10.00 /FreeSans.ttf set_font
1602 239 moveto 97 -0.5 (libxslt/transform.h) alignedtext
grestore
% Node1->Node18
gsave
1 setlinewidth
solid
0.667 0.776 0.439 edgecolor
newpath 976 299 moveto
1072 294 1319 279 1536 254 curveto
stroke
0.667 0.776 0.439 edgecolor
newpath 1536.4 257.478 moveto
1546 253 lineto
1535.7 250.512 lineto
closepath fill
1 setlinewidth
solid
0.667 0.776 0.439 edgecolor
newpath 1536.4 257.478 moveto
1546 253 lineto
1535.7 250.512 lineto
closepath stroke
grestore
% Node19
gsave
1 setlinewidth
0.000 0.000 0.749 nodecolor
newpath 1676 232 moveto
1676 253 lineto
1776 253 lineto
1776 232 lineto
closepath stroke
0.000 0.000 0.000 nodecolor
10.00 /FreeSans.ttf set_font
1726 239 moveto 84 -0.5 (libxslt/xsltutils.h) alignedtext
grestore
% Node1->Node19
gsave
1 setlinewidth
solid
0.667 0.776 0.439 edgecolor
newpath 976 300 moveto
1086 297 1397 286 1666 254 curveto
stroke
0.667 0.776 0.439 edgecolor
newpath 1666.4 257.478 moveto
1676 253 lineto
1665.7 250.512 lineto
closepath fill
1 setlinewidth
solid
0.667 0.776 0.439 edgecolor
newpath 1666.4 257.478 moveto
1676 253 lineto
1665.7 250.512 lineto
closepath stroke
grestore
% Node20
gsave
[ /Rect [ 1794 233 1888 253 ]
  /Border [ 0 0 0 ]
  /Action << /Subtype /URI /URI ($funzipuno_8hpp.html) >>
  /Subtype /Link
/ANN pdfmark
[ /Rect [ 1794 233 1888 253 ]
  /Border [ 0 0 0 ]
  /Action << /Subtype /URI /URI ($funzipuno_8hpp.html) >>
  /Subtype /Link
/ANN pdfmark
1 setlinewidth
0.000 0.000 0.000 nodecolor
newpath 1794 232 moveto
1794 253 lineto
1889 253 lineto
1889 232 lineto
closepath stroke
0.000 0.000 0.000 nodecolor
10.00 /FreeSans.ttf set_font
1841 239 moveto 79 -0.5 (funzipuno.hpp) alignedtext
grestore
% Node1->Node20
gsave
1 setlinewidth
solid
0.667 0.776 0.439 edgecolor
newpath 976 301 moveto
1097 299 1468 292 1784 253 curveto
stroke
0.667 0.776 0.439 edgecolor
newpath 1784.4 256.478 moveto
1794 252 lineto
1783.7 249.512 lineto
closepath fill
1 setlinewidth
solid
0.667 0.776 0.439 edgecolor
newpath 1784.4 256.478 moveto
1794 252 lineto
1783.7 249.512 lineto
closepath stroke
grestore
% Node24
gsave
[ /Rect [ 1963 175 2059 195 ]
  /Border [ 0 0 0 ]
  /Action << /Subtype /URI /URI ($NodoTrieS_8hpp.html) >>
  /Subtype /Link
/ANN pdfmark
[ /Rect [ 1963 175 2059 195 ]
  /Border [ 0 0 0 ]
  /Action << /Subtype /URI /URI ($NodoTrieS_8hpp.html) >>
  /Subtype /Link
/ANN pdfmark
1 setlinewidth
0.000 0.000 0.000 nodecolor
newpath 1963 174 moveto
1963 195 lineto
2059 195 lineto
2059 174 lineto
closepath stroke
0.000 0.000 0.000 nodecolor
10.00 /FreeSans.ttf set_font
2011 181 moveto 80 -0.5 (NodoTrieS.hpp) alignedtext
grestore
% Node1->Node24
gsave
1 setlinewidth
solid
0.667 0.776 0.439 edgecolor
newpath 976 301 moveto
1165 298 1955 287 1995 254 curveto
2009 242 2012 221 2012 205 curveto
stroke
0.667 0.776 0.439 edgecolor
newpath 2015.5 205 moveto
2012 195 lineto
2008.5 205 lineto
closepath fill
1 setlinewidth
solid
0.667 0.776 0.439 edgecolor
newpath 2015.5 205 moveto
2012 195 lineto
2008.5 205 lineto
closepath stroke
grestore
% Node28
gsave
[ /Rect [ 1967 59 2045 79 ]
  /Border [ 0 0 0 ]
  /Action << /Subtype /URI /URI ($comun_8hpp.html) >>
  /Subtype /Link
/ANN pdfmark
[ /Rect [ 1967 59 2045 79 ]
  /Border [ 0 0 0 ]
  /Action << /Subtype /URI /URI ($comun_8hpp.html) >>
  /Subtype /Link
/ANN pdfmark
1 setlinewidth
0.000 0.000 0.000 nodecolor
newpath 1967 58 moveto
1967 79 lineto
2045 79 lineto
2045 58 lineto
closepath stroke
0.000 0.000 0.000 nodecolor
10.00 /FreeSans.ttf set_font
2006 65 moveto 62 -0.5 (comun.hpp) alignedtext
grestore
% Node1->Node28
gsave
1 setlinewidth
solid
0.667 0.776 0.439 edgecolor
newpath 976 301 moveto
1159 299 1913 291 2012 254 curveto
2095 222 2209 187 2157 116 curveto
2145 99 2094 85 2055 78 curveto
stroke
0.667 0.776 0.439 edgecolor
newpath 2055.49 74.5292 moveto
2045 76 lineto
2054.12 81.3933 lineto
closepath fill
1 setlinewidth
solid
0.667 0.776 0.439 edgecolor
newpath 2055.49 74.5292 moveto
2045 76 lineto
2054.12 81.3933 lineto
closepath stroke
grestore
% Node31
gsave
[ /Rect [ 1906 233 1986 253 ]
  /Border [ 0 0 0 ]
  /Action << /Subtype /URI /URI ($leeODT_8hpp.html) >>
  /Subtype /Link
/ANN pdfmark
[ /Rect [ 1906 233 1986 253 ]
  /Border [ 0 0 0 ]
  /Action << /Subtype /URI /URI ($leeODT_8hpp.html) >>
  /Subtype /Link
/ANN pdfmark
1 setlinewidth
0.000 0.000 0.000 nodecolor
newpath 1906 232 moveto
1906 253 lineto
1987 253 lineto
1987 232 lineto
closepath stroke
0.000 0.000 0.000 nodecolor
10.00 /FreeSans.ttf set_font
1946 239 moveto 65 -0.5 (leeODT.hpp) alignedtext
grestore
% Node1->Node31
gsave
1 setlinewidth
solid
0.667 0.776 0.439 edgecolor
newpath 976 300 moveto
1131 296 1695 279 1896 253 curveto
stroke
0.667 0.776 0.439 edgecolor
newpath 1896.4 256.478 moveto
1906 252 lineto
1895.7 249.512 lineto
closepath fill
1 setlinewidth
solid
0.667 0.776 0.439 edgecolor
newpath 1896.4 256.478 moveto
1906 252 lineto
1895.7 249.512 lineto
closepath stroke
grestore
% Node20->Node5
gsave
1 setlinewidth
solid
0.667 0.776 0.439 edgecolor
newpath 1794 233 moveto
1791 233 1788 232 1785 232 curveto
1495 195 1143 187 1030 185 curveto
stroke
0.667 0.776 0.439 edgecolor
newpath 1030 181.5 moveto
1020 185 lineto
1030 188.5 lineto
closepath fill
1 setlinewidth
solid
0.667 0.776 0.439 edgecolor
newpath 1030 181.5 moveto
1020 185 lineto
1030 188.5 lineto
closepath stroke
grestore
% Node21
gsave
1 setlinewidth
0.000 0.000 0.749 nodecolor
newpath 1819 174 moveto
1819 195 lineto
1874 195 lineto
1874 174 lineto
closepath stroke
0.000 0.000 0.000 nodecolor
10.00 /FreeSans.ttf set_font
1846 181 moveto 39 -0.5 (limits.h) alignedtext
grestore
% Node20->Node21
gsave
1 setlinewidth
solid
0.667 0.776 0.439 edgecolor
newpath 1842 232 moveto
1843 224 1843 214 1844 205 curveto
stroke
0.667 0.776 0.439 edgecolor
newpath 1847.49 205.299 moveto
1845 195 lineto
1840.52 204.602 lineto
closepath fill
1 setlinewidth
solid
0.667 0.776 0.439 edgecolor
newpath 1847.49 205.299 moveto
1845 195 lineto
1840.52 204.602 lineto
closepath stroke
grestore
% Node22
gsave
1 setlinewidth
0.000 0.000 0.749 nodecolor
newpath 1681 174 moveto
1681 195 lineto
1726 195 lineto
1726 174 lineto
closepath stroke
0.000 0.000 0.000 nodecolor
10.00 /FreeSans.ttf set_font
1703 181 moveto 29 -0.5 (zlib.h) alignedtext
grestore
% Node20->Node22
gsave
1 setlinewidth
solid
0.667 0.776 0.439 edgecolor
newpath 1815 232 moveto
1792 222 1760 209 1735 199 curveto
stroke
0.667 0.776 0.439 edgecolor
newpath 1736.56 195.863 moveto
1726 195 lineto
1733.72 202.26 lineto
closepath fill
1 setlinewidth
solid
0.667 0.776 0.439 edgecolor
newpath 1736.56 195.863 moveto
1726 195 lineto
1733.72 202.26 lineto
closepath stroke
grestore
% Node23
gsave
1 setlinewidth
0.000 0.000 0.749 nodecolor
newpath 1743 174 moveto
1743 195 lineto
1801 195 lineto
1801 174 lineto
closepath stroke
0.000 0.000 0.000 nodecolor
10.00 /FreeSans.ttf set_font
1772 181 moveto 42 -0.5 (assert.h) alignedtext
grestore
% Node20->Node23
gsave
1 setlinewidth
solid
0.667 0.776 0.439 edgecolor
newpath 1828 232 moveto
1818 223 1803 211 1792 201 curveto
stroke
0.667 0.776 0.439 edgecolor
newpath 1794.1 198.2 moveto
1784 195 lineto
1789.9 203.8 lineto
closepath fill
1 setlinewidth
solid
0.667 0.776 0.439 edgecolor
newpath 1794.1 198.2 moveto
1784 195 lineto
1789.9 203.8 lineto
closepath stroke
grestore
% Node24->Node7
gsave
1 setlinewidth
solid
0.667 0.776 0.439 edgecolor
newpath 2001 174 moveto
1992 164 1979 150 1970 138 curveto
1943 103 1939 93 1915 58 curveto
1908 48 1901 38 1895 29 curveto
stroke
0.667 0.776 0.439 edgecolor
newpath 1897.8 26.9 moveto
1889 21 lineto
1892.2 31.1 lineto
closepath fill
1 setlinewidth
solid
0.667 0.776 0.439 edgecolor
newpath 1897.8 26.9 moveto
1889 21 lineto
1892.2 31.1 lineto
closepath stroke
grestore
% Node25
gsave
1 setlinewidth
0.000 0.000 0.749 nodecolor
newpath 2076 0 moveto
2076 21 lineto
2108 21 lineto
2108 0 lineto
closepath stroke
0.000 0.000 0.000 nodecolor
10.00 /FreeSans.ttf set_font
2092 7 moveto 16 -0.5 (set) alignedtext
grestore
% Node24->Node25
gsave
1 setlinewidth
solid
0.667 0.776 0.439 edgecolor
newpath 2020 174 moveto
2028 164 2038 151 2046 138 curveto
2065 102 2079 56 2086 31 curveto
stroke
0.667 0.776 0.439 edgecolor
newpath 2089.48 31.584 moveto
2089 21 lineto
2082.77 29.5725 lineto
closepath fill
1 setlinewidth
solid
0.667 0.776 0.439 edgecolor
newpath 2089.48 31.584 moveto
2089 21 lineto
2082.77 29.5725 lineto
closepath stroke
grestore
% Node26
gsave
1 setlinewidth
0.000 0.000 0.749 nodecolor
newpath 2098 116 moveto
2098 137 lineto
2148 137 lineto
2148 116 lineto
closepath stroke
0.000 0.000 0.000 nodecolor
10.00 /FreeSans.ttf set_font
2123 123 moveto 34 -0.5 (vector) alignedtext
grestore
% Node24->Node26
gsave
1 setlinewidth
solid
0.667 0.776 0.439 edgecolor
newpath 2032 174 moveto
2050 165 2075 151 2095 142 curveto
stroke
0.667 0.776 0.439 edgecolor
newpath 2096.96 144.916 moveto
2104 137 lineto
2093.56 138.797 lineto
closepath fill
1 setlinewidth
solid
0.667 0.776 0.439 edgecolor
newpath 2096.96 144.916 moveto
2104 137 lineto
2093.56 138.797 lineto
closepath stroke
grestore
% Node27
gsave
[ /Rect [ 1979 117 2037 137 ]
  /Border [ 0 0 0 ]
  /Action << /Subtype /URI /URI ($Pos_8hpp.html) >>
  /Subtype /Link
/ANN pdfmark
[ /Rect [ 1979 117 2037 137 ]
  /Border [ 0 0 0 ]
  /Action << /Subtype /URI /URI ($Pos_8hpp.html) >>
  /Subtype /Link
/ANN pdfmark
1 setlinewidth
0.000 0.000 0.000 nodecolor
newpath 1979 116 moveto
1979 137 lineto
2037 137 lineto
2037 116 lineto
closepath stroke
0.000 0.000 0.000 nodecolor
10.00 /FreeSans.ttf set_font
2008 123 moveto 42 -0.5 (Pos.hpp) alignedtext
grestore
% Node24->Node27
gsave
1 setlinewidth
solid
0.667 0.776 0.439 edgecolor
newpath 2010 174 moveto
2010 166 2010 156 2009 147 curveto
stroke
0.667 0.776 0.439 edgecolor
newpath 2012.5 147 moveto
2009 137 lineto
2005.5 147 lineto
closepath fill
1 setlinewidth
solid
0.667 0.776 0.439 edgecolor
newpath 2012.5 147 moveto
2009 137 lineto
2005.5 147 lineto
closepath stroke
grestore
% Node27->Node28
gsave
1 setlinewidth
solid
0.667 0.776 0.439 edgecolor
newpath 2008 116 moveto
2007 108 2007 98 2007 89 curveto
stroke
0.667 0.776 0.439 edgecolor
newpath 2010.48 88.6021 moveto
2006 79 lineto
2003.51 89.2987 lineto
closepath fill
1 setlinewidth
solid
0.667 0.776 0.439 edgecolor
newpath 2010.48 88.6021 moveto
2006 79 lineto
2003.51 89.2987 lineto
closepath stroke
grestore
% Node28->Node7
gsave
1 setlinewidth
solid
0.667 0.776 0.439 edgecolor
newpath 1982 58 moveto
1962 48 1934 35 1912 25 curveto
stroke
0.667 0.776 0.439 edgecolor
newpath 1913.56 21.8631 moveto
1903 21 lineto
1910.72 28.2598 lineto
closepath fill
1 setlinewidth
solid
0.667 0.776 0.439 edgecolor
newpath 1913.56 21.8631 moveto
1903 21 lineto
1910.72 28.2598 lineto
closepath stroke
grestore
% Node28->Node25
gsave
1 setlinewidth
solid
0.667 0.776 0.439 edgecolor
newpath 2023 58 moveto
2036 49 2054 36 2069 27 curveto
stroke
0.667 0.776 0.439 edgecolor
newpath 2071.1 29.8 moveto
2077 21 lineto
2066.9 24.2 lineto
closepath fill
1 setlinewidth
solid
0.667 0.776 0.439 edgecolor
newpath 2071.1 29.8 moveto
2077 21 lineto
2066.9 24.2 lineto
closepath stroke
grestore
% Node29
gsave
1 setlinewidth
0.000 0.000 0.749 nodecolor
newpath 1998 0 moveto
1998 21 lineto
2059 21 lineto
2059 0 lineto
closepath stroke
0.000 0.000 0.000 nodecolor
10.00 /FreeSans.ttf set_font
2028 7 moveto 45 -0.5 (ostream) alignedtext
grestore
% Node28->Node29
gsave
1 setlinewidth
solid
0.667 0.776 0.439 edgecolor
newpath 2010 58 moveto
2013 50 2017 39 2020 30 curveto
stroke
0.667 0.776 0.439 edgecolor
newpath 2023.14 31.5596 moveto
2024 21 lineto
2016.74 28.7166 lineto
closepath fill
1 setlinewidth
solid
0.667 0.776 0.439 edgecolor
newpath 2023.14 31.5596 moveto
2024 21 lineto
2016.74 28.7166 lineto
closepath stroke
grestore
% Node30
gsave
1 setlinewidth
0.000 0.000 0.749 nodecolor
newpath 1922 0 moveto
1922 21 lineto
1981 21 lineto
1981 0 lineto
closepath stroke
0.000 0.000 0.000 nodecolor
10.00 /FreeSans.ttf set_font
1951 7 moveto 43 -0.5 (sstream) alignedtext
grestore
% Node28->Node30
gsave
1 setlinewidth
solid
0.667 0.776 0.439 edgecolor
newpath 1995 58 moveto
1987 49 1976 38 1967 28 curveto
stroke
0.667 0.776 0.439 edgecolor
newpath 1969.55 25.5962 moveto
1960 21 lineto
1964.6 30.546 lineto
closepath fill
1 setlinewidth
solid
0.667 0.776 0.439 edgecolor
newpath 1969.55 25.5962 moveto
1960 21 lineto
1964.6 30.546 lineto
closepath stroke
grestore
% Node31->Node7
gsave
1 setlinewidth
solid
0.667 0.776 0.439 edgecolor
newpath 1943 232 moveto
1933 195 1900 78 1887 31 curveto
stroke
0.667 0.776 0.439 edgecolor
newpath 1890.23 29.5725 moveto
1884 21 lineto
1883.52 31.584 lineto
closepath fill
1 setlinewidth
solid
0.667 0.776 0.439 edgecolor
newpath 1890.23 29.5725 moveto
1884 21 lineto
1883.52 31.584 lineto
closepath stroke
grestore
% Node31->Node24
gsave
1 setlinewidth
solid
0.667 0.776 0.439 edgecolor
newpath 1959 232 moveto
1968 223 1981 211 1992 202 curveto
stroke
0.667 0.776 0.439 edgecolor
newpath 1994.78 204.219 moveto
2000 195 lineto
1990.17 198.951 lineto
closepath fill
1 setlinewidth
solid
0.667 0.776 0.439 edgecolor
newpath 1994.78 204.219 moveto
2000 195 lineto
1990.17 198.951 lineto
closepath stroke
grestore
endpage
showpage
grestore
%%PageTrailer
%%EndPage: 1
%%Trailer
%%Pages: 1
%%BoundingBox: 36 36 2253 356
end
restore
%%EOF
