%!PS-Adobe-2.0
%%Creator: Graphviz version 2.12 (Mon Nov 16 18:34:03 UTC 2009)
%%For: (vtamara) Vladimir
%%Title: G
%%Pages: (atend)
%%BoundingBox: (atend)
%%EndComments
save
%%BeginProlog
/DotDict 200 dict def
DotDict begin

/setupLatin1 {
mark
/EncodingVector 256 array def
 EncodingVector 0

ISOLatin1Encoding 0 255 getinterval putinterval
EncodingVector 45 /hyphen put

% Set up ISO Latin 1 character encoding
/starnetISO {
        dup dup findfont dup length dict begin
        { 1 index /FID ne { def }{ pop pop } ifelse
        } forall
        /Encoding EncodingVector def
        currentdict end definefont
} def
/Times-Roman starnetISO def
/Times-Italic starnetISO def
/Times-Bold starnetISO def
/Times-BoldItalic starnetISO def
/Helvetica starnetISO def
/Helvetica-Oblique starnetISO def
/Helvetica-Bold starnetISO def
/Helvetica-BoldOblique starnetISO def
/Courier starnetISO def
/Courier-Oblique starnetISO def
/Courier-Bold starnetISO def
/Courier-BoldOblique starnetISO def
cleartomark
} bind def

%%BeginResource: procset graphviz 0 0
/coord-font-family /Times-Roman def
/default-font-family /Times-Roman def
/coordfont coord-font-family findfont 8 scalefont def

/InvScaleFactor 1.0 def
/set_scale {
       dup 1 exch div /InvScaleFactor exch def
       scale
} bind def

% styles
/solid { [] 0 setdash } bind def
/dashed { [9 InvScaleFactor mul dup ] 0 setdash } bind def
/dotted { [1 InvScaleFactor mul 6 InvScaleFactor mul] 0 setdash } bind def
/invis {/fill {newpath} def /stroke {newpath} def /show {pop newpath} def} bind def
/bold { 2 setlinewidth } bind def
/filled { } bind def
/unfilled { } bind def
/rounded { } bind def
/diagonals { } bind def

% hooks for setting color 
/nodecolor { sethsbcolor } bind def
/edgecolor { sethsbcolor } bind def
/graphcolor { sethsbcolor } bind def
/nopcolor {pop pop pop} bind def

/beginpage {	% i j npages
	/npages exch def
	/j exch def
	/i exch def
	/str 10 string def
	npages 1 gt {
		gsave
			coordfont setfont
			0 0 moveto
			(\() show i str cvs show (,) show j str cvs show (\)) show
		grestore
	} if
} bind def

/set_font {
	findfont exch
	scalefont setfont
} def

% draw aligned label in bounding box aligned to current point
/alignedtext {			% width adj text
	/text exch def
	/adj exch def
	/width exch def
	gsave
		width 0 gt {
			text stringwidth pop adj mul 0 rmoveto
		} if
		[] 0 setdash
		text show
	grestore
} def

/boxprim {				% xcorner ycorner xsize ysize
		4 2 roll
		moveto
		2 copy
		exch 0 rlineto
		0 exch rlineto
		pop neg 0 rlineto
		closepath
} bind def

/ellipse_path {
	/ry exch def
	/rx exch def
	/y exch def
	/x exch def
	matrix currentmatrix
	newpath
	x y translate
	rx ry scale
	0 0 1 0 360 arc
	setmatrix
} bind def

/endpage { showpage } bind def
/showpage { } def

/layercolorseq
	[	% layer color sequence - darkest to lightest
		[0 0 0]
		[.2 .8 .8]
		[.4 .8 .8]
		[.6 .8 .8]
		[.8 .8 .8]
	]
def

/layerlen layercolorseq length def

/setlayer {/maxlayer exch def /curlayer exch def
	layercolorseq curlayer 1 sub layerlen mod get
	aload pop sethsbcolor
	/nodecolor {nopcolor} def
	/edgecolor {nopcolor} def
	/graphcolor {nopcolor} def
} bind def

/onlayer { curlayer ne {invis} if } def

/onlayers {
	/myupper exch def
	/mylower exch def
	curlayer mylower lt
	curlayer myupper gt
	or
	{invis} if
} def

/curlayer 0 def

%%EndResource
%%EndProlog
%%BeginSetup
14 default-font-family set_font
1 setmiterlimit
% /arrowlength 10 def
% /arrowwidth 5 def

% make sure pdfmark is harmless for PS-interpreters other than Distiller
/pdfmark where {pop} {userdict /pdfmark /cleartomark load put} ifelse
% make '<<' and '>>' safe on PS Level 1 devices
/languagelevel where {pop languagelevel}{1} ifelse
2 lt {
    userdict (<<) cvn ([) cvn load put
    userdict (>>) cvn ([) cvn load put
} if

%%EndSetup
setupLatin1
%%Page: 1 1
%%PageBoundingBox: 36 36 648 235
%%PageOrientation: Portrait
gsave
36 36 648 235 boxprim clip newpath
0 0 1 beginpage
1 1 set_scale 0 rotate 40 40 translate
% Node1
gsave
0.000 0.000 0.749 nodecolor
newpath 1 94 moveto
1 115 lineto
58 115 lineto
58 94 lineto
closepath fill
1 setlinewidth
filled
0.000 0.000 0.000 nodecolor
newpath 1 94 moveto
1 115 lineto
58 115 lineto
58 94 lineto
closepath stroke
0.000 0.000 0.000 nodecolor
10.00 /FreeSans.ttf set_font
29 101 moveto 41 -0.5 (leeODT) alignedtext
grestore
% Node2
gsave
[ /Rect [ 95 133 169 153 ]
  /Border [ 0 0 0 ]
  /Action << /Subtype /URI /URI ($leeODT_8cpp.html#481a5a769b145674dc3274f02d21fdbb) >>
  /Subtype /Link
/ANN pdfmark
[ /Rect [ 95 133 169 153 ]
  /Border [ 0 0 0 ]
  /Action << /Subtype /URI /URI ($leeODT_8cpp.html#481a5a769b145674dc3274f02d21fdbb) >>
  /Subtype /Link
/ANN pdfmark
1 setlinewidth
0.000 0.000 0.000 nodecolor
newpath 95 132 moveto
95 153 lineto
170 153 lineto
170 132 lineto
closepath stroke
0.000 0.000 0.000 nodecolor
10.00 /FreeSans.ttf set_font
132 139 moveto 59 -0.5 (aplicaXSLT) alignedtext
grestore
% Node1->Node2
gsave
1 setlinewidth
solid
0.667 0.776 0.439 edgecolor
newpath 56 115 moveto
67 119 80 124 92 128 curveto
stroke
0.667 0.776 0.439 edgecolor
newpath 91.4153 131.536 moveto
102 132 lineto
94.0151 125.036 lineto
closepath fill
1 setlinewidth
solid
0.667 0.776 0.439 edgecolor
newpath 91.4153 131.536 moveto
102 132 lineto
94.0151 125.036 lineto
closepath stroke
grestore
% Node3
gsave
[ /Rect [ 101 95 163 115 ]
  /Border [ 0 0 0 ]
  /Action << /Subtype /URI /URI ($NodoTrieS_8cpp.html#e8422311e58bfd8cfdfcc83509128cf7) >>
  /Subtype /Link
/ANN pdfmark
[ /Rect [ 101 95 163 115 ]
  /Border [ 0 0 0 ]
  /Action << /Subtype /URI /URI ($NodoTrieS_8cpp.html#e8422311e58bfd8cfdfcc83509128cf7) >>
  /Subtype /Link
/ANN pdfmark
1 setlinewidth
0.000 0.000 0.000 nodecolor
newpath 101 94 moveto
101 115 lineto
164 115 lineto
164 94 lineto
closepath stroke
0.000 0.000 0.000 nodecolor
10.00 /FreeSans.ttf set_font
132 101 moveto 47 -0.5 (leeTexto) alignedtext
grestore
% Node1->Node3
gsave
1 setlinewidth
solid
0.667 0.776 0.439 edgecolor
newpath 58 105 moveto
69 105 80 105 91 105 curveto
stroke
0.667 0.776 0.439 edgecolor
newpath 91 108.5 moveto
101 105 lineto
91 101.5 lineto
closepath fill
1 setlinewidth
solid
0.667 0.776 0.439 edgecolor
newpath 91 108.5 moveto
101 105 lineto
91 101.5 lineto
closepath stroke
grestore
% Node9
gsave
[ /Rect [ 103 57 161 77 ]
  /Border [ 0 0 0 ]
  /Action << /Subtype /URI /URI ($leeODT_8cpp.html#b61277e3d14b11c5a54b80773dcae95a) >>
  /Subtype /Link
/ANN pdfmark
[ /Rect [ 103 57 161 77 ]
  /Border [ 0 0 0 ]
  /Action << /Subtype /URI /URI ($leeODT_8cpp.html#b61277e3d14b11c5a54b80773dcae95a) >>
  /Subtype /Link
/ANN pdfmark
1 setlinewidth
0.000 0.000 0.000 nodecolor
newpath 103 56 moveto
103 77 lineto
162 77 lineto
162 56 lineto
closepath stroke
0.000 0.000 0.000 nodecolor
10.00 /FreeSans.ttf set_font
132 63 moveto 43 -0.5 (prepara) alignedtext
grestore
% Node1->Node9
gsave
1 setlinewidth
solid
0.667 0.776 0.439 edgecolor
newpath 58 94 moveto
70 90 83 85 95 81 curveto
stroke
0.667 0.776 0.439 edgecolor
newpath 97.0151 83.9636 moveto
105 77 lineto
94.4153 77.4643 lineto
closepath fill
1 setlinewidth
solid
0.667 0.776 0.439 edgecolor
newpath 97.0151 83.9636 moveto
105 77 lineto
94.4153 77.4643 lineto
closepath stroke
grestore
% Node4
gsave
[ /Rect [ 207 133 321 153 ]
  /Border [ 0 0 0 ]
  /Action << /Subtype /URI /URI ($classNodoTrieS.html#2fc30ff9fad0ba7dff585e913f34cc84) >>
  /Subtype /Link
/ANN pdfmark
[ /Rect [ 207 133 321 153 ]
  /Border [ 0 0 0 ]
  /Action << /Subtype /URI /URI ($classNodoTrieS.html#2fc30ff9fad0ba7dff585e913f34cc84) >>
  /Subtype /Link
/ANN pdfmark
1 setlinewidth
0.000 0.000 0.000 nodecolor
newpath 207 132 moveto
207 153 lineto
322 153 lineto
322 132 lineto
closepath stroke
0.000 0.000 0.000 nodecolor
10.00 /FreeSans.ttf set_font
264 139 moveto 99 -0.5 (NodoTrieS::inserta) alignedtext
grestore
% Node3->Node4
gsave
1 setlinewidth
solid
0.667 0.776 0.439 edgecolor
newpath 164 114 moveto
179 119 198 124 215 129 curveto
stroke
0.667 0.776 0.439 edgecolor
newpath 214.416 132.479 moveto
225 132 lineto
216.427 125.774 lineto
closepath fill
1 setlinewidth
solid
0.667 0.776 0.439 edgecolor
newpath 214.416 132.479 moveto
225 132 lineto
216.427 125.774 lineto
closepath stroke
grestore
% Node7
gsave
[ /Rect [ 229 95 299 115 ]
  /Border [ 0 0 0 ]
  /Action << /Subtype /URI /URI ($comun_8cpp.html#1f33d728a35dd4b43d2622c5471f5157) >>
  /Subtype /Link
/ANN pdfmark
[ /Rect [ 229 95 299 115 ]
  /Border [ 0 0 0 ]
  /Action << /Subtype /URI /URI ($comun_8cpp.html#1f33d728a35dd4b43d2622c5471f5157) >>
  /Subtype /Link
/ANN pdfmark
1 setlinewidth
0.000 0.000 0.000 nodecolor
newpath 229 94 moveto
229 115 lineto
300 115 lineto
300 94 lineto
closepath stroke
0.000 0.000 0.000 nodecolor
10.00 /FreeSans.ttf set_font
264 101 moveto 55 -0.5 (normaliza) alignedtext
grestore
% Node3->Node7
gsave
1 setlinewidth
solid
0.667 0.776 0.439 edgecolor
newpath 164 105 moveto
180 105 200 105 219 105 curveto
stroke
0.667 0.776 0.439 edgecolor
newpath 219 108.5 moveto
229 105 lineto
219 101.5 lineto
closepath fill
1 setlinewidth
solid
0.667 0.776 0.439 edgecolor
newpath 219 108.5 moveto
229 105 lineto
219 101.5 lineto
closepath stroke
grestore
% Node4->Node4
gsave
1 setlinewidth
solid
0.667 0.776 0.439 edgecolor
newpath 222 153 moveto
204 162 218 171 264 171 curveto
298 171 314 166 314 160 curveto
stroke
0.667 0.776 0.439 edgecolor
newpath 315.831 156.951 moveto
306 153 lineto
311.221 162.219 lineto
closepath fill
1 setlinewidth
solid
0.667 0.776 0.439 edgecolor
newpath 315.831 156.951 moveto
306 153 lineto
311.221 162.219 lineto
closepath stroke
grestore
% Node5
gsave
[ /Rect [ 369 171 503 191 ]
  /Border [ 0 0 0 ]
  /Action << /Subtype /URI /URI ($classNodoTrieS.html#4f1525cf7f147f71e7be74c15d4f87a0) >>
  /Subtype /Link
/ANN pdfmark
[ /Rect [ 369 171 503 191 ]
  /Border [ 0 0 0 ]
  /Action << /Subtype /URI /URI ($classNodoTrieS.html#4f1525cf7f147f71e7be74c15d4f87a0) >>
  /Subtype /Link
/ANN pdfmark
1 setlinewidth
0.000 0.000 0.000 nodecolor
newpath 369 170 moveto
369 191 lineto
503 191 lineto
503 170 lineto
closepath stroke
0.000 0.000 0.000 nodecolor
10.00 /FreeSans.ttf set_font
436 177 moveto 118 -0.5 (NodoTrieS::NodoTrieS) alignedtext
grestore
% Node4->Node5
gsave
1 setlinewidth
solid
0.667 0.776 0.439 edgecolor
newpath 310 153 moveto
331 157 355 163 377 168 curveto
stroke
0.667 0.776 0.439 edgecolor
newpath 376.508 171.471 moveto
387 170 lineto
377.881 164.607 lineto
closepath fill
1 setlinewidth
solid
0.667 0.776 0.439 edgecolor
newpath 376.508 171.471 moveto
387 170 lineto
377.881 164.607 lineto
closepath stroke
grestore
% Node6
gsave
[ /Rect [ 359 133 513 153 ]
  /Border [ 0 0 0 ]
  /Action << /Subtype /URI /URI ($comun_8cpp.html#c74356d5b37d454e0ddce0de8fac34f8) >>
  /Subtype /Link
/ANN pdfmark
[ /Rect [ 359 133 513 153 ]
  /Border [ 0 0 0 ]
  /Action << /Subtype /URI /URI ($comun_8cpp.html#c74356d5b37d454e0ddce0de8fac34f8) >>
  /Subtype /Link
/ANN pdfmark
1 setlinewidth
0.000 0.000 0.000 nodecolor
newpath 359 132 moveto
359 153 lineto
514 153 lineto
514 132 lineto
closepath stroke
0.000 0.000 0.000 nodecolor
10.00 /FreeSans.ttf set_font
436 139 moveto 139 -0.5 (prefijo_comun_mas_largo) alignedtext
grestore
% Node4->Node6
gsave
1 setlinewidth
solid
0.667 0.776 0.439 edgecolor
newpath 322 143 moveto
331 143 340 143 349 143 curveto
stroke
0.667 0.776 0.439 edgecolor
newpath 349 146.5 moveto
359 143 lineto
349 139.5 lineto
closepath fill
1 setlinewidth
solid
0.667 0.776 0.439 edgecolor
newpath 349 146.5 moveto
359 143 lineto
349 139.5 lineto
closepath stroke
grestore
% Node8
gsave
[ /Rect [ 377 95 495 115 ]
  /Border [ 0 0 0 ]
  /Action << /Subtype /URI /URI ($comun_8cpp.html#bc69e612ecd81636d091e0b60fdf327e) >>
  /Subtype /Link
/ANN pdfmark
[ /Rect [ 377 95 495 115 ]
  /Border [ 0 0 0 ]
  /Action << /Subtype /URI /URI ($comun_8cpp.html#bc69e612ecd81636d091e0b60fdf327e) >>
  /Subtype /Link
/ANN pdfmark
1 setlinewidth
0.000 0.000 0.000 nodecolor
newpath 377 94 moveto
377 115 lineto
495 115 lineto
495 94 lineto
closepath stroke
0.000 0.000 0.000 nodecolor
10.00 /FreeSans.ttf set_font
436 101 moveto 102 -0.5 (normalizaCaracter) alignedtext
grestore
% Node7->Node8
gsave
1 setlinewidth
solid
0.667 0.776 0.439 edgecolor
newpath 300 105 moveto
319 105 344 105 367 105 curveto
stroke
0.667 0.776 0.439 edgecolor
newpath 367 108.5 moveto
377 105 lineto
367 101.5 lineto
closepath fill
1 setlinewidth
solid
0.667 0.776 0.439 edgecolor
newpath 367 108.5 moveto
377 105 lineto
367 101.5 lineto
closepath stroke
grestore
% Node10
gsave
[ /Rect [ 213 57 315 77 ]
  /Border [ 0 0 0 ]
  /Action << /Subtype /URI /URI ($comun_8cpp.html#55db9e79615822cbc40390b2c2ab10fd) >>
  /Subtype /Link
/ANN pdfmark
[ /Rect [ 213 57 315 77 ]
  /Border [ 0 0 0 ]
  /Action << /Subtype /URI /URI ($comun_8cpp.html#55db9e79615822cbc40390b2c2ab10fd) >>
  /Subtype /Link
/ANN pdfmark
1 setlinewidth
0.000 0.000 0.000 nodecolor
newpath 213 56 moveto
213 77 lineto
315 77 lineto
315 56 lineto
closepath stroke
0.000 0.000 0.000 nodecolor
10.00 /FreeSans.ttf set_font
264 63 moveto 86 -0.5 (directorio_temp) alignedtext
grestore
% Node9->Node10
gsave
1 setlinewidth
solid
0.667 0.776 0.439 edgecolor
newpath 162 67 moveto
174 67 189 67 203 67 curveto
stroke
0.667 0.776 0.439 edgecolor
newpath 203 70.5001 moveto
213 67 lineto
203 63.5001 lineto
closepath fill
1 setlinewidth
solid
0.667 0.776 0.439 edgecolor
newpath 203 70.5001 moveto
213 67 lineto
203 63.5001 lineto
closepath stroke
grestore
% Node11
gsave
[ /Rect [ 231 19 297 39 ]
  /Border [ 0 0 0 ]
  /Action << /Subtype /URI /URI ($leeODT_8cpp.html#bb9f8e651699cb8afeaa92e4c360c47a) >>
  /Subtype /Link
/ANN pdfmark
[ /Rect [ 231 19 297 39 ]
  /Border [ 0 0 0 ]
  /Action << /Subtype /URI /URI ($leeODT_8cpp.html#bb9f8e651699cb8afeaa92e4c360c47a) >>
  /Subtype /Link
/ANN pdfmark
1 setlinewidth
0.000 0.000 0.000 nodecolor
newpath 231 18 moveto
231 39 lineto
298 39 lineto
298 18 lineto
closepath stroke
0.000 0.000 0.000 nodecolor
10.00 /FreeSans.ttf set_font
264 25 moveto 51 -0.5 (extraezip) alignedtext
grestore
% Node9->Node11
gsave
1 setlinewidth
solid
0.667 0.776 0.439 edgecolor
newpath 162 58 moveto
180 53 202 46 221 41 curveto
stroke
0.667 0.776 0.439 edgecolor
newpath 222.427 44.2259 moveto
231 38 lineto
220.416 37.5212 lineto
closepath fill
1 setlinewidth
solid
0.667 0.776 0.439 edgecolor
newpath 222.427 44.2259 moveto
231 38 lineto
220.416 37.5212 lineto
closepath stroke
grestore
% Node12
gsave
[ /Rect [ 402 19 470 39 ]
  /Border [ 0 0 0 ]
  /Action << /Subtype /URI /URI ($funzipuno_8cpp.html#4f263e043a55b1ad587682abcd279c9b) >>
  /Subtype /Link
/ANN pdfmark
[ /Rect [ 402 19 470 39 ]
  /Border [ 0 0 0 ]
  /Action << /Subtype /URI /URI ($funzipuno_8cpp.html#4f263e043a55b1ad587682abcd279c9b) >>
  /Subtype /Link
/ANN pdfmark
1 setlinewidth
0.000 0.000 0.000 nodecolor
newpath 402 18 moveto
402 39 lineto
470 39 lineto
470 18 lineto
closepath stroke
0.000 0.000 0.000 nodecolor
10.00 /FreeSans.ttf set_font
436 25 moveto 52 -0.5 (unzipUno) alignedtext
grestore
% Node11->Node12
gsave
1 setlinewidth
solid
0.667 0.776 0.439 edgecolor
newpath 298 29 moveto
325 29 363 29 392 29 curveto
stroke
0.667 0.776 0.439 edgecolor
newpath 392 32.5001 moveto
402 29 lineto
392 25.5001 lineto
closepath fill
1 setlinewidth
solid
0.667 0.776 0.439 edgecolor
newpath 392 32.5001 moveto
402 29 lineto
392 25.5001 lineto
closepath stroke
grestore
% Node13
gsave
[ /Rect [ 562 38 592 58 ]
  /Border [ 0 0 0 ]
  /Action << /Subtype /URI /URI ($funzipuno_8cpp.html#324627cf8964a10784459105e5f8a183) >>
  /Subtype /Link
/ANN pdfmark
[ /Rect [ 562 38 592 58 ]
  /Border [ 0 0 0 ]
  /Action << /Subtype /URI /URI ($funzipuno_8cpp.html#324627cf8964a10784459105e5f8a183) >>
  /Subtype /Link
/ANN pdfmark
1 setlinewidth
0.000 0.000 0.000 nodecolor
newpath 562 37 moveto
562 58 lineto
593 58 lineto
593 37 lineto
closepath stroke
0.000 0.000 0.000 nodecolor
10.00 /FreeSans.ttf set_font
577 44 moveto 15 -0.5 (err) alignedtext
grestore
% Node12->Node13
gsave
1 setlinewidth
solid
0.667 0.776 0.439 edgecolor
newpath 470 34 moveto
495 37 529 41 552 45 curveto
stroke
0.667 0.776 0.439 edgecolor
newpath 551.701 48.4875 moveto
562 46 lineto
552.398 41.5222 lineto
closepath fill
1 setlinewidth
solid
0.667 0.776 0.439 edgecolor
newpath 551.701 48.4875 moveto
562 46 lineto
552.398 41.5222 lineto
closepath stroke
grestore
% Node14
gsave
[ /Rect [ 551 0 603 20 ]
  /Border [ 0 0 0 ]
  /Action << /Subtype /URI /URI ($funzipuno_8cpp.html#ecb1826a5ec50e6578954980daf315b0) >>
  /Subtype /Link
/ANN pdfmark
[ /Rect [ 551 0 603 20 ]
  /Border [ 0 0 0 ]
  /Action << /Subtype /URI /URI ($funzipuno_8cpp.html#ecb1826a5ec50e6578954980daf315b0) >>
  /Subtype /Link
/ANN pdfmark
1 setlinewidth
0.000 0.000 0.000 nodecolor
newpath 551 -1 moveto
551 20 lineto
604 20 lineto
604 -1 lineto
closepath stroke
0.000 0.000 0.000 nodecolor
10.00 /FreeSans.ttf set_font
577 6 moveto 37 -0.5 (updcrc) alignedtext
grestore
% Node12->Node14
gsave
1 setlinewidth
solid
0.667 0.776 0.439 edgecolor
newpath 470 24 moveto
492 21 519 18 541 15 curveto
stroke
0.667 0.776 0.439 edgecolor
newpath 541.398 18.4778 moveto
551 14 lineto
540.701 11.5125 lineto
closepath fill
1 setlinewidth
solid
0.667 0.776 0.439 edgecolor
newpath 541.398 18.4778 moveto
551 14 lineto
540.701 11.5125 lineto
closepath stroke
grestore
endpage
showpage
grestore
%%PageTrailer
%%EndPage: 1
%%Trailer
%%Pages: 1
%%BoundingBox: 36 36 648 235
end
restore
%%EOF
