%!PS-Adobe-2.0
%%Creator: Graphviz version 2.12 (Mon Nov 16 18:34:03 UTC 2009)
%%For: (vtamara) Vladimir
%%Title: G
%%Pages: (atend)
%%BoundingBox: (atend)
%%EndComments
save
%%BeginProlog
/DotDict 200 dict def
DotDict begin

/setupLatin1 {
mark
/EncodingVector 256 array def
 EncodingVector 0

ISOLatin1Encoding 0 255 getinterval putinterval
EncodingVector 45 /hyphen put

% Set up ISO Latin 1 character encoding
/starnetISO {
        dup dup findfont dup length dict begin
        { 1 index /FID ne { def }{ pop pop } ifelse
        } forall
        /Encoding EncodingVector def
        currentdict end definefont
} def
/Times-Roman starnetISO def
/Times-Italic starnetISO def
/Times-Bold starnetISO def
/Times-BoldItalic starnetISO def
/Helvetica starnetISO def
/Helvetica-Oblique starnetISO def
/Helvetica-Bold starnetISO def
/Helvetica-BoldOblique starnetISO def
/Courier starnetISO def
/Courier-Oblique starnetISO def
/Courier-Bold starnetISO def
/Courier-BoldOblique starnetISO def
cleartomark
} bind def

%%BeginResource: procset graphviz 0 0
/coord-font-family /Times-Roman def
/default-font-family /Times-Roman def
/coordfont coord-font-family findfont 8 scalefont def

/InvScaleFactor 1.0 def
/set_scale {
       dup 1 exch div /InvScaleFactor exch def
       scale
} bind def

% styles
/solid { [] 0 setdash } bind def
/dashed { [9 InvScaleFactor mul dup ] 0 setdash } bind def
/dotted { [1 InvScaleFactor mul 6 InvScaleFactor mul] 0 setdash } bind def
/invis {/fill {newpath} def /stroke {newpath} def /show {pop newpath} def} bind def
/bold { 2 setlinewidth } bind def
/filled { } bind def
/unfilled { } bind def
/rounded { } bind def
/diagonals { } bind def

% hooks for setting color 
/nodecolor { sethsbcolor } bind def
/edgecolor { sethsbcolor } bind def
/graphcolor { sethsbcolor } bind def
/nopcolor {pop pop pop} bind def

/beginpage {	% i j npages
	/npages exch def
	/j exch def
	/i exch def
	/str 10 string def
	npages 1 gt {
		gsave
			coordfont setfont
			0 0 moveto
			(\() show i str cvs show (,) show j str cvs show (\)) show
		grestore
	} if
} bind def

/set_font {
	findfont exch
	scalefont setfont
} def

% draw aligned label in bounding box aligned to current point
/alignedtext {			% width adj text
	/text exch def
	/adj exch def
	/width exch def
	gsave
		width 0 gt {
			text stringwidth pop adj mul 0 rmoveto
		} if
		[] 0 setdash
		text show
	grestore
} def

/boxprim {				% xcorner ycorner xsize ysize
		4 2 roll
		moveto
		2 copy
		exch 0 rlineto
		0 exch rlineto
		pop neg 0 rlineto
		closepath
} bind def

/ellipse_path {
	/ry exch def
	/rx exch def
	/y exch def
	/x exch def
	matrix currentmatrix
	newpath
	x y translate
	rx ry scale
	0 0 1 0 360 arc
	setmatrix
} bind def

/endpage { showpage } bind def
/showpage { } def

/layercolorseq
	[	% layer color sequence - darkest to lightest
		[0 0 0]
		[.2 .8 .8]
		[.4 .8 .8]
		[.6 .8 .8]
		[.8 .8 .8]
	]
def

/layerlen layercolorseq length def

/setlayer {/maxlayer exch def /curlayer exch def
	layercolorseq curlayer 1 sub layerlen mod get
	aload pop sethsbcolor
	/nodecolor {nopcolor} def
	/edgecolor {nopcolor} def
	/graphcolor {nopcolor} def
} bind def

/onlayer { curlayer ne {invis} if } def

/onlayers {
	/myupper exch def
	/mylower exch def
	curlayer mylower lt
	curlayer myupper gt
	or
	{invis} if
} def

/curlayer 0 def

%%EndResource
%%EndProlog
%%BeginSetup
14 default-font-family set_font
1 setmiterlimit
% /arrowlength 10 def
% /arrowwidth 5 def

% make sure pdfmark is harmless for PS-interpreters other than Distiller
/pdfmark where {pop} {userdict /pdfmark /cleartomark load put} ifelse
% make '<<' and '>>' safe on PS Level 1 devices
/languagelevel where {pop languagelevel}{1} ifelse
2 lt {
    userdict (<<) cvn ([) cvn load put
    userdict (>>) cvn ([) cvn load put
} if

%%EndSetup
setupLatin1
%%Page: 1 1
%%PageBoundingBox: 36 36 436 121
%%PageOrientation: Portrait
gsave
36 36 436 121 boxprim clip newpath
0 0 1 beginpage
1 1 set_scale 0 rotate 40 40 translate
% Node1
gsave
0.000 0.000 0.749 nodecolor
newpath 1 37 moveto
1 58 lineto
60 58 lineto
60 37 lineto
closepath fill
1 setlinewidth
filled
0.000 0.000 0.000 nodecolor
newpath 1 37 moveto
1 58 lineto
60 58 lineto
60 37 lineto
closepath stroke
0.000 0.000 0.000 nodecolor
10.00 /FreeSans.ttf set_font
30 44 moveto 43 -0.5 (prepara) alignedtext
grestore
% Node2
gsave
[ /Rect [ 96 57 198 77 ]
  /Border [ 0 0 0 ]
  /Action << /Subtype /URI /URI ($comun_8cpp.html#55db9e79615822cbc40390b2c2ab10fd) >>
  /Subtype /Link
/ANN pdfmark
[ /Rect [ 96 57 198 77 ]
  /Border [ 0 0 0 ]
  /Action << /Subtype /URI /URI ($comun_8cpp.html#55db9e79615822cbc40390b2c2ab10fd) >>
  /Subtype /Link
/ANN pdfmark
1 setlinewidth
0.000 0.000 0.000 nodecolor
newpath 96 56 moveto
96 77 lineto
198 77 lineto
198 56 lineto
closepath stroke
0.000 0.000 0.000 nodecolor
10.00 /FreeSans.ttf set_font
147 63 moveto 86 -0.5 (directorio_temp) alignedtext
grestore
% Node1->Node2
gsave
1 setlinewidth
solid
0.667 0.776 0.439 edgecolor
newpath 60 53 moveto
68 54 77 56 86 57 curveto
stroke
0.667 0.776 0.439 edgecolor
newpath 85.5078 60.4708 moveto
96 59 lineto
86.8806 53.6067 lineto
closepath fill
1 setlinewidth
solid
0.667 0.776 0.439 edgecolor
newpath 85.5078 60.4708 moveto
96 59 lineto
86.8806 53.6067 lineto
closepath stroke
grestore
% Node3
gsave
[ /Rect [ 114 19 180 39 ]
  /Border [ 0 0 0 ]
  /Action << /Subtype /URI /URI ($leeODT_8cpp.html#bb9f8e651699cb8afeaa92e4c360c47a) >>
  /Subtype /Link
/ANN pdfmark
[ /Rect [ 114 19 180 39 ]
  /Border [ 0 0 0 ]
  /Action << /Subtype /URI /URI ($leeODT_8cpp.html#bb9f8e651699cb8afeaa92e4c360c47a) >>
  /Subtype /Link
/ANN pdfmark
1 setlinewidth
0.000 0.000 0.000 nodecolor
newpath 114 18 moveto
114 39 lineto
181 39 lineto
181 18 lineto
closepath stroke
0.000 0.000 0.000 nodecolor
10.00 /FreeSans.ttf set_font
147 25 moveto 51 -0.5 (extraezip) alignedtext
grestore
% Node1->Node3
gsave
1 setlinewidth
solid
0.667 0.776 0.439 edgecolor
newpath 60 43 moveto
74 41 89 38 104 36 curveto
stroke
0.667 0.776 0.439 edgecolor
newpath 104.881 39.3933 moveto
114 34 lineto
103.508 32.5292 lineto
closepath fill
1 setlinewidth
solid
0.667 0.776 0.439 edgecolor
newpath 104.881 39.3933 moveto
114 34 lineto
103.508 32.5292 lineto
closepath stroke
grestore
% Node4
gsave
[ /Rect [ 234 19 302 39 ]
  /Border [ 0 0 0 ]
  /Action << /Subtype /URI /URI ($funzipuno_8cpp.html#4f263e043a55b1ad587682abcd279c9b) >>
  /Subtype /Link
/ANN pdfmark
[ /Rect [ 234 19 302 39 ]
  /Border [ 0 0 0 ]
  /Action << /Subtype /URI /URI ($funzipuno_8cpp.html#4f263e043a55b1ad587682abcd279c9b) >>
  /Subtype /Link
/ANN pdfmark
1 setlinewidth
0.000 0.000 0.000 nodecolor
newpath 234 18 moveto
234 39 lineto
302 39 lineto
302 18 lineto
closepath stroke
0.000 0.000 0.000 nodecolor
10.00 /FreeSans.ttf set_font
268 25 moveto 52 -0.5 (unzipUno) alignedtext
grestore
% Node3->Node4
gsave
1 setlinewidth
solid
0.667 0.776 0.439 edgecolor
newpath 181 29 moveto
195 29 210 29 224 29 curveto
stroke
0.667 0.776 0.439 edgecolor
newpath 224 32.5001 moveto
234 29 lineto
224 25.5001 lineto
closepath fill
1 setlinewidth
solid
0.667 0.776 0.439 edgecolor
newpath 224 32.5001 moveto
234 29 lineto
224 25.5001 lineto
closepath stroke
grestore
% Node5
gsave
[ /Rect [ 350 38 380 58 ]
  /Border [ 0 0 0 ]
  /Action << /Subtype /URI /URI ($funzipuno_8cpp.html#324627cf8964a10784459105e5f8a183) >>
  /Subtype /Link
/ANN pdfmark
[ /Rect [ 350 38 380 58 ]
  /Border [ 0 0 0 ]
  /Action << /Subtype /URI /URI ($funzipuno_8cpp.html#324627cf8964a10784459105e5f8a183) >>
  /Subtype /Link
/ANN pdfmark
1 setlinewidth
0.000 0.000 0.000 nodecolor
newpath 350 37 moveto
350 58 lineto
381 58 lineto
381 37 lineto
closepath stroke
0.000 0.000 0.000 nodecolor
10.00 /FreeSans.ttf set_font
365 44 moveto 15 -0.5 (err) alignedtext
grestore
% Node4->Node5
gsave
1 setlinewidth
solid
0.667 0.776 0.439 edgecolor
newpath 302 36 moveto
314 38 328 41 340 43 curveto
stroke
0.667 0.776 0.439 edgecolor
newpath 339.508 46.4708 moveto
350 45 lineto
340.881 39.6067 lineto
closepath fill
1 setlinewidth
solid
0.667 0.776 0.439 edgecolor
newpath 339.508 46.4708 moveto
350 45 lineto
340.881 39.6067 lineto
closepath stroke
grestore
% Node6
gsave
[ /Rect [ 339 0 391 20 ]
  /Border [ 0 0 0 ]
  /Action << /Subtype /URI /URI ($funzipuno_8cpp.html#ecb1826a5ec50e6578954980daf315b0) >>
  /Subtype /Link
/ANN pdfmark
[ /Rect [ 339 0 391 20 ]
  /Border [ 0 0 0 ]
  /Action << /Subtype /URI /URI ($funzipuno_8cpp.html#ecb1826a5ec50e6578954980daf315b0) >>
  /Subtype /Link
/ANN pdfmark
1 setlinewidth
0.000 0.000 0.000 nodecolor
newpath 339 -1 moveto
339 20 lineto
392 20 lineto
392 -1 lineto
closepath stroke
0.000 0.000 0.000 nodecolor
10.00 /FreeSans.ttf set_font
365 6 moveto 37 -0.5 (updcrc) alignedtext
grestore
% Node4->Node6
gsave
1 setlinewidth
solid
0.667 0.776 0.439 edgecolor
newpath 302 22 moveto
311 21 320 19 329 17 curveto
stroke
0.667 0.776 0.439 edgecolor
newpath 329.881 20.3933 moveto
339 15 lineto
328.508 13.5292 lineto
closepath fill
1 setlinewidth
solid
0.667 0.776 0.439 edgecolor
newpath 329.881 20.3933 moveto
339 15 lineto
328.508 13.5292 lineto
closepath stroke
grestore
endpage
showpage
grestore
%%PageTrailer
%%EndPage: 1
%%Trailer
%%Pages: 1
%%BoundingBox: 36 36 436 121
end
restore
%%EOF
