%!PS-Adobe-2.0
%%Creator: Graphviz version 2.12 (Mon Nov 16 18:34:03 UTC 2009)
%%For: (vtamara) Vladimir
%%Title: G
%%Pages: (atend)
%%BoundingBox: (atend)
%%EndComments
save
%%BeginProlog
/DotDict 200 dict def
DotDict begin

/setupLatin1 {
mark
/EncodingVector 256 array def
 EncodingVector 0

ISOLatin1Encoding 0 255 getinterval putinterval
EncodingVector 45 /hyphen put

% Set up ISO Latin 1 character encoding
/starnetISO {
        dup dup findfont dup length dict begin
        { 1 index /FID ne { def }{ pop pop } ifelse
        } forall
        /Encoding EncodingVector def
        currentdict end definefont
} def
/Times-Roman starnetISO def
/Times-Italic starnetISO def
/Times-Bold starnetISO def
/Times-BoldItalic starnetISO def
/Helvetica starnetISO def
/Helvetica-Oblique starnetISO def
/Helvetica-Bold starnetISO def
/Helvetica-BoldOblique starnetISO def
/Courier starnetISO def
/Courier-Oblique starnetISO def
/Courier-Bold starnetISO def
/Courier-BoldOblique starnetISO def
cleartomark
} bind def

%%BeginResource: procset graphviz 0 0
/coord-font-family /Times-Roman def
/default-font-family /Times-Roman def
/coordfont coord-font-family findfont 8 scalefont def

/InvScaleFactor 1.0 def
/set_scale {
       dup 1 exch div /InvScaleFactor exch def
       scale
} bind def

% styles
/solid { [] 0 setdash } bind def
/dashed { [9 InvScaleFactor mul dup ] 0 setdash } bind def
/dotted { [1 InvScaleFactor mul 6 InvScaleFactor mul] 0 setdash } bind def
/invis {/fill {newpath} def /stroke {newpath} def /show {pop newpath} def} bind def
/bold { 2 setlinewidth } bind def
/filled { } bind def
/unfilled { } bind def
/rounded { } bind def
/diagonals { } bind def

% hooks for setting color 
/nodecolor { sethsbcolor } bind def
/edgecolor { sethsbcolor } bind def
/graphcolor { sethsbcolor } bind def
/nopcolor {pop pop pop} bind def

/beginpage {	% i j npages
	/npages exch def
	/j exch def
	/i exch def
	/str 10 string def
	npages 1 gt {
		gsave
			coordfont setfont
			0 0 moveto
			(\() show i str cvs show (,) show j str cvs show (\)) show
		grestore
	} if
} bind def

/set_font {
	findfont exch
	scalefont setfont
} def

% draw aligned label in bounding box aligned to current point
/alignedtext {			% width adj text
	/text exch def
	/adj exch def
	/width exch def
	gsave
		width 0 gt {
			text stringwidth pop adj mul 0 rmoveto
		} if
		[] 0 setdash
		text show
	grestore
} def

/boxprim {				% xcorner ycorner xsize ysize
		4 2 roll
		moveto
		2 copy
		exch 0 rlineto
		0 exch rlineto
		pop neg 0 rlineto
		closepath
} bind def

/ellipse_path {
	/ry exch def
	/rx exch def
	/y exch def
	/x exch def
	matrix currentmatrix
	newpath
	x y translate
	rx ry scale
	0 0 1 0 360 arc
	setmatrix
} bind def

/endpage { showpage } bind def
/showpage { } def

/layercolorseq
	[	% layer color sequence - darkest to lightest
		[0 0 0]
		[.2 .8 .8]
		[.4 .8 .8]
		[.6 .8 .8]
		[.8 .8 .8]
	]
def

/layerlen layercolorseq length def

/setlayer {/maxlayer exch def /curlayer exch def
	layercolorseq curlayer 1 sub layerlen mod get
	aload pop sethsbcolor
	/nodecolor {nopcolor} def
	/edgecolor {nopcolor} def
	/graphcolor {nopcolor} def
} bind def

/onlayer { curlayer ne {invis} if } def

/onlayers {
	/myupper exch def
	/mylower exch def
	curlayer mylower lt
	curlayer myupper gt
	or
	{invis} if
} def

/curlayer 0 def

%%EndResource
%%EndProlog
%%BeginSetup
14 default-font-family set_font
1 setmiterlimit
% /arrowlength 10 def
% /arrowwidth 5 def

% make sure pdfmark is harmless for PS-interpreters other than Distiller
/pdfmark where {pop} {userdict /pdfmark /cleartomark load put} ifelse
% make '<<' and '>>' safe on PS Level 1 devices
/languagelevel where {pop languagelevel}{1} ifelse
2 lt {
    userdict (<<) cvn ([) cvn load put
    userdict (>>) cvn ([) cvn load put
} if

%%EndSetup
setupLatin1
%%Page: 1 1
%%PageBoundingBox: 36 36 294 298
%%PageOrientation: Portrait
gsave
36 36 294 298 boxprim clip newpath
0 0 1 beginpage
1 1 set_scale 0 rotate 40 40 translate
% Node1
gsave
0.000 0.000 0.749 nodecolor
newpath 155 232 moveto
155 253 lineto
236 253 lineto
236 232 lineto
closepath fill
1 setlinewidth
filled
0.000 0.000 0.000 nodecolor
newpath 155 232 moveto
155 253 lineto
236 253 lineto
236 232 lineto
closepath stroke
0.000 0.000 0.000 nodecolor
10.00 /FreeSans.ttf set_font
195 239 moveto 65 -0.5 (leeODT.hpp) alignedtext
grestore
% Node2
gsave
1 setlinewidth
0.000 0.000 0.749 nodecolor
newpath 204 0 moveto
204 21 lineto
250 21 lineto
250 0 lineto
closepath stroke
0.000 0.000 0.000 nodecolor
10.00 /FreeSans.ttf set_font
227 7 moveto 30 -0.5 (string) alignedtext
grestore
% Node1->Node2
gsave
1 setlinewidth
solid
0.667 0.776 0.439 edgecolor
newpath 198 232 moveto
200 222 204 208 207 196 curveto
217 144 217 131 223 80 curveto
224 63 225 45 226 31 curveto
stroke
0.667 0.776 0.439 edgecolor
newpath 229.5 31 moveto
226 21 lineto
222.5 31 lineto
closepath fill
1 setlinewidth
solid
0.667 0.776 0.439 edgecolor
newpath 229.5 31 moveto
226 21 lineto
222.5 31 lineto
closepath stroke
grestore
% Node3
gsave
[ /Rect [ 102 175 198 195 ]
  /Border [ 0 0 0 ]
  /Action << /Subtype /URI /URI ($NodoTrieS_8hpp.html) >>
  /Subtype /Link
/ANN pdfmark
[ /Rect [ 102 175 198 195 ]
  /Border [ 0 0 0 ]
  /Action << /Subtype /URI /URI ($NodoTrieS_8hpp.html) >>
  /Subtype /Link
/ANN pdfmark
1 setlinewidth
0.000 0.000 0.000 nodecolor
newpath 102 174 moveto
102 195 lineto
198 195 lineto
198 174 lineto
closepath stroke
0.000 0.000 0.000 nodecolor
10.00 /FreeSans.ttf set_font
150 181 moveto 80 -0.5 (NodoTrieS.hpp) alignedtext
grestore
% Node1->Node3
gsave
1 setlinewidth
solid
0.667 0.776 0.439 edgecolor
newpath 186 232 moveto
180 224 171 212 164 203 curveto
stroke
0.667 0.776 0.439 edgecolor
newpath 166.8 200.9 moveto
158 195 lineto
161.2 205.1 lineto
closepath fill
1 setlinewidth
solid
0.667 0.776 0.439 edgecolor
newpath 166.8 200.9 moveto
158 195 lineto
161.2 205.1 lineto
closepath stroke
grestore
% Node3->Node2
gsave
1 setlinewidth
solid
0.667 0.776 0.439 edgecolor
newpath 159 174 moveto
167 164 177 151 184 138 curveto
202 102 215 56 222 31 curveto
stroke
0.667 0.776 0.439 edgecolor
newpath 225.479 31.584 moveto
225 21 lineto
218.774 29.5725 lineto
closepath fill
1 setlinewidth
solid
0.667 0.776 0.439 edgecolor
newpath 225.479 31.584 moveto
225 21 lineto
218.774 29.5725 lineto
closepath stroke
grestore
% Node4
gsave
1 setlinewidth
0.000 0.000 0.749 nodecolor
newpath 0 0 moveto
0 21 lineto
32 21 lineto
32 0 lineto
closepath stroke
0.000 0.000 0.000 nodecolor
10.00 /FreeSans.ttf set_font
16 7 moveto 16 -0.5 (set) alignedtext
grestore
% Node3->Node4
gsave
1 setlinewidth
solid
0.667 0.776 0.439 edgecolor
newpath 102 175 moveto
80 168 55 157 40 138 curveto
16 107 13 59 14 31 curveto
stroke
0.667 0.776 0.439 edgecolor
newpath 17.4875 31.2987 moveto
15 21 lineto
10.5222 30.6021 lineto
closepath fill
1 setlinewidth
solid
0.667 0.776 0.439 edgecolor
newpath 17.4875 31.2987 moveto
15 21 lineto
10.5222 30.6021 lineto
closepath stroke
grestore
% Node5
gsave
1 setlinewidth
0.000 0.000 0.749 nodecolor
newpath 125 116 moveto
125 137 lineto
175 137 lineto
175 116 lineto
closepath stroke
0.000 0.000 0.000 nodecolor
10.00 /FreeSans.ttf set_font
150 123 moveto 34 -0.5 (vector) alignedtext
grestore
% Node3->Node5
gsave
1 setlinewidth
solid
0.667 0.776 0.439 edgecolor
newpath 150 174 moveto
150 166 150 156 150 147 curveto
stroke
0.667 0.776 0.439 edgecolor
newpath 153.5 147 moveto
150 137 lineto
146.5 147 lineto
closepath fill
1 setlinewidth
solid
0.667 0.776 0.439 edgecolor
newpath 153.5 147 moveto
150 137 lineto
146.5 147 lineto
closepath stroke
grestore
% Node6
gsave
[ /Rect [ 49 117 107 137 ]
  /Border [ 0 0 0 ]
  /Action << /Subtype /URI /URI ($Pos_8hpp.html) >>
  /Subtype /Link
/ANN pdfmark
[ /Rect [ 49 117 107 137 ]
  /Border [ 0 0 0 ]
  /Action << /Subtype /URI /URI ($Pos_8hpp.html) >>
  /Subtype /Link
/ANN pdfmark
1 setlinewidth
0.000 0.000 0.000 nodecolor
newpath 49 116 moveto
49 137 lineto
107 137 lineto
107 116 lineto
closepath stroke
0.000 0.000 0.000 nodecolor
10.00 /FreeSans.ttf set_font
78 123 moveto 42 -0.5 (Pos.hpp) alignedtext
grestore
% Node3->Node6
gsave
1 setlinewidth
solid
0.667 0.776 0.439 edgecolor
newpath 136 174 moveto
125 165 110 153 98 143 curveto
stroke
0.667 0.776 0.439 edgecolor
newpath 100.1 140.2 moveto
90 137 lineto
95.9 145.8 lineto
closepath fill
1 setlinewidth
solid
0.667 0.776 0.439 edgecolor
newpath 100.1 140.2 moveto
90 137 lineto
95.9 145.8 lineto
closepath stroke
grestore
% Node7
gsave
[ /Rect [ 44 59 122 79 ]
  /Border [ 0 0 0 ]
  /Action << /Subtype /URI /URI ($comun_8hpp.html) >>
  /Subtype /Link
/ANN pdfmark
[ /Rect [ 44 59 122 79 ]
  /Border [ 0 0 0 ]
  /Action << /Subtype /URI /URI ($comun_8hpp.html) >>
  /Subtype /Link
/ANN pdfmark
1 setlinewidth
0.000 0.000 0.000 nodecolor
newpath 44 58 moveto
44 79 lineto
122 79 lineto
122 58 lineto
closepath stroke
0.000 0.000 0.000 nodecolor
10.00 /FreeSans.ttf set_font
83 65 moveto 62 -0.5 (comun.hpp) alignedtext
grestore
% Node6->Node7
gsave
1 setlinewidth
solid
0.667 0.776 0.439 edgecolor
newpath 79 116 moveto
80 108 80 98 81 89 curveto
stroke
0.667 0.776 0.439 edgecolor
newpath 84.4875 89.2987 moveto
82 79 lineto
77.5222 88.6021 lineto
closepath fill
1 setlinewidth
solid
0.667 0.776 0.439 edgecolor
newpath 84.4875 89.2987 moveto
82 79 lineto
77.5222 88.6021 lineto
closepath stroke
grestore
% Node7->Node2
gsave
1 setlinewidth
solid
0.667 0.776 0.439 edgecolor
newpath 110 58 moveto
134 48 169 34 195 24 curveto
stroke
0.667 0.776 0.439 edgecolor
newpath 196.283 27.2598 moveto
204 20 lineto
193.44 20.8631 lineto
closepath fill
1 setlinewidth
solid
0.667 0.776 0.439 edgecolor
newpath 196.283 27.2598 moveto
204 20 lineto
193.44 20.8631 lineto
closepath stroke
grestore
% Node7->Node4
gsave
1 setlinewidth
solid
0.667 0.776 0.439 edgecolor
newpath 70 58 moveto
60 49 47 37 36 28 curveto
stroke
0.667 0.776 0.439 edgecolor
newpath 37.8306 24.9511 moveto
28 21 lineto
33.221 30.2191 lineto
closepath fill
1 setlinewidth
solid
0.667 0.776 0.439 edgecolor
newpath 37.8306 24.9511 moveto
28 21 lineto
33.221 30.2191 lineto
closepath stroke
grestore
% Node8
gsave
1 setlinewidth
0.000 0.000 0.749 nodecolor
newpath 50 0 moveto
50 21 lineto
111 21 lineto
111 0 lineto
closepath stroke
0.000 0.000 0.000 nodecolor
10.00 /FreeSans.ttf set_font
80 7 moveto 45 -0.5 (ostream) alignedtext
grestore
% Node7->Node8
gsave
1 setlinewidth
solid
0.667 0.776 0.439 edgecolor
newpath 82 58 moveto
82 50 82 40 81 31 curveto
stroke
0.667 0.776 0.439 edgecolor
newpath 84.5001 31 moveto
81 21 lineto
77.5001 31 lineto
closepath fill
1 setlinewidth
solid
0.667 0.776 0.439 edgecolor
newpath 84.5001 31 moveto
81 21 lineto
77.5001 31 lineto
closepath stroke
grestore
% Node9
gsave
1 setlinewidth
0.000 0.000 0.749 nodecolor
newpath 128 0 moveto
128 21 lineto
187 21 lineto
187 0 lineto
closepath stroke
0.000 0.000 0.000 nodecolor
10.00 /FreeSans.ttf set_font
157 7 moveto 43 -0.5 (sstream) alignedtext
grestore
% Node7->Node9
gsave
1 setlinewidth
solid
0.667 0.776 0.439 edgecolor
newpath 97 58 moveto
108 49 124 37 136 27 curveto
stroke
0.667 0.776 0.439 edgecolor
newpath 138.1 29.8 moveto
144 21 lineto
133.9 24.2 lineto
closepath fill
1 setlinewidth
solid
0.667 0.776 0.439 edgecolor
newpath 138.1 29.8 moveto
144 21 lineto
133.9 24.2 lineto
closepath stroke
grestore
endpage
showpage
grestore
%%PageTrailer
%%EndPage: 1
%%Trailer
%%Pages: 1
%%BoundingBox: 36 36 294 298
end
restore
%%EOF
