%!PS-Adobe-2.0
%%Creator: Graphviz version 2.12 (Mon Nov 16 18:34:03 UTC 2009)
%%For: (vtamara) Vladimir
%%Title: G
%%Pages: (atend)
%%BoundingBox: (atend)
%%EndComments
save
%%BeginProlog
/DotDict 200 dict def
DotDict begin

/setupLatin1 {
mark
/EncodingVector 256 array def
 EncodingVector 0

ISOLatin1Encoding 0 255 getinterval putinterval
EncodingVector 45 /hyphen put

% Set up ISO Latin 1 character encoding
/starnetISO {
        dup dup findfont dup length dict begin
        { 1 index /FID ne { def }{ pop pop } ifelse
        } forall
        /Encoding EncodingVector def
        currentdict end definefont
} def
/Times-Roman starnetISO def
/Times-Italic starnetISO def
/Times-Bold starnetISO def
/Times-BoldItalic starnetISO def
/Helvetica starnetISO def
/Helvetica-Oblique starnetISO def
/Helvetica-Bold starnetISO def
/Helvetica-BoldOblique starnetISO def
/Courier starnetISO def
/Courier-Oblique starnetISO def
/Courier-Bold starnetISO def
/Courier-BoldOblique starnetISO def
cleartomark
} bind def

%%BeginResource: procset graphviz 0 0
/coord-font-family /Times-Roman def
/default-font-family /Times-Roman def
/coordfont coord-font-family findfont 8 scalefont def

/InvScaleFactor 1.0 def
/set_scale {
       dup 1 exch div /InvScaleFactor exch def
       scale
} bind def

% styles
/solid { [] 0 setdash } bind def
/dashed { [9 InvScaleFactor mul dup ] 0 setdash } bind def
/dotted { [1 InvScaleFactor mul 6 InvScaleFactor mul] 0 setdash } bind def
/invis {/fill {newpath} def /stroke {newpath} def /show {pop newpath} def} bind def
/bold { 2 setlinewidth } bind def
/filled { } bind def
/unfilled { } bind def
/rounded { } bind def
/diagonals { } bind def

% hooks for setting color 
/nodecolor { sethsbcolor } bind def
/edgecolor { sethsbcolor } bind def
/graphcolor { sethsbcolor } bind def
/nopcolor {pop pop pop} bind def

/beginpage {	% i j npages
	/npages exch def
	/j exch def
	/i exch def
	/str 10 string def
	npages 1 gt {
		gsave
			coordfont setfont
			0 0 moveto
			(\() show i str cvs show (,) show j str cvs show (\)) show
		grestore
	} if
} bind def

/set_font {
	findfont exch
	scalefont setfont
} def

% draw aligned label in bounding box aligned to current point
/alignedtext {			% width adj text
	/text exch def
	/adj exch def
	/width exch def
	gsave
		width 0 gt {
			text stringwidth pop adj mul 0 rmoveto
		} if
		[] 0 setdash
		text show
	grestore
} def

/boxprim {				% xcorner ycorner xsize ysize
		4 2 roll
		moveto
		2 copy
		exch 0 rlineto
		0 exch rlineto
		pop neg 0 rlineto
		closepath
} bind def

/ellipse_path {
	/ry exch def
	/rx exch def
	/y exch def
	/x exch def
	matrix currentmatrix
	newpath
	x y translate
	rx ry scale
	0 0 1 0 360 arc
	setmatrix
} bind def

/endpage { showpage } bind def
/showpage { } def

/layercolorseq
	[	% layer color sequence - darkest to lightest
		[0 0 0]
		[.2 .8 .8]
		[.4 .8 .8]
		[.6 .8 .8]
		[.8 .8 .8]
	]
def

/layerlen layercolorseq length def

/setlayer {/maxlayer exch def /curlayer exch def
	layercolorseq curlayer 1 sub layerlen mod get
	aload pop sethsbcolor
	/nodecolor {nopcolor} def
	/edgecolor {nopcolor} def
	/graphcolor {nopcolor} def
} bind def

/onlayer { curlayer ne {invis} if } def

/onlayers {
	/myupper exch def
	/mylower exch def
	curlayer mylower lt
	curlayer myupper gt
	or
	{invis} if
} def

/curlayer 0 def

%%EndResource
%%EndProlog
%%BeginSetup
14 default-font-family set_font
1 setmiterlimit
% /arrowlength 10 def
% /arrowwidth 5 def

% make sure pdfmark is harmless for PS-interpreters other than Distiller
/pdfmark where {pop} {userdict /pdfmark /cleartomark load put} ifelse
% make '<<' and '>>' safe on PS Level 1 devices
/languagelevel where {pop languagelevel}{1} ifelse
2 lt {
    userdict (<<) cvn ([) cvn load put
    userdict (>>) cvn ([) cvn load put
} if

%%EndSetup
setupLatin1
%%Page: 1 1
%%PageBoundingBox: 36 36 318 298
%%PageOrientation: Portrait
gsave
36 36 318 298 boxprim clip newpath
0 0 1 beginpage
1 1 set_scale 0 rotate 40 40 translate
% Node1
gsave
0.000 0.000 0.749 nodecolor
newpath 198 232 moveto
198 253 lineto
274 253 lineto
274 232 lineto
closepath fill
1 setlinewidth
filled
0.000 0.000 0.000 nodecolor
newpath 198 232 moveto
198 253 lineto
274 253 lineto
274 232 lineto
closepath stroke
0.000 0.000 0.000 nodecolor
10.00 /FreeSans.ttf set_font
236 239 moveto 60 -0.5 (leePDF.hpp) alignedtext
grestore
% Node2
gsave
1 setlinewidth
0.000 0.000 0.749 nodecolor
newpath 204 0 moveto
204 21 lineto
250 21 lineto
250 0 lineto
closepath stroke
0.000 0.000 0.000 nodecolor
10.00 /FreeSans.ttf set_font
227 7 moveto 30 -0.5 (string) alignedtext
grestore
% Node1->Node2
gsave
1 setlinewidth
solid
0.667 0.776 0.439 edgecolor
newpath 236 232 moveto
234 195 230 79 228 31 curveto
stroke
0.667 0.776 0.439 edgecolor
newpath 231.478 30.6021 moveto
227 21 lineto
224.512 31.2987 lineto
closepath fill
1 setlinewidth
solid
0.667 0.776 0.439 edgecolor
newpath 231.478 30.6021 moveto
227 21 lineto
224.512 31.2987 lineto
closepath stroke
grestore
% Node3
gsave
[ /Rect [ 68 59 146 79 ]
  /Border [ 0 0 0 ]
  /Action << /Subtype /URI /URI ($comun_8hpp.html) >>
  /Subtype /Link
/ANN pdfmark
[ /Rect [ 68 59 146 79 ]
  /Border [ 0 0 0 ]
  /Action << /Subtype /URI /URI ($comun_8hpp.html) >>
  /Subtype /Link
/ANN pdfmark
1 setlinewidth
0.000 0.000 0.000 nodecolor
newpath 68 58 moveto
68 79 lineto
146 79 lineto
146 58 lineto
closepath stroke
0.000 0.000 0.000 nodecolor
10.00 /FreeSans.ttf set_font
107 65 moveto 62 -0.5 (comun.hpp) alignedtext
grestore
% Node1->Node3
gsave
1 setlinewidth
solid
0.667 0.776 0.439 edgecolor
newpath 233 232 moveto
227 208 210 152 179 116 curveto
168 103 153 92 139 84 curveto
stroke
0.667 0.776 0.439 edgecolor
newpath 140.441 80.7969 moveto
130 79 lineto
137.042 86.916 lineto
closepath fill
1 setlinewidth
solid
0.667 0.776 0.439 edgecolor
newpath 140.441 80.7969 moveto
130 79 lineto
137.042 86.916 lineto
closepath stroke
grestore
% Node7
gsave
[ /Rect [ 97 175 193 195 ]
  /Border [ 0 0 0 ]
  /Action << /Subtype /URI /URI ($NodoTrieS_8hpp.html) >>
  /Subtype /Link
/ANN pdfmark
[ /Rect [ 97 175 193 195 ]
  /Border [ 0 0 0 ]
  /Action << /Subtype /URI /URI ($NodoTrieS_8hpp.html) >>
  /Subtype /Link
/ANN pdfmark
1 setlinewidth
0.000 0.000 0.000 nodecolor
newpath 97 174 moveto
97 195 lineto
193 195 lineto
193 174 lineto
closepath stroke
0.000 0.000 0.000 nodecolor
10.00 /FreeSans.ttf set_font
145 181 moveto 80 -0.5 (NodoTrieS.hpp) alignedtext
grestore
% Node1->Node7
gsave
1 setlinewidth
solid
0.667 0.776 0.439 edgecolor
newpath 218 232 moveto
205 223 185 210 170 200 curveto
stroke
0.667 0.776 0.439 edgecolor
newpath 171.441 196.797 moveto
161 195 lineto
168.042 202.916 lineto
closepath fill
1 setlinewidth
solid
0.667 0.776 0.439 edgecolor
newpath 171.441 196.797 moveto
161 195 lineto
168.042 202.916 lineto
closepath stroke
grestore
% Node3->Node2
gsave
1 setlinewidth
solid
0.667 0.776 0.439 edgecolor
newpath 130 58 moveto
149 49 176 35 197 25 curveto
stroke
0.667 0.776 0.439 edgecolor
newpath 198.283 28.2598 moveto
206 21 lineto
195.44 21.8631 lineto
closepath fill
1 setlinewidth
solid
0.667 0.776 0.439 edgecolor
newpath 198.283 28.2598 moveto
206 21 lineto
195.44 21.8631 lineto
closepath stroke
grestore
% Node4
gsave
1 setlinewidth
0.000 0.000 0.749 nodecolor
newpath 0 0 moveto
0 21 lineto
32 21 lineto
32 0 lineto
closepath stroke
0.000 0.000 0.000 nodecolor
10.00 /FreeSans.ttf set_font
16 7 moveto 16 -0.5 (set) alignedtext
grestore
% Node3->Node4
gsave
1 setlinewidth
solid
0.667 0.776 0.439 edgecolor
newpath 89 58 moveto
76 49 56 36 41 26 curveto
stroke
0.667 0.776 0.439 edgecolor
newpath 42.4414 22.7969 moveto
32 21 lineto
39.0418 28.916 lineto
closepath fill
1 setlinewidth
solid
0.667 0.776 0.439 edgecolor
newpath 42.4414 22.7969 moveto
32 21 lineto
39.0418 28.916 lineto
closepath stroke
grestore
% Node5
gsave
1 setlinewidth
0.000 0.000 0.749 nodecolor
newpath 126 0 moveto
126 21 lineto
187 21 lineto
187 0 lineto
closepath stroke
0.000 0.000 0.000 nodecolor
10.00 /FreeSans.ttf set_font
156 7 moveto 45 -0.5 (ostream) alignedtext
grestore
% Node3->Node5
gsave
1 setlinewidth
solid
0.667 0.776 0.439 edgecolor
newpath 116 58 moveto
123 49 133 38 141 29 curveto
stroke
0.667 0.776 0.439 edgecolor
newpath 144.049 30.8306 moveto
148 21 lineto
138.781 26.221 lineto
closepath fill
1 setlinewidth
solid
0.667 0.776 0.439 edgecolor
newpath 144.049 30.8306 moveto
148 21 lineto
138.781 26.221 lineto
closepath stroke
grestore
% Node6
gsave
1 setlinewidth
0.000 0.000 0.749 nodecolor
newpath 50 0 moveto
50 21 lineto
109 21 lineto
109 0 lineto
closepath stroke
0.000 0.000 0.000 nodecolor
10.00 /FreeSans.ttf set_font
79 7 moveto 43 -0.5 (sstream) alignedtext
grestore
% Node3->Node6
gsave
1 setlinewidth
solid
0.667 0.776 0.439 edgecolor
newpath 102 58 moveto
98 50 93 39 88 30 curveto
stroke
0.667 0.776 0.439 edgecolor
newpath 91.2598 28.7166 moveto
84 21 lineto
84.8631 31.5596 lineto
closepath fill
1 setlinewidth
solid
0.667 0.776 0.439 edgecolor
newpath 91.2598 28.7166 moveto
84 21 lineto
84.8631 31.5596 lineto
closepath stroke
grestore
% Node7->Node2
gsave
1 setlinewidth
solid
0.667 0.776 0.439 edgecolor
newpath 154 174 moveto
161 164 171 151 179 138 curveto
198 101 214 56 221 31 curveto
stroke
0.667 0.776 0.439 edgecolor
newpath 224.479 31.584 moveto
224 21 lineto
217.774 29.5725 lineto
closepath fill
1 setlinewidth
solid
0.667 0.776 0.439 edgecolor
newpath 224.479 31.584 moveto
224 21 lineto
217.774 29.5725 lineto
closepath stroke
grestore
% Node7->Node4
gsave
1 setlinewidth
solid
0.667 0.776 0.439 edgecolor
newpath 97 176 moveto
75 169 50 157 35 138 curveto
11 107 11 58 14 31 curveto
stroke
0.667 0.776 0.439 edgecolor
newpath 17.4875 31.2987 moveto
15 21 lineto
10.5222 30.6021 lineto
closepath fill
1 setlinewidth
solid
0.667 0.776 0.439 edgecolor
newpath 17.4875 31.2987 moveto
15 21 lineto
10.5222 30.6021 lineto
closepath stroke
grestore
% Node8
gsave
1 setlinewidth
0.000 0.000 0.749 nodecolor
newpath 120 116 moveto
120 137 lineto
170 137 lineto
170 116 lineto
closepath stroke
0.000 0.000 0.000 nodecolor
10.00 /FreeSans.ttf set_font
145 123 moveto 34 -0.5 (vector) alignedtext
grestore
% Node7->Node8
gsave
1 setlinewidth
solid
0.667 0.776 0.439 edgecolor
newpath 145 174 moveto
145 166 145 156 145 147 curveto
stroke
0.667 0.776 0.439 edgecolor
newpath 148.5 147 moveto
145 137 lineto
141.5 147 lineto
closepath fill
1 setlinewidth
solid
0.667 0.776 0.439 edgecolor
newpath 148.5 147 moveto
145 137 lineto
141.5 147 lineto
closepath stroke
grestore
% Node9
gsave
[ /Rect [ 44 117 102 137 ]
  /Border [ 0 0 0 ]
  /Action << /Subtype /URI /URI ($Pos_8hpp.html) >>
  /Subtype /Link
/ANN pdfmark
[ /Rect [ 44 117 102 137 ]
  /Border [ 0 0 0 ]
  /Action << /Subtype /URI /URI ($Pos_8hpp.html) >>
  /Subtype /Link
/ANN pdfmark
1 setlinewidth
0.000 0.000 0.000 nodecolor
newpath 44 116 moveto
44 137 lineto
102 137 lineto
102 116 lineto
closepath stroke
0.000 0.000 0.000 nodecolor
10.00 /FreeSans.ttf set_font
73 123 moveto 42 -0.5 (Pos.hpp) alignedtext
grestore
% Node7->Node9
gsave
1 setlinewidth
solid
0.667 0.776 0.439 edgecolor
newpath 131 174 moveto
120 165 105 153 93 143 curveto
stroke
0.667 0.776 0.439 edgecolor
newpath 95.1 140.2 moveto
85 137 lineto
90.9 145.8 lineto
closepath fill
1 setlinewidth
solid
0.667 0.776 0.439 edgecolor
newpath 95.1 140.2 moveto
85 137 lineto
90.9 145.8 lineto
closepath stroke
grestore
% Node9->Node3
gsave
1 setlinewidth
solid
0.667 0.776 0.439 edgecolor
newpath 80 116 moveto
84 108 91 97 96 88 curveto
stroke
0.667 0.776 0.439 edgecolor
newpath 99.2031 89.4414 moveto
101 79 lineto
93.084 86.0418 lineto
closepath fill
1 setlinewidth
solid
0.667 0.776 0.439 edgecolor
newpath 99.2031 89.4414 moveto
101 79 lineto
93.084 86.0418 lineto
closepath stroke
grestore
endpage
showpage
grestore
%%PageTrailer
%%EndPage: 1
%%Trailer
%%Pages: 1
%%BoundingBox: 36 36 318 298
end
restore
%%EOF
