%!PS-Adobe-2.0
%%Creator: Graphviz version 2.12 (Mon Nov 16 18:34:03 UTC 2009)
%%For: (vtamara) Vladimir
%%Title: G
%%Pages: (atend)
%%BoundingBox: (atend)
%%EndComments
save
%%BeginProlog
/DotDict 200 dict def
DotDict begin

/setupLatin1 {
mark
/EncodingVector 256 array def
 EncodingVector 0

ISOLatin1Encoding 0 255 getinterval putinterval
EncodingVector 45 /hyphen put

% Set up ISO Latin 1 character encoding
/starnetISO {
        dup dup findfont dup length dict begin
        { 1 index /FID ne { def }{ pop pop } ifelse
        } forall
        /Encoding EncodingVector def
        currentdict end definefont
} def
/Times-Roman starnetISO def
/Times-Italic starnetISO def
/Times-Bold starnetISO def
/Times-BoldItalic starnetISO def
/Helvetica starnetISO def
/Helvetica-Oblique starnetISO def
/Helvetica-Bold starnetISO def
/Helvetica-BoldOblique starnetISO def
/Courier starnetISO def
/Courier-Oblique starnetISO def
/Courier-Bold starnetISO def
/Courier-BoldOblique starnetISO def
cleartomark
} bind def

%%BeginResource: procset graphviz 0 0
/coord-font-family /Times-Roman def
/default-font-family /Times-Roman def
/coordfont coord-font-family findfont 8 scalefont def

/InvScaleFactor 1.0 def
/set_scale {
       dup 1 exch div /InvScaleFactor exch def
       scale
} bind def

% styles
/solid { [] 0 setdash } bind def
/dashed { [9 InvScaleFactor mul dup ] 0 setdash } bind def
/dotted { [1 InvScaleFactor mul 6 InvScaleFactor mul] 0 setdash } bind def
/invis {/fill {newpath} def /stroke {newpath} def /show {pop newpath} def} bind def
/bold { 2 setlinewidth } bind def
/filled { } bind def
/unfilled { } bind def
/rounded { } bind def
/diagonals { } bind def

% hooks for setting color 
/nodecolor { sethsbcolor } bind def
/edgecolor { sethsbcolor } bind def
/graphcolor { sethsbcolor } bind def
/nopcolor {pop pop pop} bind def

/beginpage {	% i j npages
	/npages exch def
	/j exch def
	/i exch def
	/str 10 string def
	npages 1 gt {
		gsave
			coordfont setfont
			0 0 moveto
			(\() show i str cvs show (,) show j str cvs show (\)) show
		grestore
	} if
} bind def

/set_font {
	findfont exch
	scalefont setfont
} def

% draw aligned label in bounding box aligned to current point
/alignedtext {			% width adj text
	/text exch def
	/adj exch def
	/width exch def
	gsave
		width 0 gt {
			text stringwidth pop adj mul 0 rmoveto
		} if
		[] 0 setdash
		text show
	grestore
} def

/boxprim {				% xcorner ycorner xsize ysize
		4 2 roll
		moveto
		2 copy
		exch 0 rlineto
		0 exch rlineto
		pop neg 0 rlineto
		closepath
} bind def

/ellipse_path {
	/ry exch def
	/rx exch def
	/y exch def
	/x exch def
	matrix currentmatrix
	newpath
	x y translate
	rx ry scale
	0 0 1 0 360 arc
	setmatrix
} bind def

/endpage { showpage } bind def
/showpage { } def

/layercolorseq
	[	% layer color sequence - darkest to lightest
		[0 0 0]
		[.2 .8 .8]
		[.4 .8 .8]
		[.6 .8 .8]
		[.8 .8 .8]
	]
def

/layerlen layercolorseq length def

/setlayer {/maxlayer exch def /curlayer exch def
	layercolorseq curlayer 1 sub layerlen mod get
	aload pop sethsbcolor
	/nodecolor {nopcolor} def
	/edgecolor {nopcolor} def
	/graphcolor {nopcolor} def
} bind def

/onlayer { curlayer ne {invis} if } def

/onlayers {
	/myupper exch def
	/mylower exch def
	curlayer mylower lt
	curlayer myupper gt
	or
	{invis} if
} def

/curlayer 0 def

%%EndResource
%%EndProlog
%%BeginSetup
14 default-font-family set_font
1 setmiterlimit
% /arrowlength 10 def
% /arrowwidth 5 def

% make sure pdfmark is harmless for PS-interpreters other than Distiller
/pdfmark where {pop} {userdict /pdfmark /cleartomark load put} ifelse
% make '<<' and '>>' safe on PS Level 1 devices
/languagelevel where {pop languagelevel}{1} ifelse
2 lt {
    userdict (<<) cvn ([) cvn load put
    userdict (>>) cvn ([) cvn load put
} if

%%EndSetup
setupLatin1
%%Page: 1 1
%%PageBoundingBox: 36 36 804 356
%%PageOrientation: Portrait
gsave
36 36 804 356 boxprim clip newpath
0 0 1 beginpage
1 1 set_scale 0 rotate 40 40 translate
% Node1
gsave
0.000 0.000 0.749 nodecolor
newpath 347 290 moveto
347 311 lineto
422 311 lineto
422 290 lineto
closepath fill
1 setlinewidth
filled
0.000 0.000 0.000 nodecolor
newpath 347 290 moveto
347 311 lineto
422 311 lineto
422 290 lineto
closepath stroke
0.000 0.000 0.000 nodecolor
10.00 /FreeSans.ttf set_font
384 297 moveto 59 -0.5 (leePDF.cpp) alignedtext
grestore
% Node2
gsave
1 setlinewidth
0.000 0.000 0.749 nodecolor
newpath 0 232 moveto
0 253 lineto
74 253 lineto
74 232 lineto
closepath stroke
0.000 0.000 0.000 nodecolor
10.00 /FreeSans.ttf set_font
37 239 moveto 58 -0.5 (sys/types.h) alignedtext
grestore
% Node1->Node2
gsave
1 setlinewidth
solid
0.667 0.776 0.439 edgecolor
newpath 347 296 moveto
291 288 184 273 84 254 curveto
stroke
0.667 0.776 0.439 edgecolor
newpath 84.4922 250.529 moveto
74 252 lineto
83.1194 257.393 lineto
closepath fill
1 setlinewidth
solid
0.667 0.776 0.439 edgecolor
newpath 84.4922 250.529 moveto
74 252 lineto
83.1194 257.393 lineto
closepath stroke
grestore
% Node3
gsave
1 setlinewidth
0.000 0.000 0.749 nodecolor
newpath 92 232 moveto
92 253 lineto
157 253 lineto
157 232 lineto
closepath stroke
0.000 0.000 0.000 nodecolor
10.00 /FreeSans.ttf set_font
124 239 moveto 49 -0.5 (sys/stat.h) alignedtext
grestore
% Node1->Node3
gsave
1 setlinewidth
solid
0.667 0.776 0.439 edgecolor
newpath 347 294 moveto
305 285 235 270 167 254 curveto
stroke
0.667 0.776 0.439 edgecolor
newpath 167.492 250.529 moveto
157 252 lineto
166.119 257.393 lineto
closepath fill
1 setlinewidth
solid
0.667 0.776 0.439 edgecolor
newpath 167.492 250.529 moveto
157 252 lineto
166.119 257.393 lineto
closepath stroke
grestore
% Node4
gsave
1 setlinewidth
0.000 0.000 0.749 nodecolor
newpath 174 232 moveto
174 253 lineto
229 253 lineto
229 232 lineto
closepath stroke
0.000 0.000 0.000 nodecolor
10.00 /FreeSans.ttf set_font
201 239 moveto 39 -0.5 (stdlib.h) alignedtext
grestore
% Node1->Node4
gsave
1 setlinewidth
solid
0.667 0.776 0.439 edgecolor
newpath 349 290 moveto
317 280 271 265 239 255 curveto
stroke
0.667 0.776 0.439 edgecolor
newpath 239.584 251.521 moveto
229 252 lineto
237.573 258.226 lineto
closepath fill
1 setlinewidth
solid
0.667 0.776 0.439 edgecolor
newpath 239.584 251.521 moveto
229 252 lineto
237.573 258.226 lineto
closepath stroke
grestore
% Node5
gsave
1 setlinewidth
0.000 0.000 0.749 nodecolor
newpath 246 232 moveto
246 253 lineto
298 253 lineto
298 232 lineto
closepath stroke
0.000 0.000 0.000 nodecolor
10.00 /FreeSans.ttf set_font
272 239 moveto 36 -0.5 (stdio.h) alignedtext
grestore
% Node1->Node5
gsave
1 setlinewidth
solid
0.667 0.776 0.439 edgecolor
newpath 363 290 moveto
345 281 320 267 300 258 curveto
stroke
0.667 0.776 0.439 edgecolor
newpath 301.441 254.797 moveto
291 253 lineto
298.042 260.916 lineto
closepath fill
1 setlinewidth
solid
0.667 0.776 0.439 edgecolor
newpath 301.441 254.797 moveto
291 253 lineto
298.042 260.916 lineto
closepath stroke
grestore
% Node6
gsave
1 setlinewidth
0.000 0.000 0.749 nodecolor
newpath 316 232 moveto
316 253 lineto
357 253 lineto
357 232 lineto
closepath stroke
0.000 0.000 0.000 nodecolor
10.00 /FreeSans.ttf set_font
336 239 moveto 25 -0.5 (err.h) alignedtext
grestore
% Node1->Node6
gsave
1 setlinewidth
solid
0.667 0.776 0.439 edgecolor
newpath 375 290 moveto
368 281 359 270 351 261 curveto
stroke
0.667 0.776 0.439 edgecolor
newpath 353.219 258.221 moveto
344 253 lineto
347.951 262.831 lineto
closepath fill
1 setlinewidth
solid
0.667 0.776 0.439 edgecolor
newpath 353.219 258.221 moveto
344 253 lineto
347.951 262.831 lineto
closepath stroke
grestore
% Node7
gsave
1 setlinewidth
0.000 0.000 0.749 nodecolor
newpath 442 0 moveto
442 21 lineto
488 21 lineto
488 0 lineto
closepath stroke
0.000 0.000 0.000 nodecolor
10.00 /FreeSans.ttf set_font
465 7 moveto 30 -0.5 (string) alignedtext
grestore
% Node1->Node7
gsave
1 setlinewidth
solid
0.667 0.776 0.439 edgecolor
newpath 422 294 moveto
447 287 478 275 497 254 curveto
518 230 516 216 516 185 curveto
516 185 516 185 516 127 curveto
516 89 494 51 479 29 curveto
stroke
0.667 0.776 0.439 edgecolor
newpath 481.8 26.9 moveto
473 21 lineto
476.2 31.1 lineto
closepath fill
1 setlinewidth
solid
0.667 0.776 0.439 edgecolor
newpath 481.8 26.9 moveto
473 21 lineto
476.2 31.1 lineto
closepath stroke
grestore
% Node8
gsave
1 setlinewidth
0.000 0.000 0.749 nodecolor
newpath 544 232 moveto
544 253 lineto
608 253 lineto
608 232 lineto
closepath stroke
0.000 0.000 0.000 nodecolor
10.00 /FreeSans.ttf set_font
576 239 moveto 48 -0.5 (iostream) alignedtext
grestore
% Node1->Node8
gsave
1 setlinewidth
solid
0.667 0.776 0.439 edgecolor
newpath 421 290 moveto
453 280 500 266 534 256 curveto
stroke
0.667 0.776 0.439 edgecolor
newpath 535.427 259.226 moveto
544 253 lineto
533.416 252.521 lineto
closepath fill
1 setlinewidth
solid
0.667 0.776 0.439 edgecolor
newpath 535.427 259.226 moveto
544 253 lineto
533.416 252.521 lineto
closepath stroke
grestore
% Node9
gsave
1 setlinewidth
0.000 0.000 0.749 nodecolor
newpath 626 232 moveto
626 253 lineto
684 253 lineto
684 232 lineto
closepath stroke
0.000 0.000 0.000 nodecolor
10.00 /FreeSans.ttf set_font
655 239 moveto 42 -0.5 (fstream) alignedtext
grestore
% Node1->Node9
gsave
1 setlinewidth
solid
0.667 0.776 0.439 edgecolor
newpath 422 294 moveto
466 286 542 272 616 254 curveto
stroke
0.667 0.776 0.439 edgecolor
newpath 617.427 257.226 moveto
626 251 lineto
615.416 250.521 lineto
closepath fill
1 setlinewidth
solid
0.667 0.776 0.439 edgecolor
newpath 617.427 257.226 moveto
626 251 lineto
615.416 250.521 lineto
closepath stroke
grestore
% Node10
gsave
1 setlinewidth
0.000 0.000 0.749 nodecolor
newpath 702 232 moveto
702 253 lineto
761 253 lineto
761 232 lineto
closepath stroke
0.000 0.000 0.000 nodecolor
10.00 /FreeSans.ttf set_font
731 239 moveto 43 -0.5 (unistd.h) alignedtext
grestore
% Node1->Node10
gsave
1 setlinewidth
solid
0.667 0.776 0.439 edgecolor
newpath 422 297 moveto
479 290 589 276 692 254 curveto
stroke
0.667 0.776 0.439 edgecolor
newpath 692.881 257.393 moveto
702 252 lineto
691.508 250.529 lineto
closepath fill
1 setlinewidth
solid
0.667 0.776 0.439 edgecolor
newpath 692.881 257.393 moveto
702 252 lineto
691.508 250.529 lineto
closepath stroke
grestore
% Node11
gsave
[ /Rect [ 308 175 404 195 ]
  /Border [ 0 0 0 ]
  /Action << /Subtype /URI /URI ($NodoTrieS_8hpp.html) >>
  /Subtype /Link
/ANN pdfmark
[ /Rect [ 308 175 404 195 ]
  /Border [ 0 0 0 ]
  /Action << /Subtype /URI /URI ($NodoTrieS_8hpp.html) >>
  /Subtype /Link
/ANN pdfmark
1 setlinewidth
0.000 0.000 0.000 nodecolor
newpath 308 174 moveto
308 195 lineto
404 195 lineto
404 174 lineto
closepath stroke
0.000 0.000 0.000 nodecolor
10.00 /FreeSans.ttf set_font
356 181 moveto 80 -0.5 (NodoTrieS.hpp) alignedtext
grestore
% Node1->Node11
gsave
1 setlinewidth
solid
0.667 0.776 0.439 edgecolor
newpath 381 290 moveto
377 271 367 230 361 205 curveto
stroke
0.667 0.776 0.439 edgecolor
newpath 364.226 203.573 moveto
358 195 lineto
357.521 205.584 lineto
closepath fill
1 setlinewidth
solid
0.667 0.776 0.439 edgecolor
newpath 364.226 203.573 moveto
358 195 lineto
357.521 205.584 lineto
closepath stroke
grestore
% Node18
gsave
[ /Rect [ 412 233 488 253 ]
  /Border [ 0 0 0 ]
  /Action << /Subtype /URI /URI ($leePDF_8hpp.html) >>
  /Subtype /Link
/ANN pdfmark
[ /Rect [ 412 233 488 253 ]
  /Border [ 0 0 0 ]
  /Action << /Subtype /URI /URI ($leePDF_8hpp.html) >>
  /Subtype /Link
/ANN pdfmark
1 setlinewidth
0.000 0.000 0.000 nodecolor
newpath 412 232 moveto
412 253 lineto
488 253 lineto
488 232 lineto
closepath stroke
0.000 0.000 0.000 nodecolor
10.00 /FreeSans.ttf set_font
450 239 moveto 60 -0.5 (leePDF.hpp) alignedtext
grestore
% Node1->Node18
gsave
1 setlinewidth
solid
0.667 0.776 0.439 edgecolor
newpath 397 290 moveto
407 281 420 269 431 260 curveto
stroke
0.667 0.776 0.439 edgecolor
newpath 433.779 262.219 moveto
439 253 lineto
429.169 256.951 lineto
closepath fill
1 setlinewidth
solid
0.667 0.776 0.439 edgecolor
newpath 433.779 262.219 moveto
439 253 lineto
429.169 256.951 lineto
closepath stroke
grestore
% Node11->Node7
gsave
1 setlinewidth
solid
0.667 0.776 0.439 edgecolor
newpath 363 174 moveto
381 145 430 66 453 30 curveto
stroke
0.667 0.776 0.439 edgecolor
newpath 456.203 31.4414 moveto
458 21 lineto
450.084 28.0418 lineto
closepath fill
1 setlinewidth
solid
0.667 0.776 0.439 edgecolor
newpath 456.203 31.4414 moveto
458 21 lineto
450.084 28.0418 lineto
closepath stroke
grestore
% Node12
gsave
1 setlinewidth
0.000 0.000 0.749 nodecolor
newpath 218 0 moveto
218 21 lineto
250 21 lineto
250 0 lineto
closepath stroke
0.000 0.000 0.000 nodecolor
10.00 /FreeSans.ttf set_font
234 7 moveto 16 -0.5 (set) alignedtext
grestore
% Node11->Node12
gsave
1 setlinewidth
solid
0.667 0.776 0.439 edgecolor
newpath 308 178 moveto
283 172 255 160 239 138 curveto
216 105 223 58 229 31 curveto
stroke
0.667 0.776 0.439 edgecolor
newpath 232.471 31.4922 moveto
231 21 lineto
225.607 30.1194 lineto
closepath fill
1 setlinewidth
solid
0.667 0.776 0.439 edgecolor
newpath 232.471 31.4922 moveto
231 21 lineto
225.607 30.1194 lineto
closepath stroke
grestore
% Node13
gsave
1 setlinewidth
0.000 0.000 0.749 nodecolor
newpath 324 116 moveto
324 137 lineto
374 137 lineto
374 116 lineto
closepath stroke
0.000 0.000 0.000 nodecolor
10.00 /FreeSans.ttf set_font
349 123 moveto 34 -0.5 (vector) alignedtext
grestore
% Node11->Node13
gsave
1 setlinewidth
solid
0.667 0.776 0.439 edgecolor
newpath 355 174 moveto
354 166 353 156 352 147 curveto
stroke
0.667 0.776 0.439 edgecolor
newpath 355.393 146.119 moveto
350 137 lineto
348.529 147.492 lineto
closepath fill
1 setlinewidth
solid
0.667 0.776 0.439 edgecolor
newpath 355.393 146.119 moveto
350 137 lineto
348.529 147.492 lineto
closepath stroke
grestore
% Node14
gsave
[ /Rect [ 248 117 306 137 ]
  /Border [ 0 0 0 ]
  /Action << /Subtype /URI /URI ($Pos_8hpp.html) >>
  /Subtype /Link
/ANN pdfmark
[ /Rect [ 248 117 306 137 ]
  /Border [ 0 0 0 ]
  /Action << /Subtype /URI /URI ($Pos_8hpp.html) >>
  /Subtype /Link
/ANN pdfmark
1 setlinewidth
0.000 0.000 0.000 nodecolor
newpath 248 116 moveto
248 137 lineto
306 137 lineto
306 116 lineto
closepath stroke
0.000 0.000 0.000 nodecolor
10.00 /FreeSans.ttf set_font
277 123 moveto 42 -0.5 (Pos.hpp) alignedtext
grestore
% Node11->Node14
gsave
1 setlinewidth
solid
0.667 0.776 0.439 edgecolor
newpath 341 174 moveto
329 165 312 153 299 143 curveto
stroke
0.667 0.776 0.439 edgecolor
newpath 301.1 140.2 moveto
291 137 lineto
296.9 145.8 lineto
closepath fill
1 setlinewidth
solid
0.667 0.776 0.439 edgecolor
newpath 301.1 140.2 moveto
291 137 lineto
296.9 145.8 lineto
closepath stroke
grestore
% Node15
gsave
[ /Rect [ 272 59 350 79 ]
  /Border [ 0 0 0 ]
  /Action << /Subtype /URI /URI ($comun_8hpp.html) >>
  /Subtype /Link
/ANN pdfmark
[ /Rect [ 272 59 350 79 ]
  /Border [ 0 0 0 ]
  /Action << /Subtype /URI /URI ($comun_8hpp.html) >>
  /Subtype /Link
/ANN pdfmark
1 setlinewidth
0.000 0.000 0.000 nodecolor
newpath 272 58 moveto
272 79 lineto
350 79 lineto
350 58 lineto
closepath stroke
0.000 0.000 0.000 nodecolor
10.00 /FreeSans.ttf set_font
311 65 moveto 62 -0.5 (comun.hpp) alignedtext
grestore
% Node14->Node15
gsave
1 setlinewidth
solid
0.667 0.776 0.439 edgecolor
newpath 284 116 moveto
288 108 295 97 300 88 curveto
stroke
0.667 0.776 0.439 edgecolor
newpath 303.203 89.4414 moveto
305 79 lineto
297.084 86.0418 lineto
closepath fill
1 setlinewidth
solid
0.667 0.776 0.439 edgecolor
newpath 303.203 89.4414 moveto
305 79 lineto
297.084 86.0418 lineto
closepath stroke
grestore
% Node15->Node7
gsave
1 setlinewidth
solid
0.667 0.776 0.439 edgecolor
newpath 340 58 moveto
367 48 405 34 433 24 curveto
stroke
0.667 0.776 0.439 edgecolor
newpath 434.283 27.2598 moveto
442 20 lineto
431.44 20.8631 lineto
closepath fill
1 setlinewidth
solid
0.667 0.776 0.439 edgecolor
newpath 434.283 27.2598 moveto
442 20 lineto
431.44 20.8631 lineto
closepath stroke
grestore
% Node15->Node12
gsave
1 setlinewidth
solid
0.667 0.776 0.439 edgecolor
newpath 296 58 moveto
285 49 268 37 255 27 curveto
stroke
0.667 0.776 0.439 edgecolor
newpath 257.1 24.2 moveto
247 21 lineto
252.9 29.8 lineto
closepath fill
1 setlinewidth
solid
0.667 0.776 0.439 edgecolor
newpath 257.1 24.2 moveto
247 21 lineto
252.9 29.8 lineto
closepath stroke
grestore
% Node16
gsave
1 setlinewidth
0.000 0.000 0.749 nodecolor
newpath 351 0 moveto
351 21 lineto
412 21 lineto
412 0 lineto
closepath stroke
0.000 0.000 0.000 nodecolor
10.00 /FreeSans.ttf set_font
381 7 moveto 45 -0.5 (ostream) alignedtext
grestore
% Node15->Node16
gsave
1 setlinewidth
solid
0.667 0.776 0.439 edgecolor
newpath 324 58 moveto
334 49 349 37 361 27 curveto
stroke
0.667 0.776 0.439 edgecolor
newpath 363.1 29.8 moveto
369 21 lineto
358.9 24.2 lineto
closepath fill
1 setlinewidth
solid
0.667 0.776 0.439 edgecolor
newpath 363.1 29.8 moveto
369 21 lineto
358.9 24.2 lineto
closepath stroke
grestore
% Node17
gsave
1 setlinewidth
0.000 0.000 0.749 nodecolor
newpath 275 0 moveto
275 21 lineto
334 21 lineto
334 0 lineto
closepath stroke
0.000 0.000 0.000 nodecolor
10.00 /FreeSans.ttf set_font
304 7 moveto 43 -0.5 (sstream) alignedtext
grestore
% Node15->Node17
gsave
1 setlinewidth
solid
0.667 0.776 0.439 edgecolor
newpath 310 58 moveto
309 50 308 40 307 31 curveto
stroke
0.667 0.776 0.439 edgecolor
newpath 310.393 30.1194 moveto
305 21 lineto
303.529 31.4922 lineto
closepath fill
1 setlinewidth
solid
0.667 0.776 0.439 edgecolor
newpath 310.393 30.1194 moveto
305 21 lineto
303.529 31.4922 lineto
closepath stroke
grestore
% Node18->Node7
gsave
1 setlinewidth
solid
0.667 0.776 0.439 edgecolor
newpath 451 232 moveto
454 195 461 79 463 31 curveto
stroke
0.667 0.776 0.439 edgecolor
newpath 466.488 31.2987 moveto
464 21 lineto
459.522 30.6021 lineto
closepath fill
1 setlinewidth
solid
0.667 0.776 0.439 edgecolor
newpath 466.488 31.2987 moveto
464 21 lineto
459.522 30.6021 lineto
closepath stroke
grestore
% Node18->Node11
gsave
1 setlinewidth
solid
0.667 0.776 0.439 edgecolor
newpath 432 232 moveto
418 223 397 210 381 200 curveto
stroke
0.667 0.776 0.439 edgecolor
newpath 382.441 196.797 moveto
372 195 lineto
379.042 202.916 lineto
closepath fill
1 setlinewidth
solid
0.667 0.776 0.439 edgecolor
newpath 382.441 196.797 moveto
372 195 lineto
379.042 202.916 lineto
closepath stroke
grestore
% Node18->Node15
gsave
1 setlinewidth
solid
0.667 0.776 0.439 edgecolor
newpath 446 232 moveto
438 208 415 152 383 116 curveto
372 103 356 92 342 84 curveto
stroke
0.667 0.776 0.439 edgecolor
newpath 343.441 80.7969 moveto
333 79 lineto
340.042 86.916 lineto
closepath fill
1 setlinewidth
solid
0.667 0.776 0.439 edgecolor
newpath 343.441 80.7969 moveto
333 79 lineto
340.042 86.916 lineto
closepath stroke
grestore
endpage
showpage
grestore
%%PageTrailer
%%EndPage: 1
%%Trailer
%%Pages: 1
%%BoundingBox: 36 36 804 356
end
restore
%%EOF
