%!PS-Adobe-2.0
%%Creator: Graphviz version 2.12 (Mon Nov 16 18:34:03 UTC 2009)
%%For: (vtamara) Vladimir
%%Title: G
%%Pages: (atend)
%%BoundingBox: (atend)
%%EndComments
save
%%BeginProlog
/DotDict 200 dict def
DotDict begin

/setupLatin1 {
mark
/EncodingVector 256 array def
 EncodingVector 0

ISOLatin1Encoding 0 255 getinterval putinterval
EncodingVector 45 /hyphen put

% Set up ISO Latin 1 character encoding
/starnetISO {
        dup dup findfont dup length dict begin
        { 1 index /FID ne { def }{ pop pop } ifelse
        } forall
        /Encoding EncodingVector def
        currentdict end definefont
} def
/Times-Roman starnetISO def
/Times-Italic starnetISO def
/Times-Bold starnetISO def
/Times-BoldItalic starnetISO def
/Helvetica starnetISO def
/Helvetica-Oblique starnetISO def
/Helvetica-Bold starnetISO def
/Helvetica-BoldOblique starnetISO def
/Courier starnetISO def
/Courier-Oblique starnetISO def
/Courier-Bold starnetISO def
/Courier-BoldOblique starnetISO def
cleartomark
} bind def

%%BeginResource: procset graphviz 0 0
/coord-font-family /Times-Roman def
/default-font-family /Times-Roman def
/coordfont coord-font-family findfont 8 scalefont def

/InvScaleFactor 1.0 def
/set_scale {
       dup 1 exch div /InvScaleFactor exch def
       scale
} bind def

% styles
/solid { [] 0 setdash } bind def
/dashed { [9 InvScaleFactor mul dup ] 0 setdash } bind def
/dotted { [1 InvScaleFactor mul 6 InvScaleFactor mul] 0 setdash } bind def
/invis {/fill {newpath} def /stroke {newpath} def /show {pop newpath} def} bind def
/bold { 2 setlinewidth } bind def
/filled { } bind def
/unfilled { } bind def
/rounded { } bind def
/diagonals { } bind def

% hooks for setting color 
/nodecolor { sethsbcolor } bind def
/edgecolor { sethsbcolor } bind def
/graphcolor { sethsbcolor } bind def
/nopcolor {pop pop pop} bind def

/beginpage {	% i j npages
	/npages exch def
	/j exch def
	/i exch def
	/str 10 string def
	npages 1 gt {
		gsave
			coordfont setfont
			0 0 moveto
			(\() show i str cvs show (,) show j str cvs show (\)) show
		grestore
	} if
} bind def

/set_font {
	findfont exch
	scalefont setfont
} def

% draw aligned label in bounding box aligned to current point
/alignedtext {			% width adj text
	/text exch def
	/adj exch def
	/width exch def
	gsave
		width 0 gt {
			text stringwidth pop adj mul 0 rmoveto
		} if
		[] 0 setdash
		text show
	grestore
} def

/boxprim {				% xcorner ycorner xsize ysize
		4 2 roll
		moveto
		2 copy
		exch 0 rlineto
		0 exch rlineto
		pop neg 0 rlineto
		closepath
} bind def

/ellipse_path {
	/ry exch def
	/rx exch def
	/y exch def
	/x exch def
	matrix currentmatrix
	newpath
	x y translate
	rx ry scale
	0 0 1 0 360 arc
	setmatrix
} bind def

/endpage { showpage } bind def
/showpage { } def

/layercolorseq
	[	% layer color sequence - darkest to lightest
		[0 0 0]
		[.2 .8 .8]
		[.4 .8 .8]
		[.6 .8 .8]
		[.8 .8 .8]
	]
def

/layerlen layercolorseq length def

/setlayer {/maxlayer exch def /curlayer exch def
	layercolorseq curlayer 1 sub layerlen mod get
	aload pop sethsbcolor
	/nodecolor {nopcolor} def
	/edgecolor {nopcolor} def
	/graphcolor {nopcolor} def
} bind def

/onlayer { curlayer ne {invis} if } def

/onlayers {
	/myupper exch def
	/mylower exch def
	curlayer mylower lt
	curlayer myupper gt
	or
	{invis} if
} def

/curlayer 0 def

%%EndResource
%%EndProlog
%%BeginSetup
14 default-font-family set_font
1 setmiterlimit
% /arrowlength 10 def
% /arrowwidth 5 def

% make sure pdfmark is harmless for PS-interpreters other than Distiller
/pdfmark where {pop} {userdict /pdfmark /cleartomark load put} ifelse
% make '<<' and '>>' safe on PS Level 1 devices
/languagelevel where {pop languagelevel}{1} ifelse
2 lt {
    userdict (<<) cvn ([) cvn load put
    userdict (>>) cvn ([) cvn load put
} if

%%EndSetup
setupLatin1
%%Page: 1 1
%%PageBoundingBox: 36 36 427 298
%%PageOrientation: Portrait
gsave
36 36 427 298 boxprim clip newpath
0 0 1 beginpage
1 1 set_scale 0 rotate 40 40 translate
% Node1
gsave
0.000 0.000 0.749 nodecolor
newpath 102 232 moveto
102 253 lineto
180 253 lineto
180 232 lineto
closepath fill
1 setlinewidth
filled
0.000 0.000 0.000 nodecolor
newpath 102 232 moveto
102 253 lineto
180 253 lineto
180 232 lineto
closepath stroke
0.000 0.000 0.000 nodecolor
10.00 /FreeSans.ttf set_font
141 239 moveto 62 -0.5 (leeXML.cpp) alignedtext
grestore
% Node2
gsave
1 setlinewidth
0.000 0.000 0.749 nodecolor
newpath 0 174 moveto
0 195 lineto
52 195 lineto
52 174 lineto
closepath stroke
0.000 0.000 0.000 nodecolor
10.00 /FreeSans.ttf set_font
26 181 moveto 36 -0.5 (stdio.h) alignedtext
grestore
% Node1->Node2
gsave
1 setlinewidth
solid
0.667 0.776 0.439 edgecolor
newpath 119 232 moveto
101 223 75 209 55 200 curveto
stroke
0.667 0.776 0.439 edgecolor
newpath 56.4414 196.797 moveto
46 195 lineto
53.0418 202.916 lineto
closepath fill
1 setlinewidth
solid
0.667 0.776 0.439 edgecolor
newpath 56.4414 196.797 moveto
46 195 lineto
53.0418 202.916 lineto
closepath stroke
grestore
% Node3
gsave
1 setlinewidth
0.000 0.000 0.749 nodecolor
newpath 70 174 moveto
70 195 lineto
134 195 lineto
134 174 lineto
closepath stroke
0.000 0.000 0.000 nodecolor
10.00 /FreeSans.ttf set_font
102 181 moveto 48 -0.5 (iostream) alignedtext
grestore
% Node1->Node3
gsave
1 setlinewidth
solid
0.667 0.776 0.439 edgecolor
newpath 133 232 moveto
128 224 120 213 114 204 curveto
stroke
0.667 0.776 0.439 edgecolor
newpath 116.916 202.042 moveto
109 195 lineto
110.797 205.441 lineto
closepath fill
1 setlinewidth
solid
0.667 0.776 0.439 edgecolor
newpath 116.916 202.042 moveto
109 195 lineto
110.797 205.441 lineto
closepath stroke
grestore
% Node4
gsave
1 setlinewidth
0.000 0.000 0.749 nodecolor
newpath 152 174 moveto
152 195 lineto
209 195 lineto
209 174 lineto
closepath stroke
0.000 0.000 0.000 nodecolor
10.00 /FreeSans.ttf set_font
180 181 moveto 41 -0.5 (expat.h) alignedtext
grestore
% Node1->Node4
gsave
1 setlinewidth
solid
0.667 0.776 0.439 edgecolor
newpath 149 232 moveto
154 224 162 213 168 204 curveto
stroke
0.667 0.776 0.439 edgecolor
newpath 171.203 205.441 moveto
173 195 lineto
165.084 202.042 lineto
closepath fill
1 setlinewidth
solid
0.667 0.776 0.439 edgecolor
newpath 171.203 205.441 moveto
173 195 lineto
165.084 202.042 lineto
closepath stroke
grestore
% Node5
gsave
[ /Rect [ 226 175 322 195 ]
  /Border [ 0 0 0 ]
  /Action << /Subtype /URI /URI ($NodoTrieS_8hpp.html) >>
  /Subtype /Link
/ANN pdfmark
[ /Rect [ 226 175 322 195 ]
  /Border [ 0 0 0 ]
  /Action << /Subtype /URI /URI ($NodoTrieS_8hpp.html) >>
  /Subtype /Link
/ANN pdfmark
1 setlinewidth
0.000 0.000 0.000 nodecolor
newpath 226 174 moveto
226 195 lineto
322 195 lineto
322 174 lineto
closepath stroke
0.000 0.000 0.000 nodecolor
10.00 /FreeSans.ttf set_font
274 181 moveto 80 -0.5 (NodoTrieS.hpp) alignedtext
grestore
% Node1->Node5
gsave
1 setlinewidth
solid
0.667 0.776 0.439 edgecolor
newpath 166 232 moveto
188 222 218 209 241 199 curveto
stroke
0.667 0.776 0.439 edgecolor
newpath 243.015 201.964 moveto
251 195 lineto
240.415 195.464 lineto
closepath fill
1 setlinewidth
solid
0.667 0.776 0.439 edgecolor
newpath 243.015 201.964 moveto
251 195 lineto
240.415 195.464 lineto
closepath stroke
grestore
% Node6
gsave
1 setlinewidth
0.000 0.000 0.749 nodecolor
newpath 100 0 moveto
100 21 lineto
132 21 lineto
132 0 lineto
closepath stroke
0.000 0.000 0.000 nodecolor
10.00 /FreeSans.ttf set_font
116 7 moveto 16 -0.5 (set) alignedtext
grestore
% Node5->Node6
gsave
1 setlinewidth
solid
0.667 0.776 0.439 edgecolor
newpath 254 174 moveto
239 165 219 152 205 138 curveto
170 104 141 56 126 30 curveto
stroke
0.667 0.776 0.439 edgecolor
newpath 128.916 28.0418 moveto
121 21 lineto
122.797 31.4414 lineto
closepath fill
1 setlinewidth
solid
0.667 0.776 0.439 edgecolor
newpath 128.916 28.0418 moveto
121 21 lineto
122.797 31.4414 lineto
closepath stroke
grestore
% Node7
gsave
1 setlinewidth
0.000 0.000 0.749 nodecolor
newpath 304 0 moveto
304 21 lineto
350 21 lineto
350 0 lineto
closepath stroke
0.000 0.000 0.000 nodecolor
10.00 /FreeSans.ttf set_font
327 7 moveto 30 -0.5 (string) alignedtext
grestore
% Node5->Node7
gsave
1 setlinewidth
solid
0.667 0.776 0.439 edgecolor
newpath 277 174 moveto
286 145 309 68 321 31 curveto
stroke
0.667 0.776 0.439 edgecolor
newpath 324.479 31.584 moveto
324 21 lineto
317.774 29.5725 lineto
closepath fill
1 setlinewidth
solid
0.667 0.776 0.439 edgecolor
newpath 324.479 31.584 moveto
324 21 lineto
317.774 29.5725 lineto
closepath stroke
grestore
% Node8
gsave
1 setlinewidth
0.000 0.000 0.749 nodecolor
newpath 333 116 moveto
333 137 lineto
383 137 lineto
383 116 lineto
closepath stroke
0.000 0.000 0.000 nodecolor
10.00 /FreeSans.ttf set_font
358 123 moveto 34 -0.5 (vector) alignedtext
grestore
% Node5->Node8
gsave
1 setlinewidth
solid
0.667 0.776 0.439 edgecolor
newpath 290 174 moveto
303 165 321 152 336 143 curveto
stroke
0.667 0.776 0.439 edgecolor
newpath 338.1 145.8 moveto
344 137 lineto
333.9 140.2 lineto
closepath fill
1 setlinewidth
solid
0.667 0.776 0.439 edgecolor
newpath 338.1 145.8 moveto
344 137 lineto
333.9 140.2 lineto
closepath stroke
grestore
% Node9
gsave
[ /Rect [ 214 117 272 137 ]
  /Border [ 0 0 0 ]
  /Action << /Subtype /URI /URI ($Pos_8hpp.html) >>
  /Subtype /Link
/ANN pdfmark
[ /Rect [ 214 117 272 137 ]
  /Border [ 0 0 0 ]
  /Action << /Subtype /URI /URI ($Pos_8hpp.html) >>
  /Subtype /Link
/ANN pdfmark
1 setlinewidth
0.000 0.000 0.000 nodecolor
newpath 214 116 moveto
214 137 lineto
272 137 lineto
272 116 lineto
closepath stroke
0.000 0.000 0.000 nodecolor
10.00 /FreeSans.ttf set_font
243 123 moveto 42 -0.5 (Pos.hpp) alignedtext
grestore
% Node5->Node9
gsave
1 setlinewidth
solid
0.667 0.776 0.439 edgecolor
newpath 268 174 moveto
264 166 258 155 253 146 curveto
stroke
0.667 0.776 0.439 edgecolor
newpath 255.916 144.042 moveto
248 137 lineto
249.797 147.441 lineto
closepath fill
1 setlinewidth
solid
0.667 0.776 0.439 edgecolor
newpath 255.916 144.042 moveto
248 137 lineto
249.797 147.441 lineto
closepath stroke
grestore
% Node10
gsave
[ /Rect [ 199 59 277 79 ]
  /Border [ 0 0 0 ]
  /Action << /Subtype /URI /URI ($comun_8hpp.html) >>
  /Subtype /Link
/ANN pdfmark
[ /Rect [ 199 59 277 79 ]
  /Border [ 0 0 0 ]
  /Action << /Subtype /URI /URI ($comun_8hpp.html) >>
  /Subtype /Link
/ANN pdfmark
1 setlinewidth
0.000 0.000 0.000 nodecolor
newpath 199 58 moveto
199 79 lineto
277 79 lineto
277 58 lineto
closepath stroke
0.000 0.000 0.000 nodecolor
10.00 /FreeSans.ttf set_font
238 65 moveto 62 -0.5 (comun.hpp) alignedtext
grestore
% Node9->Node10
gsave
1 setlinewidth
solid
0.667 0.776 0.439 edgecolor
newpath 242 116 moveto
241 108 241 98 240 89 curveto
stroke
0.667 0.776 0.439 edgecolor
newpath 243.478 88.6021 moveto
239 79 lineto
236.512 89.2987 lineto
closepath fill
1 setlinewidth
solid
0.667 0.776 0.439 edgecolor
newpath 243.478 88.6021 moveto
239 79 lineto
236.512 89.2987 lineto
closepath stroke
grestore
% Node10->Node6
gsave
1 setlinewidth
solid
0.667 0.776 0.439 edgecolor
newpath 215 58 moveto
193 48 163 33 141 23 curveto
stroke
0.667 0.776 0.439 edgecolor
newpath 142.56 19.8631 moveto
132 19 lineto
139.717 26.2598 lineto
closepath fill
1 setlinewidth
solid
0.667 0.776 0.439 edgecolor
newpath 142.56 19.8631 moveto
132 19 lineto
139.717 26.2598 lineto
closepath stroke
grestore
% Node10->Node7
gsave
1 setlinewidth
solid
0.667 0.776 0.439 edgecolor
newpath 255 58 moveto
268 49 288 36 303 26 curveto
stroke
0.667 0.776 0.439 edgecolor
newpath 304.958 28.916 moveto
312 21 lineto
301.559 22.7969 lineto
closepath fill
1 setlinewidth
solid
0.667 0.776 0.439 edgecolor
newpath 304.958 28.916 moveto
312 21 lineto
301.559 22.7969 lineto
closepath stroke
grestore
% Node11
gsave
1 setlinewidth
0.000 0.000 0.749 nodecolor
newpath 150 0 moveto
150 21 lineto
211 21 lineto
211 0 lineto
closepath stroke
0.000 0.000 0.000 nodecolor
10.00 /FreeSans.ttf set_font
180 7 moveto 45 -0.5 (ostream) alignedtext
grestore
% Node10->Node11
gsave
1 setlinewidth
solid
0.667 0.776 0.439 edgecolor
newpath 227 58 moveto
218 49 207 38 197 28 curveto
stroke
0.667 0.776 0.439 edgecolor
newpath 199.546 25.5962 moveto
190 21 lineto
194.596 30.546 lineto
closepath fill
1 setlinewidth
solid
0.667 0.776 0.439 edgecolor
newpath 199.546 25.5962 moveto
190 21 lineto
194.596 30.546 lineto
closepath stroke
grestore
% Node12
gsave
1 setlinewidth
0.000 0.000 0.749 nodecolor
newpath 228 0 moveto
228 21 lineto
287 21 lineto
287 0 lineto
closepath stroke
0.000 0.000 0.000 nodecolor
10.00 /FreeSans.ttf set_font
257 7 moveto 43 -0.5 (sstream) alignedtext
grestore
% Node10->Node12
gsave
1 setlinewidth
solid
0.667 0.776 0.439 edgecolor
newpath 242 58 moveto
244 50 247 40 250 31 curveto
stroke
0.667 0.776 0.439 edgecolor
newpath 253.536 31.5847 moveto
254 21 lineto
247.036 28.9849 lineto
closepath fill
1 setlinewidth
solid
0.667 0.776 0.439 edgecolor
newpath 253.536 31.5847 moveto
254 21 lineto
247.036 28.9849 lineto
closepath stroke
grestore
endpage
showpage
grestore
%%PageTrailer
%%EndPage: 1
%%Trailer
%%Pages: 1
%%BoundingBox: 36 36 427 298
end
restore
%%EOF
