%!PS-Adobe-2.0
%%Creator: Graphviz version 2.12 (Mon Nov 16 18:34:03 UTC 2009)
%%For: (vtamara) Vladimir
%%Title: G
%%Pages: (atend)
%%BoundingBox: (atend)
%%EndComments
save
%%BeginProlog
/DotDict 200 dict def
DotDict begin

/setupLatin1 {
mark
/EncodingVector 256 array def
 EncodingVector 0

ISOLatin1Encoding 0 255 getinterval putinterval
EncodingVector 45 /hyphen put

% Set up ISO Latin 1 character encoding
/starnetISO {
        dup dup findfont dup length dict begin
        { 1 index /FID ne { def }{ pop pop } ifelse
        } forall
        /Encoding EncodingVector def
        currentdict end definefont
} def
/Times-Roman starnetISO def
/Times-Italic starnetISO def
/Times-Bold starnetISO def
/Times-BoldItalic starnetISO def
/Helvetica starnetISO def
/Helvetica-Oblique starnetISO def
/Helvetica-Bold starnetISO def
/Helvetica-BoldOblique starnetISO def
/Courier starnetISO def
/Courier-Oblique starnetISO def
/Courier-Bold starnetISO def
/Courier-BoldOblique starnetISO def
cleartomark
} bind def

%%BeginResource: procset graphviz 0 0
/coord-font-family /Times-Roman def
/default-font-family /Times-Roman def
/coordfont coord-font-family findfont 8 scalefont def

/InvScaleFactor 1.0 def
/set_scale {
       dup 1 exch div /InvScaleFactor exch def
       scale
} bind def

% styles
/solid { [] 0 setdash } bind def
/dashed { [9 InvScaleFactor mul dup ] 0 setdash } bind def
/dotted { [1 InvScaleFactor mul 6 InvScaleFactor mul] 0 setdash } bind def
/invis {/fill {newpath} def /stroke {newpath} def /show {pop newpath} def} bind def
/bold { 2 setlinewidth } bind def
/filled { } bind def
/unfilled { } bind def
/rounded { } bind def
/diagonals { } bind def

% hooks for setting color 
/nodecolor { sethsbcolor } bind def
/edgecolor { sethsbcolor } bind def
/graphcolor { sethsbcolor } bind def
/nopcolor {pop pop pop} bind def

/beginpage {	% i j npages
	/npages exch def
	/j exch def
	/i exch def
	/str 10 string def
	npages 1 gt {
		gsave
			coordfont setfont
			0 0 moveto
			(\() show i str cvs show (,) show j str cvs show (\)) show
		grestore
	} if
} bind def

/set_font {
	findfont exch
	scalefont setfont
} def

% draw aligned label in bounding box aligned to current point
/alignedtext {			% width adj text
	/text exch def
	/adj exch def
	/width exch def
	gsave
		width 0 gt {
			text stringwidth pop adj mul 0 rmoveto
		} if
		[] 0 setdash
		text show
	grestore
} def

/boxprim {				% xcorner ycorner xsize ysize
		4 2 roll
		moveto
		2 copy
		exch 0 rlineto
		0 exch rlineto
		pop neg 0 rlineto
		closepath
} bind def

/ellipse_path {
	/ry exch def
	/rx exch def
	/y exch def
	/x exch def
	matrix currentmatrix
	newpath
	x y translate
	rx ry scale
	0 0 1 0 360 arc
	setmatrix
} bind def

/endpage { showpage } bind def
/showpage { } def

/layercolorseq
	[	% layer color sequence - darkest to lightest
		[0 0 0]
		[.2 .8 .8]
		[.4 .8 .8]
		[.6 .8 .8]
		[.8 .8 .8]
	]
def

/layerlen layercolorseq length def

/setlayer {/maxlayer exch def /curlayer exch def
	layercolorseq curlayer 1 sub layerlen mod get
	aload pop sethsbcolor
	/nodecolor {nopcolor} def
	/edgecolor {nopcolor} def
	/graphcolor {nopcolor} def
} bind def

/onlayer { curlayer ne {invis} if } def

/onlayers {
	/myupper exch def
	/mylower exch def
	curlayer mylower lt
	curlayer myupper gt
	or
	{invis} if
} def

/curlayer 0 def

%%EndResource
%%EndProlog
%%BeginSetup
14 default-font-family set_font
1 setmiterlimit
% /arrowlength 10 def
% /arrowwidth 5 def

% make sure pdfmark is harmless for PS-interpreters other than Distiller
/pdfmark where {pop} {userdict /pdfmark /cleartomark load put} ifelse
% make '<<' and '>>' safe on PS Level 1 devices
/languagelevel where {pop languagelevel}{1} ifelse
2 lt {
    userdict (<<) cvn ([) cvn load put
    userdict (>>) cvn ([) cvn load put
} if

%%EndSetup
setupLatin1
%%Page: 1 1
%%PageBoundingBox: 36 36 308 298
%%PageOrientation: Portrait
gsave
36 36 308 298 boxprim clip newpath
0 0 1 beginpage
1 1 set_scale 0 rotate 40 40 translate
% Node1
gsave
0.000 0.000 0.749 nodecolor
newpath 142 232 moveto
142 253 lineto
221 253 lineto
221 232 lineto
closepath fill
1 setlinewidth
filled
0.000 0.000 0.000 nodecolor
newpath 142 232 moveto
142 253 lineto
221 253 lineto
221 232 lineto
closepath stroke
0.000 0.000 0.000 nodecolor
10.00 /FreeSans.ttf set_font
181 239 moveto 63 -0.5 (leeXML.hpp) alignedtext
grestore
% Node2
gsave
1 setlinewidth
0.000 0.000 0.749 nodecolor
newpath 0 0 moveto
0 21 lineto
32 21 lineto
32 0 lineto
closepath stroke
0.000 0.000 0.000 nodecolor
10.00 /FreeSans.ttf set_font
16 7 moveto 16 -0.5 (set) alignedtext
grestore
% Node1->Node2
gsave
1 setlinewidth
solid
0.667 0.776 0.439 edgecolor
newpath 148 232 moveto
129 224 104 212 86 196 curveto
43 157 41 136 25 80 curveto
21 64 19 45 18 31 curveto
stroke
0.667 0.776 0.439 edgecolor
newpath 21.4778 30.6021 moveto
17 21 lineto
14.5125 31.2987 lineto
closepath fill
1 setlinewidth
solid
0.667 0.776 0.439 edgecolor
newpath 21.4778 30.6021 moveto
17 21 lineto
14.5125 31.2987 lineto
closepath stroke
grestore
% Node3
gsave
1 setlinewidth
0.000 0.000 0.749 nodecolor
newpath 204 0 moveto
204 21 lineto
250 21 lineto
250 0 lineto
closepath stroke
0.000 0.000 0.000 nodecolor
10.00 /FreeSans.ttf set_font
227 7 moveto 30 -0.5 (string) alignedtext
grestore
% Node1->Node3
gsave
1 setlinewidth
solid
0.667 0.776 0.439 edgecolor
newpath 192 232 moveto
209 214 241 177 253 138 curveto
264 100 248 55 236 30 curveto
stroke
0.667 0.776 0.439 edgecolor
newpath 239.26 28.7166 moveto
232 21 lineto
232.863 31.5596 lineto
closepath fill
1 setlinewidth
solid
0.667 0.776 0.439 edgecolor
newpath 239.26 28.7166 moveto
232 21 lineto
232.863 31.5596 lineto
closepath stroke
grestore
% Node4
gsave
1 setlinewidth
0.000 0.000 0.749 nodecolor
newpath 194 116 moveto
194 137 lineto
244 137 lineto
244 116 lineto
closepath stroke
0.000 0.000 0.000 nodecolor
10.00 /FreeSans.ttf set_font
219 123 moveto 34 -0.5 (vector) alignedtext
grestore
% Node1->Node4
gsave
1 setlinewidth
solid
0.667 0.776 0.439 edgecolor
newpath 186 232 moveto
190 222 195 208 200 196 curveto
206 179 210 161 214 147 curveto
stroke
0.667 0.776 0.439 edgecolor
newpath 217.471 147.492 moveto
216 137 lineto
210.607 146.119 lineto
closepath fill
1 setlinewidth
solid
0.667 0.776 0.439 edgecolor
newpath 217.471 147.492 moveto
216 137 lineto
210.607 146.119 lineto
closepath stroke
grestore
% Node5
gsave
[ /Rect [ 95 175 191 195 ]
  /Border [ 0 0 0 ]
  /Action << /Subtype /URI /URI ($NodoTrieS_8hpp.html) >>
  /Subtype /Link
/ANN pdfmark
[ /Rect [ 95 175 191 195 ]
  /Border [ 0 0 0 ]
  /Action << /Subtype /URI /URI ($NodoTrieS_8hpp.html) >>
  /Subtype /Link
/ANN pdfmark
1 setlinewidth
0.000 0.000 0.000 nodecolor
newpath 95 174 moveto
95 195 lineto
191 195 lineto
191 174 lineto
closepath stroke
0.000 0.000 0.000 nodecolor
10.00 /FreeSans.ttf set_font
143 181 moveto 80 -0.5 (NodoTrieS.hpp) alignedtext
grestore
% Node1->Node5
gsave
1 setlinewidth
solid
0.667 0.776 0.439 edgecolor
newpath 174 232 moveto
169 224 161 213 155 204 curveto
stroke
0.667 0.776 0.439 edgecolor
newpath 157.916 202.042 moveto
150 195 lineto
151.797 205.441 lineto
closepath fill
1 setlinewidth
solid
0.667 0.776 0.439 edgecolor
newpath 157.916 202.042 moveto
150 195 lineto
151.797 205.441 lineto
closepath stroke
grestore
% Node5->Node2
gsave
1 setlinewidth
solid
0.667 0.776 0.439 edgecolor
newpath 116 174 moveto
100 166 79 154 66 138 curveto
40 106 26 58 20 31 curveto
stroke
0.667 0.776 0.439 edgecolor
newpath 23.3933 30.1194 moveto
18 21 lineto
16.5292 31.4922 lineto
closepath fill
1 setlinewidth
solid
0.667 0.776 0.439 edgecolor
newpath 23.3933 30.1194 moveto
18 21 lineto
16.5292 31.4922 lineto
closepath stroke
grestore
% Node5->Node3
gsave
1 setlinewidth
solid
0.667 0.776 0.439 edgecolor
newpath 148 174 moveto
163 145 200 67 218 30 curveto
stroke
0.667 0.776 0.439 edgecolor
newpath 221.137 31.5596 moveto
222 21 lineto
214.74 28.7166 lineto
closepath fill
1 setlinewidth
solid
0.667 0.776 0.439 edgecolor
newpath 221.137 31.5596 moveto
222 21 lineto
214.74 28.7166 lineto
closepath stroke
grestore
% Node5->Node4
gsave
1 setlinewidth
solid
0.667 0.776 0.439 edgecolor
newpath 158 174 moveto
169 165 185 153 198 143 curveto
stroke
0.667 0.776 0.439 edgecolor
newpath 200.1 145.8 moveto
206 137 lineto
195.9 140.2 lineto
closepath fill
1 setlinewidth
solid
0.667 0.776 0.439 edgecolor
newpath 200.1 145.8 moveto
206 137 lineto
195.9 140.2 lineto
closepath stroke
grestore
% Node6
gsave
[ /Rect [ 75 117 133 137 ]
  /Border [ 0 0 0 ]
  /Action << /Subtype /URI /URI ($Pos_8hpp.html) >>
  /Subtype /Link
/ANN pdfmark
[ /Rect [ 75 117 133 137 ]
  /Border [ 0 0 0 ]
  /Action << /Subtype /URI /URI ($Pos_8hpp.html) >>
  /Subtype /Link
/ANN pdfmark
1 setlinewidth
0.000 0.000 0.000 nodecolor
newpath 75 116 moveto
75 137 lineto
133 137 lineto
133 116 lineto
closepath stroke
0.000 0.000 0.000 nodecolor
10.00 /FreeSans.ttf set_font
104 123 moveto 42 -0.5 (Pos.hpp) alignedtext
grestore
% Node5->Node6
gsave
1 setlinewidth
solid
0.667 0.776 0.439 edgecolor
newpath 135 174 moveto
130 166 122 155 116 146 curveto
stroke
0.667 0.776 0.439 edgecolor
newpath 118.916 144.042 moveto
111 137 lineto
112.797 147.441 lineto
closepath fill
1 setlinewidth
solid
0.667 0.776 0.439 edgecolor
newpath 118.916 144.042 moveto
111 137 lineto
112.797 147.441 lineto
closepath stroke
grestore
% Node7
gsave
[ /Rect [ 63 59 141 79 ]
  /Border [ 0 0 0 ]
  /Action << /Subtype /URI /URI ($comun_8hpp.html) >>
  /Subtype /Link
/ANN pdfmark
[ /Rect [ 63 59 141 79 ]
  /Border [ 0 0 0 ]
  /Action << /Subtype /URI /URI ($comun_8hpp.html) >>
  /Subtype /Link
/ANN pdfmark
1 setlinewidth
0.000 0.000 0.000 nodecolor
newpath 63 58 moveto
63 79 lineto
141 79 lineto
141 58 lineto
closepath stroke
0.000 0.000 0.000 nodecolor
10.00 /FreeSans.ttf set_font
102 65 moveto 62 -0.5 (comun.hpp) alignedtext
grestore
% Node6->Node7
gsave
1 setlinewidth
solid
0.667 0.776 0.439 edgecolor
newpath 104 116 moveto
103 108 103 98 103 89 curveto
stroke
0.667 0.776 0.439 edgecolor
newpath 106.478 88.6021 moveto
102 79 lineto
99.5125 89.2987 lineto
closepath fill
1 setlinewidth
solid
0.667 0.776 0.439 edgecolor
newpath 106.478 88.6021 moveto
102 79 lineto
99.5125 89.2987 lineto
closepath stroke
grestore
% Node7->Node2
gsave
1 setlinewidth
solid
0.667 0.776 0.439 edgecolor
newpath 85 58 moveto
72 49 54 36 39 27 curveto
stroke
0.667 0.776 0.439 edgecolor
newpath 41.1 24.2 moveto
31 21 lineto
36.9 29.8 lineto
closepath fill
1 setlinewidth
solid
0.667 0.776 0.439 edgecolor
newpath 41.1 24.2 moveto
31 21 lineto
36.9 29.8 lineto
closepath stroke
grestore
% Node7->Node3
gsave
1 setlinewidth
solid
0.667 0.776 0.439 edgecolor
newpath 126 58 moveto
146 48 174 35 196 25 curveto
stroke
0.667 0.776 0.439 edgecolor
newpath 197.283 28.2598 moveto
205 21 lineto
194.44 21.8631 lineto
closepath fill
1 setlinewidth
solid
0.667 0.776 0.439 edgecolor
newpath 197.283 28.2598 moveto
205 21 lineto
194.44 21.8631 lineto
closepath stroke
grestore
% Node8
gsave
1 setlinewidth
0.000 0.000 0.749 nodecolor
newpath 50 0 moveto
50 21 lineto
111 21 lineto
111 0 lineto
closepath stroke
0.000 0.000 0.000 nodecolor
10.00 /FreeSans.ttf set_font
80 7 moveto 45 -0.5 (ostream) alignedtext
grestore
% Node7->Node8
gsave
1 setlinewidth
solid
0.667 0.776 0.439 edgecolor
newpath 98 58 moveto
95 50 91 39 88 30 curveto
stroke
0.667 0.776 0.439 edgecolor
newpath 91.2598 28.7166 moveto
84 21 lineto
84.8631 31.5596 lineto
closepath fill
1 setlinewidth
solid
0.667 0.776 0.439 edgecolor
newpath 91.2598 28.7166 moveto
84 21 lineto
84.8631 31.5596 lineto
closepath stroke
grestore
% Node9
gsave
1 setlinewidth
0.000 0.000 0.749 nodecolor
newpath 128 0 moveto
128 21 lineto
187 21 lineto
187 0 lineto
closepath stroke
0.000 0.000 0.000 nodecolor
10.00 /FreeSans.ttf set_font
157 7 moveto 43 -0.5 (sstream) alignedtext
grestore
% Node7->Node9
gsave
1 setlinewidth
solid
0.667 0.776 0.439 edgecolor
newpath 113 58 moveto
121 49 132 38 141 28 curveto
stroke
0.667 0.776 0.439 edgecolor
newpath 143.404 30.546 moveto
148 21 lineto
138.454 25.5962 lineto
closepath fill
1 setlinewidth
solid
0.667 0.776 0.439 edgecolor
newpath 143.404 30.546 moveto
148 21 lineto
138.454 25.5962 lineto
closepath stroke
grestore
endpage
showpage
grestore
%%PageTrailer
%%EndPage: 1
%%Trailer
%%Pages: 1
%%BoundingBox: 36 36 308 298
end
restore
%%EOF
