%!PS-Adobe-2.0
%%Creator: Graphviz version 2.12 (Mon Nov 16 18:34:03 UTC 2009)
%%For: (vtamara) Vladimir
%%Title: G
%%Pages: (atend)
%%BoundingBox: (atend)
%%EndComments
save
%%BeginProlog
/DotDict 200 dict def
DotDict begin

/setupLatin1 {
mark
/EncodingVector 256 array def
 EncodingVector 0

ISOLatin1Encoding 0 255 getinterval putinterval
EncodingVector 45 /hyphen put

% Set up ISO Latin 1 character encoding
/starnetISO {
        dup dup findfont dup length dict begin
        { 1 index /FID ne { def }{ pop pop } ifelse
        } forall
        /Encoding EncodingVector def
        currentdict end definefont
} def
/Times-Roman starnetISO def
/Times-Italic starnetISO def
/Times-Bold starnetISO def
/Times-BoldItalic starnetISO def
/Helvetica starnetISO def
/Helvetica-Oblique starnetISO def
/Helvetica-Bold starnetISO def
/Helvetica-BoldOblique starnetISO def
/Courier starnetISO def
/Courier-Oblique starnetISO def
/Courier-Bold starnetISO def
/Courier-BoldOblique starnetISO def
cleartomark
} bind def

%%BeginResource: procset graphviz 0 0
/coord-font-family /Times-Roman def
/default-font-family /Times-Roman def
/coordfont coord-font-family findfont 8 scalefont def

/InvScaleFactor 1.0 def
/set_scale {
       dup 1 exch div /InvScaleFactor exch def
       scale
} bind def

% styles
/solid { [] 0 setdash } bind def
/dashed { [9 InvScaleFactor mul dup ] 0 setdash } bind def
/dotted { [1 InvScaleFactor mul 6 InvScaleFactor mul] 0 setdash } bind def
/invis {/fill {newpath} def /stroke {newpath} def /show {pop newpath} def} bind def
/bold { 2 setlinewidth } bind def
/filled { } bind def
/unfilled { } bind def
/rounded { } bind def
/diagonals { } bind def

% hooks for setting color 
/nodecolor { sethsbcolor } bind def
/edgecolor { sethsbcolor } bind def
/graphcolor { sethsbcolor } bind def
/nopcolor {pop pop pop} bind def

/beginpage {	% i j npages
	/npages exch def
	/j exch def
	/i exch def
	/str 10 string def
	npages 1 gt {
		gsave
			coordfont setfont
			0 0 moveto
			(\() show i str cvs show (,) show j str cvs show (\)) show
		grestore
	} if
} bind def

/set_font {
	findfont exch
	scalefont setfont
} def

% draw aligned label in bounding box aligned to current point
/alignedtext {			% width adj text
	/text exch def
	/adj exch def
	/width exch def
	gsave
		width 0 gt {
			text stringwidth pop adj mul 0 rmoveto
		} if
		[] 0 setdash
		text show
	grestore
} def

/boxprim {				% xcorner ycorner xsize ysize
		4 2 roll
		moveto
		2 copy
		exch 0 rlineto
		0 exch rlineto
		pop neg 0 rlineto
		closepath
} bind def

/ellipse_path {
	/ry exch def
	/rx exch def
	/y exch def
	/x exch def
	matrix currentmatrix
	newpath
	x y translate
	rx ry scale
	0 0 1 0 360 arc
	setmatrix
} bind def

/endpage { showpage } bind def
/showpage { } def

/layercolorseq
	[	% layer color sequence - darkest to lightest
		[0 0 0]
		[.2 .8 .8]
		[.4 .8 .8]
		[.6 .8 .8]
		[.8 .8 .8]
	]
def

/layerlen layercolorseq length def

/setlayer {/maxlayer exch def /curlayer exch def
	layercolorseq curlayer 1 sub layerlen mod get
	aload pop sethsbcolor
	/nodecolor {nopcolor} def
	/edgecolor {nopcolor} def
	/graphcolor {nopcolor} def
} bind def

/onlayer { curlayer ne {invis} if } def

/onlayers {
	/myupper exch def
	/mylower exch def
	curlayer mylower lt
	curlayer myupper gt
	or
	{invis} if
} def

/curlayer 0 def

%%EndResource
%%EndProlog
%%BeginSetup
14 default-font-family set_font
1 setmiterlimit
% /arrowlength 10 def
% /arrowwidth 5 def

% make sure pdfmark is harmless for PS-interpreters other than Distiller
/pdfmark where {pop} {userdict /pdfmark /cleartomark load put} ifelse
% make '<<' and '>>' safe on PS Level 1 devices
/languagelevel where {pop languagelevel}{1} ifelse
2 lt {
    userdict (<<) cvn ([) cvn load put
    userdict (>>) cvn ([) cvn load put
} if

%%EndSetup
setupLatin1
%%Page: 1 1
%%PageBoundingBox: 36 36 693 298
%%PageOrientation: Portrait
gsave
36 36 693 298 boxprim clip newpath
0 0 1 beginpage
1 1 set_scale 0 rotate 40 40 translate
% Node1
gsave
0.000 0.000 0.749 nodecolor
newpath 253 232 moveto
253 253 lineto
348 253 lineto
348 232 lineto
closepath fill
1 setlinewidth
filled
0.000 0.000 0.000 nodecolor
newpath 253 232 moveto
253 253 lineto
348 253 lineto
348 232 lineto
closepath stroke
0.000 0.000 0.000 nodecolor
10.00 /FreeSans.ttf set_font
300 239 moveto 79 -0.5 (NodoTrieS.cpp) alignedtext
grestore
% Node2
gsave
1 setlinewidth
0.000 0.000 0.749 nodecolor
newpath 0 174 moveto
0 195 lineto
64 195 lineto
64 174 lineto
closepath stroke
0.000 0.000 0.000 nodecolor
10.00 /FreeSans.ttf set_font
32 181 moveto 48 -0.5 (iostream) alignedtext
grestore
% Node1->Node2
gsave
1 setlinewidth
solid
0.667 0.776 0.439 edgecolor
newpath 253 234 moveto
209 225 142 211 74 196 curveto
stroke
0.667 0.776 0.439 edgecolor
newpath 74.4922 192.529 moveto
64 194 lineto
73.1194 199.393 lineto
closepath fill
1 setlinewidth
solid
0.667 0.776 0.439 edgecolor
newpath 74.4922 192.529 moveto
64 194 lineto
73.1194 199.393 lineto
closepath stroke
grestore
% Node3
gsave
1 setlinewidth
0.000 0.000 0.749 nodecolor
newpath 82 174 moveto
82 195 lineto
143 195 lineto
143 174 lineto
closepath stroke
0.000 0.000 0.000 nodecolor
10.00 /FreeSans.ttf set_font
112 181 moveto 45 -0.5 (iomanip) alignedtext
grestore
% Node1->Node3
gsave
1 setlinewidth
solid
0.667 0.776 0.439 edgecolor
newpath 264 232 moveto
232 222 186 208 153 198 curveto
stroke
0.667 0.776 0.439 edgecolor
newpath 153.584 194.521 moveto
143 195 lineto
151.573 201.226 lineto
closepath fill
1 setlinewidth
solid
0.667 0.776 0.439 edgecolor
newpath 153.584 194.521 moveto
143 195 lineto
151.573 201.226 lineto
closepath stroke
grestore
% Node4
gsave
1 setlinewidth
0.000 0.000 0.749 nodecolor
newpath 160 174 moveto
160 195 lineto
191 195 lineto
191 174 lineto
closepath stroke
0.000 0.000 0.000 nodecolor
10.00 /FreeSans.ttf set_font
175 181 moveto 15 -0.5 (list) alignedtext
grestore
% Node1->Node4
gsave
1 setlinewidth
solid
0.667 0.776 0.439 edgecolor
newpath 276 232 moveto
254 222 223 207 200 196 curveto
stroke
0.667 0.776 0.439 edgecolor
newpath 201.56 192.863 moveto
191 192 lineto
198.717 199.26 lineto
closepath fill
1 setlinewidth
solid
0.667 0.776 0.439 edgecolor
newpath 201.56 192.863 moveto
191 192 lineto
198.717 199.26 lineto
closepath stroke
grestore
% Node5
gsave
1 setlinewidth
0.000 0.000 0.749 nodecolor
newpath 239 116 moveto
239 137 lineto
289 137 lineto
289 116 lineto
closepath stroke
0.000 0.000 0.000 nodecolor
10.00 /FreeSans.ttf set_font
264 123 moveto 34 -0.5 (vector) alignedtext
grestore
% Node1->Node5
gsave
1 setlinewidth
solid
0.667 0.776 0.439 edgecolor
newpath 295 232 moveto
290 222 285 208 281 196 curveto
275 179 271 161 268 147 curveto
stroke
0.667 0.776 0.439 edgecolor
newpath 271.393 146.119 moveto
266 137 lineto
264.529 147.492 lineto
closepath fill
1 setlinewidth
solid
0.667 0.776 0.439 edgecolor
newpath 271.393 146.119 moveto
266 137 lineto
264.529 147.492 lineto
closepath stroke
grestore
% Node6
gsave
1 setlinewidth
0.000 0.000 0.749 nodecolor
newpath 280 0 moveto
280 21 lineto
312 21 lineto
312 0 lineto
closepath stroke
0.000 0.000 0.000 nodecolor
10.00 /FreeSans.ttf set_font
296 7 moveto 16 -0.5 (set) alignedtext
grestore
% Node1->Node6
gsave
1 setlinewidth
solid
0.667 0.776 0.439 edgecolor
newpath 289 232 moveto
273 214 242 176 230 138 curveto
217 96 253 52 277 28 curveto
stroke
0.667 0.776 0.439 edgecolor
newpath 279.404 30.546 moveto
284 21 lineto
274.454 25.5962 lineto
closepath fill
1 setlinewidth
solid
0.667 0.776 0.439 edgecolor
newpath 279.404 30.546 moveto
284 21 lineto
274.454 25.5962 lineto
closepath stroke
grestore
% Node7
gsave
1 setlinewidth
0.000 0.000 0.749 nodecolor
newpath 517 174 moveto
517 195 lineto
575 195 lineto
575 174 lineto
closepath stroke
0.000 0.000 0.000 nodecolor
10.00 /FreeSans.ttf set_font
546 181 moveto 42 -0.5 (fstream) alignedtext
grestore
% Node1->Node7
gsave
1 setlinewidth
solid
0.667 0.776 0.439 edgecolor
newpath 348 232 moveto
389 222 450 208 503 196 curveto
504 196 506 195 507 195 curveto
stroke
0.667 0.776 0.439 edgecolor
newpath 508.427 198.226 moveto
517 192 lineto
506.416 191.521 lineto
closepath fill
1 setlinewidth
solid
0.667 0.776 0.439 edgecolor
newpath 508.427 198.226 moveto
517 192 lineto
506.416 191.521 lineto
closepath stroke
grestore
% Node8
gsave
1 setlinewidth
0.000 0.000 0.749 nodecolor
newpath 593 174 moveto
593 195 lineto
650 195 lineto
650 174 lineto
closepath stroke
0.000 0.000 0.000 nodecolor
10.00 /FreeSans.ttf set_font
621 181 moveto 41 -0.5 (istream) alignedtext
grestore
% Node1->Node8
gsave
1 setlinewidth
solid
0.667 0.776 0.439 edgecolor
newpath 348 237 moveto
403 229 495 215 583 196 curveto
stroke
0.667 0.776 0.439 edgecolor
newpath 583.881 199.393 moveto
593 194 lineto
582.508 192.529 lineto
closepath fill
1 setlinewidth
solid
0.667 0.776 0.439 edgecolor
newpath 583.881 199.393 moveto
593 194 lineto
582.508 192.529 lineto
closepath stroke
grestore
% Node9
gsave
1 setlinewidth
0.000 0.000 0.749 nodecolor
newpath 472 0 moveto
472 21 lineto
531 21 lineto
531 0 lineto
closepath stroke
0.000 0.000 0.000 nodecolor
10.00 /FreeSans.ttf set_font
501 7 moveto 43 -0.5 (sstream) alignedtext
grestore
% Node1->Node9
gsave
1 setlinewidth
solid
0.667 0.776 0.439 edgecolor
newpath 341 232 moveto
364 224 391 213 412 196 curveto
465 152 489 70 497 31 curveto
stroke
0.667 0.776 0.439 edgecolor
newpath 500.471 31.4922 moveto
499 21 lineto
493.607 30.1194 lineto
closepath fill
1 setlinewidth
solid
0.667 0.776 0.439 edgecolor
newpath 500.471 31.4922 moveto
499 21 lineto
493.607 30.1194 lineto
closepath stroke
grestore
% Node10
gsave
[ /Rect [ 385 117 443 137 ]
  /Border [ 0 0 0 ]
  /Action << /Subtype /URI /URI ($Pos_8hpp.html) >>
  /Subtype /Link
/ANN pdfmark
[ /Rect [ 385 117 443 137 ]
  /Border [ 0 0 0 ]
  /Action << /Subtype /URI /URI ($Pos_8hpp.html) >>
  /Subtype /Link
/ANN pdfmark
1 setlinewidth
0.000 0.000 0.000 nodecolor
newpath 385 116 moveto
385 137 lineto
443 137 lineto
443 116 lineto
closepath stroke
0.000 0.000 0.000 nodecolor
10.00 /FreeSans.ttf set_font
414 123 moveto 42 -0.5 (Pos.hpp) alignedtext
grestore
% Node1->Node10
gsave
1 setlinewidth
solid
0.667 0.776 0.439 edgecolor
newpath 339 232 moveto
358 225 381 213 395 196 curveto
406 182 411 162 413 147 curveto
stroke
0.667 0.776 0.439 edgecolor
newpath 416.488 147.299 moveto
414 137 lineto
409.522 146.602 lineto
closepath fill
1 setlinewidth
solid
0.667 0.776 0.439 edgecolor
newpath 416.488 147.299 moveto
414 137 lineto
409.522 146.602 lineto
closepath stroke
grestore
% Node14
gsave
[ /Rect [ 290 175 386 195 ]
  /Border [ 0 0 0 ]
  /Action << /Subtype /URI /URI ($NodoTrieS_8hpp.html) >>
  /Subtype /Link
/ANN pdfmark
[ /Rect [ 290 175 386 195 ]
  /Border [ 0 0 0 ]
  /Action << /Subtype /URI /URI ($NodoTrieS_8hpp.html) >>
  /Subtype /Link
/ANN pdfmark
1 setlinewidth
0.000 0.000 0.000 nodecolor
newpath 290 174 moveto
290 195 lineto
386 195 lineto
386 174 lineto
closepath stroke
0.000 0.000 0.000 nodecolor
10.00 /FreeSans.ttf set_font
338 181 moveto 80 -0.5 (NodoTrieS.hpp) alignedtext
grestore
% Node1->Node14
gsave
1 setlinewidth
solid
0.667 0.776 0.439 edgecolor
newpath 307 232 moveto
312 224 320 213 326 204 curveto
stroke
0.667 0.776 0.439 edgecolor
newpath 329.203 205.441 moveto
331 195 lineto
323.084 202.042 lineto
closepath fill
1 setlinewidth
solid
0.667 0.776 0.439 edgecolor
newpath 329.203 205.441 moveto
331 195 lineto
323.084 202.042 lineto
closepath stroke
grestore
% Node11
gsave
[ /Rect [ 383 59 461 79 ]
  /Border [ 0 0 0 ]
  /Action << /Subtype /URI /URI ($comun_8hpp.html) >>
  /Subtype /Link
/ANN pdfmark
[ /Rect [ 383 59 461 79 ]
  /Border [ 0 0 0 ]
  /Action << /Subtype /URI /URI ($comun_8hpp.html) >>
  /Subtype /Link
/ANN pdfmark
1 setlinewidth
0.000 0.000 0.000 nodecolor
newpath 383 58 moveto
383 79 lineto
461 79 lineto
461 58 lineto
closepath stroke
0.000 0.000 0.000 nodecolor
10.00 /FreeSans.ttf set_font
422 65 moveto 62 -0.5 (comun.hpp) alignedtext
grestore
% Node10->Node11
gsave
1 setlinewidth
solid
0.667 0.776 0.439 edgecolor
newpath 416 116 moveto
417 108 418 98 419 89 curveto
stroke
0.667 0.776 0.439 edgecolor
newpath 422.471 89.4922 moveto
421 79 lineto
415.607 88.1194 lineto
closepath fill
1 setlinewidth
solid
0.667 0.776 0.439 edgecolor
newpath 422.471 89.4922 moveto
421 79 lineto
415.607 88.1194 lineto
closepath stroke
grestore
% Node11->Node6
gsave
1 setlinewidth
solid
0.667 0.776 0.439 edgecolor
newpath 398 58 moveto
376 48 344 33 321 22 curveto
stroke
0.667 0.776 0.439 edgecolor
newpath 322.56 18.8631 moveto
312 18 lineto
319.717 25.2598 lineto
closepath fill
1 setlinewidth
solid
0.667 0.776 0.439 edgecolor
newpath 322.56 18.8631 moveto
312 18 lineto
319.717 25.2598 lineto
closepath stroke
grestore
% Node11->Node9
gsave
1 setlinewidth
solid
0.667 0.776 0.439 edgecolor
newpath 437 58 moveto
449 49 466 37 479 27 curveto
stroke
0.667 0.776 0.439 edgecolor
newpath 481.1 29.8 moveto
487 21 lineto
476.9 24.2 lineto
closepath fill
1 setlinewidth
solid
0.667 0.776 0.439 edgecolor
newpath 481.1 29.8 moveto
487 21 lineto
476.9 24.2 lineto
closepath stroke
grestore
% Node12
gsave
1 setlinewidth
0.000 0.000 0.749 nodecolor
newpath 330 0 moveto
330 21 lineto
376 21 lineto
376 0 lineto
closepath stroke
0.000 0.000 0.000 nodecolor
10.00 /FreeSans.ttf set_font
353 7 moveto 30 -0.5 (string) alignedtext
grestore
% Node11->Node12
gsave
1 setlinewidth
solid
0.667 0.776 0.439 edgecolor
newpath 409 58 moveto
399 49 384 37 373 27 curveto
stroke
0.667 0.776 0.439 edgecolor
newpath 375.1 24.2 moveto
365 21 lineto
370.9 29.8 lineto
closepath fill
1 setlinewidth
solid
0.667 0.776 0.439 edgecolor
newpath 375.1 24.2 moveto
365 21 lineto
370.9 29.8 lineto
closepath stroke
grestore
% Node13
gsave
1 setlinewidth
0.000 0.000 0.749 nodecolor
newpath 394 0 moveto
394 21 lineto
455 21 lineto
455 0 lineto
closepath stroke
0.000 0.000 0.000 nodecolor
10.00 /FreeSans.ttf set_font
424 7 moveto 45 -0.5 (ostream) alignedtext
grestore
% Node11->Node13
gsave
1 setlinewidth
solid
0.667 0.776 0.439 edgecolor
newpath 422 58 moveto
423 50 423 40 423 31 curveto
stroke
0.667 0.776 0.439 edgecolor
newpath 426.488 31.2987 moveto
424 21 lineto
419.522 30.6021 lineto
closepath fill
1 setlinewidth
solid
0.667 0.776 0.439 edgecolor
newpath 426.488 31.2987 moveto
424 21 lineto
419.522 30.6021 lineto
closepath stroke
grestore
% Node14->Node5
gsave
1 setlinewidth
solid
0.667 0.776 0.439 edgecolor
newpath 324 174 moveto
313 165 297 153 285 143 curveto
stroke
0.667 0.776 0.439 edgecolor
newpath 287.1 140.2 moveto
277 137 lineto
282.9 145.8 lineto
closepath fill
1 setlinewidth
solid
0.667 0.776 0.439 edgecolor
newpath 287.1 140.2 moveto
277 137 lineto
282.9 145.8 lineto
closepath stroke
grestore
% Node14->Node6
gsave
1 setlinewidth
solid
0.667 0.776 0.439 edgecolor
newpath 335 174 moveto
329 145 310 68 301 31 curveto
stroke
0.667 0.776 0.439 edgecolor
newpath 304.393 30.1194 moveto
299 21 lineto
297.529 31.4922 lineto
closepath fill
1 setlinewidth
solid
0.667 0.776 0.439 edgecolor
newpath 304.393 30.1194 moveto
299 21 lineto
297.529 31.4922 lineto
closepath stroke
grestore
% Node14->Node10
gsave
1 setlinewidth
solid
0.667 0.776 0.439 edgecolor
newpath 353 174 moveto
364 165 380 153 393 143 curveto
stroke
0.667 0.776 0.439 edgecolor
newpath 395.1 145.8 moveto
401 137 lineto
390.9 140.2 lineto
closepath fill
1 setlinewidth
solid
0.667 0.776 0.439 edgecolor
newpath 395.1 145.8 moveto
401 137 lineto
390.9 140.2 lineto
closepath stroke
grestore
% Node14->Node12
gsave
1 setlinewidth
solid
0.667 0.776 0.439 edgecolor
newpath 339 174 moveto
341 145 348 68 351 31 curveto
stroke
0.667 0.776 0.439 edgecolor
newpath 354.488 31.2987 moveto
352 21 lineto
347.522 30.6021 lineto
closepath fill
1 setlinewidth
solid
0.667 0.776 0.439 edgecolor
newpath 354.488 31.2987 moveto
352 21 lineto
347.522 30.6021 lineto
closepath stroke
grestore
endpage
showpage
grestore
%%PageTrailer
%%EndPage: 1
%%Trailer
%%Pages: 1
%%BoundingBox: 36 36 693 298
end
restore
%%EOF
