%!PS-Adobe-2.0
%%Creator: Graphviz version 2.12 (Mon Nov 16 18:34:03 UTC 2009)
%%For: (vtamara) Vladimir
%%Title: G
%%Pages: (atend)
%%BoundingBox: (atend)
%%EndComments
save
%%BeginProlog
/DotDict 200 dict def
DotDict begin

/setupLatin1 {
mark
/EncodingVector 256 array def
 EncodingVector 0

ISOLatin1Encoding 0 255 getinterval putinterval
EncodingVector 45 /hyphen put

% Set up ISO Latin 1 character encoding
/starnetISO {
        dup dup findfont dup length dict begin
        { 1 index /FID ne { def }{ pop pop } ifelse
        } forall
        /Encoding EncodingVector def
        currentdict end definefont
} def
/Times-Roman starnetISO def
/Times-Italic starnetISO def
/Times-Bold starnetISO def
/Times-BoldItalic starnetISO def
/Helvetica starnetISO def
/Helvetica-Oblique starnetISO def
/Helvetica-Bold starnetISO def
/Helvetica-BoldOblique starnetISO def
/Courier starnetISO def
/Courier-Oblique starnetISO def
/Courier-Bold starnetISO def
/Courier-BoldOblique starnetISO def
cleartomark
} bind def

%%BeginResource: procset graphviz 0 0
/coord-font-family /Times-Roman def
/default-font-family /Times-Roman def
/coordfont coord-font-family findfont 8 scalefont def

/InvScaleFactor 1.0 def
/set_scale {
       dup 1 exch div /InvScaleFactor exch def
       scale
} bind def

% styles
/solid { [] 0 setdash } bind def
/dashed { [9 InvScaleFactor mul dup ] 0 setdash } bind def
/dotted { [1 InvScaleFactor mul 6 InvScaleFactor mul] 0 setdash } bind def
/invis {/fill {newpath} def /stroke {newpath} def /show {pop newpath} def} bind def
/bold { 2 setlinewidth } bind def
/filled { } bind def
/unfilled { } bind def
/rounded { } bind def
/diagonals { } bind def

% hooks for setting color 
/nodecolor { sethsbcolor } bind def
/edgecolor { sethsbcolor } bind def
/graphcolor { sethsbcolor } bind def
/nopcolor {pop pop pop} bind def

/beginpage {	% i j npages
	/npages exch def
	/j exch def
	/i exch def
	/str 10 string def
	npages 1 gt {
		gsave
			coordfont setfont
			0 0 moveto
			(\() show i str cvs show (,) show j str cvs show (\)) show
		grestore
	} if
} bind def

/set_font {
	findfont exch
	scalefont setfont
} def

% draw aligned label in bounding box aligned to current point
/alignedtext {			% width adj text
	/text exch def
	/adj exch def
	/width exch def
	gsave
		width 0 gt {
			text stringwidth pop adj mul 0 rmoveto
		} if
		[] 0 setdash
		text show
	grestore
} def

/boxprim {				% xcorner ycorner xsize ysize
		4 2 roll
		moveto
		2 copy
		exch 0 rlineto
		0 exch rlineto
		pop neg 0 rlineto
		closepath
} bind def

/ellipse_path {
	/ry exch def
	/rx exch def
	/y exch def
	/x exch def
	matrix currentmatrix
	newpath
	x y translate
	rx ry scale
	0 0 1 0 360 arc
	setmatrix
} bind def

/endpage { showpage } bind def
/showpage { } def

/layercolorseq
	[	% layer color sequence - darkest to lightest
		[0 0 0]
		[.2 .8 .8]
		[.4 .8 .8]
		[.6 .8 .8]
		[.8 .8 .8]
	]
def

/layerlen layercolorseq length def

/setlayer {/maxlayer exch def /curlayer exch def
	layercolorseq curlayer 1 sub layerlen mod get
	aload pop sethsbcolor
	/nodecolor {nopcolor} def
	/edgecolor {nopcolor} def
	/graphcolor {nopcolor} def
} bind def

/onlayer { curlayer ne {invis} if } def

/onlayers {
	/myupper exch def
	/mylower exch def
	curlayer mylower lt
	curlayer myupper gt
	or
	{invis} if
} def

/curlayer 0 def

%%EndResource
%%EndProlog
%%BeginSetup
14 default-font-family set_font
1 setmiterlimit
% /arrowlength 10 def
% /arrowwidth 5 def

% make sure pdfmark is harmless for PS-interpreters other than Distiller
/pdfmark where {pop} {userdict /pdfmark /cleartomark load put} ifelse
% make '<<' and '>>' safe on PS Level 1 devices
/languagelevel where {pop languagelevel}{1} ifelse
2 lt {
    userdict (<<) cvn ([) cvn load put
    userdict (>>) cvn ([) cvn load put
} if

%%EndSetup
setupLatin1
%%Page: 1 1
%%PageBoundingBox: 36 36 519 298
%%PageOrientation: Portrait
gsave
36 36 519 298 boxprim clip newpath
0 0 1 beginpage
1 1 set_scale 0 rotate 40 40 translate
% Node1
gsave
0.000 0.000 0.749 nodecolor
newpath 62 232 moveto
62 253 lineto
222 253 lineto
222 232 lineto
closepath fill
1 setlinewidth
filled
0.000 0.000 0.000 nodecolor
newpath 62 232 moveto
62 253 lineto
222 253 lineto
222 232 lineto
closepath stroke
0.000 0.000 0.000 nodecolor
10.00 /FreeSans.ttf set_font
142 239 moveto 144 -0.5 (NodoTrieSCasoPrueba.cpp) alignedtext
grestore
% Node2
gsave
1 setlinewidth
0.000 0.000 0.749 nodecolor
newpath 0 0 moveto
0 21 lineto
59 21 lineto
59 0 lineto
closepath stroke
0.000 0.000 0.000 nodecolor
10.00 /FreeSans.ttf set_font
29 7 moveto 43 -0.5 (sstream) alignedtext
grestore
% Node1->Node2
gsave
1 setlinewidth
solid
0.667 0.776 0.439 edgecolor
newpath 124 232 moveto
111 223 95 211 85 196 curveto
50 143 36 67 31 31 curveto
stroke
0.667 0.776 0.439 edgecolor
newpath 34.4778 30.6021 moveto
30 21 lineto
27.5125 31.2987 lineto
closepath fill
1 setlinewidth
solid
0.667 0.776 0.439 edgecolor
newpath 34.4778 30.6021 moveto
30 21 lineto
27.5125 31.2987 lineto
closepath stroke
grestore
% Node3
gsave
[ /Rect [ 264 175 424 195 ]
  /Border [ 0 0 0 ]
  /Action << /Subtype /URI /URI ($NodoTrieSCasoPrueba_8hpp.html) >>
  /Subtype /Link
/ANN pdfmark
[ /Rect [ 264 175 424 195 ]
  /Border [ 0 0 0 ]
  /Action << /Subtype /URI /URI ($NodoTrieSCasoPrueba_8hpp.html) >>
  /Subtype /Link
/ANN pdfmark
1 setlinewidth
0.000 0.000 0.000 nodecolor
newpath 264 174 moveto
264 195 lineto
425 195 lineto
425 174 lineto
closepath stroke
0.000 0.000 0.000 nodecolor
10.00 /FreeSans.ttf set_font
344 181 moveto 145 -0.5 (NodoTrieSCasoPrueba.hpp) alignedtext
grestore
% Node1->Node3
gsave
1 setlinewidth
solid
0.667 0.776 0.439 edgecolor
newpath 180 232 moveto
214 222 264 208 299 198 curveto
stroke
0.667 0.776 0.439 edgecolor
newpath 300.427 201.226 moveto
309 195 lineto
298.416 194.521 lineto
closepath fill
1 setlinewidth
solid
0.667 0.776 0.439 edgecolor
newpath 300.427 201.226 moveto
309 195 lineto
298.416 194.521 lineto
closepath stroke
grestore
% Node5
gsave
[ /Rect [ 94 175 190 195 ]
  /Border [ 0 0 0 ]
  /Action << /Subtype /URI /URI ($NodoTrieS_8hpp.html) >>
  /Subtype /Link
/ANN pdfmark
[ /Rect [ 94 175 190 195 ]
  /Border [ 0 0 0 ]
  /Action << /Subtype /URI /URI ($NodoTrieS_8hpp.html) >>
  /Subtype /Link
/ANN pdfmark
1 setlinewidth
0.000 0.000 0.000 nodecolor
newpath 94 174 moveto
94 195 lineto
190 195 lineto
190 174 lineto
closepath stroke
0.000 0.000 0.000 nodecolor
10.00 /FreeSans.ttf set_font
142 181 moveto 80 -0.5 (NodoTrieS.hpp) alignedtext
grestore
% Node1->Node5
gsave
1 setlinewidth
solid
0.667 0.776 0.439 edgecolor
newpath 142 232 moveto
142 224 142 214 142 205 curveto
stroke
0.667 0.776 0.439 edgecolor
newpath 145.5 205 moveto
142 195 lineto
138.5 205 lineto
closepath fill
1 setlinewidth
solid
0.667 0.776 0.439 edgecolor
newpath 145.5 205 moveto
142 195 lineto
138.5 205 lineto
closepath stroke
grestore
% Node4
gsave
1 setlinewidth
0.000 0.000 0.749 nodecolor
newpath 271 116 moveto
271 137 lineto
476 137 lineto
476 116 lineto
closepath stroke
0.000 0.000 0.000 nodecolor
10.00 /FreeSans.ttf set_font
373 123 moveto 189 -0.5 (cppunit/extensions/HelperMacros.h) alignedtext
grestore
% Node3->Node4
gsave
1 setlinewidth
solid
0.667 0.776 0.439 edgecolor
newpath 350 174 moveto
354 166 359 155 363 146 curveto
stroke
0.667 0.776 0.439 edgecolor
newpath 366.203 147.441 moveto
368 137 lineto
360.084 144.042 lineto
closepath fill
1 setlinewidth
solid
0.667 0.776 0.439 edgecolor
newpath 366.203 147.441 moveto
368 137 lineto
360.084 144.042 lineto
closepath stroke
grestore
% Node6
gsave
1 setlinewidth
0.000 0.000 0.749 nodecolor
newpath 224 0 moveto
224 21 lineto
256 21 lineto
256 0 lineto
closepath stroke
0.000 0.000 0.000 nodecolor
10.00 /FreeSans.ttf set_font
240 7 moveto 16 -0.5 (set) alignedtext
grestore
% Node5->Node6
gsave
1 setlinewidth
solid
0.667 0.776 0.439 edgecolor
newpath 175 174 moveto
192 166 212 155 224 138 curveto
245 106 245 58 243 31 curveto
stroke
0.667 0.776 0.439 edgecolor
newpath 246.478 30.6021 moveto
242 21 lineto
239.512 31.2987 lineto
closepath fill
1 setlinewidth
solid
0.667 0.776 0.439 edgecolor
newpath 246.478 30.6021 moveto
242 21 lineto
239.512 31.2987 lineto
closepath stroke
grestore
% Node7
gsave
1 setlinewidth
0.000 0.000 0.749 nodecolor
newpath 79 0 moveto
79 21 lineto
125 21 lineto
125 0 lineto
closepath stroke
0.000 0.000 0.000 nodecolor
10.00 /FreeSans.ttf set_font
102 7 moveto 30 -0.5 (string) alignedtext
grestore
% Node5->Node7
gsave
1 setlinewidth
solid
0.667 0.776 0.439 edgecolor
newpath 119 174 moveto
105 166 88 154 80 138 curveto
63 103 80 56 92 30 curveto
stroke
0.667 0.776 0.439 edgecolor
newpath 95.1369 31.5596 moveto
96 21 lineto
88.7402 28.7166 lineto
closepath fill
1 setlinewidth
solid
0.667 0.776 0.439 edgecolor
newpath 95.1369 31.5596 moveto
96 21 lineto
88.7402 28.7166 lineto
closepath stroke
grestore
% Node8
gsave
1 setlinewidth
0.000 0.000 0.749 nodecolor
newpath 89 116 moveto
89 137 lineto
139 137 lineto
139 116 lineto
closepath stroke
0.000 0.000 0.000 nodecolor
10.00 /FreeSans.ttf set_font
114 123 moveto 34 -0.5 (vector) alignedtext
grestore
% Node5->Node8
gsave
1 setlinewidth
solid
0.667 0.776 0.439 edgecolor
newpath 137 174 moveto
133 166 128 155 123 146 curveto
stroke
0.667 0.776 0.439 edgecolor
newpath 126.26 144.717 moveto
119 137 lineto
119.863 147.56 lineto
closepath fill
1 setlinewidth
solid
0.667 0.776 0.439 edgecolor
newpath 126.26 144.717 moveto
119 137 lineto
119.863 147.56 lineto
closepath stroke
grestore
% Node9
gsave
[ /Rect [ 157 117 215 137 ]
  /Border [ 0 0 0 ]
  /Action << /Subtype /URI /URI ($Pos_8hpp.html) >>
  /Subtype /Link
/ANN pdfmark
[ /Rect [ 157 117 215 137 ]
  /Border [ 0 0 0 ]
  /Action << /Subtype /URI /URI ($Pos_8hpp.html) >>
  /Subtype /Link
/ANN pdfmark
1 setlinewidth
0.000 0.000 0.000 nodecolor
newpath 157 116 moveto
157 137 lineto
215 137 lineto
215 116 lineto
closepath stroke
0.000 0.000 0.000 nodecolor
10.00 /FreeSans.ttf set_font
186 123 moveto 42 -0.5 (Pos.hpp) alignedtext
grestore
% Node5->Node9
gsave
1 setlinewidth
solid
0.667 0.776 0.439 edgecolor
newpath 150 174 moveto
156 166 165 154 172 145 curveto
stroke
0.667 0.776 0.439 edgecolor
newpath 174.8 147.1 moveto
178 137 lineto
169.2 142.9 lineto
closepath fill
1 setlinewidth
solid
0.667 0.776 0.439 edgecolor
newpath 174.8 147.1 moveto
178 137 lineto
169.2 142.9 lineto
closepath stroke
grestore
% Node10
gsave
[ /Rect [ 135 59 213 79 ]
  /Border [ 0 0 0 ]
  /Action << /Subtype /URI /URI ($comun_8hpp.html) >>
  /Subtype /Link
/ANN pdfmark
[ /Rect [ 135 59 213 79 ]
  /Border [ 0 0 0 ]
  /Action << /Subtype /URI /URI ($comun_8hpp.html) >>
  /Subtype /Link
/ANN pdfmark
1 setlinewidth
0.000 0.000 0.000 nodecolor
newpath 135 58 moveto
135 79 lineto
213 79 lineto
213 58 lineto
closepath stroke
0.000 0.000 0.000 nodecolor
10.00 /FreeSans.ttf set_font
174 65 moveto 62 -0.5 (comun.hpp) alignedtext
grestore
% Node9->Node10
gsave
1 setlinewidth
solid
0.667 0.776 0.439 edgecolor
newpath 184 116 moveto
182 108 180 98 178 89 curveto
stroke
0.667 0.776 0.439 edgecolor
newpath 181.393 88.1194 moveto
176 79 lineto
174.529 89.4922 lineto
closepath fill
1 setlinewidth
solid
0.667 0.776 0.439 edgecolor
newpath 181.393 88.1194 moveto
176 79 lineto
174.529 89.4922 lineto
closepath stroke
grestore
% Node10->Node2
gsave
1 setlinewidth
solid
0.667 0.776 0.439 edgecolor
newpath 146 58 moveto
122 48 89 35 64 25 curveto
stroke
0.667 0.776 0.439 edgecolor
newpath 64.5847 21.4643 moveto
54 21 lineto
61.9849 27.9636 lineto
closepath fill
1 setlinewidth
solid
0.667 0.776 0.439 edgecolor
newpath 64.5847 21.4643 moveto
54 21 lineto
61.9849 27.9636 lineto
closepath stroke
grestore
% Node10->Node6
gsave
1 setlinewidth
solid
0.667 0.776 0.439 edgecolor
newpath 187 58 moveto
197 49 210 37 221 28 curveto
stroke
0.667 0.776 0.439 edgecolor
newpath 223.779 30.2191 moveto
229 21 lineto
219.169 24.9511 lineto
closepath fill
1 setlinewidth
solid
0.667 0.776 0.439 edgecolor
newpath 223.779 30.2191 moveto
229 21 lineto
219.169 24.9511 lineto
closepath stroke
grestore
% Node10->Node7
gsave
1 setlinewidth
solid
0.667 0.776 0.439 edgecolor
newpath 160 58 moveto
149 49 134 37 122 27 curveto
stroke
0.667 0.776 0.439 edgecolor
newpath 124.1 24.2 moveto
114 21 lineto
119.9 29.8 lineto
closepath fill
1 setlinewidth
solid
0.667 0.776 0.439 edgecolor
newpath 124.1 24.2 moveto
114 21 lineto
119.9 29.8 lineto
closepath stroke
grestore
% Node11
gsave
1 setlinewidth
0.000 0.000 0.749 nodecolor
newpath 144 0 moveto
144 21 lineto
205 21 lineto
205 0 lineto
closepath stroke
0.000 0.000 0.000 nodecolor
10.00 /FreeSans.ttf set_font
174 7 moveto 45 -0.5 (ostream) alignedtext
grestore
% Node10->Node11
gsave
1 setlinewidth
solid
0.667 0.776 0.439 edgecolor
newpath 174 58 moveto
174 50 174 40 174 31 curveto
stroke
0.667 0.776 0.439 edgecolor
newpath 177.5 31 moveto
174 21 lineto
170.5 31 lineto
closepath fill
1 setlinewidth
solid
0.667 0.776 0.439 edgecolor
newpath 177.5 31 moveto
174 21 lineto
170.5 31 lineto
closepath stroke
grestore
endpage
showpage
grestore
%%PageTrailer
%%EndPage: 1
%%Trailer
%%Pages: 1
%%BoundingBox: 36 36 519 298
end
restore
%%EOF
