%!PS-Adobe-2.0
%%Creator: Graphviz version 2.12 (Mon Nov 16 18:34:03 UTC 2009)
%%For: (vtamara) Vladimir
%%Title: G
%%Pages: (atend)
%%BoundingBox: (atend)
%%EndComments
save
%%BeginProlog
/DotDict 200 dict def
DotDict begin

/setupLatin1 {
mark
/EncodingVector 256 array def
 EncodingVector 0

ISOLatin1Encoding 0 255 getinterval putinterval
EncodingVector 45 /hyphen put

% Set up ISO Latin 1 character encoding
/starnetISO {
        dup dup findfont dup length dict begin
        { 1 index /FID ne { def }{ pop pop } ifelse
        } forall
        /Encoding EncodingVector def
        currentdict end definefont
} def
/Times-Roman starnetISO def
/Times-Italic starnetISO def
/Times-Bold starnetISO def
/Times-BoldItalic starnetISO def
/Helvetica starnetISO def
/Helvetica-Oblique starnetISO def
/Helvetica-Bold starnetISO def
/Helvetica-BoldOblique starnetISO def
/Courier starnetISO def
/Courier-Oblique starnetISO def
/Courier-Bold starnetISO def
/Courier-BoldOblique starnetISO def
cleartomark
} bind def

%%BeginResource: procset graphviz 0 0
/coord-font-family /Times-Roman def
/default-font-family /Times-Roman def
/coordfont coord-font-family findfont 8 scalefont def

/InvScaleFactor 1.0 def
/set_scale {
       dup 1 exch div /InvScaleFactor exch def
       scale
} bind def

% styles
/solid { [] 0 setdash } bind def
/dashed { [9 InvScaleFactor mul dup ] 0 setdash } bind def
/dotted { [1 InvScaleFactor mul 6 InvScaleFactor mul] 0 setdash } bind def
/invis {/fill {newpath} def /stroke {newpath} def /show {pop newpath} def} bind def
/bold { 2 setlinewidth } bind def
/filled { } bind def
/unfilled { } bind def
/rounded { } bind def
/diagonals { } bind def

% hooks for setting color 
/nodecolor { sethsbcolor } bind def
/edgecolor { sethsbcolor } bind def
/graphcolor { sethsbcolor } bind def
/nopcolor {pop pop pop} bind def

/beginpage {	% i j npages
	/npages exch def
	/j exch def
	/i exch def
	/str 10 string def
	npages 1 gt {
		gsave
			coordfont setfont
			0 0 moveto
			(\() show i str cvs show (,) show j str cvs show (\)) show
		grestore
	} if
} bind def

/set_font {
	findfont exch
	scalefont setfont
} def

% draw aligned label in bounding box aligned to current point
/alignedtext {			% width adj text
	/text exch def
	/adj exch def
	/width exch def
	gsave
		width 0 gt {
			text stringwidth pop adj mul 0 rmoveto
		} if
		[] 0 setdash
		text show
	grestore
} def

/boxprim {				% xcorner ycorner xsize ysize
		4 2 roll
		moveto
		2 copy
		exch 0 rlineto
		0 exch rlineto
		pop neg 0 rlineto
		closepath
} bind def

/ellipse_path {
	/ry exch def
	/rx exch def
	/y exch def
	/x exch def
	matrix currentmatrix
	newpath
	x y translate
	rx ry scale
	0 0 1 0 360 arc
	setmatrix
} bind def

/endpage { showpage } bind def
/showpage { } def

/layercolorseq
	[	% layer color sequence - darkest to lightest
		[0 0 0]
		[.2 .8 .8]
		[.4 .8 .8]
		[.6 .8 .8]
		[.8 .8 .8]
	]
def

/layerlen layercolorseq length def

/setlayer {/maxlayer exch def /curlayer exch def
	layercolorseq curlayer 1 sub layerlen mod get
	aload pop sethsbcolor
	/nodecolor {nopcolor} def
	/edgecolor {nopcolor} def
	/graphcolor {nopcolor} def
} bind def

/onlayer { curlayer ne {invis} if } def

/onlayers {
	/myupper exch def
	/mylower exch def
	curlayer mylower lt
	curlayer myupper gt
	or
	{invis} if
} def

/curlayer 0 def

%%EndResource
%%EndProlog
%%BeginSetup
14 default-font-family set_font
1 setmiterlimit
% /arrowlength 10 def
% /arrowwidth 5 def

% make sure pdfmark is harmless for PS-interpreters other than Distiller
/pdfmark where {pop} {userdict /pdfmark /cleartomark load put} ifelse
% make '<<' and '>>' safe on PS Level 1 devices
/languagelevel where {pop languagelevel}{1} ifelse
2 lt {
    userdict (<<) cvn ([) cvn load put
    userdict (>>) cvn ([) cvn load put
} if

%%EndSetup
setupLatin1
%%Page: 1 1
%%PageBoundingBox: 36 36 1331 298
%%PageOrientation: Portrait
gsave
36 36 1331 298 boxprim clip newpath
0 0 1 beginpage
1 1 set_scale 0 rotate 40 40 translate
% Node1
gsave
0.000 0.000 0.749 nodecolor
newpath 643 232 moveto
643 253 lineto
739 253 lineto
739 232 lineto
closepath fill
1 setlinewidth
filled
0.000 0.000 0.000 nodecolor
newpath 643 232 moveto
643 253 lineto
739 253 lineto
739 232 lineto
closepath stroke
0.000 0.000 0.000 nodecolor
10.00 /FreeSans.ttf set_font
691 239 moveto 80 -0.5 (NodoTrieS.hpp) alignedtext
grestore
% Node2
gsave
[ /Rect [ 282 175 378 195 ]
  /Border [ 0 0 0 ]
  /Action << /Subtype /URI /URI ($TrieSDisco_8hpp.html) >>
  /Subtype /Link
/ANN pdfmark
[ /Rect [ 282 175 378 195 ]
  /Border [ 0 0 0 ]
  /Action << /Subtype /URI /URI ($TrieSDisco_8hpp.html) >>
  /Subtype /Link
/ANN pdfmark
1 setlinewidth
0.000 0.000 0.000 nodecolor
newpath 282 174 moveto
282 195 lineto
378 195 lineto
378 174 lineto
closepath stroke
0.000 0.000 0.000 nodecolor
10.00 /FreeSans.ttf set_font
330 181 moveto 80 -0.5 (TrieSDisco.hpp) alignedtext
grestore
% Node1->Node2
gsave
1 setlinewidth
solid
0.667 0.776 0.439 edgecolor
newpath 633 233 moveto
561 222 444 203 378 193 curveto
stroke
0.667 0.776 0.439 edgecolor
newpath 632.508 236.471 moveto
643 235 lineto
633.881 229.607 lineto
closepath fill
1 setlinewidth
solid
0.667 0.776 0.439 edgecolor
newpath 632.508 236.471 moveto
643 235 lineto
633.881 229.607 lineto
closepath stroke
grestore
% Node5
gsave
[ /Rect [ 412 117 506 137 ]
  /Border [ 0 0 0 ]
  /Action << /Subtype /URI /URI ($RamDisco_8hpp.html) >>
  /Subtype /Link
/ANN pdfmark
[ /Rect [ 412 117 506 137 ]
  /Border [ 0 0 0 ]
  /Action << /Subtype /URI /URI ($RamDisco_8hpp.html) >>
  /Subtype /Link
/ANN pdfmark
1 setlinewidth
0.000 0.000 0.000 nodecolor
newpath 412 116 moveto
412 137 lineto
506 137 lineto
506 116 lineto
closepath stroke
0.000 0.000 0.000 nodecolor
10.00 /FreeSans.ttf set_font
459 123 moveto 78 -0.5 (RamDisco.hpp) alignedtext
grestore
% Node1->Node5
gsave
1 setlinewidth
solid
0.667 0.776 0.439 edgecolor
newpath 633 240 moveto
568 235 470 224 447 196 curveto
433 179 444 152 452 137 curveto
stroke
0.667 0.776 0.439 edgecolor
newpath 632.701 243.488 moveto
643 241 lineto
633.398 236.522 lineto
closepath fill
1 setlinewidth
solid
0.667 0.776 0.439 edgecolor
newpath 632.701 243.488 moveto
643 241 lineto
633.398 236.522 lineto
closepath stroke
grestore
% Node12
gsave
[ /Rect [ 13 59 173 79 ]
  /Border [ 0 0 0 ]
  /Action << /Subtype /URI /URI ($TrieSDiscoCasoPrueba_8cpp.html) >>
  /Subtype /Link
/ANN pdfmark
[ /Rect [ 13 59 173 79 ]
  /Border [ 0 0 0 ]
  /Action << /Subtype /URI /URI ($TrieSDiscoCasoPrueba_8cpp.html) >>
  /Subtype /Link
/ANN pdfmark
1 setlinewidth
0.000 0.000 0.000 nodecolor
newpath 13 58 moveto
13 79 lineto
173 79 lineto
173 58 lineto
closepath stroke
0.000 0.000 0.000 nodecolor
10.00 /FreeSans.ttf set_font
93 65 moveto 144 -0.5 (TrieSDiscoCasoPrueba.cpp) alignedtext
grestore
% Node1->Node12
gsave
1 setlinewidth
solid
0.667 0.776 0.439 edgecolor
newpath 633 238 moveto
477 225 58 186 19 138 curveto
0 114 39 92 67 79 curveto
stroke
0.667 0.776 0.439 edgecolor
newpath 632.701 241.488 moveto
643 239 lineto
633.398 234.522 lineto
closepath fill
1 setlinewidth
solid
0.667 0.776 0.439 edgecolor
newpath 632.701 241.488 moveto
643 239 lineto
633.398 234.522 lineto
closepath stroke
grestore
% Node14
gsave
[ /Rect [ 456 175 542 195 ]
  /Border [ 0 0 0 ]
  /Action << /Subtype /URI /URI ($leeHTML_8cpp.html) >>
  /Subtype /Link
/ANN pdfmark
[ /Rect [ 456 175 542 195 ]
  /Border [ 0 0 0 ]
  /Action << /Subtype /URI /URI ($leeHTML_8cpp.html) >>
  /Subtype /Link
/ANN pdfmark
1 setlinewidth
0.000 0.000 0.000 nodecolor
newpath 456 174 moveto
456 195 lineto
542 195 lineto
542 174 lineto
closepath stroke
0.000 0.000 0.000 nodecolor
10.00 /FreeSans.ttf set_font
499 181 moveto 70 -0.5 (leeHTML.cpp) alignedtext
grestore
% Node1->Node14
gsave
1 setlinewidth
solid
0.667 0.776 0.439 edgecolor
newpath 644 229 moveto
610 218 563 204 532 195 curveto
stroke
0.667 0.776 0.439 edgecolor
newpath 643.416 232.479 moveto
654 232 lineto
645.427 225.774 lineto
closepath fill
1 setlinewidth
solid
0.667 0.776 0.439 edgecolor
newpath 643.416 232.479 moveto
654 232 lineto
645.427 225.774 lineto
closepath stroke
grestore
% Node15
gsave
[ /Rect [ 679 59 765 79 ]
  /Border [ 0 0 0 ]
  /Action << /Subtype /URI /URI ($leeHTML_8hpp.html) >>
  /Subtype /Link
/ANN pdfmark
[ /Rect [ 679 59 765 79 ]
  /Border [ 0 0 0 ]
  /Action << /Subtype /URI /URI ($leeHTML_8hpp.html) >>
  /Subtype /Link
/ANN pdfmark
1 setlinewidth
0.000 0.000 0.000 nodecolor
newpath 679 58 moveto
679 79 lineto
766 79 lineto
766 58 lineto
closepath stroke
0.000 0.000 0.000 nodecolor
10.00 /FreeSans.ttf set_font
722 65 moveto 71 -0.5 (leeHTML.hpp) alignedtext
grestore
% Node1->Node15
gsave
1 setlinewidth
solid
0.667 0.776 0.439 edgecolor
newpath 658 227 moveto
612 205 541 159 574 116 curveto
580 107 640 90 682 79 curveto
stroke
0.667 0.776 0.439 edgecolor
newpath 656.559 230.203 moveto
667 232 lineto
659.958 224.084 lineto
closepath fill
1 setlinewidth
solid
0.667 0.776 0.439 edgecolor
newpath 656.559 230.203 moveto
667 232 lineto
659.958 224.084 lineto
closepath stroke
grestore
% Node16
gsave
[ /Rect [ 583 117 663 137 ]
  /Border [ 0 0 0 ]
  /Action << /Subtype /URI /URI ($leeODT_8cpp.html) >>
  /Subtype /Link
/ANN pdfmark
[ /Rect [ 583 117 663 137 ]
  /Border [ 0 0 0 ]
  /Action << /Subtype /URI /URI ($leeODT_8cpp.html) >>
  /Subtype /Link
/ANN pdfmark
1 setlinewidth
0.000 0.000 0.000 nodecolor
newpath 583 116 moveto
583 137 lineto
663 137 lineto
663 116 lineto
closepath stroke
0.000 0.000 0.000 nodecolor
10.00 /FreeSans.ttf set_font
623 123 moveto 64 -0.5 (leeODT.cpp) alignedtext
grestore
% Node1->Node16
gsave
1 setlinewidth
solid
0.667 0.776 0.439 edgecolor
newpath 668 226 moveto
659 217 648 207 642 196 curveto
630 177 626 151 624 137 curveto
stroke
0.667 0.776 0.439 edgecolor
newpath 665.9 228.8 moveto
676 232 lineto
670.1 223.2 lineto
closepath fill
1 setlinewidth
solid
0.667 0.776 0.439 edgecolor
newpath 665.9 228.8 moveto
676 232 lineto
670.1 223.2 lineto
closepath stroke
grestore
% Node17
gsave
[ /Rect [ 651 175 731 195 ]
  /Border [ 0 0 0 ]
  /Action << /Subtype /URI /URI ($leeODT_8hpp.html) >>
  /Subtype /Link
/ANN pdfmark
[ /Rect [ 651 175 731 195 ]
  /Border [ 0 0 0 ]
  /Action << /Subtype /URI /URI ($leeODT_8hpp.html) >>
  /Subtype /Link
/ANN pdfmark
1 setlinewidth
0.000 0.000 0.000 nodecolor
newpath 651 174 moveto
651 195 lineto
732 195 lineto
732 174 lineto
closepath stroke
0.000 0.000 0.000 nodecolor
10.00 /FreeSans.ttf set_font
691 181 moveto 65 -0.5 (leeODT.hpp) alignedtext
grestore
% Node1->Node17
gsave
1 setlinewidth
solid
0.667 0.776 0.439 edgecolor
newpath 691 222 moveto
691 212 691 202 691 195 curveto
stroke
0.667 0.776 0.439 edgecolor
newpath 687.5 222 moveto
691 232 lineto
694.5 222 lineto
closepath fill
1 setlinewidth
solid
0.667 0.776 0.439 edgecolor
newpath 687.5 222 moveto
691 232 lineto
694.5 222 lineto
closepath stroke
grestore
% Node19
gsave
[ /Rect [ 821 117 895 137 ]
  /Border [ 0 0 0 ]
  /Action << /Subtype /URI /URI ($leePDF_8cpp.html) >>
  /Subtype /Link
/ANN pdfmark
[ /Rect [ 821 117 895 137 ]
  /Border [ 0 0 0 ]
  /Action << /Subtype /URI /URI ($leePDF_8cpp.html) >>
  /Subtype /Link
/ANN pdfmark
1 setlinewidth
0.000 0.000 0.000 nodecolor
newpath 821 116 moveto
821 137 lineto
896 137 lineto
896 116 lineto
closepath stroke
0.000 0.000 0.000 nodecolor
10.00 /FreeSans.ttf set_font
858 123 moveto 59 -0.5 (leePDF.cpp) alignedtext
grestore
% Node1->Node19
gsave
1 setlinewidth
solid
0.667 0.776 0.439 edgecolor
newpath 711 225 moveto
728 211 754 189 778 174 curveto
798 160 822 146 839 137 curveto
stroke
0.667 0.776 0.439 edgecolor
newpath 708.221 222.781 moveto
703 232 lineto
712.831 228.049 lineto
closepath fill
1 setlinewidth
solid
0.667 0.776 0.439 edgecolor
newpath 708.221 222.781 moveto
703 232 lineto
712.831 228.049 lineto
closepath stroke
grestore
% Node20
gsave
[ /Rect [ 787 175 863 195 ]
  /Border [ 0 0 0 ]
  /Action << /Subtype /URI /URI ($leePDF_8hpp.html) >>
  /Subtype /Link
/ANN pdfmark
[ /Rect [ 787 175 863 195 ]
  /Border [ 0 0 0 ]
  /Action << /Subtype /URI /URI ($leePDF_8hpp.html) >>
  /Subtype /Link
/ANN pdfmark
1 setlinewidth
0.000 0.000 0.000 nodecolor
newpath 787 174 moveto
787 195 lineto
863 195 lineto
863 174 lineto
closepath stroke
0.000 0.000 0.000 nodecolor
10.00 /FreeSans.ttf set_font
825 181 moveto 60 -0.5 (leePDF.hpp) alignedtext
grestore
% Node1->Node20
gsave
1 setlinewidth
solid
0.667 0.776 0.439 edgecolor
newpath 726 228 moveto
750 217 781 204 802 195 curveto
stroke
0.667 0.776 0.439 edgecolor
newpath 724.717 224.74 moveto
717 232 lineto
727.56 231.137 lineto
closepath fill
1 setlinewidth
solid
0.667 0.776 0.439 edgecolor
newpath 724.717 224.74 moveto
717 232 lineto
727.56 231.137 lineto
closepath stroke
grestore
% Node21
gsave
[ /Rect [ 881 175 959 195 ]
  /Border [ 0 0 0 ]
  /Action << /Subtype /URI /URI ($leeXML_8cpp.html) >>
  /Subtype /Link
/ANN pdfmark
[ /Rect [ 881 175 959 195 ]
  /Border [ 0 0 0 ]
  /Action << /Subtype /URI /URI ($leeXML_8cpp.html) >>
  /Subtype /Link
/ANN pdfmark
1 setlinewidth
0.000 0.000 0.000 nodecolor
newpath 881 174 moveto
881 195 lineto
959 195 lineto
959 174 lineto
closepath stroke
0.000 0.000 0.000 nodecolor
10.00 /FreeSans.ttf set_font
920 181 moveto 62 -0.5 (leeXML.cpp) alignedtext
grestore
% Node1->Node21
gsave
1 setlinewidth
solid
0.667 0.776 0.439 edgecolor
newpath 745 229 moveto
786 219 843 204 881 195 curveto
stroke
0.667 0.776 0.439 edgecolor
newpath 743.573 225.774 moveto
735 232 lineto
745.584 232.479 lineto
closepath fill
1 setlinewidth
solid
0.667 0.776 0.439 edgecolor
newpath 743.573 225.774 moveto
735 232 lineto
745.584 232.479 lineto
closepath stroke
grestore
% Node22
gsave
[ /Rect [ 951 59 1029 79 ]
  /Border [ 0 0 0 ]
  /Action << /Subtype /URI /URI ($leeXML_8hpp.html) >>
  /Subtype /Link
/ANN pdfmark
[ /Rect [ 951 59 1029 79 ]
  /Border [ 0 0 0 ]
  /Action << /Subtype /URI /URI ($leeXML_8hpp.html) >>
  /Subtype /Link
/ANN pdfmark
1 setlinewidth
0.000 0.000 0.000 nodecolor
newpath 951 58 moveto
951 79 lineto
1030 79 lineto
1030 58 lineto
closepath stroke
0.000 0.000 0.000 nodecolor
10.00 /FreeSans.ttf set_font
990 65 moveto 63 -0.5 (leeXML.hpp) alignedtext
grestore
% Node1->Node22
gsave
1 setlinewidth
solid
0.667 0.776 0.439 edgecolor
newpath 749 241 moveto
821 237 938 226 968 196 curveto
1000 164 995 103 992 79 curveto
stroke
0.667 0.776 0.439 edgecolor
newpath 749 237.5 moveto
739 241 lineto
749 244.5 lineto
closepath fill
1 setlinewidth
solid
0.667 0.776 0.439 edgecolor
newpath 749 237.5 moveto
739 241 lineto
749 244.5 lineto
closepath stroke
grestore
% Node23
gsave
[ /Rect [ 1015 175 1109 195 ]
  /Border [ 0 0 0 ]
  /Action << /Subtype /URI /URI ($NodoTrieS_8cpp.html) >>
  /Subtype /Link
/ANN pdfmark
[ /Rect [ 1015 175 1109 195 ]
  /Border [ 0 0 0 ]
  /Action << /Subtype /URI /URI ($NodoTrieS_8cpp.html) >>
  /Subtype /Link
/ANN pdfmark
1 setlinewidth
0.000 0.000 0.000 nodecolor
newpath 1015 174 moveto
1015 195 lineto
1110 195 lineto
1110 174 lineto
closepath stroke
0.000 0.000 0.000 nodecolor
10.00 /FreeSans.ttf set_font
1062 181 moveto 79 -0.5 (NodoTrieS.cpp) alignedtext
grestore
% Node1->Node23
gsave
1 setlinewidth
solid
0.667 0.776 0.439 edgecolor
newpath 749 235 moveto
811 225 913 210 1001 196 curveto
1005 195 1010 194 1015 193 curveto
stroke
0.667 0.776 0.439 edgecolor
newpath 748.602 231.522 moveto
739 236 lineto
749.299 238.488 lineto
closepath fill
1 setlinewidth
solid
0.667 0.776 0.439 edgecolor
newpath 748.602 231.522 moveto
739 236 lineto
749.299 238.488 lineto
closepath stroke
grestore
% Node24
gsave
[ /Rect [ 1127 175 1287 195 ]
  /Border [ 0 0 0 ]
  /Action << /Subtype /URI /URI ($NodoTrieSCasoPrueba_8cpp.html) >>
  /Subtype /Link
/ANN pdfmark
[ /Rect [ 1127 175 1287 195 ]
  /Border [ 0 0 0 ]
  /Action << /Subtype /URI /URI ($NodoTrieSCasoPrueba_8cpp.html) >>
  /Subtype /Link
/ANN pdfmark
1 setlinewidth
0.000 0.000 0.000 nodecolor
newpath 1127 174 moveto
1127 195 lineto
1287 195 lineto
1287 174 lineto
closepath stroke
0.000 0.000 0.000 nodecolor
10.00 /FreeSans.ttf set_font
1207 181 moveto 144 -0.5 (NodoTrieSCasoPrueba.cpp) alignedtext
grestore
% Node1->Node24
gsave
1 setlinewidth
solid
0.667 0.776 0.439 edgecolor
newpath 749 237 moveto
831 228 987 211 1118 196 curveto
1121 196 1124 195 1127 195 curveto
stroke
0.667 0.776 0.439 edgecolor
newpath 748.602 233.522 moveto
739 238 lineto
749.299 240.488 lineto
closepath fill
1 setlinewidth
solid
0.667 0.776 0.439 edgecolor
newpath 748.602 233.522 moveto
739 238 lineto
749.299 240.488 lineto
closepath stroke
grestore
% Node3
gsave
[ /Rect [ 156 117 244 137 ]
  /Border [ 0 0 0 ]
  /Action << /Subtype /URI /URI ($buscador_8cpp.html) >>
  /Subtype /Link
/ANN pdfmark
[ /Rect [ 156 117 244 137 ]
  /Border [ 0 0 0 ]
  /Action << /Subtype /URI /URI ($buscador_8cpp.html) >>
  /Subtype /Link
/ANN pdfmark
1 setlinewidth
0.000 0.000 0.000 nodecolor
newpath 156 116 moveto
156 137 lineto
245 137 lineto
245 116 lineto
closepath stroke
0.000 0.000 0.000 nodecolor
10.00 /FreeSans.ttf set_font
200 123 moveto 73 -0.5 (buscador.cpp) alignedtext
grestore
% Node2->Node3
gsave
1 setlinewidth
solid
0.667 0.776 0.439 edgecolor
newpath 296 170 moveto
273 159 243 146 223 137 curveto
stroke
0.667 0.776 0.439 edgecolor
newpath 294.44 173.137 moveto
305 174 lineto
297.283 166.74 lineto
closepath fill
1 setlinewidth
solid
0.667 0.776 0.439 edgecolor
newpath 294.44 173.137 moveto
305 174 lineto
297.283 166.74 lineto
closepath stroke
grestore
% Node4
gsave
[ /Rect [ 28 117 138 137 ]
  /Border [ 0 0 0 ]
  /Action << /Subtype /URI /URI ($depuraindice_8cpp.html) >>
  /Subtype /Link
/ANN pdfmark
[ /Rect [ 28 117 138 137 ]
  /Border [ 0 0 0 ]
  /Action << /Subtype /URI /URI ($depuraindice_8cpp.html) >>
  /Subtype /Link
/ANN pdfmark
1 setlinewidth
0.000 0.000 0.000 nodecolor
newpath 28 116 moveto
28 137 lineto
139 137 lineto
139 116 lineto
closepath stroke
0.000 0.000 0.000 nodecolor
10.00 /FreeSans.ttf set_font
83 123 moveto 95 -0.5 (depuraindice.cpp) alignedtext
grestore
% Node2->Node4
gsave
1 setlinewidth
solid
0.667 0.776 0.439 edgecolor
newpath 273 172 moveto
228 161 166 146 126 137 curveto
stroke
0.667 0.776 0.439 edgecolor
newpath 272.508 175.471 moveto
283 174 lineto
273.881 168.607 lineto
closepath fill
1 setlinewidth
solid
0.667 0.776 0.439 edgecolor
newpath 272.508 175.471 moveto
283 174 lineto
273.881 168.607 lineto
closepath stroke
grestore
% Node2->Node5
gsave
1 setlinewidth
solid
0.667 0.776 0.439 edgecolor
newpath 364 170 moveto
387 159 417 146 437 137 curveto
stroke
0.667 0.776 0.439 edgecolor
newpath 362.717 166.74 moveto
355 174 lineto
365.56 173.137 lineto
closepath fill
1 setlinewidth
solid
0.667 0.776 0.439 edgecolor
newpath 362.717 166.74 moveto
355 174 lineto
365.56 173.137 lineto
closepath stroke
grestore
% Node2->Node12
gsave
1 setlinewidth
solid
0.667 0.776 0.439 edgecolor
newpath 350 167 moveto
365 152 379 131 365 116 curveto
359 108 243 90 165 79 curveto
stroke
0.667 0.776 0.439 edgecolor
newpath 347.596 164.454 moveto
343 174 lineto
352.546 169.404 lineto
closepath fill
1 setlinewidth
solid
0.667 0.776 0.439 edgecolor
newpath 347.596 164.454 moveto
343 174 lineto
352.546 169.404 lineto
closepath stroke
grestore
% Node13
gsave
[ /Rect [ 262 117 356 137 ]
  /Border [ 0 0 0 ]
  /Action << /Subtype /URI /URI ($TrieSDisco_8cpp.html) >>
  /Subtype /Link
/ANN pdfmark
[ /Rect [ 262 117 356 137 ]
  /Border [ 0 0 0 ]
  /Action << /Subtype /URI /URI ($TrieSDisco_8cpp.html) >>
  /Subtype /Link
/ANN pdfmark
1 setlinewidth
0.000 0.000 0.000 nodecolor
newpath 262 116 moveto
262 137 lineto
357 137 lineto
357 116 lineto
closepath stroke
0.000 0.000 0.000 nodecolor
10.00 /FreeSans.ttf set_font
309 123 moveto 79 -0.5 (TrieSDisco.cpp) alignedtext
grestore
% Node2->Node13
gsave
1 setlinewidth
solid
0.667 0.776 0.439 edgecolor
newpath 322 164 moveto
319 155 315 144 313 137 curveto
stroke
0.667 0.776 0.439 edgecolor
newpath 319.036 166.015 moveto
326 174 lineto
325.536 163.415 lineto
closepath fill
1 setlinewidth
solid
0.667 0.776 0.439 edgecolor
newpath 319.036 166.015 moveto
326 174 lineto
325.536 163.415 lineto
closepath stroke
grestore
% Node6
gsave
[ /Rect [ 405 59 513 79 ]
  /Border [ 0 0 0 ]
  /Action << /Subtype /URI /URI ($Operaciones_8hpp.html) >>
  /Subtype /Link
/ANN pdfmark
[ /Rect [ 405 59 513 79 ]
  /Border [ 0 0 0 ]
  /Action << /Subtype /URI /URI ($Operaciones_8hpp.html) >>
  /Subtype /Link
/ANN pdfmark
1 setlinewidth
0.000 0.000 0.000 nodecolor
newpath 405 58 moveto
405 79 lineto
514 79 lineto
514 58 lineto
closepath stroke
0.000 0.000 0.000 nodecolor
10.00 /FreeSans.ttf set_font
459 65 moveto 93 -0.5 (Operaciones.hpp) alignedtext
grestore
% Node5->Node6
gsave
1 setlinewidth
solid
0.667 0.776 0.439 edgecolor
newpath 459 106 moveto
459 96 459 86 459 79 curveto
stroke
0.667 0.776 0.439 edgecolor
newpath 455.5 106 moveto
459 116 lineto
462.5 106 lineto
closepath fill
1 setlinewidth
solid
0.667 0.776 0.439 edgecolor
newpath 455.5 106 moveto
459 116 lineto
462.5 106 lineto
closepath stroke
grestore
% Node8
gsave
[ /Rect [ 703 1 811 21 ]
  /Border [ 0 0 0 ]
  /Action << /Subtype /URI /URI ($Operaciones_8cpp.html) >>
  /Subtype /Link
/ANN pdfmark
[ /Rect [ 703 1 811 21 ]
  /Border [ 0 0 0 ]
  /Action << /Subtype /URI /URI ($Operaciones_8cpp.html) >>
  /Subtype /Link
/ANN pdfmark
1 setlinewidth
0.000 0.000 0.000 nodecolor
newpath 703 0 moveto
703 21 lineto
811 21 lineto
811 0 lineto
closepath stroke
0.000 0.000 0.000 nodecolor
10.00 /FreeSans.ttf set_font
757 7 moveto 92 -0.5 (Operaciones.cpp) alignedtext
grestore
% Node5->Node8
gsave
1 setlinewidth
solid
0.667 0.776 0.439 edgecolor
newpath 482 110 moveto
506 92 544 65 560 58 curveto
606 37 662 25 703 18 curveto
stroke
0.667 0.776 0.439 edgecolor
newpath 479.9 107.2 moveto
474 116 lineto
484.1 112.8 lineto
closepath fill
1 setlinewidth
solid
0.667 0.776 0.439 edgecolor
newpath 479.9 107.2 moveto
474 116 lineto
484.1 112.8 lineto
closepath stroke
grestore
% Node9
gsave
[ /Rect [ 325 1 429 21 ]
  /Border [ 0 0 0 ]
  /Action << /Subtype /URI /URI ($operaindice_8cpp.html) >>
  /Subtype /Link
/ANN pdfmark
[ /Rect [ 325 1 429 21 ]
  /Border [ 0 0 0 ]
  /Action << /Subtype /URI /URI ($operaindice_8cpp.html) >>
  /Subtype /Link
/ANN pdfmark
1 setlinewidth
0.000 0.000 0.000 nodecolor
newpath 325 0 moveto
325 21 lineto
429 21 lineto
429 0 lineto
closepath stroke
0.000 0.000 0.000 nodecolor
10.00 /FreeSans.ttf set_font
377 7 moveto 88 -0.5 (operaindice.cpp) alignedtext
grestore
% Node5->Node9
gsave
1 setlinewidth
solid
0.667 0.776 0.439 edgecolor
newpath 429 111 moveto
417 103 404 92 396 80 curveto
384 61 380 35 378 21 curveto
stroke
0.667 0.776 0.439 edgecolor
newpath 427.559 114.203 moveto
438 116 lineto
430.958 108.084 lineto
closepath fill
1 setlinewidth
solid
0.667 0.776 0.439 edgecolor
newpath 427.559 114.203 moveto
438 116 lineto
430.958 108.084 lineto
closepath stroke
grestore
% Node10
gsave
[ /Rect [ 569 59 661 79 ]
  /Border [ 0 0 0 ]
  /Action << /Subtype /URI /URI ($RamDisco_8cpp.html) >>
  /Subtype /Link
/ANN pdfmark
[ /Rect [ 569 59 661 79 ]
  /Border [ 0 0 0 ]
  /Action << /Subtype /URI /URI ($RamDisco_8cpp.html) >>
  /Subtype /Link
/ANN pdfmark
1 setlinewidth
0.000 0.000 0.000 nodecolor
newpath 569 58 moveto
569 79 lineto
662 79 lineto
662 58 lineto
closepath stroke
0.000 0.000 0.000 nodecolor
10.00 /FreeSans.ttf set_font
615 65 moveto 77 -0.5 (RamDisco.cpp) alignedtext
grestore
% Node5->Node10
gsave
1 setlinewidth
solid
0.667 0.776 0.439 edgecolor
newpath 498 112 moveto
526 102 563 88 588 79 curveto
stroke
0.667 0.776 0.439 edgecolor
newpath 496.717 108.74 moveto
489 116 lineto
499.56 115.137 lineto
closepath fill
1 setlinewidth
solid
0.667 0.776 0.439 edgecolor
newpath 496.717 108.74 moveto
489 116 lineto
499.56 115.137 lineto
closepath stroke
grestore
% Node11
gsave
[ /Rect [ 191 59 349 79 ]
  /Border [ 0 0 0 ]
  /Action << /Subtype /URI /URI ($RamDiscoCasoPrueba_8cpp.html) >>
  /Subtype /Link
/ANN pdfmark
[ /Rect [ 191 59 349 79 ]
  /Border [ 0 0 0 ]
  /Action << /Subtype /URI /URI ($RamDiscoCasoPrueba_8cpp.html) >>
  /Subtype /Link
/ANN pdfmark
1 setlinewidth
0.000 0.000 0.000 nodecolor
newpath 191 58 moveto
191 79 lineto
349 79 lineto
349 58 lineto
closepath stroke
0.000 0.000 0.000 nodecolor
10.00 /FreeSans.ttf set_font
270 65 moveto 142 -0.5 (RamDiscoCasoPrueba.cpp) alignedtext
grestore
% Node5->Node11
gsave
1 setlinewidth
solid
0.667 0.776 0.439 edgecolor
newpath 413 113 moveto
379 102 333 88 303 79 curveto
stroke
0.667 0.776 0.439 edgecolor
newpath 412.416 116.479 moveto
423 116 lineto
414.427 109.774 lineto
closepath fill
1 setlinewidth
solid
0.667 0.776 0.439 edgecolor
newpath 412.416 116.479 moveto
423 116 lineto
414.427 109.774 lineto
closepath stroke
grestore
% Node5->Node12
gsave
1 setlinewidth
solid
0.667 0.776 0.439 edgecolor
newpath 402 117 moveto
401 117 399 116 398 116 curveto
317 102 224 88 162 79 curveto
stroke
0.667 0.776 0.439 edgecolor
newpath 401.701 120.488 moveto
412 118 lineto
402.398 113.522 lineto
closepath fill
1 setlinewidth
solid
0.667 0.776 0.439 edgecolor
newpath 401.701 120.488 moveto
412 118 lineto
402.398 113.522 lineto
closepath stroke
grestore
% Node7
gsave
[ /Rect [ 447 1 541 21 ]
  /Border [ 0 0 0 ]
  /Action << /Subtype /URI /URI ($indexador_8cpp.html) >>
  /Subtype /Link
/ANN pdfmark
[ /Rect [ 447 1 541 21 ]
  /Border [ 0 0 0 ]
  /Action << /Subtype /URI /URI ($indexador_8cpp.html) >>
  /Subtype /Link
/ANN pdfmark
1 setlinewidth
0.000 0.000 0.000 nodecolor
newpath 447 0 moveto
447 21 lineto
541 21 lineto
541 0 lineto
closepath stroke
0.000 0.000 0.000 nodecolor
10.00 /FreeSans.ttf set_font
494 7 moveto 78 -0.5 (indexador.cpp) alignedtext
grestore
% Node6->Node7
gsave
1 setlinewidth
solid
0.667 0.776 0.439 edgecolor
newpath 471 49 moveto
477 40 483 29 488 21 curveto
stroke
0.667 0.776 0.439 edgecolor
newpath 467.797 47.5586 moveto
466 58 lineto
473.916 50.9582 lineto
closepath fill
1 setlinewidth
solid
0.667 0.776 0.439 edgecolor
newpath 467.797 47.5586 moveto
466 58 lineto
473.916 50.9582 lineto
closepath stroke
grestore
% Node6->Node8
gsave
1 setlinewidth
solid
0.667 0.776 0.439 edgecolor
newpath 524 56 moveto
579 46 655 31 706 21 curveto
stroke
0.667 0.776 0.439 edgecolor
newpath 523.119 52.6067 moveto
514 58 lineto
524.492 59.4708 lineto
closepath fill
1 setlinewidth
solid
0.667 0.776 0.439 edgecolor
newpath 523.119 52.6067 moveto
514 58 lineto
524.492 59.4708 lineto
closepath stroke
grestore
% Node6->Node9
gsave
1 setlinewidth
solid
0.667 0.776 0.439 edgecolor
newpath 435 52 moveto
420 42 403 29 391 21 curveto
stroke
0.667 0.776 0.439 edgecolor
newpath 432.9 54.8 moveto
443 58 lineto
437.1 49.2 lineto
closepath fill
1 setlinewidth
solid
0.667 0.776 0.439 edgecolor
newpath 432.9 54.8 moveto
443 58 lineto
437.1 49.2 lineto
closepath stroke
grestore
% Node15->Node8
gsave
1 setlinewidth
solid
0.667 0.776 0.439 edgecolor
newpath 734 49 moveto
740 40 746 29 751 21 curveto
stroke
0.667 0.776 0.439 edgecolor
newpath 730.797 47.5586 moveto
729 58 lineto
736.916 50.9582 lineto
closepath fill
1 setlinewidth
solid
0.667 0.776 0.439 edgecolor
newpath 730.797 47.5586 moveto
729 58 lineto
736.916 50.9582 lineto
closepath stroke
grestore
% Node17->Node8
gsave
1 setlinewidth
solid
0.667 0.776 0.439 edgecolor
newpath 736 170 moveto
751 163 766 152 774 138 curveto
796 99 773 44 762 21 curveto
stroke
0.667 0.776 0.439 edgecolor
newpath 734.717 166.74 moveto
727 174 lineto
737.56 173.137 lineto
closepath fill
1 setlinewidth
solid
0.667 0.776 0.439 edgecolor
newpath 734.717 166.74 moveto
727 174 lineto
737.56 173.137 lineto
closepath stroke
grestore
% Node17->Node16
gsave
1 setlinewidth
solid
0.667 0.776 0.439 edgecolor
newpath 670 167 moveto
658 157 645 145 635 137 curveto
stroke
0.667 0.776 0.439 edgecolor
newpath 668.169 170.049 moveto
678 174 lineto
672.779 164.781 lineto
closepath fill
1 setlinewidth
solid
0.667 0.776 0.439 edgecolor
newpath 668.169 170.049 moveto
678 174 lineto
672.779 164.781 lineto
closepath stroke
grestore
% Node18
gsave
[ /Rect [ 681 117 765 137 ]
  /Border [ 0 0 0 ]
  /Action << /Subtype /URI /URI ($txtdeodt_8cpp.html) >>
  /Subtype /Link
/ANN pdfmark
[ /Rect [ 681 117 765 137 ]
  /Border [ 0 0 0 ]
  /Action << /Subtype /URI /URI ($txtdeodt_8cpp.html) >>
  /Subtype /Link
/ANN pdfmark
1 setlinewidth
0.000 0.000 0.000 nodecolor
newpath 681 116 moveto
681 137 lineto
766 137 lineto
766 116 lineto
closepath stroke
0.000 0.000 0.000 nodecolor
10.00 /FreeSans.ttf set_font
723 123 moveto 69 -0.5 (txtdeodt.cpp) alignedtext
grestore
% Node17->Node18
gsave
1 setlinewidth
solid
0.667 0.776 0.439 edgecolor
newpath 702 165 moveto
707 155 713 145 717 137 curveto
stroke
0.667 0.776 0.439 edgecolor
newpath 698.797 163.559 moveto
697 174 lineto
704.916 166.958 lineto
closepath fill
1 setlinewidth
solid
0.667 0.776 0.439 edgecolor
newpath 698.797 163.559 moveto
697 174 lineto
704.916 166.958 lineto
closepath stroke
grestore
% Node20->Node8
gsave
1 setlinewidth
solid
0.667 0.776 0.439 edgecolor
newpath 865 170 moveto
890 157 916 139 904 116 curveto
879 67 819 36 784 21 curveto
stroke
0.667 0.776 0.439 edgecolor
newpath 863.717 166.74 moveto
856 174 lineto
866.56 173.137 lineto
closepath fill
1 setlinewidth
solid
0.667 0.776 0.439 edgecolor
newpath 863.717 166.74 moveto
856 174 lineto
866.56 173.137 lineto
closepath stroke
grestore
% Node20->Node19
gsave
1 setlinewidth
solid
0.667 0.776 0.439 edgecolor
newpath 836 165 moveto
841 155 848 145 852 137 curveto
stroke
0.667 0.776 0.439 edgecolor
newpath 832.797 163.559 moveto
831 174 lineto
838.916 166.958 lineto
closepath fill
1 setlinewidth
solid
0.667 0.776 0.439 edgecolor
newpath 832.797 163.559 moveto
831 174 lineto
838.916 166.958 lineto
closepath stroke
grestore
% Node22->Node8
gsave
1 setlinewidth
solid
0.667 0.776 0.439 edgecolor
newpath 941 57 moveto
898 47 837 31 797 21 curveto
stroke
0.667 0.776 0.439 edgecolor
newpath 940.508 60.4708 moveto
951 59 lineto
941.881 53.6067 lineto
closepath fill
1 setlinewidth
solid
0.667 0.776 0.439 edgecolor
newpath 940.508 60.4708 moveto
951 59 lineto
941.881 53.6067 lineto
closepath stroke
grestore
endpage
showpage
grestore
%%PageTrailer
%%EndPage: 1
%%Trailer
%%Pages: 1
%%BoundingBox: 36 36 1331 298
end
restore
%%EOF
