%!PS-Adobe-2.0
%%Creator: Graphviz version 2.12 (Mon Nov 16 18:34:03 UTC 2009)
%%For: (vtamara) Vladimir
%%Title: G
%%Pages: (atend)
%%BoundingBox: (atend)
%%EndComments
save
%%BeginProlog
/DotDict 200 dict def
DotDict begin

/setupLatin1 {
mark
/EncodingVector 256 array def
 EncodingVector 0

ISOLatin1Encoding 0 255 getinterval putinterval
EncodingVector 45 /hyphen put

% Set up ISO Latin 1 character encoding
/starnetISO {
        dup dup findfont dup length dict begin
        { 1 index /FID ne { def }{ pop pop } ifelse
        } forall
        /Encoding EncodingVector def
        currentdict end definefont
} def
/Times-Roman starnetISO def
/Times-Italic starnetISO def
/Times-Bold starnetISO def
/Times-BoldItalic starnetISO def
/Helvetica starnetISO def
/Helvetica-Oblique starnetISO def
/Helvetica-Bold starnetISO def
/Helvetica-BoldOblique starnetISO def
/Courier starnetISO def
/Courier-Oblique starnetISO def
/Courier-Bold starnetISO def
/Courier-BoldOblique starnetISO def
cleartomark
} bind def

%%BeginResource: procset graphviz 0 0
/coord-font-family /Times-Roman def
/default-font-family /Times-Roman def
/coordfont coord-font-family findfont 8 scalefont def

/InvScaleFactor 1.0 def
/set_scale {
       dup 1 exch div /InvScaleFactor exch def
       scale
} bind def

% styles
/solid { [] 0 setdash } bind def
/dashed { [9 InvScaleFactor mul dup ] 0 setdash } bind def
/dotted { [1 InvScaleFactor mul 6 InvScaleFactor mul] 0 setdash } bind def
/invis {/fill {newpath} def /stroke {newpath} def /show {pop newpath} def} bind def
/bold { 2 setlinewidth } bind def
/filled { } bind def
/unfilled { } bind def
/rounded { } bind def
/diagonals { } bind def

% hooks for setting color 
/nodecolor { sethsbcolor } bind def
/edgecolor { sethsbcolor } bind def
/graphcolor { sethsbcolor } bind def
/nopcolor {pop pop pop} bind def

/beginpage {	% i j npages
	/npages exch def
	/j exch def
	/i exch def
	/str 10 string def
	npages 1 gt {
		gsave
			coordfont setfont
			0 0 moveto
			(\() show i str cvs show (,) show j str cvs show (\)) show
		grestore
	} if
} bind def

/set_font {
	findfont exch
	scalefont setfont
} def

% draw aligned label in bounding box aligned to current point
/alignedtext {			% width adj text
	/text exch def
	/adj exch def
	/width exch def
	gsave
		width 0 gt {
			text stringwidth pop adj mul 0 rmoveto
		} if
		[] 0 setdash
		text show
	grestore
} def

/boxprim {				% xcorner ycorner xsize ysize
		4 2 roll
		moveto
		2 copy
		exch 0 rlineto
		0 exch rlineto
		pop neg 0 rlineto
		closepath
} bind def

/ellipse_path {
	/ry exch def
	/rx exch def
	/y exch def
	/x exch def
	matrix currentmatrix
	newpath
	x y translate
	rx ry scale
	0 0 1 0 360 arc
	setmatrix
} bind def

/endpage { showpage } bind def
/showpage { } def

/layercolorseq
	[	% layer color sequence - darkest to lightest
		[0 0 0]
		[.2 .8 .8]
		[.4 .8 .8]
		[.6 .8 .8]
		[.8 .8 .8]
	]
def

/layerlen layercolorseq length def

/setlayer {/maxlayer exch def /curlayer exch def
	layercolorseq curlayer 1 sub layerlen mod get
	aload pop sethsbcolor
	/nodecolor {nopcolor} def
	/edgecolor {nopcolor} def
	/graphcolor {nopcolor} def
} bind def

/onlayer { curlayer ne {invis} if } def

/onlayers {
	/myupper exch def
	/mylower exch def
	curlayer mylower lt
	curlayer myupper gt
	or
	{invis} if
} def

/curlayer 0 def

%%EndResource
%%EndProlog
%%BeginSetup
14 default-font-family set_font
1 setmiterlimit
% /arrowlength 10 def
% /arrowwidth 5 def

% make sure pdfmark is harmless for PS-interpreters other than Distiller
/pdfmark where {pop} {userdict /pdfmark /cleartomark load put} ifelse
% make '<<' and '>>' safe on PS Level 1 devices
/languagelevel where {pop languagelevel}{1} ifelse
2 lt {
    userdict (<<) cvn ([) cvn load put
    userdict (>>) cvn ([) cvn load put
} if

%%EndSetup
setupLatin1
%%Page: 1 1
%%PageBoundingBox: 36 36 292 102
%%PageOrientation: Portrait
gsave
36 36 292 102 boxprim clip newpath
0 0 1 beginpage
1 1 set_scale 0 rotate 40 40 translate
% Node1
gsave
0.000 0.000 0.749 nodecolor
newpath 0 18 moveto
0 39 lineto
56 39 lineto
56 18 lineto
closepath fill
1 setlinewidth
filled
0.000 0.000 0.000 nodecolor
newpath 0 18 moveto
0 39 lineto
56 39 lineto
56 18 lineto
closepath stroke
0.000 0.000 0.000 nodecolor
10.00 /FreeSans.ttf set_font
28 25 moveto 40 -0.5 (mezcla) alignedtext
grestore
% Node2
gsave
[ /Rect [ 103 38 237 58 ]
  /Border [ 0 0 0 ]
  /Action << /Subtype /URI /URI ($classNodoTrieS.html#4f1525cf7f147f71e7be74c15d4f87a0) >>
  /Subtype /Link
/ANN pdfmark
[ /Rect [ 103 38 237 58 ]
  /Border [ 0 0 0 ]
  /Action << /Subtype /URI /URI ($classNodoTrieS.html#4f1525cf7f147f71e7be74c15d4f87a0) >>
  /Subtype /Link
/ANN pdfmark
1 setlinewidth
0.000 0.000 0.000 nodecolor
newpath 103 37 moveto
103 58 lineto
237 58 lineto
237 37 lineto
closepath stroke
0.000 0.000 0.000 nodecolor
10.00 /FreeSans.ttf set_font
170 44 moveto 118 -0.5 (NodoTrieS::NodoTrieS) alignedtext
grestore
% Node1->Node2
gsave
1 setlinewidth
solid
0.667 0.776 0.439 edgecolor
newpath 56 33 moveto
66 35 80 36 93 38 curveto
stroke
0.667 0.776 0.439 edgecolor
newpath 92.7013 41.4875 moveto
103 39 lineto
93.3979 34.5222 lineto
closepath fill
1 setlinewidth
solid
0.667 0.776 0.439 edgecolor
newpath 92.7013 41.4875 moveto
103 39 lineto
93.3979 34.5222 lineto
closepath stroke
grestore
% Node3
gsave
[ /Rect [ 93 0 247 20 ]
  /Border [ 0 0 0 ]
  /Action << /Subtype /URI /URI ($comun_8cpp.html#c74356d5b37d454e0ddce0de8fac34f8) >>
  /Subtype /Link
/ANN pdfmark
[ /Rect [ 93 0 247 20 ]
  /Border [ 0 0 0 ]
  /Action << /Subtype /URI /URI ($comun_8cpp.html#c74356d5b37d454e0ddce0de8fac34f8) >>
  /Subtype /Link
/ANN pdfmark
1 setlinewidth
0.000 0.000 0.000 nodecolor
newpath 93 -1 moveto
93 20 lineto
248 20 lineto
248 -1 lineto
closepath stroke
0.000 0.000 0.000 nodecolor
10.00 /FreeSans.ttf set_font
170 6 moveto 139 -0.5 (prefijo_comun_mas_largo) alignedtext
grestore
% Node1->Node3
gsave
1 setlinewidth
solid
0.667 0.776 0.439 edgecolor
newpath 56 25 moveto
64 24 74 23 85 21 curveto
stroke
0.667 0.776 0.439 edgecolor
newpath 85.3979 24.4778 moveto
95 20 lineto
84.7013 17.5125 lineto
closepath fill
1 setlinewidth
solid
0.667 0.776 0.439 edgecolor
newpath 85.3979 24.4778 moveto
95 20 lineto
84.7013 17.5125 lineto
closepath stroke
grestore
endpage
showpage
grestore
%%PageTrailer
%%EndPage: 1
%%Trailer
%%Pages: 1
%%BoundingBox: 36 36 292 102
end
restore
%%EOF
