%!PS-Adobe-2.0
%%Creator: Graphviz version 2.12 (Mon Nov 16 18:34:03 UTC 2009)
%%For: (vtamara) Vladimir
%%Title: G
%%Pages: (atend)
%%BoundingBox: (atend)
%%EndComments
save
%%BeginProlog
/DotDict 200 dict def
DotDict begin

/setupLatin1 {
mark
/EncodingVector 256 array def
 EncodingVector 0

ISOLatin1Encoding 0 255 getinterval putinterval
EncodingVector 45 /hyphen put

% Set up ISO Latin 1 character encoding
/starnetISO {
        dup dup findfont dup length dict begin
        { 1 index /FID ne { def }{ pop pop } ifelse
        } forall
        /Encoding EncodingVector def
        currentdict end definefont
} def
/Times-Roman starnetISO def
/Times-Italic starnetISO def
/Times-Bold starnetISO def
/Times-BoldItalic starnetISO def
/Helvetica starnetISO def
/Helvetica-Oblique starnetISO def
/Helvetica-Bold starnetISO def
/Helvetica-BoldOblique starnetISO def
/Courier starnetISO def
/Courier-Oblique starnetISO def
/Courier-Bold starnetISO def
/Courier-BoldOblique starnetISO def
cleartomark
} bind def

%%BeginResource: procset graphviz 0 0
/coord-font-family /Times-Roman def
/default-font-family /Times-Roman def
/coordfont coord-font-family findfont 8 scalefont def

/InvScaleFactor 1.0 def
/set_scale {
       dup 1 exch div /InvScaleFactor exch def
       scale
} bind def

% styles
/solid { [] 0 setdash } bind def
/dashed { [9 InvScaleFactor mul dup ] 0 setdash } bind def
/dotted { [1 InvScaleFactor mul 6 InvScaleFactor mul] 0 setdash } bind def
/invis {/fill {newpath} def /stroke {newpath} def /show {pop newpath} def} bind def
/bold { 2 setlinewidth } bind def
/filled { } bind def
/unfilled { } bind def
/rounded { } bind def
/diagonals { } bind def

% hooks for setting color 
/nodecolor { sethsbcolor } bind def
/edgecolor { sethsbcolor } bind def
/graphcolor { sethsbcolor } bind def
/nopcolor {pop pop pop} bind def

/beginpage {	% i j npages
	/npages exch def
	/j exch def
	/i exch def
	/str 10 string def
	npages 1 gt {
		gsave
			coordfont setfont
			0 0 moveto
			(\() show i str cvs show (,) show j str cvs show (\)) show
		grestore
	} if
} bind def

/set_font {
	findfont exch
	scalefont setfont
} def

% draw aligned label in bounding box aligned to current point
/alignedtext {			% width adj text
	/text exch def
	/adj exch def
	/width exch def
	gsave
		width 0 gt {
			text stringwidth pop adj mul 0 rmoveto
		} if
		[] 0 setdash
		text show
	grestore
} def

/boxprim {				% xcorner ycorner xsize ysize
		4 2 roll
		moveto
		2 copy
		exch 0 rlineto
		0 exch rlineto
		pop neg 0 rlineto
		closepath
} bind def

/ellipse_path {
	/ry exch def
	/rx exch def
	/y exch def
	/x exch def
	matrix currentmatrix
	newpath
	x y translate
	rx ry scale
	0 0 1 0 360 arc
	setmatrix
} bind def

/endpage { showpage } bind def
/showpage { } def

/layercolorseq
	[	% layer color sequence - darkest to lightest
		[0 0 0]
		[.2 .8 .8]
		[.4 .8 .8]
		[.6 .8 .8]
		[.8 .8 .8]
	]
def

/layerlen layercolorseq length def

/setlayer {/maxlayer exch def /curlayer exch def
	layercolorseq curlayer 1 sub layerlen mod get
	aload pop sethsbcolor
	/nodecolor {nopcolor} def
	/edgecolor {nopcolor} def
	/graphcolor {nopcolor} def
} bind def

/onlayer { curlayer ne {invis} if } def

/onlayers {
	/myupper exch def
	/mylower exch def
	curlayer mylower lt
	curlayer myupper gt
	or
	{invis} if
} def

/curlayer 0 def

%%EndResource
%%EndProlog
%%BeginSetup
14 default-font-family set_font
1 setmiterlimit
% /arrowlength 10 def
% /arrowwidth 5 def

% make sure pdfmark is harmless for PS-interpreters other than Distiller
/pdfmark where {pop} {userdict /pdfmark /cleartomark load put} ifelse
% make '<<' and '>>' safe on PS Level 1 devices
/languagelevel where {pop languagelevel}{1} ifelse
2 lt {
    userdict (<<) cvn ([) cvn load put
    userdict (>>) cvn ([) cvn load put
} if

%%EndSetup
setupLatin1
%%Page: 1 1
%%PageBoundingBox: 36 36 1204 1583
%%PageOrientation: Portrait
gsave
36 36 1204 1583 boxprim clip newpath
0 0 1 beginpage
1 1 set_scale 0 rotate 40 40 translate
% Node1
gsave
0.000 0.000 0.749 nodecolor
newpath 0 531 moveto
0 552 lineto
44 552 lineto
44 531 lineto
closepath fill
1 setlinewidth
filled
0.000 0.000 0.000 nodecolor
newpath 0 531 moveto
0 552 lineto
44 552 lineto
44 531 lineto
closepath stroke
0.000 0.000 0.000 nodecolor
10.00 /FreeSans.ttf set_font
22 538 moveto 28 -0.5 (main) alignedtext
grestore
% Node2
gsave
[ /Rect [ 102 1501 216 1521 ]
  /Border [ 0 0 0 ]
  /Action << /Subtype /URI /URI ($classNodoTrieS.html#3fd5593979f154a4e5372172640d4631) >>
  /Subtype /Link
/ANN pdfmark
[ /Rect [ 102 1501 216 1521 ]
  /Border [ 0 0 0 ]
  /Action << /Subtype /URI /URI ($classNodoTrieS.html#3fd5593979f154a4e5372172640d4631) >>
  /Subtype /Link
/ANN pdfmark
1 setlinewidth
0.000 0.000 0.000 nodecolor
newpath 102 1500 moveto
102 1521 lineto
216 1521 lineto
216 1500 lineto
closepath stroke
0.000 0.000 0.000 nodecolor
10.00 /FreeSans.ttf set_font
159 1507 moveto 98 -0.5 (NodoTrieS::aDotty) alignedtext
grestore
% Node1->Node2
gsave
1 setlinewidth
solid
0.667 0.776 0.439 edgecolor
newpath 22 552 moveto
25 652 50 1448 80 1487 curveto
84 1491 88 1495 93 1498 curveto
stroke
0.667 0.776 0.439 edgecolor
newpath 91.4404 1501.14 moveto
102 1502 lineto
94.2834 1494.74 lineto
closepath fill
1 setlinewidth
solid
0.667 0.776 0.439 edgecolor
newpath 91.4404 1501.14 moveto
102 1502 lineto
94.2834 1494.74 lineto
closepath stroke
grestore
% Node3
gsave
[ /Rect [ 121 608 197 628 ]
  /Border [ 0 0 0 ]
  /Action << /Subtype /URI /URI ($Operaciones_8cpp.html#c1299609e09550e88e35765f0e7f22d3) >>
  /Subtype /Link
/ANN pdfmark
[ /Rect [ 121 608 197 628 ]
  /Border [ 0 0 0 ]
  /Action << /Subtype /URI /URI ($Operaciones_8cpp.html#c1299609e09550e88e35765f0e7f22d3) >>
  /Subtype /Link
/ANN pdfmark
1 setlinewidth
0.000 0.000 0.000 nodecolor
newpath 121 607 moveto
121 628 lineto
197 628 lineto
197 607 lineto
closepath stroke
0.000 0.000 0.000 nodecolor
10.00 /FreeSans.ttf set_font
159 614 moveto 60 -0.5 (agregaDoc) alignedtext
grestore
% Node1->Node3
gsave
1 setlinewidth
solid
0.667 0.776 0.439 edgecolor
newpath 30 552 moveto
41 564 60 583 80 594 curveto
89 599 100 604 111 607 curveto
stroke
0.667 0.776 0.439 edgecolor
newpath 110.416 610.479 moveto
121 610 lineto
112.427 603.774 lineto
closepath fill
1 setlinewidth
solid
0.667 0.776 0.439 edgecolor
newpath 110.416 610.479 moveto
121 610 lineto
112.427 603.774 lineto
closepath stroke
grestore
% Node36
gsave
[ /Rect [ 296 1178 378 1198 ]
  /Border [ 0 0 0 ]
  /Action << /Subtype /URI /URI ($Doc_8cpp.html#9c643cf619a44c811431e60dee2029a2) >>
  /Subtype /Link
/ANN pdfmark
[ /Rect [ 296 1178 378 1198 ]
  /Border [ 0 0 0 ]
  /Action << /Subtype /URI /URI ($Doc_8cpp.html#9c643cf619a44c811431e60dee2029a2) >>
  /Subtype /Link
/ANN pdfmark
1 setlinewidth
0.000 0.000 0.000 nodecolor
newpath 296 1177 moveto
296 1198 lineto
378 1198 lineto
378 1177 lineto
closepath stroke
0.000 0.000 0.000 nodecolor
10.00 /FreeSans.ttf set_font
337 1184 moveto 66 -0.5 (mezclaDocs) alignedtext
grestore
% Node1->Node36
gsave
1 setlinewidth
solid
0.667 0.776 0.439 edgecolor
newpath 23 552 moveto
29 618 73 985 274 1169 curveto
278 1172 282 1175 287 1177 curveto
stroke
0.667 0.776 0.439 edgecolor
newpath 285.44 1180.14 moveto
296 1181 lineto
288.283 1173.74 lineto
closepath fill
1 setlinewidth
solid
0.667 0.776 0.439 edgecolor
newpath 285.44 1180.14 moveto
296 1181 lineto
288.283 1173.74 lineto
closepath stroke
grestore
% Node38
gsave
[ /Rect [ 287 588 387 608 ]
  /Border [ 0 0 0 ]
  /Action << /Subtype /URI /URI ($comun_8cpp.html#ecd3ce9c133c650ebb919dcce6f77003) >>
  /Subtype /Link
/ANN pdfmark
[ /Rect [ 287 588 387 608 ]
  /Border [ 0 0 0 ]
  /Action << /Subtype /URI /URI ($comun_8cpp.html#ecd3ce9c133c650ebb919dcce6f77003) >>
  /Subtype /Link
/ANN pdfmark
1 setlinewidth
0.000 0.000 0.000 nodecolor
newpath 287 587 moveto
287 608 lineto
387 608 lineto
387 587 lineto
closepath stroke
0.000 0.000 0.000 nodecolor
10.00 /FreeSans.ttf set_font
337 594 moveto 84 -0.5 (verificaNombre) alignedtext
grestore
% Node1->Node38
gsave
1 setlinewidth
solid
0.667 0.776 0.439 edgecolor
newpath 44 550 moveto
55 554 68 558 80 561 curveto
147 577 225 587 277 593 curveto
stroke
0.667 0.776 0.439 edgecolor
newpath 276.701 596.488 moveto
287 594 lineto
277.398 589.522 lineto
closepath fill
1 setlinewidth
solid
0.667 0.776 0.439 edgecolor
newpath 276.701 596.488 moveto
287 594 lineto
277.398 589.522 lineto
closepath stroke
grestore
% Node39
gsave
[ /Rect [ 120 437 198 457 ]
  /Border [ 0 0 0 ]
  /Action << /Subtype /URI /URI ($Operaciones_8cpp.html#81a2b0df683a53a3872a3f547eecb195) >>
  /Subtype /Link
/ANN pdfmark
[ /Rect [ 120 437 198 457 ]
  /Border [ 0 0 0 ]
  /Action << /Subtype /URI /URI ($Operaciones_8cpp.html#81a2b0df683a53a3872a3f547eecb195) >>
  /Subtype /Link
/ANN pdfmark
1 setlinewidth
0.000 0.000 0.000 nodecolor
newpath 120 436 moveto
120 457 lineto
198 457 lineto
198 436 lineto
closepath stroke
0.000 0.000 0.000 nodecolor
10.00 /FreeSans.ttf set_font
159 443 moveto 62 -0.5 (eliminaDoc) alignedtext
grestore
% Node1->Node39
gsave
1 setlinewidth
solid
0.667 0.776 0.439 edgecolor
newpath 31 531 moveto
42 519 61 499 80 485 curveto
93 476 109 468 124 461 curveto
stroke
0.667 0.776 0.439 edgecolor
newpath 125.283 464.26 moveto
133 457 lineto
122.44 457.863 lineto
closepath fill
1 setlinewidth
solid
0.667 0.776 0.439 edgecolor
newpath 125.283 464.26 moveto
133 457 lineto
122.44 457.863 lineto
closepath stroke
grestore
% Node40
gsave
[ /Rect [ 117 494 201 514 ]
  /Border [ 0 0 0 ]
  /Action << /Subtype /URI /URI ($RamDisco_8cpp.html#2cb378b461cda4a857b5a9488db30964) >>
  /Subtype /Link
/ANN pdfmark
[ /Rect [ 117 494 201 514 ]
  /Border [ 0 0 0 ]
  /Action << /Subtype /URI /URI ($RamDisco_8cpp.html#2cb378b461cda4a857b5a9488db30964) >>
  /Subtype /Link
/ANN pdfmark
1 setlinewidth
0.000 0.000 0.000 nodecolor
newpath 117 493 moveto
117 514 lineto
202 514 lineto
202 493 lineto
closepath stroke
0.000 0.000 0.000 nodecolor
10.00 /FreeSans.ttf set_font
159 500 moveto 69 -0.5 (escribePlano) alignedtext
grestore
% Node1->Node40
gsave
1 setlinewidth
solid
0.667 0.776 0.439 edgecolor
newpath 44 535 moveto
55 531 68 527 80 523 curveto
89 521 98 519 107 516 curveto
stroke
0.667 0.776 0.439 edgecolor
newpath 107.881 519.393 moveto
117 514 lineto
106.508 512.529 lineto
closepath fill
1 setlinewidth
solid
0.667 0.776 0.439 edgecolor
newpath 107.881 519.393 moveto
117 514 lineto
106.508 512.529 lineto
closepath stroke
grestore
% Node43
gsave
[ /Rect [ 128 342 190 362 ]
  /Border [ 0 0 0 ]
  /Action << /Subtype /URI /URI ($RamDisco_8cpp.html#1cb80fe5f2b7c872fbec9375e3fb874d) >>
  /Subtype /Link
/ANN pdfmark
[ /Rect [ 128 342 190 362 ]
  /Border [ 0 0 0 ]
  /Action << /Subtype /URI /URI ($RamDisco_8cpp.html#1cb80fe5f2b7c872fbec9375e3fb874d) >>
  /Subtype /Link
/ANN pdfmark
1 setlinewidth
0.000 0.000 0.000 nodecolor
newpath 128 341 moveto
128 362 lineto
191 362 lineto
191 341 lineto
closepath stroke
0.000 0.000 0.000 nodecolor
10.00 /FreeSans.ttf set_font
159 348 moveto 47 -0.5 (leePlano) alignedtext
grestore
% Node1->Node43
gsave
1 setlinewidth
solid
0.667 0.776 0.439 edgecolor
newpath 24 531 moveto
32 496 56 394 80 371 curveto
90 361 105 357 118 355 curveto
stroke
0.667 0.776 0.439 edgecolor
newpath 118.881 358.393 moveto
128 353 lineto
117.508 351.529 lineto
closepath fill
1 setlinewidth
solid
0.667 0.776 0.439 edgecolor
newpath 118.881 358.393 moveto
128 353 lineto
117.508 351.529 lineto
closepath stroke
grestore
% Node45
gsave
[ /Rect [ 117 380 201 400 ]
  /Border [ 0 0 0 ]
  /Action << /Subtype /URI /URI ($Operaciones_8cpp.html#f6b60721806c7cfa52b2a35f710f8b4d) >>
  /Subtype /Link
/ANN pdfmark
[ /Rect [ 117 380 201 400 ]
  /Border [ 0 0 0 ]
  /Action << /Subtype /URI /URI ($Operaciones_8cpp.html#f6b60721806c7cfa52b2a35f710f8b4d) >>
  /Subtype /Link
/ANN pdfmark
1 setlinewidth
0.000 0.000 0.000 nodecolor
newpath 117 379 moveto
117 400 lineto
201 400 lineto
201 379 lineto
closepath stroke
0.000 0.000 0.000 nodecolor
10.00 /FreeSans.ttf set_font
159 386 moveto 68 -0.5 (listaPalabras) alignedtext
grestore
% Node1->Node45
gsave
1 setlinewidth
solid
0.667 0.776 0.439 edgecolor
newpath 25 531 moveto
32 509 50 458 80 428 curveto
90 418 104 410 117 404 curveto
stroke
0.667 0.776 0.439 edgecolor
newpath 119.015 406.964 moveto
127 400 lineto
116.415 400.464 lineto
closepath fill
1 setlinewidth
solid
0.667 0.776 0.439 edgecolor
newpath 119.015 406.964 moveto
127 400 lineto
116.415 400.464 lineto
closepath stroke
grestore
% Node47
gsave
[ /Rect [ 882 1405 938 1425 ]
  /Border [ 0 0 0 ]
  /Action << /Subtype /URI /URI ($NodoTrieS_8cpp.html#079316fbc88878ad572ff859f63998e3) >>
  /Subtype /Link
/ANN pdfmark
[ /Rect [ 882 1405 938 1425 ]
  /Border [ 0 0 0 ]
  /Action << /Subtype /URI /URI ($NodoTrieS_8cpp.html#079316fbc88878ad572ff859f63998e3) >>
  /Subtype /Link
/ANN pdfmark
1 setlinewidth
0.000 0.000 0.000 nodecolor
newpath 882 1404 moveto
882 1425 lineto
938 1425 lineto
938 1404 lineto
closepath stroke
0.000 0.000 0.000 nodecolor
10.00 /FreeSans.ttf set_font
910 1411 moveto 40 -0.5 (mezcla) alignedtext
grestore
% Node1->Node47
gsave
1 setlinewidth
solid
0.667 0.776 0.439 edgecolor
newpath 23 552 moveto
28 611 53 905 80 991 curveto
154 1222 95 1473 337 1473 curveto
337 1473 337 1473 517 1473 curveto
651 1473 686 1470 816 1444 curveto
835 1440 855 1434 872 1428 curveto
stroke
0.667 0.776 0.439 edgecolor
newpath 873.427 1431.23 moveto
882 1425 lineto
871.416 1424.52 lineto
closepath fill
1 setlinewidth
solid
0.667 0.776 0.439 edgecolor
newpath 873.427 1431.23 moveto
882 1425 lineto
871.416 1424.52 lineto
closepath stroke
grestore
% Node48
gsave
[ /Rect [ 107 532 211 552 ]
  /Border [ 0 0 0 ]
  /Action << /Subtype /URI /URI ($Operaciones_8cpp.html#094b1e6e4ca081840e22763663b9b814) >>
  /Subtype /Link
/ANN pdfmark
[ /Rect [ 107 532 211 552 ]
  /Border [ 0 0 0 ]
  /Action << /Subtype /URI /URI ($Operaciones_8cpp.html#094b1e6e4ca081840e22763663b9b814) >>
  /Subtype /Link
/ANN pdfmark
1 setlinewidth
0.000 0.000 0.000 nodecolor
newpath 107 531 moveto
107 552 lineto
212 552 lineto
212 531 lineto
closepath stroke
0.000 0.000 0.000 nodecolor
10.00 /FreeSans.ttf set_font
159 538 moveto 89 -0.5 (mezclaDosDisco) alignedtext
grestore
% Node1->Node48
gsave
1 setlinewidth
solid
0.667 0.776 0.439 edgecolor
newpath 44 542 moveto
58 542 78 542 97 542 curveto
stroke
0.667 0.776 0.439 edgecolor
newpath 97 545.5 moveto
107 542 lineto
97 538.5 lineto
closepath fill
1 setlinewidth
solid
0.667 0.776 0.439 edgecolor
newpath 97 545.5 moveto
107 542 lineto
97 538.5 lineto
closepath stroke
grestore
% Node50
gsave
[ /Rect [ 80 286 238 306 ]
  /Border [ 0 0 0 ]
  /Action << /Subtype /URI /URI ($classNodoTrieS.html#457ea8521cdbfe8277c7d0a34517cbb5) >>
  /Subtype /Link
/ANN pdfmark
[ /Rect [ 80 286 238 306 ]
  /Border [ 0 0 0 ]
  /Action << /Subtype /URI /URI ($classNodoTrieS.html#457ea8521cdbfe8277c7d0a34517cbb5) >>
  /Subtype /Link
/ANN pdfmark
1 setlinewidth
0.000 0.000 0.000 nodecolor
newpath 80 285 moveto
80 306 lineto
238 306 lineto
238 285 lineto
closepath stroke
0.000 0.000 0.000 nodecolor
10.00 /FreeSans.ttf set_font
159 292 moveto 142 -0.5 (NodoTrieS::renumeraDocs) alignedtext
grestore
% Node1->Node50
gsave
1 setlinewidth
solid
0.667 0.776 0.439 edgecolor
newpath 24 531 moveto
30 492 54 364 80 333 curveto
89 323 101 315 114 310 curveto
stroke
0.667 0.776 0.439 edgecolor
newpath 115.283 313.26 moveto
123 306 lineto
112.44 306.863 lineto
closepath fill
1 setlinewidth
solid
0.667 0.776 0.439 edgecolor
newpath 115.283 313.26 moveto
123 306 lineto
112.44 306.863 lineto
closepath stroke
grestore
% Node2->Node2
gsave
1 setlinewidth
solid
0.667 0.776 0.439 edgecolor
newpath 116 1521 moveto
97 1530 111 1539 159 1539 curveto
196 1539 213 1534 210 1527 curveto
stroke
0.667 0.776 0.439 edgecolor
newpath 212.1 1524.2 moveto
202 1521 lineto
207.9 1529.8 lineto
closepath fill
1 setlinewidth
solid
0.667 0.776 0.439 edgecolor
newpath 212.1 1524.2 moveto
202 1521 lineto
207.9 1529.8 lineto
closepath stroke
grestore
% Node4
gsave
[ /Rect [ 299 626 375 646 ]
  /Border [ 0 0 0 ]
  /Action << /Subtype /URI /URI ($Operaciones_8cpp.html#c3b6b570dd53678c88d7ef60f51bab4d) >>
  /Subtype /Link
/ANN pdfmark
[ /Rect [ 299 626 375 646 ]
  /Border [ 0 0 0 ]
  /Action << /Subtype /URI /URI ($Operaciones_8cpp.html#c3b6b570dd53678c88d7ef60f51bab4d) >>
  /Subtype /Link
/ANN pdfmark
1 setlinewidth
0.000 0.000 0.000 nodecolor
newpath 299 625 moveto
299 646 lineto
376 646 lineto
376 625 lineto
closepath stroke
0.000 0.000 0.000 nodecolor
10.00 /FreeSans.ttf set_font
337 632 moveto 61 -0.5 (calcRenum) alignedtext
grestore
% Node3->Node4
gsave
1 setlinewidth
solid
0.667 0.776 0.439 edgecolor
newpath 197 622 moveto
224 625 260 628 289 631 curveto
stroke
0.667 0.776 0.439 edgecolor
newpath 288.701 634.488 moveto
299 632 lineto
289.398 627.522 lineto
closepath fill
1 setlinewidth
solid
0.667 0.776 0.439 edgecolor
newpath 288.701 634.488 moveto
299 632 lineto
289.398 627.522 lineto
closepath stroke
grestore
% Node5
gsave
[ /Rect [ 286 494 388 514 ]
  /Border [ 0 0 0 ]
  /Action << /Subtype /URI /URI ($TrieSDisco_8cpp.html#df0711974693615ed7a5a7d1a2b050a7) >>
  /Subtype /Link
/ANN pdfmark
[ /Rect [ 286 494 388 514 ]
  /Border [ 0 0 0 ]
  /Action << /Subtype /URI /URI ($TrieSDisco_8cpp.html#df0711974693615ed7a5a7d1a2b050a7) >>
  /Subtype /Link
/ANN pdfmark
1 setlinewidth
0.000 0.000 0.000 nodecolor
newpath 286 493 moveto
286 514 lineto
388 514 lineto
388 493 lineto
closepath stroke
0.000 0.000 0.000 nodecolor
10.00 /FreeSans.ttf set_font
337 500 moveto 86 -0.5 (escribeRelacion) alignedtext
grestore
% Node3->Node5
gsave
1 setlinewidth
solid
0.667 0.776 0.439 edgecolor
newpath 177 607 moveto
193 596 218 579 238 561 curveto
256 546 255 536 274 523 curveto
277 521 280 519 283 518 curveto
stroke
0.667 0.776 0.439 edgecolor
newpath 285.015 520.964 moveto
293 514 lineto
282.415 514.464 lineto
closepath fill
1 setlinewidth
solid
0.667 0.776 0.439 edgecolor
newpath 285.015 520.964 moveto
293 514 lineto
282.415 514.464 lineto
closepath stroke
grestore
% Node7
gsave
[ /Rect [ 311 1140 363 1160 ]
  /Border [ 0 0 0 ]
  /Action << /Subtype /URI /URI ($Operaciones_8cpp.html#7b0b2f4ed1f93e2239f4d9d7cd303384) >>
  /Subtype /Link
/ANN pdfmark
[ /Rect [ 311 1140 363 1160 ]
  /Border [ 0 0 0 ]
  /Action << /Subtype /URI /URI ($Operaciones_8cpp.html#7b0b2f4ed1f93e2239f4d9d7cd303384) >>
  /Subtype /Link
/ANN pdfmark
1 setlinewidth
0.000 0.000 0.000 nodecolor
newpath 311 1139 moveto
311 1160 lineto
364 1160 lineto
364 1139 lineto
closepath stroke
0.000 0.000 0.000 nodecolor
10.00 /FreeSans.ttf set_font
337 1146 moveto 37 -0.5 (indexa) alignedtext
grestore
% Node3->Node7
gsave
1 setlinewidth
solid
0.667 0.776 0.439 edgecolor
newpath 162 628 moveto
184 692 300 1040 330 1129 curveto
stroke
0.667 0.776 0.439 edgecolor
newpath 326.774 1130.43 moveto
333 1139 lineto
333.479 1128.42 lineto
closepath fill
1 setlinewidth
solid
0.667 0.776 0.439 edgecolor
newpath 326.774 1130.43 moveto
333 1139 lineto
333.479 1128.42 lineto
closepath stroke
grestore
% Node22
gsave
[ /Rect [ 297 342 377 362 ]
  /Border [ 0 0 0 ]
  /Action << /Subtype /URI /URI ($TrieSDisco_8cpp.html#acdb9639784b2fb341e069b1f54c3455) >>
  /Subtype /Link
/ANN pdfmark
[ /Rect [ 297 342 377 362 ]
  /Border [ 0 0 0 ]
  /Action << /Subtype /URI /URI ($TrieSDisco_8cpp.html#acdb9639784b2fb341e069b1f54c3455) >>
  /Subtype /Link
/ANN pdfmark
1 setlinewidth
0.000 0.000 0.000 nodecolor
newpath 297 341 moveto
297 362 lineto
377 362 lineto
377 341 lineto
closepath stroke
0.000 0.000 0.000 nodecolor
10.00 /FreeSans.ttf set_font
337 348 moveto 64 -0.5 (leeRelacion) alignedtext
grestore
% Node3->Node22
gsave
1 setlinewidth
solid
0.667 0.776 0.439 edgecolor
newpath 183 607 moveto
201 597 225 582 238 561 curveto
285 489 217 435 274 371 curveto
278 367 282 364 287 361 curveto
stroke
0.667 0.776 0.439 edgecolor
newpath 288.427 364.226 moveto
297 358 lineto
286.416 357.521 lineto
closepath fill
1 setlinewidth
solid
0.667 0.776 0.439 edgecolor
newpath 288.427 364.226 moveto
297 358 lineto
286.416 357.521 lineto
closepath stroke
grestore
% Node25
gsave
[ /Rect [ 282 760 392 780 ]
  /Border [ 0 0 0 ]
  /Action << /Subtype /URI /URI ($RamDisco_8cpp.html#9889da3dbb12ee73c109e4998e1269f4) >>
  /Subtype /Link
/ANN pdfmark
[ /Rect [ 282 760 392 780 ]
  /Border [ 0 0 0 ]
  /Action << /Subtype /URI /URI ($RamDisco_8cpp.html#9889da3dbb12ee73c109e4998e1269f4) >>
  /Subtype /Link
/ANN pdfmark
1 setlinewidth
0.000 0.000 0.000 nodecolor
newpath 282 759 moveto
282 780 lineto
392 780 lineto
392 759 lineto
closepath stroke
0.000 0.000 0.000 nodecolor
10.00 /FreeSans.ttf set_font
337 766 moveto 94 -0.5 (mezclaDiscoRam) alignedtext
grestore
% Node3->Node25
gsave
1 setlinewidth
solid
0.667 0.776 0.439 edgecolor
newpath 171 628 moveto
201 653 279 721 316 752 curveto
stroke
0.667 0.776 0.439 edgecolor
newpath 314.169 755.049 moveto
324 759 lineto
318.779 749.781 lineto
closepath fill
1 setlinewidth
solid
0.667 0.776 0.439 edgecolor
newpath 314.169 755.049 moveto
324 759 lineto
318.779 749.781 lineto
closepath stroke
grestore
% Node3->Node36
gsave
1 setlinewidth
solid
0.667 0.776 0.439 edgecolor
newpath 163 628 moveto
175 664 217 785 238 889 curveto
251 950 234 1121 274 1169 curveto
278 1173 282 1177 287 1179 curveto
stroke
0.667 0.776 0.439 edgecolor
newpath 285.44 1182.14 moveto
296 1183 lineto
288.283 1175.74 lineto
closepath fill
1 setlinewidth
solid
0.667 0.776 0.439 edgecolor
newpath 285.44 1182.14 moveto
296 1183 lineto
288.283 1175.74 lineto
closepath stroke
grestore
% Node37
gsave
[ /Rect [ 293 380 381 400 ]
  /Border [ 0 0 0 ]
  /Action << /Subtype /URI /URI ($TrieSDisco_8cpp.html#3b55801abcb3987a49125a0ddc9ff76c) >>
  /Subtype /Link
/ANN pdfmark
[ /Rect [ 293 380 381 400 ]
  /Border [ 0 0 0 ]
  /Action << /Subtype /URI /URI ($TrieSDisco_8cpp.html#3b55801abcb3987a49125a0ddc9ff76c) >>
  /Subtype /Link
/ANN pdfmark
1 setlinewidth
0.000 0.000 0.000 nodecolor
newpath 293 379 moveto
293 400 lineto
382 400 lineto
382 379 lineto
closepath stroke
0.000 0.000 0.000 nodecolor
10.00 /FreeSans.ttf set_font
337 386 moveto 73 -0.5 (verificaIndice) alignedtext
grestore
% Node3->Node37
gsave
1 setlinewidth
solid
0.667 0.776 0.439 edgecolor
newpath 182 607 moveto
200 597 224 582 238 561 curveto
270 518 246 492 274 447 curveto
285 431 301 417 314 406 curveto
stroke
0.667 0.776 0.439 edgecolor
newpath 316.1 408.8 moveto
322 400 lineto
311.9 403.2 lineto
closepath fill
1 setlinewidth
solid
0.667 0.776 0.439 edgecolor
newpath 316.1 408.8 moveto
322 400 lineto
311.9 403.2 lineto
closepath stroke
grestore
% Node3->Node38
gsave
1 setlinewidth
solid
0.667 0.776 0.439 edgecolor
newpath 197 614 moveto
220 611 250 608 277 605 curveto
stroke
0.667 0.776 0.439 edgecolor
newpath 277.398 608.478 moveto
287 604 lineto
276.701 601.512 lineto
closepath fill
1 setlinewidth
solid
0.667 0.776 0.439 edgecolor
newpath 277.398 608.478 moveto
287 604 lineto
276.701 601.512 lineto
closepath stroke
grestore
% Node6
gsave
[ /Rect [ 477 267 557 287 ]
  /Border [ 0 0 0 ]
  /Action << /Subtype /URI /URI ($Doc_8cpp.html#ccfa223b5e7e9f380b58db51687ff9a5) >>
  /Subtype /Link
/ANN pdfmark
[ /Rect [ 477 267 557 287 ]
  /Border [ 0 0 0 ]
  /Action << /Subtype /URI /URI ($Doc_8cpp.html#ccfa223b5e7e9f380b58db51687ff9a5) >>
  /Subtype /Link
/ANN pdfmark
1 setlinewidth
0.000 0.000 0.000 nodecolor
newpath 477 266 moveto
477 287 lineto
558 287 lineto
558 266 lineto
closepath stroke
0.000 0.000 0.000 nodecolor
10.00 /FreeSans.ttf set_font
517 273 moveto 65 -0.5 (escribeDocs) alignedtext
grestore
% Node5->Node6
gsave
1 setlinewidth
solid
0.667 0.776 0.439 edgecolor
newpath 388 494 moveto
393 492 397 489 400 485 curveto
456 424 380 363 436 301 curveto
445 292 456 287 467 283 curveto
stroke
0.667 0.776 0.439 edgecolor
newpath 467.881 286.393 moveto
477 281 lineto
466.508 279.529 lineto
closepath fill
1 setlinewidth
solid
0.667 0.776 0.439 edgecolor
newpath 467.881 286.393 moveto
477 281 lineto
466.508 279.529 lineto
closepath stroke
grestore
% Node8
gsave
[ /Rect [ 458 1083 576 1103 ]
  /Border [ 0 0 0 ]
  /Action << /Subtype /URI /URI ($Operaciones_8cpp.html#962fb5669dbd34dd87d7bbfbffa042cc) >>
  /Subtype /Link
/ANN pdfmark
[ /Rect [ 458 1083 576 1103 ]
  /Border [ 0 0 0 ]
  /Action << /Subtype /URI /URI ($Operaciones_8cpp.html#962fb5669dbd34dd87d7bbfbffa042cc) >>
  /Subtype /Link
/ANN pdfmark
1 setlinewidth
0.000 0.000 0.000 nodecolor
newpath 458 1082 moveto
458 1103 lineto
577 1103 lineto
577 1082 lineto
closepath stroke
0.000 0.000 0.000 nodecolor
10.00 /FreeSans.ttf set_font
517 1089 moveto 103 -0.5 (determinaFormato) alignedtext
grestore
% Node7->Node8
gsave
1 setlinewidth
solid
0.667 0.776 0.439 edgecolor
newpath 362 1139 moveto
382 1131 411 1119 436 1112 curveto
444 1110 451 1108 459 1106 curveto
stroke
0.667 0.776 0.439 edgecolor
newpath 460.427 1109.23 moveto
469 1103 lineto
458.416 1102.52 lineto
closepath fill
1 setlinewidth
solid
0.667 0.776 0.439 edgecolor
newpath 460.427 1109.23 moveto
469 1103 lineto
458.416 1102.52 lineto
closepath stroke
grestore
% Node9
gsave
[ /Rect [ 491 1045 543 1065 ]
  /Border [ 0 0 0 ]
  /Action << /Subtype /URI /URI ($comun_8cpp.html#e156c1dd4bf7eda3abfcdf5d86cb85aa) >>
  /Subtype /Link
/ANN pdfmark
[ /Rect [ 491 1045 543 1065 ]
  /Border [ 0 0 0 ]
  /Action << /Subtype /URI /URI ($comun_8cpp.html#e156c1dd4bf7eda3abfcdf5d86cb85aa) >>
  /Subtype /Link
/ANN pdfmark
1 setlinewidth
0.000 0.000 0.000 nodecolor
newpath 491 1044 moveto
491 1065 lineto
543 1065 lineto
543 1044 lineto
closepath stroke
0.000 0.000 0.000 nodecolor
10.00 /FreeSans.ttf set_font
517 1051 moveto 36 -0.5 (estalla) alignedtext
grestore
% Node7->Node9
gsave
1 setlinewidth
solid
0.667 0.776 0.439 edgecolor
newpath 348 1139 moveto
365 1122 400 1090 436 1074 curveto
450 1068 467 1063 481 1060 curveto
stroke
0.667 0.776 0.439 edgecolor
newpath 481.881 1063.39 moveto
491 1058 lineto
480.508 1056.53 lineto
closepath fill
1 setlinewidth
solid
0.667 0.776 0.439 edgecolor
newpath 481.881 1063.39 moveto
491 1058 lineto
480.508 1056.53 lineto
closepath stroke
grestore
% Node10
gsave
[ /Rect [ 853 1349 967 1369 ]
  /Border [ 0 0 0 ]
  /Action << /Subtype /URI /URI ($classNodoTrieS.html#2fc30ff9fad0ba7dff585e913f34cc84) >>
  /Subtype /Link
/ANN pdfmark
[ /Rect [ 853 1349 967 1369 ]
  /Border [ 0 0 0 ]
  /Action << /Subtype /URI /URI ($classNodoTrieS.html#2fc30ff9fad0ba7dff585e913f34cc84) >>
  /Subtype /Link
/ANN pdfmark
1 setlinewidth
0.000 0.000 0.000 nodecolor
newpath 853 1348 moveto
853 1369 lineto
968 1369 lineto
968 1348 lineto
closepath stroke
0.000 0.000 0.000 nodecolor
10.00 /FreeSans.ttf set_font
910 1355 moveto 99 -0.5 (NodoTrieS::inserta) alignedtext
grestore
% Node7->Node10
gsave
1 setlinewidth
solid
0.667 0.776 0.439 edgecolor
newpath 364 1151 moveto
377 1153 391 1158 400 1169 curveto
471 1249 355 1337 436 1407 curveto
569 1520 804 1415 883 1374 curveto
stroke
0.667 0.776 0.439 edgecolor
newpath 884.958 1376.92 moveto
892 1369 lineto
881.559 1370.8 lineto
closepath fill
1 setlinewidth
solid
0.667 0.776 0.439 edgecolor
newpath 884.958 1376.92 moveto
892 1369 lineto
881.559 1370.8 lineto
closepath stroke
grestore
% Node13
gsave
[ /Rect [ 634 1349 816 1369 ]
  /Border [ 0 0 0 ]
  /Action << /Subtype /URI /URI ($classNodoTrieS.html#3fec20c7c9b038e391e5a0fc07085927) >>
  /Subtype /Link
/ANN pdfmark
[ /Rect [ 634 1349 816 1369 ]
  /Border [ 0 0 0 ]
  /Action << /Subtype /URI /URI ($classNodoTrieS.html#3fec20c7c9b038e391e5a0fc07085927) >>
  /Subtype /Link
/ANN pdfmark
1 setlinewidth
0.000 1.000 1.000 nodecolor
newpath 634 1348 moveto
634 1369 lineto
816 1369 lineto
816 1348 lineto
closepath stroke
0.000 0.000 0.000 nodecolor
10.00 /FreeSans.ttf set_font
725 1355 moveto 166 -0.5 (NodoTrieS::insertaConEtiqueta) alignedtext
grestore
% Node7->Node13
gsave
1 setlinewidth
solid
0.667 0.776 0.439 edgecolor
newpath 364 1152 moveto
377 1154 391 1159 400 1169 curveto
463 1239 364 1317 436 1378 curveto
511 1439 637 1397 695 1373 curveto
stroke
0.667 0.776 0.439 edgecolor
newpath 696.283 1376.26 moveto
704 1369 lineto
693.44 1369.86 lineto
closepath fill
1 setlinewidth
solid
0.667 0.776 0.439 edgecolor
newpath 696.283 1376.26 moveto
704 1369 lineto
693.44 1369.86 lineto
closepath stroke
grestore
% Node14
gsave
[ /Rect [ 875 1311 945 1331 ]
  /Border [ 0 0 0 ]
  /Action << /Subtype /URI /URI ($comun_8cpp.html#1f33d728a35dd4b43d2622c5471f5157) >>
  /Subtype /Link
/ANN pdfmark
[ /Rect [ 875 1311 945 1331 ]
  /Border [ 0 0 0 ]
  /Action << /Subtype /URI /URI ($comun_8cpp.html#1f33d728a35dd4b43d2622c5471f5157) >>
  /Subtype /Link
/ANN pdfmark
1 setlinewidth
0.000 1.000 1.000 nodecolor
newpath 875 1310 moveto
875 1331 lineto
946 1331 lineto
946 1310 lineto
closepath stroke
0.000 0.000 0.000 nodecolor
10.00 /FreeSans.ttf set_font
910 1317 moveto 55 -0.5 (normaliza) alignedtext
grestore
% Node7->Node14
gsave
1 setlinewidth
solid
0.667 0.776 0.439 edgecolor
newpath 364 1154 moveto
376 1156 390 1161 400 1169 curveto
424 1187 412 1209 436 1226 curveto
439 1227 814 1301 816 1302 curveto
832 1305 849 1309 865 1312 curveto
stroke
0.667 0.776 0.439 edgecolor
newpath 864.508 1315.47 moveto
875 1314 lineto
865.881 1308.61 lineto
closepath fill
1 setlinewidth
solid
0.667 0.776 0.439 edgecolor
newpath 864.508 1315.47 moveto
875 1314 lineto
865.881 1308.61 lineto
closepath stroke
grestore
% Node15
gsave
[ /Rect [ 486 1007 548 1027 ]
  /Border [ 0 0 0 ]
  /Action << /Subtype /URI /URI ($leeHTML_8cpp.html#250ca448b53ddf40ef05ee20dbe3a235) >>
  /Subtype /Link
/ANN pdfmark
[ /Rect [ 486 1007 548 1027 ]
  /Border [ 0 0 0 ]
  /Action << /Subtype /URI /URI ($leeHTML_8cpp.html#250ca448b53ddf40ef05ee20dbe3a235) >>
  /Subtype /Link
/ANN pdfmark
1 setlinewidth
0.000 1.000 1.000 nodecolor
newpath 486 1006 moveto
486 1027 lineto
549 1027 lineto
549 1006 lineto
closepath stroke
0.000 0.000 0.000 nodecolor
10.00 /FreeSans.ttf set_font
517 1013 moveto 47 -0.5 (leeHTML) alignedtext
grestore
% Node7->Node15
gsave
1 setlinewidth
solid
0.667 0.776 0.439 edgecolor
newpath 343 1139 moveto
357 1116 392 1062 436 1036 curveto
448 1029 462 1024 476 1021 curveto
stroke
0.667 0.776 0.439 edgecolor
newpath 476.881 1024.39 moveto
486 1019 lineto
475.508 1017.53 lineto
closepath fill
1 setlinewidth
solid
0.667 0.776 0.439 edgecolor
newpath 476.881 1024.39 moveto
486 1019 lineto
475.508 1017.53 lineto
closepath stroke
grestore
% Node16
gsave
[ /Rect [ 489 1311 545 1331 ]
  /Border [ 0 0 0 ]
  /Action << /Subtype /URI /URI ($leeODT_8cpp.html#c69c2cacaeed4d55fa0e9e1d1f3d9abb) >>
  /Subtype /Link
/ANN pdfmark
[ /Rect [ 489 1311 545 1331 ]
  /Border [ 0 0 0 ]
  /Action << /Subtype /URI /URI ($leeODT_8cpp.html#c69c2cacaeed4d55fa0e9e1d1f3d9abb) >>
  /Subtype /Link
/ANN pdfmark
1 setlinewidth
0.000 1.000 1.000 nodecolor
newpath 489 1310 moveto
489 1331 lineto
546 1331 lineto
546 1310 lineto
closepath stroke
0.000 0.000 0.000 nodecolor
10.00 /FreeSans.ttf set_font
517 1317 moveto 41 -0.5 (leeODT) alignedtext
grestore
% Node7->Node16
gsave
1 setlinewidth
solid
0.667 0.776 0.439 edgecolor
newpath 364 1152 moveto
377 1155 391 1159 400 1169 curveto
442 1211 395 1254 436 1297 curveto
447 1308 464 1314 479 1317 curveto
stroke
0.667 0.776 0.439 edgecolor
newpath 478.508 1320.47 moveto
489 1319 lineto
479.881 1313.61 lineto
closepath fill
1 setlinewidth
solid
0.667 0.776 0.439 edgecolor
newpath 478.508 1320.47 moveto
489 1319 lineto
479.881 1313.61 lineto
closepath stroke
grestore
% Node17
gsave
[ /Rect [ 694 1311 756 1331 ]
  /Border [ 0 0 0 ]
  /Action << /Subtype /URI /URI ($NodoTrieS_8cpp.html#e8422311e58bfd8cfdfcc83509128cf7) >>
  /Subtype /Link
/ANN pdfmark
[ /Rect [ 694 1311 756 1331 ]
  /Border [ 0 0 0 ]
  /Action << /Subtype /URI /URI ($NodoTrieS_8cpp.html#e8422311e58bfd8cfdfcc83509128cf7) >>
  /Subtype /Link
/ANN pdfmark
1 setlinewidth
0.000 0.000 0.000 nodecolor
newpath 694 1310 moveto
694 1331 lineto
757 1331 lineto
757 1310 lineto
closepath stroke
0.000 0.000 0.000 nodecolor
10.00 /FreeSans.ttf set_font
725 1317 moveto 47 -0.5 (leeTexto) alignedtext
grestore
% Node7->Node17
gsave
1 setlinewidth
solid
0.667 0.776 0.439 edgecolor
newpath 364 1153 moveto
376 1155 390 1160 400 1169 curveto
432 1198 404 1231 436 1259 curveto
455 1275 608 1302 684 1314 curveto
stroke
0.667 0.776 0.439 edgecolor
newpath 683.508 1317.47 moveto
694 1316 lineto
684.881 1310.61 lineto
closepath fill
1 setlinewidth
solid
0.667 0.776 0.439 edgecolor
newpath 683.508 1317.47 moveto
694 1316 lineto
684.881 1310.61 lineto
closepath stroke
grestore
% Node18
gsave
[ /Rect [ 491 1349 543 1369 ]
  /Border [ 0 0 0 ]
  /Action << /Subtype /URI /URI ($leePDF_8cpp.html#a38881dfe2f1239b61a3421cf9fd6290) >>
  /Subtype /Link
/ANN pdfmark
[ /Rect [ 491 1349 543 1369 ]
  /Border [ 0 0 0 ]
  /Action << /Subtype /URI /URI ($leePDF_8cpp.html#a38881dfe2f1239b61a3421cf9fd6290) >>
  /Subtype /Link
/ANN pdfmark
1 setlinewidth
0.000 1.000 1.000 nodecolor
newpath 491 1348 moveto
491 1369 lineto
544 1369 lineto
544 1348 lineto
closepath stroke
0.000 0.000 0.000 nodecolor
10.00 /FreeSans.ttf set_font
517 1355 moveto 37 -0.5 (leePDF) alignedtext
grestore
% Node7->Node18
gsave
1 setlinewidth
solid
0.667 0.776 0.439 edgecolor
newpath 364 1152 moveto
377 1154 391 1159 400 1169 curveto
453 1226 382 1284 436 1340 curveto
447 1351 465 1357 481 1359 curveto
stroke
0.667 0.776 0.439 edgecolor
newpath 480.701 1362.49 moveto
491 1360 lineto
481.398 1355.52 lineto
closepath fill
1 setlinewidth
solid
0.667 0.776 0.439 edgecolor
newpath 480.701 1362.49 moveto
491 1360 lineto
481.398 1355.52 lineto
closepath stroke
grestore
% Node19
gsave
[ /Rect [ 490 1197 544 1217 ]
  /Border [ 0 0 0 ]
  /Action << /Subtype /URI /URI ($leeXML_8cpp.html#43301893734e326281369fc4c857caf1) >>
  /Subtype /Link
/ANN pdfmark
[ /Rect [ 490 1197 544 1217 ]
  /Border [ 0 0 0 ]
  /Action << /Subtype /URI /URI ($leeXML_8cpp.html#43301893734e326281369fc4c857caf1) >>
  /Subtype /Link
/ANN pdfmark
1 setlinewidth
0.000 0.000 0.000 nodecolor
newpath 490 1196 moveto
490 1217 lineto
545 1217 lineto
545 1196 lineto
closepath stroke
0.000 0.000 0.000 nodecolor
10.00 /FreeSans.ttf set_font
517 1203 moveto 39 -0.5 (leeXML) alignedtext
grestore
% Node7->Node19
gsave
1 setlinewidth
solid
0.667 0.776 0.439 edgecolor
newpath 364 1157 moveto
375 1160 389 1164 400 1169 curveto
417 1175 420 1181 436 1188 curveto
450 1193 466 1197 480 1200 curveto
stroke
0.667 0.776 0.439 edgecolor
newpath 479.508 1203.47 moveto
490 1202 lineto
480.881 1196.61 lineto
closepath fill
1 setlinewidth
solid
0.667 0.776 0.439 edgecolor
newpath 479.508 1203.47 moveto
490 1202 lineto
480.881 1196.61 lineto
closepath stroke
grestore
% Node20
gsave
[ /Rect [ 476 1159 558 1179 ]
  /Border [ 0 0 0 ]
  /Action << /Subtype /URI /URI ($Operaciones_8cpp.html#e28ef4ade6bbd39872a25057c6037582) >>
  /Subtype /Link
/ANN pdfmark
[ /Rect [ 476 1159 558 1179 ]
  /Border [ 0 0 0 ]
  /Action << /Subtype /URI /URI ($Operaciones_8cpp.html#e28ef4ade6bbd39872a25057c6037582) >>
  /Subtype /Link
/ANN pdfmark
1 setlinewidth
0.000 0.000 0.000 nodecolor
newpath 476 1158 moveto
476 1179 lineto
558 1179 lineto
558 1158 lineto
closepath stroke
0.000 0.000 0.000 nodecolor
10.00 /FreeSans.ttf set_font
517 1165 moveto 66 -0.5 (prefijoASitio) alignedtext
grestore
% Node7->Node20
gsave
1 setlinewidth
solid
0.667 0.776 0.439 edgecolor
newpath 364 1153 moveto
391 1156 433 1160 466 1164 curveto
stroke
0.667 0.776 0.439 edgecolor
newpath 465.701 1167.49 moveto
476 1165 lineto
466.398 1160.52 lineto
closepath fill
1 setlinewidth
solid
0.667 0.776 0.439 edgecolor
newpath 465.701 1167.49 moveto
476 1165 lineto
466.398 1160.52 lineto
closepath stroke
grestore
% Node21
gsave
[ /Rect [ 470 1121 564 1141 ]
  /Border [ 0 0 0 ]
  /Action << /Subtype /URI /URI ($sha256_8cpp.html#23c461a74498c51def2406c5ab6aae67) >>
  /Subtype /Link
/ANN pdfmark
[ /Rect [ 470 1121 564 1141 ]
  /Border [ 0 0 0 ]
  /Action << /Subtype /URI /URI ($sha256_8cpp.html#23c461a74498c51def2406c5ab6aae67) >>
  /Subtype /Link
/ANN pdfmark
1 setlinewidth
0.000 1.000 1.000 nodecolor
newpath 470 1120 moveto
470 1141 lineto
564 1141 lineto
564 1120 lineto
closepath stroke
0.000 0.000 0.000 nodecolor
10.00 /FreeSans.ttf set_font
517 1127 moveto 78 -0.5 (sha256archivo) alignedtext
grestore
% Node7->Node21
gsave
1 setlinewidth
solid
0.667 0.776 0.439 edgecolor
newpath 364 1147 moveto
389 1144 428 1141 460 1137 curveto
stroke
0.667 0.776 0.439 edgecolor
newpath 460.398 1140.48 moveto
470 1136 lineto
459.701 1133.51 lineto
closepath fill
1 setlinewidth
solid
0.667 0.776 0.439 edgecolor
newpath 460.398 1140.48 moveto
470 1136 lineto
459.701 1133.51 lineto
closepath stroke
grestore
% Node10->Node10
gsave
1 setlinewidth
solid
0.667 0.776 0.439 edgecolor
newpath 856 1369 moveto
832 1378 850 1387 910 1387 curveto
959 1387 980 1381 973 1374 curveto
stroke
0.667 0.776 0.439 edgecolor
newpath 974.441 1370.8 moveto
964 1369 lineto
971.042 1376.92 lineto
closepath fill
1 setlinewidth
solid
0.667 0.776 0.439 edgecolor
newpath 974.441 1370.8 moveto
964 1369 lineto
971.042 1376.92 lineto
closepath stroke
grestore
% Node11
gsave
[ /Rect [ 1015 1377 1149 1397 ]
  /Border [ 0 0 0 ]
  /Action << /Subtype /URI /URI ($classNodoTrieS.html#4f1525cf7f147f71e7be74c15d4f87a0) >>
  /Subtype /Link
/ANN pdfmark
[ /Rect [ 1015 1377 1149 1397 ]
  /Border [ 0 0 0 ]
  /Action << /Subtype /URI /URI ($classNodoTrieS.html#4f1525cf7f147f71e7be74c15d4f87a0) >>
  /Subtype /Link
/ANN pdfmark
1 setlinewidth
0.000 0.000 0.000 nodecolor
newpath 1015 1376 moveto
1015 1397 lineto
1149 1397 lineto
1149 1376 lineto
closepath stroke
0.000 0.000 0.000 nodecolor
10.00 /FreeSans.ttf set_font
1082 1383 moveto 118 -0.5 (NodoTrieS::NodoTrieS) alignedtext
grestore
% Node10->Node11
gsave
1 setlinewidth
solid
0.667 0.776 0.439 edgecolor
newpath 968 1368 moveto
980 1370 992 1373 1005 1375 curveto
stroke
0.667 0.776 0.439 edgecolor
newpath 1004.7 1378.49 moveto
1015 1376 lineto
1005.4 1371.52 lineto
closepath fill
1 setlinewidth
solid
0.667 0.776 0.439 edgecolor
newpath 1004.7 1378.49 moveto
1015 1376 lineto
1005.4 1371.52 lineto
closepath stroke
grestore
% Node12
gsave
[ /Rect [ 1005 1154 1159 1174 ]
  /Border [ 0 0 0 ]
  /Action << /Subtype /URI /URI ($comun_8cpp.html#c74356d5b37d454e0ddce0de8fac34f8) >>
  /Subtype /Link
/ANN pdfmark
[ /Rect [ 1005 1154 1159 1174 ]
  /Border [ 0 0 0 ]
  /Action << /Subtype /URI /URI ($comun_8cpp.html#c74356d5b37d454e0ddce0de8fac34f8) >>
  /Subtype /Link
/ANN pdfmark
1 setlinewidth
0.000 0.000 0.000 nodecolor
newpath 1005 1153 moveto
1005 1174 lineto
1160 1174 lineto
1160 1153 lineto
closepath stroke
0.000 0.000 0.000 nodecolor
10.00 /FreeSans.ttf set_font
1082 1160 moveto 139 -0.5 (prefijo_comun_mas_largo) alignedtext
grestore
% Node10->Node12
gsave
1 setlinewidth
solid
0.667 0.776 0.439 edgecolor
newpath 954 1348 moveto
959 1346 964 1343 968 1340 curveto
1024 1297 1060 1220 1074 1183 curveto
stroke
0.667 0.776 0.439 edgecolor
newpath 1077.14 1184.56 moveto
1078 1174 lineto
1070.74 1181.72 lineto
closepath fill
1 setlinewidth
solid
0.667 0.776 0.439 edgecolor
newpath 1077.14 1184.56 moveto
1078 1174 lineto
1070.74 1181.72 lineto
closepath stroke
grestore
% Node13->Node10
gsave
1 setlinewidth
solid
0.667 0.776 0.439 edgecolor
newpath 816 1359 moveto
825 1359 834 1359 843 1359 curveto
stroke
0.667 0.776 0.439 edgecolor
newpath 843 1362.5 moveto
853 1359 lineto
843 1355.5 lineto
closepath fill
1 setlinewidth
solid
0.667 0.776 0.439 edgecolor
newpath 843 1362.5 moveto
853 1359 lineto
843 1355.5 lineto
closepath stroke
grestore
% Node13->Node14
gsave
1 setlinewidth
solid
0.667 0.776 0.439 edgecolor
newpath 779 1348 moveto
806 1343 839 1336 865 1330 curveto
stroke
0.667 0.776 0.439 edgecolor
newpath 865.881 1333.39 moveto
875 1328 lineto
864.508 1326.53 lineto
closepath fill
1 setlinewidth
solid
0.667 0.776 0.439 edgecolor
newpath 865.881 1333.39 moveto
875 1328 lineto
864.508 1326.53 lineto
closepath stroke
grestore
% Node16->Node17
gsave
1 setlinewidth
solid
0.667 0.776 0.439 edgecolor
newpath 546 1321 moveto
582 1321 643 1321 684 1321 curveto
stroke
0.667 0.776 0.439 edgecolor
newpath 684 1324.5 moveto
694 1321 lineto
684 1317.5 lineto
closepath fill
1 setlinewidth
solid
0.667 0.776 0.439 edgecolor
newpath 684 1324.5 moveto
694 1321 lineto
684 1317.5 lineto
closepath stroke
grestore
% Node17->Node10
gsave
1 setlinewidth
solid
0.667 0.776 0.439 edgecolor
newpath 757 1328 moveto
781 1333 815 1340 845 1346 curveto
stroke
0.667 0.776 0.439 edgecolor
newpath 844.508 1349.47 moveto
855 1348 lineto
845.881 1342.61 lineto
closepath fill
1 setlinewidth
solid
0.667 0.776 0.439 edgecolor
newpath 844.508 1349.47 moveto
855 1348 lineto
845.881 1342.61 lineto
closepath stroke
grestore
% Node17->Node14
gsave
1 setlinewidth
solid
0.667 0.776 0.439 edgecolor
newpath 757 1321 moveto
787 1321 831 1321 865 1321 curveto
stroke
0.667 0.776 0.439 edgecolor
newpath 865 1324.5 moveto
875 1321 lineto
865 1317.5 lineto
closepath fill
1 setlinewidth
solid
0.667 0.776 0.439 edgecolor
newpath 865 1324.5 moveto
875 1321 lineto
865 1317.5 lineto
closepath stroke
grestore
% Node18->Node17
gsave
1 setlinewidth
solid
0.667 0.776 0.439 edgecolor
newpath 544 1354 moveto
580 1348 642 1336 684 1329 curveto
stroke
0.667 0.776 0.439 edgecolor
newpath 684.881 1332.39 moveto
694 1327 lineto
683.508 1325.53 lineto
closepath fill
1 setlinewidth
solid
0.667 0.776 0.439 edgecolor
newpath 684.881 1332.39 moveto
694 1327 lineto
683.508 1325.53 lineto
closepath stroke
grestore
% Node23
gsave
[ /Rect [ 866 80 954 100 ]
  /Border [ 0 0 0 ]
  /Action << /Subtype /URI /URI ($comun_8cpp.html#88ffeb20e447cad877c37bb473033590) >>
  /Subtype /Link
/ANN pdfmark
[ /Rect [ 866 80 954 100 ]
  /Border [ 0 0 0 ]
  /Action << /Subtype /URI /URI ($comun_8cpp.html#88ffeb20e447cad877c37bb473033590) >>
  /Subtype /Link
/ANN pdfmark
1 setlinewidth
0.000 0.000 0.000 nodecolor
newpath 866 79 moveto
866 100 lineto
954 100 lineto
954 79 lineto
closepath stroke
0.000 0.000 0.000 nodecolor
10.00 /FreeSans.ttf set_font
910 86 moveto 72 -0.5 (errorFormato) alignedtext
grestore
% Node22->Node23
gsave
1 setlinewidth
solid
0.667 0.776 0.439 edgecolor
newpath 339 341 moveto
346 287 381 54 436 12 curveto
453 0 780 1 816 14 curveto
848 26 877 53 894 71 curveto
stroke
0.667 0.776 0.439 edgecolor
newpath 891.781 73.779 moveto
901 79 lineto
897.049 69.1694 lineto
closepath fill
1 setlinewidth
solid
0.667 0.776 0.439 edgecolor
newpath 891.781 73.779 moveto
901 79 lineto
897.049 69.1694 lineto
closepath stroke
grestore
% Node24
gsave
[ /Rect [ 696 23 754 43 ]
  /Border [ 0 0 0 ]
  /Action << /Subtype /URI /URI ($Doc_8cpp.html#e4bfd9bdedc0dd4fe00bf5f17f8f9e23) >>
  /Subtype /Link
/ANN pdfmark
[ /Rect [ 696 23 754 43 ]
  /Border [ 0 0 0 ]
  /Action << /Subtype /URI /URI ($Doc_8cpp.html#e4bfd9bdedc0dd4fe00bf5f17f8f9e23) >>
  /Subtype /Link
/ANN pdfmark
1 setlinewidth
0.000 0.000 0.000 nodecolor
newpath 696 22 moveto
696 43 lineto
755 43 lineto
755 22 lineto
closepath stroke
0.000 0.000 0.000 nodecolor
10.00 /FreeSans.ttf set_font
725 29 moveto 43 -0.5 (leeDocs) alignedtext
grestore
% Node22->Node24
gsave
1 setlinewidth
solid
0.667 0.776 0.439 edgecolor
newpath 339 341 moveto
349 291 389 95 436 57 curveto
509 0 625 12 686 24 curveto
stroke
0.667 0.776 0.439 edgecolor
newpath 685.508 27.4708 moveto
696 26 lineto
686.881 20.6067 lineto
closepath fill
1 setlinewidth
solid
0.667 0.776 0.439 edgecolor
newpath 685.508 27.4708 moveto
696 26 lineto
686.881 20.6067 lineto
closepath stroke
grestore
% Node24->Node23
gsave
1 setlinewidth
solid
0.667 0.776 0.439 edgecolor
newpath 755 40 moveto
773 45 796 51 816 57 curveto
834 63 854 69 871 75 curveto
stroke
0.667 0.776 0.439 edgecolor
newpath 870.415 78.5357 moveto
881 79 lineto
873.015 72.0364 lineto
closepath fill
1 setlinewidth
solid
0.667 0.776 0.439 edgecolor
newpath 870.415 78.5357 moveto
881 79 lineto
873.015 72.0364 lineto
closepath stroke
grestore
% Node25->Node12
gsave
1 setlinewidth
solid
0.667 0.776 0.439 edgecolor
newpath 340 780 moveto
349 810 380 897 436 944 curveto
495 992 527 973 598 998 curveto
762 1053 957 1120 1040 1150 curveto
stroke
0.667 0.776 0.439 edgecolor
newpath 1039.42 1153.48 moveto
1050 1153 lineto
1041.43 1146.77 lineto
closepath fill
1 setlinewidth
solid
0.667 0.776 0.439 edgecolor
newpath 1039.42 1153.48 moveto
1050 1153 lineto
1041.43 1146.77 lineto
closepath stroke
grestore
% Node25->Node25
gsave
1 setlinewidth
solid
0.667 0.776 0.439 edgecolor
newpath 282 780 moveto
256 789 274 798 337 798 curveto
390 798 411 792 401 784 curveto
stroke
0.667 0.776 0.439 edgecolor
newpath 402.56 780.863 moveto
392 780 lineto
399.717 787.26 lineto
closepath fill
1 setlinewidth
solid
0.667 0.776 0.439 edgecolor
newpath 402.56 780.863 moveto
392 780 lineto
399.717 787.26 lineto
closepath stroke
grestore
% Node26
gsave
[ /Rect [ 693 855 757 875 ]
  /Border [ 0 0 0 ]
  /Action << /Subtype /URI /URI ($Pos_8cpp.html#3c3cc0b0ac5ee434c66362380dda8ce8) >>
  /Subtype /Link
/ANN pdfmark
[ /Rect [ 693 855 757 875 ]
  /Border [ 0 0 0 ]
  /Action << /Subtype /URI /URI ($Pos_8cpp.html#3c3cc0b0ac5ee434c66362380dda8ce8) >>
  /Subtype /Link
/ANN pdfmark
1 setlinewidth
0.000 0.000 0.000 nodecolor
newpath 693 854 moveto
693 875 lineto
757 875 lineto
757 854 lineto
closepath stroke
0.000 0.000 0.000 nodecolor
10.00 /FreeSans.ttf set_font
725 861 moveto 48 -0.5 (copiaPos) alignedtext
grestore
% Node25->Node26
gsave
1 setlinewidth
solid
0.667 0.776 0.439 edgecolor
newpath 340 780 moveto
349 809 379 890 436 922 curveto
526 970 648 911 700 880 curveto
stroke
0.667 0.776 0.439 edgecolor
newpath 701.958 882.916 moveto
709 875 lineto
698.559 876.797 lineto
closepath fill
1 setlinewidth
solid
0.667 0.776 0.439 edgecolor
newpath 701.958 882.916 moveto
709 875 lineto
698.559 876.797 lineto
closepath stroke
grestore
% Node27
gsave
[ /Rect [ 459 513 575 533 ]
  /Border [ 0 0 0 ]
  /Action << /Subtype /URI /URI ($TrieSDisco_8cpp.html#4cc0e861f2e192242a40d6337c70fc5f) >>
  /Subtype /Link
/ANN pdfmark
[ /Rect [ 459 513 575 533 ]
  /Border [ 0 0 0 ]
  /Action << /Subtype /URI /URI ($TrieSDisco_8cpp.html#4cc0e861f2e192242a40d6337c70fc5f) >>
  /Subtype /Link
/ANN pdfmark
1 setlinewidth
0.000 0.000 0.000 nodecolor
newpath 459 512 moveto
459 533 lineto
575 533 lineto
575 512 lineto
closepath stroke
0.000 0.000 0.000 nodecolor
10.00 /FreeSans.ttf set_font
517 519 moveto 100 -0.5 (escribeCopiaNodo) alignedtext
grestore
% Node25->Node27
gsave
1 setlinewidth
solid
0.667 0.776 0.439 edgecolor
newpath 343 759 moveto
355 738 380 693 400 655 curveto
417 624 414 611 436 585 curveto
452 566 474 550 491 539 curveto
stroke
0.667 0.776 0.439 edgecolor
newpath 493.621 541.459 moveto
500 533 lineto
489.738 535.635 lineto
closepath fill
1 setlinewidth
solid
0.667 0.776 0.439 edgecolor
newpath 493.621 541.459 moveto
500 533 lineto
489.738 535.635 lineto
closepath stroke
grestore
% Node28
gsave
[ /Rect [ 683 703 767 723 ]
  /Border [ 0 0 0 ]
  /Action << /Subtype /URI /URI ($TrieSDisco_8cpp.html#95dfc28ebaa02e82d3d1ffce08251628) >>
  /Subtype /Link
/ANN pdfmark
[ /Rect [ 683 703 767 723 ]
  /Border [ 0 0 0 ]
  /Action << /Subtype /URI /URI ($TrieSDisco_8cpp.html#95dfc28ebaa02e82d3d1ffce08251628) >>
  /Subtype /Link
/ANN pdfmark
1 setlinewidth
0.000 1.000 1.000 nodecolor
newpath 683 702 moveto
683 723 lineto
767 723 lineto
767 702 lineto
closepath stroke
0.000 0.000 0.000 nodecolor
10.00 /FreeSans.ttf set_font
725 709 moveto 68 -0.5 (escribeNodo) alignedtext
grestore
% Node25->Node28
gsave
1 setlinewidth
solid
0.667 0.776 0.439 edgecolor
newpath 392 775 moveto
445 778 528 779 598 765 curveto
634 757 672 740 697 728 curveto
stroke
0.667 0.776 0.439 edgecolor
newpath 698.958 730.916 moveto
706 723 lineto
695.559 724.797 lineto
closepath fill
1 setlinewidth
solid
0.667 0.776 0.439 edgecolor
newpath 698.958 730.916 moveto
706 723 lineto
695.559 724.797 lineto
closepath stroke
grestore
% Node29
gsave
[ /Rect [ 865 703 955 723 ]
  /Border [ 0 0 0 ]
  /Action << /Subtype /URI /URI ($comun_8hpp.html#96402bda6527bf98dd8e49d62ae182f8) >>
  /Subtype /Link
/ANN pdfmark
[ /Rect [ 865 703 955 723 ]
  /Border [ 0 0 0 ]
  /Action << /Subtype /URI /URI ($comun_8hpp.html#96402bda6527bf98dd8e49d62ae182f8) >>
  /Subtype /Link
/ANN pdfmark
1 setlinewidth
0.000 1.000 1.000 nodecolor
newpath 865 702 moveto
865 723 lineto
955 723 lineto
955 702 lineto
closepath stroke
0.000 0.000 0.000 nodecolor
10.00 /FreeSans.ttf set_font
910 709 moveto 74 -0.5 (escribeNDesp) alignedtext
grestore
% Node25->Node29
gsave
1 setlinewidth
solid
0.667 0.776 0.439 edgecolor
newpath 392 779 moveto
406 781 422 783 436 784 curveto
508 789 527 792 598 784 curveto
696 773 808 743 867 726 curveto
stroke
0.667 0.776 0.439 edgecolor
newpath 868.427 729.226 moveto
877 723 lineto
866.416 722.521 lineto
closepath fill
1 setlinewidth
solid
0.667 0.776 0.439 edgecolor
newpath 868.427 729.226 moveto
877 723 lineto
866.416 722.521 lineto
closepath stroke
grestore
% Node30
gsave
[ /Rect [ 698 423 752 443 ]
  /Border [ 0 0 0 ]
  /Action << /Subtype /URI /URI ($comun_8cpp.html#4a359aa93f2dd4e34badd70c0e1f7082) >>
  /Subtype /Link
/ANN pdfmark
[ /Rect [ 698 423 752 443 ]
  /Border [ 0 0 0 ]
  /Action << /Subtype /URI /URI ($comun_8cpp.html#4a359aa93f2dd4e34badd70c0e1f7082) >>
  /Subtype /Link
/ANN pdfmark
1 setlinewidth
0.000 0.000 0.000 nodecolor
newpath 698 422 moveto
698 443 lineto
753 443 lineto
753 422 lineto
closepath stroke
0.000 0.000 0.000 nodecolor
10.00 /FreeSans.ttf set_font
725 429 moveto 39 -0.5 (leeCad) alignedtext
grestore
% Node25->Node30
gsave
1 setlinewidth
solid
0.667 0.776 0.439 edgecolor
newpath 343 759 moveto
360 726 411 634 436 613 curveto
496 562 534 588 598 542 curveto
618 529 617 520 634 504 curveto
656 484 684 463 703 449 curveto
stroke
0.667 0.776 0.439 edgecolor
newpath 705.1 451.8 moveto
711 443 lineto
700.9 446.2 lineto
closepath fill
1 setlinewidth
solid
0.667 0.776 0.439 edgecolor
newpath 705.1 451.8 moveto
711 443 lineto
700.9 446.2 lineto
closepath stroke
grestore
% Node31
gsave
[ /Rect [ 691 513 759 533 ]
  /Border [ 0 0 0 ]
  /Action << /Subtype /URI /URI ($comun_8hpp.html#9871d7357fc245ec5b7a227a9a62eb36) >>
  /Subtype /Link
/ANN pdfmark
[ /Rect [ 691 513 759 533 ]
  /Border [ 0 0 0 ]
  /Action << /Subtype /URI /URI ($comun_8hpp.html#9871d7357fc245ec5b7a227a9a62eb36) >>
  /Subtype /Link
/ANN pdfmark
1 setlinewidth
0.000 1.000 1.000 nodecolor
newpath 691 512 moveto
691 533 lineto
759 533 lineto
759 512 lineto
closepath stroke
0.000 0.000 0.000 nodecolor
10.00 /FreeSans.ttf set_font
725 519 moveto 52 -0.5 (leeNDesp) alignedtext
grestore
% Node25->Node31
gsave
1 setlinewidth
solid
0.667 0.776 0.439 edgecolor
newpath 357 759 moveto
401 734 510 671 598 613 curveto
636 589 679 557 704 539 curveto
stroke
0.667 0.776 0.439 edgecolor
newpath 706.1 541.8 moveto
712 533 lineto
701.9 536.2 lineto
closepath fill
1 setlinewidth
solid
0.667 0.776 0.439 edgecolor
newpath 706.1 541.8 moveto
712 533 lineto
701.9 536.2 lineto
closepath stroke
grestore
% Node32
gsave
[ /Rect [ 700 305 750 325 ]
  /Border [ 0 0 0 ]
  /Action << /Subtype /URI /URI ($Pos_8cpp.html#36b67a50cba6dc1789825a3111bee9d2) >>
  /Subtype /Link
/ANN pdfmark
[ /Rect [ 700 305 750 325 ]
  /Border [ 0 0 0 ]
  /Action << /Subtype /URI /URI ($Pos_8cpp.html#36b67a50cba6dc1789825a3111bee9d2) >>
  /Subtype /Link
/ANN pdfmark
1 setlinewidth
0.000 1.000 1.000 nodecolor
newpath 700 304 moveto
700 325 lineto
751 325 lineto
751 304 lineto
closepath stroke
0.000 0.000 0.000 nodecolor
10.00 /FreeSans.ttf set_font
725 311 moveto 35 -0.5 (leePos) alignedtext
grestore
% Node25->Node32
gsave
1 setlinewidth
solid
0.667 0.776 0.439 edgecolor
newpath 345 759 moveto
358 739 386 696 400 655 curveto
431 567 380 523 436 448 curveto
500 365 628 332 690 321 curveto
stroke
0.667 0.776 0.439 edgecolor
newpath 690.881 324.393 moveto
700 319 lineto
689.508 317.529 lineto
closepath fill
1 setlinewidth
solid
0.667 0.776 0.439 edgecolor
newpath 690.881 324.393 moveto
700 319 lineto
689.508 317.529 lineto
closepath stroke
grestore
% Node33
gsave
[ /Rect [ 447 855 587 875 ]
  /Border [ 0 0 0 ]
  /Action << /Subtype /URI /URI ($RamDisco_8cpp.html#2cef55a7d5a3eb177f0d3b5a067f9e17) >>
  /Subtype /Link
/ANN pdfmark
[ /Rect [ 447 855 587 875 ]
  /Border [ 0 0 0 ]
  /Action << /Subtype /URI /URI ($RamDisco_8cpp.html#2cef55a7d5a3eb177f0d3b5a067f9e17) >>
  /Subtype /Link
/ANN pdfmark
1 setlinewidth
0.000 1.000 1.000 nodecolor
newpath 447 854 moveto
447 875 lineto
588 875 lineto
588 854 lineto
closepath stroke
0.000 0.000 0.000 nodecolor
10.00 /FreeSans.ttf set_font
517 861 moveto 125 -0.5 (escribeCopiaNodoRam) alignedtext
grestore
% Node25->Node33
gsave
1 setlinewidth
solid
0.667 0.776 0.439 edgecolor
newpath 348 780 moveto
366 795 402 824 436 841 curveto
444 845 453 848 461 851 curveto
stroke
0.667 0.776 0.439 edgecolor
newpath 460.416 854.479 moveto
471 854 lineto
462.427 847.774 lineto
closepath fill
1 setlinewidth
solid
0.667 0.776 0.439 edgecolor
newpath 460.416 854.479 moveto
471 854 lineto
462.427 847.774 lineto
closepath stroke
grestore
% Node34
gsave
[ /Rect [ 449 457 585 477 ]
  /Border [ 0 0 0 ]
  /Action << /Subtype /URI /URI ($TrieSDisco_8cpp.html#485d02d9d7ec4ae0114122861420c1d1) >>
  /Subtype /Link
/ANN pdfmark
[ /Rect [ 449 457 585 477 ]
  /Border [ 0 0 0 ]
  /Action << /Subtype /URI /URI ($TrieSDisco_8cpp.html#485d02d9d7ec4ae0114122861420c1d1) >>
  /Subtype /Link
/ANN pdfmark
1 setlinewidth
0.000 0.000 0.000 nodecolor
newpath 449 456 moveto
449 477 lineto
585 477 lineto
585 456 lineto
closepath stroke
0.000 0.000 0.000 nodecolor
10.00 /FreeSans.ttf set_font
517 463 moveto 120 -0.5 (escribeCopiaSubarbol) alignedtext
grestore
% Node25->Node34
gsave
1 setlinewidth
solid
0.667 0.776 0.439 edgecolor
newpath 345 759 moveto
358 739 385 695 400 655 curveto
425 591 393 558 436 504 curveto
445 494 457 486 469 481 curveto
stroke
0.667 0.776 0.439 edgecolor
newpath 470.283 484.26 moveto
478 477 lineto
467.44 477.863 lineto
closepath fill
1 setlinewidth
solid
0.667 0.776 0.439 edgecolor
newpath 470.283 484.26 moveto
478 477 lineto
467.44 477.863 lineto
closepath stroke
grestore
% Node35
gsave
[ /Rect [ 437 893 597 913 ]
  /Border [ 0 0 0 ]
  /Action << /Subtype /URI /URI ($RamDisco_8cpp.html#1d654f71e19a8010c6fec648e8cf9899) >>
  /Subtype /Link
/ANN pdfmark
[ /Rect [ 437 893 597 913 ]
  /Border [ 0 0 0 ]
  /Action << /Subtype /URI /URI ($RamDisco_8cpp.html#1d654f71e19a8010c6fec648e8cf9899) >>
  /Subtype /Link
/ANN pdfmark
1 setlinewidth
0.000 0.000 0.000 nodecolor
newpath 437 892 moveto
437 913 lineto
598 913 lineto
598 892 lineto
closepath stroke
0.000 0.000 0.000 nodecolor
10.00 /FreeSans.ttf set_font
517 899 moveto 145 -0.5 (escribeCopiaSubarbolRam) alignedtext
grestore
% Node25->Node35
gsave
1 setlinewidth
solid
0.667 0.776 0.439 edgecolor
newpath 343 780 moveto
356 802 391 857 436 884 curveto
438 885 441 887 444 888 curveto
stroke
0.667 0.776 0.439 edgecolor
newpath 442.44 891.137 moveto
453 892 lineto
445.283 884.74 lineto
closepath fill
1 setlinewidth
solid
0.667 0.776 0.439 edgecolor
newpath 442.44 891.137 moveto
453 892 lineto
445.283 884.74 lineto
closepath stroke
grestore
% Node27->Node28
gsave
1 setlinewidth
solid
0.667 0.776 0.439 edgecolor
newpath 528 533 moveto
562 564 662 656 705 695 curveto
stroke
0.667 0.776 0.439 edgecolor
newpath 703.169 698.049 moveto
713 702 lineto
707.779 692.781 lineto
closepath fill
1 setlinewidth
solid
0.667 0.776 0.439 edgecolor
newpath 703.169 698.049 moveto
713 702 lineto
707.779 692.781 lineto
closepath stroke
grestore
% Node27->Node30
gsave
1 setlinewidth
solid
0.667 0.776 0.439 edgecolor
newpath 574 512 moveto
583 510 591 507 598 504 curveto
637 490 678 465 702 449 curveto
stroke
0.667 0.776 0.439 edgecolor
newpath 704.621 451.459 moveto
711 443 lineto
700.738 445.635 lineto
closepath fill
1 setlinewidth
solid
0.667 0.776 0.439 edgecolor
newpath 704.621 451.459 moveto
711 443 lineto
700.738 445.635 lineto
closepath stroke
grestore
% Node27->Node31
gsave
1 setlinewidth
solid
0.667 0.776 0.439 edgecolor
newpath 575 523 moveto
609 523 650 523 681 523 curveto
stroke
0.667 0.776 0.439 edgecolor
newpath 681 526.5 moveto
691 523 lineto
681 519.5 lineto
closepath fill
1 setlinewidth
solid
0.667 0.776 0.439 edgecolor
newpath 681 526.5 moveto
691 523 lineto
681 519.5 lineto
closepath stroke
grestore
% Node27->Node32
gsave
1 setlinewidth
solid
0.667 0.776 0.439 edgecolor
newpath 575 517 moveto
584 514 591 510 598 504 curveto
631 476 612 451 634 414 curveto
654 382 686 350 707 332 curveto
stroke
0.667 0.776 0.439 edgecolor
newpath 709.404 334.546 moveto
714 325 lineto
704.454 329.596 lineto
closepath fill
1 setlinewidth
solid
0.667 0.776 0.439 edgecolor
newpath 709.404 334.546 moveto
714 325 lineto
704.454 329.596 lineto
closepath stroke
grestore
% Node28->Node29
gsave
1 setlinewidth
solid
0.667 0.776 0.439 edgecolor
newpath 767 713 moveto
793 713 827 713 855 713 curveto
stroke
0.667 0.776 0.439 edgecolor
newpath 855 716.5 moveto
865 713 lineto
855 709.5 lineto
closepath fill
1 setlinewidth
solid
0.667 0.776 0.439 edgecolor
newpath 855 716.5 moveto
865 713 lineto
855 709.5 lineto
closepath stroke
grestore
% Node30->Node23
gsave
1 setlinewidth
solid
0.667 0.776 0.439 edgecolor
newpath 738 422 moveto
758 405 794 370 816 334 curveto
864 258 894 154 905 110 curveto
stroke
0.667 0.776 0.439 edgecolor
newpath 908.479 110.584 moveto
908 100 lineto
901.774 108.573 lineto
closepath fill
1 setlinewidth
solid
0.667 0.776 0.439 edgecolor
newpath 908.479 110.584 moveto
908 100 lineto
901.774 108.573 lineto
closepath stroke
grestore
% Node32->Node23
gsave
1 setlinewidth
solid
0.667 0.776 0.439 edgecolor
newpath 734 304 moveto
764 267 859 152 896 108 curveto
stroke
0.667 0.776 0.439 edgecolor
newpath 898.8 110.1 moveto
902 100 lineto
893.2 105.9 lineto
closepath fill
1 setlinewidth
solid
0.667 0.776 0.439 edgecolor
newpath 898.8 110.1 moveto
902 100 lineto
893.2 105.9 lineto
closepath stroke
grestore
% Node33->Node26
gsave
1 setlinewidth
solid
0.667 0.776 0.439 edgecolor
newpath 588 865 moveto
620 865 655 865 683 865 curveto
stroke
0.667 0.776 0.439 edgecolor
newpath 683 868.5 moveto
693 865 lineto
683 861.5 lineto
closepath fill
1 setlinewidth
solid
0.667 0.776 0.439 edgecolor
newpath 683 868.5 moveto
693 865 lineto
683 861.5 lineto
closepath stroke
grestore
% Node33->Node28
gsave
1 setlinewidth
solid
0.667 0.776 0.439 edgecolor
newpath 532 854 moveto
568 828 661 760 703 729 curveto
stroke
0.667 0.776 0.439 edgecolor
newpath 705.1 731.8 moveto
711 723 lineto
700.9 726.2 lineto
closepath fill
1 setlinewidth
solid
0.667 0.776 0.439 edgecolor
newpath 705.1 731.8 moveto
711 723 lineto
700.9 726.2 lineto
closepath stroke
grestore
% Node34->Node28
gsave
1 setlinewidth
solid
0.667 0.776 0.439 edgecolor
newpath 550 477 moveto
566 483 585 492 598 504 curveto
661 559 701 652 717 693 curveto
stroke
0.667 0.776 0.439 edgecolor
newpath 713.74 694.283 moveto
721 702 lineto
720.137 691.44 lineto
closepath fill
1 setlinewidth
solid
0.667 0.776 0.439 edgecolor
newpath 713.74 694.283 moveto
721 702 lineto
720.137 691.44 lineto
closepath stroke
grestore
% Node34->Node29
gsave
1 setlinewidth
solid
0.667 0.776 0.439 edgecolor
newpath 585 458 moveto
651 453 750 455 816 504 curveto
879 551 900 649 907 692 curveto
stroke
0.667 0.776 0.439 edgecolor
newpath 903.607 692.881 moveto
909 702 lineto
910.471 691.508 lineto
closepath fill
1 setlinewidth
solid
0.667 0.776 0.439 edgecolor
newpath 903.607 692.881 moveto
909 702 lineto
910.471 691.508 lineto
closepath stroke
grestore
% Node34->Node30
gsave
1 setlinewidth
solid
0.667 0.776 0.439 edgecolor
newpath 585 456 moveto
619 451 659 444 688 439 curveto
stroke
0.667 0.776 0.439 edgecolor
newpath 688.881 442.393 moveto
698 437 lineto
687.508 435.529 lineto
closepath fill
1 setlinewidth
solid
0.667 0.776 0.439 edgecolor
newpath 688.881 442.393 moveto
698 437 lineto
687.508 435.529 lineto
closepath stroke
grestore
% Node34->Node31
gsave
1 setlinewidth
solid
0.667 0.776 0.439 edgecolor
newpath 554 477 moveto
590 486 643 501 681 511 curveto
stroke
0.667 0.776 0.439 edgecolor
newpath 680.416 514.479 moveto
691 514 lineto
682.427 507.774 lineto
closepath fill
1 setlinewidth
solid
0.667 0.776 0.439 edgecolor
newpath 680.416 514.479 moveto
691 514 lineto
682.427 507.774 lineto
closepath stroke
grestore
% Node34->Node32
gsave
1 setlinewidth
solid
0.667 0.776 0.439 edgecolor
newpath 532 456 moveto
568 430 661 362 703 331 curveto
stroke
0.667 0.776 0.439 edgecolor
newpath 705.1 333.8 moveto
711 325 lineto
700.9 328.2 lineto
closepath fill
1 setlinewidth
solid
0.667 0.776 0.439 edgecolor
newpath 705.1 333.8 moveto
711 325 lineto
700.9 328.2 lineto
closepath stroke
grestore
% Node34->Node34
gsave
1 setlinewidth
solid
0.667 0.776 0.439 edgecolor
newpath 460 477 moveto
435 486 454 495 517 495 curveto
569 495 591 489 583 482 curveto
stroke
0.667 0.776 0.439 edgecolor
newpath 584.441 478.797 moveto
574 477 lineto
581.042 484.916 lineto
closepath fill
1 setlinewidth
solid
0.667 0.776 0.439 edgecolor
newpath 584.441 478.797 moveto
574 477 lineto
581.042 484.916 lineto
closepath stroke
grestore
% Node35->Node26
gsave
1 setlinewidth
solid
0.667 0.776 0.439 edgecolor
newpath 577 892 moveto
611 886 653 879 683 873 curveto
stroke
0.667 0.776 0.439 edgecolor
newpath 683.881 876.393 moveto
693 871 lineto
682.508 869.529 lineto
closepath fill
1 setlinewidth
solid
0.667 0.776 0.439 edgecolor
newpath 683.881 876.393 moveto
693 871 lineto
682.508 869.529 lineto
closepath stroke
grestore
% Node35->Node28
gsave
1 setlinewidth
solid
0.667 0.776 0.439 edgecolor
newpath 583 892 moveto
588 890 593 887 598 884 curveto
614 874 683 774 712 731 curveto
stroke
0.667 0.776 0.439 edgecolor
newpath 714.8 733.1 moveto
718 723 lineto
709.2 728.9 lineto
closepath fill
1 setlinewidth
solid
0.667 0.776 0.439 edgecolor
newpath 714.8 733.1 moveto
718 723 lineto
709.2 728.9 lineto
closepath stroke
grestore
% Node35->Node29
gsave
1 setlinewidth
solid
0.667 0.776 0.439 edgecolor
newpath 565 913 moveto
628 924 739 933 816 884 curveto
871 849 896 771 906 733 curveto
stroke
0.667 0.776 0.439 edgecolor
newpath 909.471 733.492 moveto
908 723 lineto
902.607 732.119 lineto
closepath fill
1 setlinewidth
solid
0.667 0.776 0.439 edgecolor
newpath 909.471 733.492 moveto
908 723 lineto
902.607 732.119 lineto
closepath stroke
grestore
% Node37->Node23
gsave
1 setlinewidth
solid
0.667 0.776 0.439 edgecolor
newpath 382 384 moveto
389 381 395 377 400 371 curveto
482 275 342 174 436 90 curveto
497 37 744 65 856 82 curveto
stroke
0.667 0.776 0.439 edgecolor
newpath 855.701 85.4875 moveto
866 83 lineto
856.398 78.5222 lineto
closepath fill
1 setlinewidth
solid
0.667 0.776 0.439 edgecolor
newpath 855.701 85.4875 moveto
866 83 lineto
856.398 78.5222 lineto
closepath stroke
grestore
% Node39->Node5
gsave
1 setlinewidth
solid
0.667 0.776 0.439 edgecolor
newpath 189 457 moveto
212 465 245 476 274 485 curveto
279 487 285 488 290 490 curveto
stroke
0.667 0.776 0.439 edgecolor
newpath 289.416 493.479 moveto
300 493 lineto
291.427 486.774 lineto
closepath fill
1 setlinewidth
solid
0.667 0.776 0.439 edgecolor
newpath 289.416 493.479 moveto
300 493 lineto
291.427 486.774 lineto
closepath stroke
grestore
% Node39->Node22
gsave
1 setlinewidth
solid
0.667 0.776 0.439 edgecolor
newpath 188 436 moveto
204 429 223 420 238 409 curveto
257 396 255 384 274 371 curveto
278 369 283 367 287 365 curveto
stroke
0.667 0.776 0.439 edgecolor
newpath 289.015 367.964 moveto
297 361 lineto
286.415 361.464 lineto
closepath fill
1 setlinewidth
solid
0.667 0.776 0.439 edgecolor
newpath 289.015 367.964 moveto
297 361 lineto
286.415 361.464 lineto
closepath stroke
grestore
% Node39->Node34
gsave
1 setlinewidth
solid
0.667 0.776 0.439 edgecolor
newpath 198 445 moveto
246 443 329 441 400 447 curveto
418 449 436 451 453 454 curveto
stroke
0.667 0.776 0.439 edgecolor
newpath 452.508 457.471 moveto
463 456 lineto
453.881 450.607 lineto
closepath fill
1 setlinewidth
solid
0.667 0.776 0.439 edgecolor
newpath 452.508 457.471 moveto
463 456 lineto
453.881 450.607 lineto
closepath stroke
grestore
% Node39->Node37
gsave
1 setlinewidth
solid
0.667 0.776 0.439 edgecolor
newpath 194 436 moveto
223 426 265 413 295 403 curveto
stroke
0.667 0.776 0.439 edgecolor
newpath 296.427 406.226 moveto
305 400 lineto
294.416 399.521 lineto
closepath fill
1 setlinewidth
solid
0.667 0.776 0.439 edgecolor
newpath 296.427 406.226 moveto
305 400 lineto
294.416 399.521 lineto
closepath stroke
grestore
% Node39->Node38
gsave
1 setlinewidth
solid
0.667 0.776 0.439 edgecolor
newpath 193 457 moveto
209 463 226 472 238 485 curveto
269 518 242 549 274 579 curveto
275 580 277 581 279 582 curveto
stroke
0.667 0.776 0.439 edgecolor
newpath 276.9 584.8 moveto
287 588 lineto
281.1 579.2 lineto
closepath fill
1 setlinewidth
solid
0.667 0.776 0.439 edgecolor
newpath 276.9 584.8 moveto
287 588 lineto
281.1 579.2 lineto
closepath stroke
grestore
% Node40->Node5
gsave
1 setlinewidth
solid
0.667 0.776 0.439 edgecolor
newpath 202 504 moveto
224 504 251 504 276 504 curveto
stroke
0.667 0.776 0.439 edgecolor
newpath 276 507.5 moveto
286 504 lineto
276 500.5 lineto
closepath fill
1 setlinewidth
solid
0.667 0.776 0.439 edgecolor
newpath 276 507.5 moveto
286 504 lineto
276 500.5 lineto
closepath stroke
grestore
% Node41
gsave
[ /Rect [ 275 456 399 476 ]
  /Border [ 0 0 0 ]
  /Action << /Subtype /URI /URI ($RamDisco_8cpp.html#f0c232886a7851d8db3a647add9ae455) >>
  /Subtype /Link
/ANN pdfmark
[ /Rect [ 275 456 399 476 ]
  /Border [ 0 0 0 ]
  /Action << /Subtype /URI /URI ($RamDisco_8cpp.html#f0c232886a7851d8db3a647add9ae455) >>
  /Subtype /Link
/ANN pdfmark
1 setlinewidth
0.000 1.000 1.000 nodecolor
newpath 275 455 moveto
275 476 lineto
400 476 lineto
400 455 lineto
closepath stroke
0.000 0.000 0.000 nodecolor
10.00 /FreeSans.ttf set_font
337 462 moveto 109 -0.5 (escribePlanoStream) alignedtext
grestore
% Node40->Node41
gsave
1 setlinewidth
solid
0.667 0.776 0.439 edgecolor
newpath 202 495 moveto
226 490 256 484 281 478 curveto
stroke
0.667 0.776 0.439 edgecolor
newpath 281.881 481.393 moveto
291 476 lineto
280.508 474.529 lineto
closepath fill
1 setlinewidth
solid
0.667 0.776 0.439 edgecolor
newpath 281.881 481.393 moveto
291 476 lineto
280.508 474.529 lineto
closepath stroke
grestore
% Node41->Node28
gsave
1 setlinewidth
solid
0.667 0.776 0.439 edgecolor
newpath 384 476 moveto
390 478 395 481 400 485 curveto
424 504 415 522 436 542 curveto
514 616 630 673 689 698 curveto
stroke
0.667 0.776 0.439 edgecolor
newpath 687.44 701.137 moveto
698 702 lineto
690.283 694.74 lineto
closepath fill
1 setlinewidth
solid
0.667 0.776 0.439 edgecolor
newpath 687.44 701.137 moveto
698 702 lineto
690.283 694.74 lineto
closepath stroke
grestore
% Node42
gsave
[ /Rect [ 459 211 575 231 ]
  /Border [ 0 0 0 ]
  /Action << /Subtype /URI /URI ($RamDisco_8cpp.html#6b1b44682de6eb9fccd3df71e404154a) >>
  /Subtype /Link
/ANN pdfmark
[ /Rect [ 459 211 575 231 ]
  /Border [ 0 0 0 ]
  /Action << /Subtype /URI /URI ($RamDisco_8cpp.html#6b1b44682de6eb9fccd3df71e404154a) >>
  /Subtype /Link
/ANN pdfmark
1 setlinewidth
0.000 1.000 1.000 nodecolor
newpath 459 210 moveto
459 231 lineto
576 231 lineto
576 210 lineto
closepath stroke
0.000 0.000 0.000 nodecolor
10.00 /FreeSans.ttf set_font
517 217 moveto 101 -0.5 (precalcula_escribe) alignedtext
grestore
% Node41->Node42
gsave
1 setlinewidth
solid
0.667 0.776 0.439 edgecolor
newpath 354 455 moveto
369 445 389 428 400 409 curveto
436 350 393 312 436 258 curveto
445 248 457 240 469 235 curveto
stroke
0.667 0.776 0.439 edgecolor
newpath 470.283 238.26 moveto
478 231 lineto
467.44 231.863 lineto
closepath fill
1 setlinewidth
solid
0.667 0.776 0.439 edgecolor
newpath 470.283 238.26 moveto
478 231 lineto
467.44 231.863 lineto
closepath stroke
grestore
% Node42->Node42
gsave
1 setlinewidth
solid
0.667 0.776 0.439 edgecolor
newpath 460 231 moveto
435 240 454 249 517 249 curveto
569 249 591 243 583 236 curveto
stroke
0.667 0.776 0.439 edgecolor
newpath 584.441 232.797 moveto
574 231 lineto
581.042 238.916 lineto
closepath fill
1 setlinewidth
solid
0.667 0.776 0.439 edgecolor
newpath 584.441 232.797 moveto
574 231 lineto
581.042 238.916 lineto
closepath stroke
grestore
% Node43->Node22
gsave
1 setlinewidth
solid
0.667 0.776 0.439 edgecolor
newpath 191 352 moveto
218 352 256 352 287 352 curveto
stroke
0.667 0.776 0.439 edgecolor
newpath 287 355.5 moveto
297 352 lineto
287 348.5 lineto
closepath fill
1 setlinewidth
solid
0.667 0.776 0.439 edgecolor
newpath 287 355.5 moveto
297 352 lineto
287 348.5 lineto
closepath stroke
grestore
% Node43->Node37
gsave
1 setlinewidth
solid
0.667 0.776 0.439 edgecolor
newpath 191 359 moveto
217 364 253 372 283 379 curveto
stroke
0.667 0.776 0.439 edgecolor
newpath 282.508 382.471 moveto
293 381 lineto
283.881 375.607 lineto
closepath fill
1 setlinewidth
solid
0.667 0.776 0.439 edgecolor
newpath 282.508 382.471 moveto
293 381 lineto
283.881 375.607 lineto
closepath stroke
grestore
% Node44
gsave
[ /Rect [ 466 99 568 119 ]
  /Border [ 0 0 0 ]
  /Action << /Subtype /URI /URI ($RamDisco_8cpp.html#6629a007f761319a91a329f1071896fa) >>
  /Subtype /Link
/ANN pdfmark
[ /Rect [ 466 99 568 119 ]
  /Border [ 0 0 0 ]
  /Action << /Subtype /URI /URI ($RamDisco_8cpp.html#6629a007f761319a91a329f1071896fa) >>
  /Subtype /Link
/ANN pdfmark
1 setlinewidth
0.000 0.000 0.000 nodecolor
newpath 466 98 moveto
466 119 lineto
569 119 lineto
569 98 lineto
closepath stroke
0.000 0.000 0.000 nodecolor
10.00 /FreeSans.ttf set_font
517 105 moveto 87 -0.5 (leePlanoStream) alignedtext
grestore
% Node43->Node44
gsave
1 setlinewidth
solid
0.667 0.776 0.439 edgecolor
newpath 191 352 moveto
207 350 226 345 238 333 curveto
276 299 241 264 274 225 curveto
324 169 407 138 461 122 curveto
stroke
0.667 0.776 0.439 edgecolor
newpath 462.427 125.226 moveto
471 119 lineto
460.416 118.521 lineto
closepath fill
1 setlinewidth
solid
0.667 0.776 0.439 edgecolor
newpath 462.427 125.226 moveto
471 119 lineto
460.416 118.521 lineto
closepath stroke
grestore
% Node44->Node23
gsave
1 setlinewidth
solid
0.667 0.776 0.439 edgecolor
newpath 569 106 moveto
643 102 780 97 856 93 curveto
stroke
0.667 0.776 0.439 edgecolor
newpath 856.398 96.4778 moveto
866 92 lineto
855.701 89.5125 lineto
closepath fill
1 setlinewidth
solid
0.667 0.776 0.439 edgecolor
newpath 856.398 96.4778 moveto
866 92 lineto
855.701 89.5125 lineto
closepath stroke
grestore
% Node44->Node31
gsave
1 setlinewidth
solid
0.667 0.776 0.439 edgecolor
newpath 558 119 moveto
573 125 588 133 598 146 curveto
679 257 567 333 634 452 curveto
648 476 673 495 693 507 curveto
stroke
0.667 0.776 0.439 edgecolor
newpath 691.559 510.203 moveto
702 512 lineto
694.958 504.084 lineto
closepath fill
1 setlinewidth
solid
0.667 0.776 0.439 edgecolor
newpath 691.559 510.203 moveto
702 512 lineto
694.958 504.084 lineto
closepath stroke
grestore
% Node44->Node32
gsave
1 setlinewidth
solid
0.667 0.776 0.439 edgecolor
newpath 548 119 moveto
564 125 583 134 598 146 curveto
653 189 695 260 714 295 curveto
stroke
0.667 0.776 0.439 edgecolor
newpath 711.084 296.958 moveto
719 304 lineto
717.203 293.559 lineto
closepath fill
1 setlinewidth
solid
0.667 0.776 0.439 edgecolor
newpath 711.084 296.958 moveto
719 304 lineto
717.203 293.559 lineto
closepath stroke
grestore
% Node44->Node44
gsave
1 setlinewidth
solid
0.667 0.776 0.439 edgecolor
newpath 466 117 moveto
433 126 450 137 517 137 curveto
575 137 596 129 579 121 curveto
stroke
0.667 0.776 0.439 edgecolor
newpath 579.584 117.521 moveto
569 118 lineto
577.573 124.226 lineto
closepath fill
1 setlinewidth
solid
0.667 0.776 0.439 edgecolor
newpath 579.584 117.521 moveto
569 118 lineto
577.573 124.226 lineto
closepath stroke
grestore
% Node45->Node22
gsave
1 setlinewidth
solid
0.667 0.776 0.439 edgecolor
newpath 201 381 moveto
227 376 260 369 287 363 curveto
stroke
0.667 0.776 0.439 edgecolor
newpath 287.881 366.393 moveto
297 361 lineto
286.508 359.529 lineto
closepath fill
1 setlinewidth
solid
0.667 0.776 0.439 edgecolor
newpath 287.881 366.393 moveto
297 361 lineto
286.508 359.529 lineto
closepath stroke
grestore
% Node45->Node37
gsave
1 setlinewidth
solid
0.667 0.776 0.439 edgecolor
newpath 201 390 moveto
226 390 257 390 283 390 curveto
stroke
0.667 0.776 0.439 edgecolor
newpath 283 393.5 moveto
293 390 lineto
283 386.5 lineto
closepath fill
1 setlinewidth
solid
0.667 0.776 0.439 edgecolor
newpath 283 393.5 moveto
293 390 lineto
283 386.5 lineto
closepath stroke
grestore
% Node46
gsave
[ /Rect [ 467 155 567 175 ]
  /Border [ 0 0 0 ]
  /Action << /Subtype /URI /URI ($Operaciones_8cpp.html#e72c6a088302629a5554e4af30d0e9fc) >>
  /Subtype /Link
/ANN pdfmark
[ /Rect [ 467 155 567 175 ]
  /Border [ 0 0 0 ]
  /Action << /Subtype /URI /URI ($Operaciones_8cpp.html#e72c6a088302629a5554e4af30d0e9fc) >>
  /Subtype /Link
/ANN pdfmark
1 setlinewidth
0.000 1.000 1.000 nodecolor
newpath 467 154 moveto
467 175 lineto
568 175 lineto
568 154 lineto
closepath stroke
0.000 0.000 0.000 nodecolor
10.00 /FreeSans.ttf set_font
517 161 moveto 85 -0.5 (muestraStream) alignedtext
grestore
% Node45->Node46
gsave
1 setlinewidth
solid
0.667 0.776 0.439 edgecolor
newpath 201 385 moveto
214 382 227 378 238 371 curveto
259 360 257 349 274 333 curveto
342 271 358 251 436 202 curveto
451 194 467 186 482 179 curveto
stroke
0.667 0.776 0.439 edgecolor
newpath 483.283 182.26 moveto
491 175 lineto
480.44 175.863 lineto
closepath fill
1 setlinewidth
solid
0.667 0.776 0.439 edgecolor
newpath 483.283 182.26 moveto
491 175 lineto
480.44 175.863 lineto
closepath stroke
grestore
% Node46->Node30
gsave
1 setlinewidth
solid
0.667 0.776 0.439 edgecolor
newpath 556 175 moveto
571 181 587 189 598 202 curveto
638 249 605 281 634 334 curveto
652 367 683 397 703 415 curveto
stroke
0.667 0.776 0.439 edgecolor
newpath 701.169 418.049 moveto
711 422 lineto
705.779 412.781 lineto
closepath fill
1 setlinewidth
solid
0.667 0.776 0.439 edgecolor
newpath 701.169 418.049 moveto
711 422 lineto
705.779 412.781 lineto
closepath stroke
grestore
% Node46->Node32
gsave
1 setlinewidth
solid
0.667 0.776 0.439 edgecolor
newpath 544 175 moveto
560 182 581 191 598 202 curveto
641 231 684 272 708 297 curveto
stroke
0.667 0.776 0.439 edgecolor
newpath 705.454 299.404 moveto
715 304 lineto
710.404 294.454 lineto
closepath fill
1 setlinewidth
solid
0.667 0.776 0.439 edgecolor
newpath 705.454 299.404 moveto
715 304 lineto
710.404 294.454 lineto
closepath stroke
grestore
% Node46->Node46
gsave
1 setlinewidth
solid
0.667 0.776 0.439 edgecolor
newpath 467 173 moveto
432 182 449 193 517 193 curveto
576 193 596 184 578 176 curveto
stroke
0.667 0.776 0.439 edgecolor
newpath 578.584 172.521 moveto
568 173 lineto
576.573 179.226 lineto
closepath fill
1 setlinewidth
solid
0.667 0.776 0.439 edgecolor
newpath 578.584 172.521 moveto
568 173 lineto
576.573 179.226 lineto
closepath stroke
grestore
% Node47->Node11
gsave
1 setlinewidth
solid
0.667 0.776 0.439 edgecolor
newpath 938 1410 moveto
958 1407 986 1403 1011 1399 curveto
stroke
0.667 0.776 0.439 edgecolor
newpath 1011.88 1402.39 moveto
1021 1397 lineto
1010.51 1395.53 lineto
closepath fill
1 setlinewidth
solid
0.667 0.776 0.439 edgecolor
newpath 1011.88 1402.39 moveto
1021 1397 lineto
1010.51 1395.53 lineto
closepath stroke
grestore
% Node47->Node12
gsave
1 setlinewidth
solid
0.667 0.776 0.439 edgecolor
newpath 938 1410 moveto
949 1407 960 1403 968 1396 curveto
1036 1337 1067 1229 1078 1184 curveto
stroke
0.667 0.776 0.439 edgecolor
newpath 1081.47 1184.49 moveto
1080 1174 lineto
1074.61 1183.12 lineto
closepath fill
1 setlinewidth
solid
0.667 0.776 0.439 edgecolor
newpath 1081.47 1184.49 moveto
1080 1174 lineto
1074.61 1183.12 lineto
closepath stroke
grestore
% Node48->Node4
gsave
1 setlinewidth
solid
0.667 0.776 0.439 edgecolor
newpath 172 552 moveto
192 568 234 599 274 617 curveto
279 619 284 622 289 623 curveto
stroke
0.667 0.776 0.439 edgecolor
newpath 288.416 626.479 moveto
299 626 lineto
290.427 619.774 lineto
closepath fill
1 setlinewidth
solid
0.667 0.776 0.439 edgecolor
newpath 288.416 626.479 moveto
299 626 lineto
290.427 619.774 lineto
closepath stroke
grestore
% Node48->Node5
gsave
1 setlinewidth
solid
0.667 0.776 0.439 edgecolor
newpath 211 531 moveto
233 527 259 521 281 516 curveto
stroke
0.667 0.776 0.439 edgecolor
newpath 281.881 519.393 moveto
291 514 lineto
280.508 512.529 lineto
closepath fill
1 setlinewidth
solid
0.667 0.776 0.439 edgecolor
newpath 281.881 519.393 moveto
291 514 lineto
280.508 512.529 lineto
closepath stroke
grestore
% Node48->Node22
gsave
1 setlinewidth
solid
0.667 0.776 0.439 edgecolor
newpath 212 538 moveto
222 535 231 530 238 523 curveto
288 474 227 422 274 371 curveto
278 367 282 364 287 362 curveto
stroke
0.667 0.776 0.439 edgecolor
newpath 289.015 364.964 moveto
297 358 lineto
286.415 358.464 lineto
closepath fill
1 setlinewidth
solid
0.667 0.776 0.439 edgecolor
newpath 289.015 364.964 moveto
297 358 lineto
286.415 358.464 lineto
closepath stroke
grestore
% Node48->Node36
gsave
1 setlinewidth
solid
0.667 0.776 0.439 edgecolor
newpath 182 552 moveto
201 561 226 577 238 599 curveto
300 710 196 1069 274 1169 curveto
278 1173 282 1177 287 1179 curveto
stroke
0.667 0.776 0.439 edgecolor
newpath 285.44 1182.14 moveto
296 1183 lineto
288.283 1175.74 lineto
closepath fill
1 setlinewidth
solid
0.667 0.776 0.439 edgecolor
newpath 285.44 1182.14 moveto
296 1183 lineto
288.283 1175.74 lineto
closepath stroke
grestore
% Node48->Node37
gsave
1 setlinewidth
solid
0.667 0.776 0.439 edgecolor
newpath 212 536 moveto
222 533 231 529 238 523 curveto
268 500 252 478 274 447 curveto
285 431 302 417 315 406 curveto
stroke
0.667 0.776 0.439 edgecolor
newpath 317.1 408.8 moveto
323 400 lineto
312.9 403.2 lineto
closepath fill
1 setlinewidth
solid
0.667 0.776 0.439 edgecolor
newpath 317.1 408.8 moveto
323 400 lineto
312.9 403.2 lineto
closepath stroke
grestore
% Node48->Node38
gsave
1 setlinewidth
solid
0.667 0.776 0.439 edgecolor
newpath 193 552 moveto
207 556 224 561 238 566 curveto
255 572 258 574 274 579 curveto
279 581 283 582 288 584 curveto
stroke
0.667 0.776 0.439 edgecolor
newpath 287.416 587.479 moveto
298 587 lineto
289.427 580.774 lineto
closepath fill
1 setlinewidth
solid
0.667 0.776 0.439 edgecolor
newpath 287.416 587.479 moveto
298 587 lineto
289.427 580.774 lineto
closepath stroke
grestore
% Node49
gsave
[ /Rect [ 299 532 375 552 ]
  /Border [ 0 0 0 ]
  /Action << /Subtype /URI /URI ($TrieSDisco_8cpp.html#2650ad438abcd85c2ac08ab5c207620d) >>
  /Subtype /Link
/ANN pdfmark
[ /Rect [ 299 532 375 552 ]
  /Border [ 0 0 0 ]
  /Action << /Subtype /URI /URI ($TrieSDisco_8cpp.html#2650ad438abcd85c2ac08ab5c207620d) >>
  /Subtype /Link
/ANN pdfmark
1 setlinewidth
0.000 0.000 0.000 nodecolor
newpath 299 531 moveto
299 552 lineto
375 552 lineto
375 531 lineto
closepath stroke
0.000 0.000 0.000 nodecolor
10.00 /FreeSans.ttf set_font
337 538 moveto 60 -0.5 (mezclaRec) alignedtext
grestore
% Node48->Node49
gsave
1 setlinewidth
solid
0.667 0.776 0.439 edgecolor
newpath 212 542 moveto
236 542 265 542 289 542 curveto
stroke
0.667 0.776 0.439 edgecolor
newpath 289 545.5 moveto
299 542 lineto
289 538.5 lineto
closepath fill
1 setlinewidth
solid
0.667 0.776 0.439 edgecolor
newpath 289 545.5 moveto
299 542 lineto
289 538.5 lineto
closepath stroke
grestore
% Node49->Node12
gsave
1 setlinewidth
solid
0.667 0.776 0.439 edgecolor
newpath 375 537 moveto
384 534 393 530 400 523 curveto
438 486 394 441 436 409 curveto
461 392 791 399 816 414 curveto
937 488 918 562 968 694 curveto
1033 860 1069 1075 1079 1143 curveto
stroke
0.667 0.776 0.439 edgecolor
newpath 1075.52 1143.4 moveto
1080 1153 lineto
1082.49 1142.7 lineto
closepath fill
1 setlinewidth
solid
0.667 0.776 0.439 edgecolor
newpath 1075.52 1143.4 moveto
1080 1153 lineto
1082.49 1142.7 lineto
closepath stroke
grestore
% Node49->Node27
gsave
1 setlinewidth
solid
0.667 0.776 0.439 edgecolor
newpath 375 538 moveto
396 535 424 533 449 530 curveto
stroke
0.667 0.776 0.439 edgecolor
newpath 449.398 533.478 moveto
459 529 lineto
448.701 526.512 lineto
closepath fill
1 setlinewidth
solid
0.667 0.776 0.439 edgecolor
newpath 449.398 533.478 moveto
459 529 lineto
448.701 526.512 lineto
closepath stroke
grestore
% Node49->Node28
gsave
1 setlinewidth
solid
0.667 0.776 0.439 edgecolor
newpath 363 552 moveto
376 558 390 567 400 579 curveto
433 619 396 657 436 689 curveto
504 742 610 735 673 725 curveto
stroke
0.667 0.776 0.439 edgecolor
newpath 673.881 728.393 moveto
683 723 lineto
672.508 721.529 lineto
closepath fill
1 setlinewidth
solid
0.667 0.776 0.439 edgecolor
newpath 673.881 728.393 moveto
683 723 lineto
672.508 721.529 lineto
closepath stroke
grestore
% Node49->Node29
gsave
1 setlinewidth
solid
0.667 0.776 0.439 edgecolor
newpath 371 552 moveto
469 581 752 666 863 699 curveto
stroke
0.667 0.776 0.439 edgecolor
newpath 862.416 702.479 moveto
873 702 lineto
864.427 695.774 lineto
closepath fill
1 setlinewidth
solid
0.667 0.776 0.439 edgecolor
newpath 862.416 702.479 moveto
873 702 lineto
864.427 695.774 lineto
closepath stroke
grestore
% Node49->Node30
gsave
1 setlinewidth
solid
0.667 0.776 0.439 edgecolor
newpath 375 536 moveto
384 534 393 529 400 523 curveto
429 499 406 469 436 448 curveto
513 397 629 412 688 424 curveto
stroke
0.667 0.776 0.439 edgecolor
newpath 687.508 427.471 moveto
698 426 lineto
688.881 420.607 lineto
closepath fill
1 setlinewidth
solid
0.667 0.776 0.439 edgecolor
newpath 687.508 427.471 moveto
698 426 lineto
688.881 420.607 lineto
closepath stroke
grestore
% Node49->Node31
gsave
1 setlinewidth
solid
0.667 0.776 0.439 edgecolor
newpath 375 544 moveto
426 546 519 548 598 542 curveto
626 540 656 535 681 532 curveto
stroke
0.667 0.776 0.439 edgecolor
newpath 681.881 535.393 moveto
691 530 lineto
680.508 528.529 lineto
closepath fill
1 setlinewidth
solid
0.667 0.776 0.439 edgecolor
newpath 681.881 535.393 moveto
691 530 lineto
680.508 528.529 lineto
closepath stroke
grestore
% Node49->Node32
gsave
1 setlinewidth
solid
0.667 0.776 0.439 edgecolor
newpath 375 538 moveto
384 535 394 530 400 523 curveto
456 462 374 395 436 339 curveto
473 307 621 310 690 313 curveto
stroke
0.667 0.776 0.439 edgecolor
newpath 690 316.5 moveto
700 313 lineto
690 309.5 lineto
closepath fill
1 setlinewidth
solid
0.667 0.776 0.439 edgecolor
newpath 690 316.5 moveto
700 313 lineto
690 309.5 lineto
closepath stroke
grestore
% Node49->Node34
gsave
1 setlinewidth
solid
0.667 0.776 0.439 edgecolor
newpath 375 532 moveto
383 530 392 527 400 523 curveto
417 517 420 512 436 504 curveto
452 497 470 488 485 481 curveto
stroke
0.667 0.776 0.439 edgecolor
newpath 487.015 483.964 moveto
495 477 lineto
484.415 477.464 lineto
closepath fill
1 setlinewidth
solid
0.667 0.776 0.439 edgecolor
newpath 487.015 483.964 moveto
495 477 lineto
484.415 477.464 lineto
closepath stroke
grestore
% Node49->Node49
gsave
1 setlinewidth
solid
0.667 0.776 0.439 edgecolor
newpath 299 547 moveto
251 557 263 570 337 570 curveto
405 570 421 559 385 549 curveto
stroke
0.667 0.776 0.439 edgecolor
newpath 385.492 545.529 moveto
375 547 lineto
384.119 552.393 lineto
closepath fill
1 setlinewidth
solid
0.667 0.776 0.439 edgecolor
newpath 385.492 545.529 moveto
375 547 lineto
384.119 552.393 lineto
closepath stroke
grestore
% Node50->Node50
gsave
1 setlinewidth
solid
0.667 0.776 0.439 edgecolor
newpath 116 306 moveto
97 315 111 324 159 324 curveto
196 324 213 319 210 312 curveto
stroke
0.667 0.776 0.439 edgecolor
newpath 212.1 309.2 moveto
202 306 lineto
207.9 314.8 lineto
closepath fill
1 setlinewidth
solid
0.667 0.776 0.439 edgecolor
newpath 212.1 309.2 moveto
202 306 lineto
207.9 314.8 lineto
closepath stroke
grestore
endpage
showpage
grestore
%%PageTrailer
%%EndPage: 1
%%Trailer
%%Pages: 1
%%BoundingBox: 36 36 1204 1583
end
restore
%%EOF
