%!PS-Adobe-2.0
%%Creator: Graphviz version 2.12 (Mon Nov 16 18:34:03 UTC 2009)
%%For: (vtamara) Vladimir
%%Title: G
%%Pages: (atend)
%%BoundingBox: (atend)
%%EndComments
save
%%BeginProlog
/DotDict 200 dict def
DotDict begin

/setupLatin1 {
mark
/EncodingVector 256 array def
 EncodingVector 0

ISOLatin1Encoding 0 255 getinterval putinterval
EncodingVector 45 /hyphen put

% Set up ISO Latin 1 character encoding
/starnetISO {
        dup dup findfont dup length dict begin
        { 1 index /FID ne { def }{ pop pop } ifelse
        } forall
        /Encoding EncodingVector def
        currentdict end definefont
} def
/Times-Roman starnetISO def
/Times-Italic starnetISO def
/Times-Bold starnetISO def
/Times-BoldItalic starnetISO def
/Helvetica starnetISO def
/Helvetica-Oblique starnetISO def
/Helvetica-Bold starnetISO def
/Helvetica-BoldOblique starnetISO def
/Courier starnetISO def
/Courier-Oblique starnetISO def
/Courier-Bold starnetISO def
/Courier-BoldOblique starnetISO def
cleartomark
} bind def

%%BeginResource: procset graphviz 0 0
/coord-font-family /Times-Roman def
/default-font-family /Times-Roman def
/coordfont coord-font-family findfont 8 scalefont def

/InvScaleFactor 1.0 def
/set_scale {
       dup 1 exch div /InvScaleFactor exch def
       scale
} bind def

% styles
/solid { [] 0 setdash } bind def
/dashed { [9 InvScaleFactor mul dup ] 0 setdash } bind def
/dotted { [1 InvScaleFactor mul 6 InvScaleFactor mul] 0 setdash } bind def
/invis {/fill {newpath} def /stroke {newpath} def /show {pop newpath} def} bind def
/bold { 2 setlinewidth } bind def
/filled { } bind def
/unfilled { } bind def
/rounded { } bind def
/diagonals { } bind def

% hooks for setting color 
/nodecolor { sethsbcolor } bind def
/edgecolor { sethsbcolor } bind def
/graphcolor { sethsbcolor } bind def
/nopcolor {pop pop pop} bind def

/beginpage {	% i j npages
	/npages exch def
	/j exch def
	/i exch def
	/str 10 string def
	npages 1 gt {
		gsave
			coordfont setfont
			0 0 moveto
			(\() show i str cvs show (,) show j str cvs show (\)) show
		grestore
	} if
} bind def

/set_font {
	findfont exch
	scalefont setfont
} def

% draw aligned label in bounding box aligned to current point
/alignedtext {			% width adj text
	/text exch def
	/adj exch def
	/width exch def
	gsave
		width 0 gt {
			text stringwidth pop adj mul 0 rmoveto
		} if
		[] 0 setdash
		text show
	grestore
} def

/boxprim {				% xcorner ycorner xsize ysize
		4 2 roll
		moveto
		2 copy
		exch 0 rlineto
		0 exch rlineto
		pop neg 0 rlineto
		closepath
} bind def

/ellipse_path {
	/ry exch def
	/rx exch def
	/y exch def
	/x exch def
	matrix currentmatrix
	newpath
	x y translate
	rx ry scale
	0 0 1 0 360 arc
	setmatrix
} bind def

/endpage { showpage } bind def
/showpage { } def

/layercolorseq
	[	% layer color sequence - darkest to lightest
		[0 0 0]
		[.2 .8 .8]
		[.4 .8 .8]
		[.6 .8 .8]
		[.8 .8 .8]
	]
def

/layerlen layercolorseq length def

/setlayer {/maxlayer exch def /curlayer exch def
	layercolorseq curlayer 1 sub layerlen mod get
	aload pop sethsbcolor
	/nodecolor {nopcolor} def
	/edgecolor {nopcolor} def
	/graphcolor {nopcolor} def
} bind def

/onlayer { curlayer ne {invis} if } def

/onlayers {
	/myupper exch def
	/mylower exch def
	curlayer mylower lt
	curlayer myupper gt
	or
	{invis} if
} def

/curlayer 0 def

%%EndResource
%%EndProlog
%%BeginSetup
14 default-font-family set_font
1 setmiterlimit
% /arrowlength 10 def
% /arrowwidth 5 def

% make sure pdfmark is harmless for PS-interpreters other than Distiller
/pdfmark where {pop} {userdict /pdfmark /cleartomark load put} ifelse
% make '<<' and '>>' safe on PS Level 1 devices
/languagelevel where {pop languagelevel}{1} ifelse
2 lt {
    userdict (<<) cvn ([) cvn load put
    userdict (>>) cvn ([) cvn load put
} if

%%EndSetup
setupLatin1
%%Page: 1 1
%%PageBoundingBox: 36 36 1004 429
%%PageOrientation: Portrait
gsave
36 36 1004 429 boxprim clip newpath
0 0 1 beginpage
1 1 set_scale 0 rotate 40 40 translate
% Node1
gsave
0.000 0.000 0.749 nodecolor
newpath 0 79 moveto
0 100 lineto
78 100 lineto
78 79 lineto
closepath fill
1 setlinewidth
filled
0.000 0.000 0.000 nodecolor
newpath 0 79 moveto
0 100 lineto
78 100 lineto
78 79 lineto
closepath stroke
0.000 0.000 0.000 nodecolor
10.00 /FreeSans.ttf set_font
39 86 moveto 62 -0.5 (eliminaDoc) alignedtext
grestore
% Node2
gsave
[ /Rect [ 114 232 250 252 ]
  /Border [ 0 0 0 ]
  /Action << /Subtype /URI /URI ($TrieSDisco_8cpp.html#485d02d9d7ec4ae0114122861420c1d1) >>
  /Subtype /Link
/ANN pdfmark
[ /Rect [ 114 232 250 252 ]
  /Border [ 0 0 0 ]
  /Action << /Subtype /URI /URI ($TrieSDisco_8cpp.html#485d02d9d7ec4ae0114122861420c1d1) >>
  /Subtype /Link
/ANN pdfmark
1 setlinewidth
0.000 0.000 0.000 nodecolor
newpath 114 231 moveto
114 252 lineto
250 252 lineto
250 231 lineto
closepath stroke
0.000 0.000 0.000 nodecolor
10.00 /FreeSans.ttf set_font
182 238 moveto 120 -0.5 (escribeCopiaSubarbol) alignedtext
grestore
% Node1->Node2
gsave
1 setlinewidth
solid
0.667 0.776 0.439 edgecolor
newpath 49 100 moveto
73 126 133 191 164 223 curveto
stroke
0.667 0.776 0.439 edgecolor
newpath 161.781 225.779 moveto
171 231 lineto
167.049 221.169 lineto
closepath fill
1 setlinewidth
solid
0.667 0.776 0.439 edgecolor
newpath 161.781 225.779 moveto
171 231 lineto
167.049 221.169 lineto
closepath stroke
grestore
% Node19
gsave
[ /Rect [ 131 118 233 138 ]
  /Border [ 0 0 0 ]
  /Action << /Subtype /URI /URI ($TrieSDisco_8cpp.html#df0711974693615ed7a5a7d1a2b050a7) >>
  /Subtype /Link
/ANN pdfmark
[ /Rect [ 131 118 233 138 ]
  /Border [ 0 0 0 ]
  /Action << /Subtype /URI /URI ($TrieSDisco_8cpp.html#df0711974693615ed7a5a7d1a2b050a7) >>
  /Subtype /Link
/ANN pdfmark
1 setlinewidth
0.000 0.000 0.000 nodecolor
newpath 131 117 moveto
131 138 lineto
233 138 lineto
233 117 lineto
closepath stroke
0.000 0.000 0.000 nodecolor
10.00 /FreeSans.ttf set_font
182 124 moveto 86 -0.5 (escribeRelacion) alignedtext
grestore
% Node1->Node19
gsave
1 setlinewidth
solid
0.667 0.776 0.439 edgecolor
newpath 77 100 moveto
94 104 113 110 131 114 curveto
stroke
0.667 0.776 0.439 edgecolor
newpath 130.416 117.479 moveto
141 117 lineto
132.427 110.774 lineto
closepath fill
1 setlinewidth
solid
0.667 0.776 0.439 edgecolor
newpath 130.416 117.479 moveto
141 117 lineto
132.427 110.774 lineto
closepath stroke
grestore
% Node21
gsave
[ /Rect [ 288 80 368 100 ]
  /Border [ 0 0 0 ]
  /Action << /Subtype /URI /URI ($TrieSDisco_8cpp.html#acdb9639784b2fb341e069b1f54c3455) >>
  /Subtype /Link
/ANN pdfmark
[ /Rect [ 288 80 368 100 ]
  /Border [ 0 0 0 ]
  /Action << /Subtype /URI /URI ($TrieSDisco_8cpp.html#acdb9639784b2fb341e069b1f54c3455) >>
  /Subtype /Link
/ANN pdfmark
1 setlinewidth
0.000 0.000 0.000 nodecolor
newpath 288 79 moveto
288 100 lineto
368 100 lineto
368 79 lineto
closepath stroke
0.000 0.000 0.000 nodecolor
10.00 /FreeSans.ttf set_font
328 86 moveto 64 -0.5 (leeRelacion) alignedtext
grestore
% Node1->Node21
gsave
1 setlinewidth
solid
0.667 0.776 0.439 edgecolor
newpath 78 90 moveto
130 90 221 90 278 90 curveto
stroke
0.667 0.776 0.439 edgecolor
newpath 278 93.5001 moveto
288 90 lineto
278 86.5001 lineto
closepath fill
1 setlinewidth
solid
0.667 0.776 0.439 edgecolor
newpath 278 93.5001 moveto
288 90 lineto
278 86.5001 lineto
closepath stroke
grestore
% Node23
gsave
[ /Rect [ 138 42 226 62 ]
  /Border [ 0 0 0 ]
  /Action << /Subtype /URI /URI ($TrieSDisco_8cpp.html#3b55801abcb3987a49125a0ddc9ff76c) >>
  /Subtype /Link
/ANN pdfmark
[ /Rect [ 138 42 226 62 ]
  /Border [ 0 0 0 ]
  /Action << /Subtype /URI /URI ($TrieSDisco_8cpp.html#3b55801abcb3987a49125a0ddc9ff76c) >>
  /Subtype /Link
/ANN pdfmark
1 setlinewidth
0.000 0.000 0.000 nodecolor
newpath 138 41 moveto
138 62 lineto
227 62 lineto
227 41 lineto
closepath stroke
0.000 0.000 0.000 nodecolor
10.00 /FreeSans.ttf set_font
182 48 moveto 73 -0.5 (verificaIndice) alignedtext
grestore
% Node1->Node23
gsave
1 setlinewidth
solid
0.667 0.776 0.439 edgecolor
newpath 78 80 moveto
95 75 115 69 134 64 curveto
stroke
0.667 0.776 0.439 edgecolor
newpath 134.881 67.3933 moveto
144 62 lineto
133.508 60.5292 lineto
closepath fill
1 setlinewidth
solid
0.667 0.776 0.439 edgecolor
newpath 134.881 67.3933 moveto
144 62 lineto
133.508 60.5292 lineto
closepath stroke
grestore
% Node24
gsave
[ /Rect [ 132 4 232 24 ]
  /Border [ 0 0 0 ]
  /Action << /Subtype /URI /URI ($comun_8cpp.html#ecd3ce9c133c650ebb919dcce6f77003) >>
  /Subtype /Link
/ANN pdfmark
[ /Rect [ 132 4 232 24 ]
  /Border [ 0 0 0 ]
  /Action << /Subtype /URI /URI ($comun_8cpp.html#ecd3ce9c133c650ebb919dcce6f77003) >>
  /Subtype /Link
/ANN pdfmark
1 setlinewidth
0.000 0.000 0.000 nodecolor
newpath 132 3 moveto
132 24 lineto
232 24 lineto
232 3 lineto
closepath stroke
0.000 0.000 0.000 nodecolor
10.00 /FreeSans.ttf set_font
182 10 moveto 84 -0.5 (verificaNombre) alignedtext
grestore
% Node1->Node24
gsave
1 setlinewidth
solid
0.667 0.776 0.439 edgecolor
newpath 51 79 moveto
65 66 90 45 114 33 curveto
119 31 124 29 129 28 curveto
stroke
0.667 0.776 0.439 edgecolor
newpath 130.283 31.2598 moveto
138 24 lineto
127.44 24.8631 lineto
closepath fill
1 setlinewidth
solid
0.667 0.776 0.439 edgecolor
newpath 130.283 31.2598 moveto
138 24 lineto
127.44 24.8631 lineto
closepath stroke
grestore
% Node2->Node2
gsave
1 setlinewidth
solid
0.667 0.776 0.439 edgecolor
newpath 137 252 moveto
117 261 132 270 182 270 curveto
220 270 238 265 235 258 curveto
stroke
0.667 0.776 0.439 edgecolor
newpath 237.1 255.2 moveto
227 252 lineto
232.9 260.8 lineto
closepath fill
1 setlinewidth
solid
0.667 0.776 0.439 edgecolor
newpath 237.1 255.2 moveto
227 252 lineto
232.9 260.8 lineto
closepath stroke
grestore
% Node3
gsave
[ /Rect [ 439 365 529 385 ]
  /Border [ 0 0 0 ]
  /Action << /Subtype /URI /URI ($comun_8hpp.html#96402bda6527bf98dd8e49d62ae182f8) >>
  /Subtype /Link
/ANN pdfmark
[ /Rect [ 439 365 529 385 ]
  /Border [ 0 0 0 ]
  /Action << /Subtype /URI /URI ($comun_8hpp.html#96402bda6527bf98dd8e49d62ae182f8) >>
  /Subtype /Link
/ANN pdfmark
1 setlinewidth
0.000 0.000 0.000 nodecolor
newpath 439 364 moveto
439 385 lineto
529 385 lineto
529 364 lineto
closepath stroke
0.000 0.000 0.000 nodecolor
10.00 /FreeSans.ttf set_font
484 371 moveto 74 -0.5 (escribeNDesp) alignedtext
grestore
% Node2->Node3
gsave
1 setlinewidth
solid
0.667 0.776 0.439 edgecolor
newpath 190 252 moveto
206 272 244 315 286 337 curveto
331 359 387 369 429 372 curveto
stroke
0.667 0.776 0.439 edgecolor
newpath 428.701 375.488 moveto
439 373 lineto
429.398 368.522 lineto
closepath fill
1 setlinewidth
solid
0.667 0.776 0.439 edgecolor
newpath 428.701 375.488 moveto
439 373 lineto
429.398 368.522 lineto
closepath stroke
grestore
% Node5
gsave
[ /Rect [ 286 308 370 328 ]
  /Border [ 0 0 0 ]
  /Action << /Subtype /URI /URI ($TrieSDisco_8cpp.html#95dfc28ebaa02e82d3d1ffce08251628) >>
  /Subtype /Link
/ANN pdfmark
[ /Rect [ 286 308 370 328 ]
  /Border [ 0 0 0 ]
  /Action << /Subtype /URI /URI ($TrieSDisco_8cpp.html#95dfc28ebaa02e82d3d1ffce08251628) >>
  /Subtype /Link
/ANN pdfmark
1 setlinewidth
0.000 0.000 0.000 nodecolor
newpath 286 307 moveto
286 328 lineto
370 328 lineto
370 307 lineto
closepath stroke
0.000 0.000 0.000 nodecolor
10.00 /FreeSans.ttf set_font
328 314 moveto 68 -0.5 (escribeNodo) alignedtext
grestore
% Node2->Node5
gsave
1 setlinewidth
solid
0.667 0.776 0.439 edgecolor
newpath 201 252 moveto
225 265 268 287 298 302 curveto
stroke
0.667 0.776 0.439 edgecolor
newpath 296.559 305.203 moveto
307 307 lineto
299.958 299.084 lineto
closepath fill
1 setlinewidth
solid
0.667 0.776 0.439 edgecolor
newpath 296.559 305.203 moveto
307 307 lineto
299.958 299.084 lineto
closepath stroke
grestore
% Node13
gsave
[ /Rect [ 301 251 355 271 ]
  /Border [ 0 0 0 ]
  /Action << /Subtype /URI /URI ($comun_8cpp.html#4a359aa93f2dd4e34badd70c0e1f7082) >>
  /Subtype /Link
/ANN pdfmark
[ /Rect [ 301 251 355 271 ]
  /Border [ 0 0 0 ]
  /Action << /Subtype /URI /URI ($comun_8cpp.html#4a359aa93f2dd4e34badd70c0e1f7082) >>
  /Subtype /Link
/ANN pdfmark
1 setlinewidth
0.000 0.000 0.000 nodecolor
newpath 301 250 moveto
301 271 lineto
356 271 lineto
356 250 lineto
closepath stroke
0.000 0.000 0.000 nodecolor
10.00 /FreeSans.ttf set_font
328 257 moveto 39 -0.5 (leeCad) alignedtext
grestore
% Node2->Node13
gsave
1 setlinewidth
solid
0.667 0.776 0.439 edgecolor
newpath 250 251 moveto
264 253 278 255 291 257 curveto
stroke
0.667 0.776 0.439 edgecolor
newpath 290.701 260.488 moveto
301 258 lineto
291.398 253.522 lineto
closepath fill
1 setlinewidth
solid
0.667 0.776 0.439 edgecolor
newpath 290.701 260.488 moveto
301 258 lineto
291.398 253.522 lineto
closepath stroke
grestore
% Node15
gsave
[ /Rect [ 294 213 362 233 ]
  /Border [ 0 0 0 ]
  /Action << /Subtype /URI /URI ($comun_8hpp.html#9871d7357fc245ec5b7a227a9a62eb36) >>
  /Subtype /Link
/ANN pdfmark
[ /Rect [ 294 213 362 233 ]
  /Border [ 0 0 0 ]
  /Action << /Subtype /URI /URI ($comun_8hpp.html#9871d7357fc245ec5b7a227a9a62eb36) >>
  /Subtype /Link
/ANN pdfmark
1 setlinewidth
0.000 0.000 0.000 nodecolor
newpath 294 212 moveto
294 233 lineto
362 233 lineto
362 212 lineto
closepath stroke
0.000 0.000 0.000 nodecolor
10.00 /FreeSans.ttf set_font
328 219 moveto 52 -0.5 (leeNDesp) alignedtext
grestore
% Node2->Node15
gsave
1 setlinewidth
solid
0.667 0.776 0.439 edgecolor
newpath 250 233 moveto
261 231 273 230 284 228 curveto
stroke
0.667 0.776 0.439 edgecolor
newpath 284.398 231.478 moveto
294 227 lineto
283.701 224.512 lineto
closepath fill
1 setlinewidth
solid
0.667 0.776 0.439 edgecolor
newpath 284.398 231.478 moveto
294 227 lineto
283.701 224.512 lineto
closepath stroke
grestore
% Node17
gsave
[ /Rect [ 303 175 353 195 ]
  /Border [ 0 0 0 ]
  /Action << /Subtype /URI /URI ($Pos_8cpp.html#36b67a50cba6dc1789825a3111bee9d2) >>
  /Subtype /Link
/ANN pdfmark
[ /Rect [ 303 175 353 195 ]
  /Border [ 0 0 0 ]
  /Action << /Subtype /URI /URI ($Pos_8cpp.html#36b67a50cba6dc1789825a3111bee9d2) >>
  /Subtype /Link
/ANN pdfmark
1 setlinewidth
0.000 0.000 0.000 nodecolor
newpath 303 174 moveto
303 195 lineto
354 195 lineto
354 174 lineto
closepath stroke
0.000 0.000 0.000 nodecolor
10.00 /FreeSans.ttf set_font
328 181 moveto 35 -0.5 (leePos) alignedtext
grestore
% Node2->Node17
gsave
1 setlinewidth
solid
0.667 0.776 0.439 edgecolor
newpath 210 231 moveto
234 221 268 208 293 199 curveto
stroke
0.667 0.776 0.439 edgecolor
newpath 295.015 201.964 moveto
303 195 lineto
292.415 195.464 lineto
closepath fill
1 setlinewidth
solid
0.667 0.776 0.439 edgecolor
newpath 295.015 201.964 moveto
303 195 lineto
292.415 195.464 lineto
closepath stroke
grestore
% Node4
gsave
[ /Rect [ 601 365 683 385 ]
  /Border [ 0 0 0 ]
  /Action << /Subtype /URI /URI ($comun_8cpp.html#b5388a972300b0a3d2e70c16097a3781) >>
  /Subtype /Link
/ANN pdfmark
[ /Rect [ 601 365 683 385 ]
  /Border [ 0 0 0 ]
  /Action << /Subtype /URI /URI ($comun_8cpp.html#b5388a972300b0a3d2e70c16097a3781) >>
  /Subtype /Link
/ANN pdfmark
1 setlinewidth
0.000 0.000 0.000 nodecolor
newpath 601 364 moveto
601 385 lineto
683 385 lineto
683 364 lineto
closepath stroke
0.000 0.000 0.000 nodecolor
10.00 /FreeSans.ttf set_font
642 371 moveto 66 -0.5 (escribe128b) alignedtext
grestore
% Node3->Node4
gsave
1 setlinewidth
solid
0.667 0.776 0.439 edgecolor
newpath 529 375 moveto
549 375 571 375 591 375 curveto
stroke
0.667 0.776 0.439 edgecolor
newpath 591 378.5 moveto
601 375 lineto
591 371.5 lineto
closepath fill
1 setlinewidth
solid
0.667 0.776 0.439 edgecolor
newpath 591 378.5 moveto
601 375 lineto
591 371.5 lineto
closepath stroke
grestore
% Node5->Node3
gsave
1 setlinewidth
solid
0.667 0.776 0.439 edgecolor
newpath 347 328 moveto
362 336 385 348 406 356 curveto
413 359 421 361 429 363 curveto
stroke
0.667 0.776 0.439 edgecolor
newpath 428.416 366.479 moveto
439 366 lineto
430.427 359.774 lineto
closepath fill
1 setlinewidth
solid
0.667 0.776 0.439 edgecolor
newpath 428.416 366.479 moveto
439 366 lineto
430.427 359.774 lineto
closepath stroke
grestore
% Node6
gsave
[ /Rect [ 448 327 520 347 ]
  /Border [ 0 0 0 ]
  /Action << /Subtype /URI /URI ($Pos_8cpp.html#42c2daaa880eeb397c024b6ffa22c8cf) >>
  /Subtype /Link
/ANN pdfmark
[ /Rect [ 448 327 520 347 ]
  /Border [ 0 0 0 ]
  /Action << /Subtype /URI /URI ($Pos_8cpp.html#42c2daaa880eeb397c024b6ffa22c8cf) >>
  /Subtype /Link
/ANN pdfmark
1 setlinewidth
0.000 0.000 0.000 nodecolor
newpath 448 326 moveto
448 347 lineto
521 347 lineto
521 326 lineto
closepath stroke
0.000 0.000 0.000 nodecolor
10.00 /FreeSans.ttf set_font
484 333 moveto 57 -0.5 (escribePos) alignedtext
grestore
% Node5->Node6
gsave
1 setlinewidth
solid
0.667 0.776 0.439 edgecolor
newpath 370 323 moveto
391 326 416 329 438 332 curveto
stroke
0.667 0.776 0.439 edgecolor
newpath 437.701 335.488 moveto
448 333 lineto
438.398 328.522 lineto
closepath fill
1 setlinewidth
solid
0.667 0.776 0.439 edgecolor
newpath 437.701 335.488 moveto
448 333 lineto
438.398 328.522 lineto
closepath stroke
grestore
% Node9
gsave
[ /Rect [ 406 289 562 309 ]
  /Border [ 0 0 0 ]
  /Action << /Subtype /URI /URI ($TrieSDisco_8cpp.html#453b277936104f13edb4f8158e015eba) >>
  /Subtype /Link
/ANN pdfmark
[ /Rect [ 406 289 562 309 ]
  /Border [ 0 0 0 ]
  /Action << /Subtype /URI /URI ($TrieSDisco_8cpp.html#453b277936104f13edb4f8158e015eba) >>
  /Subtype /Link
/ANN pdfmark
1 setlinewidth
0.000 0.000 0.000 nodecolor
newpath 406 288 moveto
406 309 lineto
562 309 lineto
562 288 lineto
closepath stroke
0.000 0.000 0.000 nodecolor
10.00 /FreeSans.ttf set_font
484 295 moveto 140 -0.5 (precalcula_escribe_actual) alignedtext
grestore
% Node5->Node9
gsave
1 setlinewidth
solid
0.667 0.776 0.439 edgecolor
newpath 370 313 moveto
378 312 387 311 396 310 curveto
stroke
0.667 0.776 0.439 edgecolor
newpath 396.881 313.393 moveto
406 308 lineto
395.508 306.529 lineto
closepath fill
1 setlinewidth
solid
0.667 0.776 0.439 edgecolor
newpath 396.881 313.393 moveto
406 308 lineto
395.508 306.529 lineto
closepath stroke
grestore
% Node7
gsave
[ /Rect [ 722 317 850 337 ]
  /Border [ 0 0 0 ]
  /Action << /Subtype /URI /URI ($Elias_8cpp.html#59732ce42a1e75fbbb382a6964ef4620) >>
  /Subtype /Link
/ANN pdfmark
[ /Rect [ 722 317 850 337 ]
  /Border [ 0 0 0 ]
  /Action << /Subtype /URI /URI ($Elias_8cpp.html#59732ce42a1e75fbbb382a6964ef4620) >>
  /Subtype /Link
/ANN pdfmark
1 setlinewidth
0.000 0.000 0.000 nodecolor
newpath 722 316 moveto
722 337 lineto
850 337 lineto
850 316 lineto
closepath stroke
0.000 0.000 0.000 nodecolor
10.00 /FreeSans.ttf set_font
786 323 moveto 112 -0.5 (escribe_elias_gama2) alignedtext
grestore
% Node6->Node7
gsave
1 setlinewidth
solid
0.667 0.776 0.439 edgecolor
newpath 521 336 moveto
568 334 651 331 712 329 curveto
stroke
0.667 0.776 0.439 edgecolor
newpath 712 332.5 moveto
722 329 lineto
712 325.5 lineto
closepath fill
1 setlinewidth
solid
0.667 0.776 0.439 edgecolor
newpath 712 332.5 moveto
722 329 lineto
712 325.5 lineto
closepath stroke
grestore
% Node8
gsave
[ /Rect [ 887 293 959 313 ]
  /Border [ 0 0 0 ]
  /Action << /Subtype /URI /URI ($Elias_8cpp.html#7127ec8dff13cc2ad873693ca8933d38) >>
  /Subtype /Link
/ANN pdfmark
[ /Rect [ 887 293 959 313 ]
  /Border [ 0 0 0 ]
  /Action << /Subtype /URI /URI ($Elias_8cpp.html#7127ec8dff13cc2ad873693ca8933d38) >>
  /Subtype /Link
/ANN pdfmark
1 setlinewidth
0.000 0.000 0.000 nodecolor
newpath 887 292 moveto
887 313 lineto
960 313 lineto
960 292 lineto
closepath stroke
0.000 0.000 0.000 nodecolor
10.00 /FreeSans.ttf set_font
923 299 moveto 57 -0.5 (piso_logb2) alignedtext
grestore
% Node7->Node8
gsave
1 setlinewidth
solid
0.667 0.776 0.439 edgecolor
newpath 849 316 moveto
858 315 868 313 877 312 curveto
stroke
0.667 0.776 0.439 edgecolor
newpath 877.881 315.393 moveto
887 310 lineto
876.508 308.529 lineto
closepath fill
1 setlinewidth
solid
0.667 0.776 0.439 edgecolor
newpath 877.881 315.393 moveto
887 310 lineto
876.508 308.529 lineto
closepath stroke
grestore
% Node10
gsave
[ /Rect [ 605 289 679 309 ]
  /Border [ 0 0 0 ]
  /Action << /Subtype /URI /URI ($comun_8hpp.html#3f1f97c70ac3ffba1584b0fc02661cab) >>
  /Subtype /Link
/ANN pdfmark
[ /Rect [ 605 289 679 309 ]
  /Border [ 0 0 0 ]
  /Action << /Subtype /URI /URI ($comun_8hpp.html#3f1f97c70ac3ffba1584b0fc02661cab) >>
  /Subtype /Link
/ANN pdfmark
1 setlinewidth
0.000 0.000 0.000 nodecolor
newpath 605 288 moveto
605 309 lineto
680 309 lineto
680 288 lineto
closepath stroke
0.000 0.000 0.000 nodecolor
10.00 /FreeSans.ttf set_font
642 295 moveto 59 -0.5 (longNDesp) alignedtext
grestore
% Node9->Node10
gsave
1 setlinewidth
solid
0.667 0.776 0.439 edgecolor
newpath 562 299 moveto
573 299 584 299 595 299 curveto
stroke
0.667 0.776 0.439 edgecolor
newpath 595 302.5 moveto
605 299 lineto
595 295.5 lineto
closepath fill
1 setlinewidth
solid
0.667 0.776 0.439 edgecolor
newpath 595 302.5 moveto
605 299 lineto
595 295.5 lineto
closepath stroke
grestore
% Node11
gsave
[ /Rect [ 613 251 671 271 ]
  /Border [ 0 0 0 ]
  /Action << /Subtype /URI /URI ($Pos_8cpp.html#ad8740377e9e19836d654491a170ac9a) >>
  /Subtype /Link
/ANN pdfmark
[ /Rect [ 613 251 671 271 ]
  /Border [ 0 0 0 ]
  /Action << /Subtype /URI /URI ($Pos_8cpp.html#ad8740377e9e19836d654491a170ac9a) >>
  /Subtype /Link
/ANN pdfmark
1 setlinewidth
0.000 0.000 0.000 nodecolor
newpath 613 250 moveto
613 271 lineto
671 271 lineto
671 250 lineto
closepath stroke
0.000 0.000 0.000 nodecolor
10.00 /FreeSans.ttf set_font
642 257 moveto 42 -0.5 (longPos) alignedtext
grestore
% Node9->Node11
gsave
1 setlinewidth
solid
0.667 0.776 0.439 edgecolor
newpath 530 288 moveto
553 283 581 276 603 270 curveto
stroke
0.667 0.776 0.439 edgecolor
newpath 603.881 273.393 moveto
613 268 lineto
602.508 266.529 lineto
closepath fill
1 setlinewidth
solid
0.667 0.776 0.439 edgecolor
newpath 603.881 273.393 moveto
613 268 lineto
602.508 266.529 lineto
closepath stroke
grestore
% Node12
gsave
[ /Rect [ 733 270 839 290 ]
  /Border [ 0 0 0 ]
  /Action << /Subtype /URI /URI ($Elias_8cpp.html#214c4fd6adcbe1fe7de47c4ba521198a) >>
  /Subtype /Link
/ANN pdfmark
[ /Rect [ 733 270 839 290 ]
  /Border [ 0 0 0 ]
  /Action << /Subtype /URI /URI ($Elias_8cpp.html#214c4fd6adcbe1fe7de47c4ba521198a) >>
  /Subtype /Link
/ANN pdfmark
1 setlinewidth
0.000 0.000 0.000 nodecolor
newpath 733 269 moveto
733 290 lineto
840 290 lineto
840 269 lineto
closepath stroke
0.000 0.000 0.000 nodecolor
10.00 /FreeSans.ttf set_font
786 276 moveto 91 -0.5 (long_elias_gama) alignedtext
grestore
% Node11->Node12
gsave
1 setlinewidth
solid
0.667 0.776 0.439 edgecolor
newpath 671 265 moveto
686 267 705 269 723 272 curveto
stroke
0.667 0.776 0.439 edgecolor
newpath 722.701 275.488 moveto
733 273 lineto
723.398 268.522 lineto
closepath fill
1 setlinewidth
solid
0.667 0.776 0.439 edgecolor
newpath 722.701 275.488 moveto
733 273 lineto
723.398 268.522 lineto
closepath stroke
grestore
% Node12->Node8
gsave
1 setlinewidth
solid
0.667 0.776 0.439 edgecolor
newpath 840 289 moveto
852 291 865 294 877 296 curveto
stroke
0.667 0.776 0.439 edgecolor
newpath 876.701 299.488 moveto
887 297 lineto
877.398 292.522 lineto
closepath fill
1 setlinewidth
solid
0.667 0.776 0.439 edgecolor
newpath 876.701 299.488 moveto
887 297 lineto
877.398 292.522 lineto
closepath stroke
grestore
% Node14
gsave
[ /Rect [ 598 137 686 157 ]
  /Border [ 0 0 0 ]
  /Action << /Subtype /URI /URI ($comun_8cpp.html#88ffeb20e447cad877c37bb473033590) >>
  /Subtype /Link
/ANN pdfmark
[ /Rect [ 598 137 686 157 ]
  /Border [ 0 0 0 ]
  /Action << /Subtype /URI /URI ($comun_8cpp.html#88ffeb20e447cad877c37bb473033590) >>
  /Subtype /Link
/ANN pdfmark
1 setlinewidth
0.000 0.000 0.000 nodecolor
newpath 598 136 moveto
598 157 lineto
686 157 lineto
686 136 lineto
closepath stroke
0.000 0.000 0.000 nodecolor
10.00 /FreeSans.ttf set_font
642 143 moveto 72 -0.5 (errorFormato) alignedtext
grestore
% Node13->Node14
gsave
1 setlinewidth
solid
0.667 0.776 0.439 edgecolor
newpath 356 265 moveto
402 271 495 276 562 242 curveto
595 225 620 188 632 166 curveto
stroke
0.667 0.776 0.439 edgecolor
newpath 635.203 167.441 moveto
637 157 lineto
629.084 164.042 lineto
closepath fill
1 setlinewidth
solid
0.667 0.776 0.439 edgecolor
newpath 635.203 167.441 moveto
637 157 lineto
629.084 164.042 lineto
closepath stroke
grestore
% Node16
gsave
[ /Rect [ 454 213 514 233 ]
  /Border [ 0 0 0 ]
  /Action << /Subtype /URI /URI ($comun_8cpp.html#c7bf9e68bbdccea36ce786b806244ea1) >>
  /Subtype /Link
/ANN pdfmark
[ /Rect [ 454 213 514 233 ]
  /Border [ 0 0 0 ]
  /Action << /Subtype /URI /URI ($comun_8cpp.html#c7bf9e68bbdccea36ce786b806244ea1) >>
  /Subtype /Link
/ANN pdfmark
1 setlinewidth
0.000 0.000 0.000 nodecolor
newpath 454 212 moveto
454 233 lineto
514 233 lineto
514 212 lineto
closepath stroke
0.000 0.000 0.000 nodecolor
10.00 /FreeSans.ttf set_font
484 219 moveto 44 -0.5 (lee128b) alignedtext
grestore
% Node15->Node16
gsave
1 setlinewidth
solid
0.667 0.776 0.439 edgecolor
newpath 362 223 moveto
386 223 418 223 444 223 curveto
stroke
0.667 0.776 0.439 edgecolor
newpath 444 226.5 moveto
454 223 lineto
444 219.5 lineto
closepath fill
1 setlinewidth
solid
0.667 0.776 0.439 edgecolor
newpath 444 226.5 moveto
454 223 lineto
444 219.5 lineto
closepath stroke
grestore
% Node16->Node14
gsave
1 setlinewidth
solid
0.667 0.776 0.439 edgecolor
newpath 514 216 moveto
529 212 547 206 562 199 curveto
584 189 605 174 621 163 curveto
stroke
0.667 0.776 0.439 edgecolor
newpath 623.1 165.8 moveto
629 157 lineto
618.9 160.2 lineto
closepath fill
1 setlinewidth
solid
0.667 0.776 0.439 edgecolor
newpath 623.1 165.8 moveto
629 157 lineto
618.9 160.2 lineto
closepath stroke
grestore
% Node17->Node14
gsave
1 setlinewidth
solid
0.667 0.776 0.439 edgecolor
newpath 354 184 moveto
398 182 487 178 562 166 curveto
573 164 584 162 595 159 curveto
stroke
0.667 0.776 0.439 edgecolor
newpath 595.881 162.393 moveto
605 157 lineto
594.508 155.529 lineto
closepath fill
1 setlinewidth
solid
0.667 0.776 0.439 edgecolor
newpath 595.881 162.393 moveto
605 157 lineto
594.508 155.529 lineto
closepath stroke
grestore
% Node18
gsave
[ /Rect [ 431 137 537 157 ]
  /Border [ 0 0 0 ]
  /Action << /Subtype /URI /URI ($Elias_8cpp.html#95ee5a0ffb91f203612d2ce9d063ec36) >>
  /Subtype /Link
/ANN pdfmark
[ /Rect [ 431 137 537 157 ]
  /Border [ 0 0 0 ]
  /Action << /Subtype /URI /URI ($Elias_8cpp.html#95ee5a0ffb91f203612d2ce9d063ec36) >>
  /Subtype /Link
/ANN pdfmark
1 setlinewidth
0.000 0.000 0.000 nodecolor
newpath 431 136 moveto
431 157 lineto
537 157 lineto
537 136 lineto
closepath stroke
0.000 0.000 0.000 nodecolor
10.00 /FreeSans.ttf set_font
484 143 moveto 90 -0.5 (lee_elias_gama2) alignedtext
grestore
% Node17->Node18
gsave
1 setlinewidth
solid
0.667 0.776 0.439 edgecolor
newpath 354 179 moveto
376 174 407 166 433 159 curveto
stroke
0.667 0.776 0.439 edgecolor
newpath 433.881 162.393 moveto
443 157 lineto
432.508 155.529 lineto
closepath fill
1 setlinewidth
solid
0.667 0.776 0.439 edgecolor
newpath 433.881 162.393 moveto
443 157 lineto
432.508 155.529 lineto
closepath stroke
grestore
% Node18->Node14
gsave
1 setlinewidth
solid
0.667 0.776 0.439 edgecolor
newpath 537 147 moveto
554 147 571 147 588 147 curveto
stroke
0.667 0.776 0.439 edgecolor
newpath 588 150.5 moveto
598 147 lineto
588 143.5 lineto
closepath fill
1 setlinewidth
solid
0.667 0.776 0.439 edgecolor
newpath 588 150.5 moveto
598 147 lineto
588 143.5 lineto
closepath stroke
grestore
% Node20
gsave
[ /Rect [ 288 118 368 138 ]
  /Border [ 0 0 0 ]
  /Action << /Subtype /URI /URI ($Doc_8cpp.html#ccfa223b5e7e9f380b58db51687ff9a5) >>
  /Subtype /Link
/ANN pdfmark
[ /Rect [ 288 118 368 138 ]
  /Border [ 0 0 0 ]
  /Action << /Subtype /URI /URI ($Doc_8cpp.html#ccfa223b5e7e9f380b58db51687ff9a5) >>
  /Subtype /Link
/ANN pdfmark
1 setlinewidth
0.000 0.000 0.000 nodecolor
newpath 288 117 moveto
288 138 lineto
369 138 lineto
369 117 lineto
closepath stroke
0.000 0.000 0.000 nodecolor
10.00 /FreeSans.ttf set_font
328 124 moveto 65 -0.5 (escribeDocs) alignedtext
grestore
% Node19->Node20
gsave
1 setlinewidth
solid
0.667 0.776 0.439 edgecolor
newpath 233 128 moveto
247 128 263 128 278 128 curveto
stroke
0.667 0.776 0.439 edgecolor
newpath 278 131.5 moveto
288 128 lineto
278 124.5 lineto
closepath fill
1 setlinewidth
solid
0.667 0.776 0.439 edgecolor
newpath 278 131.5 moveto
288 128 lineto
278 124.5 lineto
closepath stroke
grestore
% Node21->Node14
gsave
1 setlinewidth
solid
0.667 0.776 0.439 edgecolor
newpath 368 96 moveto
415 102 495 114 562 128 curveto
571 129 579 131 588 134 curveto
stroke
0.667 0.776 0.439 edgecolor
newpath 587.508 137.471 moveto
598 136 lineto
588.881 130.607 lineto
closepath fill
1 setlinewidth
solid
0.667 0.776 0.439 edgecolor
newpath 587.508 137.471 moveto
598 136 lineto
588.881 130.607 lineto
closepath stroke
grestore
% Node22
gsave
[ /Rect [ 455 61 513 81 ]
  /Border [ 0 0 0 ]
  /Action << /Subtype /URI /URI ($Doc_8cpp.html#e4bfd9bdedc0dd4fe00bf5f17f8f9e23) >>
  /Subtype /Link
/ANN pdfmark
[ /Rect [ 455 61 513 81 ]
  /Border [ 0 0 0 ]
  /Action << /Subtype /URI /URI ($Doc_8cpp.html#e4bfd9bdedc0dd4fe00bf5f17f8f9e23) >>
  /Subtype /Link
/ANN pdfmark
1 setlinewidth
0.000 0.000 0.000 nodecolor
newpath 455 60 moveto
455 81 lineto
514 81 lineto
514 60 lineto
closepath stroke
0.000 0.000 0.000 nodecolor
10.00 /FreeSans.ttf set_font
484 67 moveto 43 -0.5 (leeDocs) alignedtext
grestore
% Node21->Node22
gsave
1 setlinewidth
solid
0.667 0.776 0.439 edgecolor
newpath 368 85 moveto
392 82 421 78 445 75 curveto
stroke
0.667 0.776 0.439 edgecolor
newpath 445.398 78.4778 moveto
455 74 lineto
444.701 71.5125 lineto
closepath fill
1 setlinewidth
solid
0.667 0.776 0.439 edgecolor
newpath 445.398 78.4778 moveto
455 74 lineto
444.701 71.5125 lineto
closepath stroke
grestore
% Node22->Node14
gsave
1 setlinewidth
solid
0.667 0.776 0.439 edgecolor
newpath 514 78 moveto
529 82 547 88 562 95 curveto
583 104 604 118 620 130 curveto
stroke
0.667 0.776 0.439 edgecolor
newpath 617.9 132.8 moveto
628 136 lineto
622.1 127.2 lineto
closepath fill
1 setlinewidth
solid
0.667 0.776 0.439 edgecolor
newpath 617.9 132.8 moveto
628 136 lineto
622.1 127.2 lineto
closepath stroke
grestore
% Node23->Node14
gsave
1 setlinewidth
solid
0.667 0.776 0.439 edgecolor
newpath 224 41 moveto
297 24 450 0 562 52 curveto
595 68 619 104 632 127 curveto
stroke
0.667 0.776 0.439 edgecolor
newpath 629.084 128.958 moveto
637 136 lineto
635.203 125.559 lineto
closepath fill
1 setlinewidth
solid
0.667 0.776 0.439 edgecolor
newpath 629.084 128.958 moveto
637 136 lineto
635.203 125.559 lineto
closepath stroke
grestore
endpage
showpage
grestore
%%PageTrailer
%%EndPage: 1
%%Trailer
%%Pages: 1
%%BoundingBox: 36 36 1004 429
end
restore
%%EOF
