%!PS-Adobe-2.0
%%Creator: Graphviz version 2.12 (Mon Nov 16 18:34:03 UTC 2009)
%%For: (vtamara) Vladimir
%%Title: G
%%Pages: (atend)
%%BoundingBox: (atend)
%%EndComments
save
%%BeginProlog
/DotDict 200 dict def
DotDict begin

/setupLatin1 {
mark
/EncodingVector 256 array def
 EncodingVector 0

ISOLatin1Encoding 0 255 getinterval putinterval
EncodingVector 45 /hyphen put

% Set up ISO Latin 1 character encoding
/starnetISO {
        dup dup findfont dup length dict begin
        { 1 index /FID ne { def }{ pop pop } ifelse
        } forall
        /Encoding EncodingVector def
        currentdict end definefont
} def
/Times-Roman starnetISO def
/Times-Italic starnetISO def
/Times-Bold starnetISO def
/Times-BoldItalic starnetISO def
/Helvetica starnetISO def
/Helvetica-Oblique starnetISO def
/Helvetica-Bold starnetISO def
/Helvetica-BoldOblique starnetISO def
/Courier starnetISO def
/Courier-Oblique starnetISO def
/Courier-Bold starnetISO def
/Courier-BoldOblique starnetISO def
cleartomark
} bind def

%%BeginResource: procset graphviz 0 0
/coord-font-family /Times-Roman def
/default-font-family /Times-Roman def
/coordfont coord-font-family findfont 8 scalefont def

/InvScaleFactor 1.0 def
/set_scale {
       dup 1 exch div /InvScaleFactor exch def
       scale
} bind def

% styles
/solid { [] 0 setdash } bind def
/dashed { [9 InvScaleFactor mul dup ] 0 setdash } bind def
/dotted { [1 InvScaleFactor mul 6 InvScaleFactor mul] 0 setdash } bind def
/invis {/fill {newpath} def /stroke {newpath} def /show {pop newpath} def} bind def
/bold { 2 setlinewidth } bind def
/filled { } bind def
/unfilled { } bind def
/rounded { } bind def
/diagonals { } bind def

% hooks for setting color 
/nodecolor { sethsbcolor } bind def
/edgecolor { sethsbcolor } bind def
/graphcolor { sethsbcolor } bind def
/nopcolor {pop pop pop} bind def

/beginpage {	% i j npages
	/npages exch def
	/j exch def
	/i exch def
	/str 10 string def
	npages 1 gt {
		gsave
			coordfont setfont
			0 0 moveto
			(\() show i str cvs show (,) show j str cvs show (\)) show
		grestore
	} if
} bind def

/set_font {
	findfont exch
	scalefont setfont
} def

% draw aligned label in bounding box aligned to current point
/alignedtext {			% width adj text
	/text exch def
	/adj exch def
	/width exch def
	gsave
		width 0 gt {
			text stringwidth pop adj mul 0 rmoveto
		} if
		[] 0 setdash
		text show
	grestore
} def

/boxprim {				% xcorner ycorner xsize ysize
		4 2 roll
		moveto
		2 copy
		exch 0 rlineto
		0 exch rlineto
		pop neg 0 rlineto
		closepath
} bind def

/ellipse_path {
	/ry exch def
	/rx exch def
	/y exch def
	/x exch def
	matrix currentmatrix
	newpath
	x y translate
	rx ry scale
	0 0 1 0 360 arc
	setmatrix
} bind def

/endpage { showpage } bind def
/showpage { } def

/layercolorseq
	[	% layer color sequence - darkest to lightest
		[0 0 0]
		[.2 .8 .8]
		[.4 .8 .8]
		[.6 .8 .8]
		[.8 .8 .8]
	]
def

/layerlen layercolorseq length def

/setlayer {/maxlayer exch def /curlayer exch def
	layercolorseq curlayer 1 sub layerlen mod get
	aload pop sethsbcolor
	/nodecolor {nopcolor} def
	/edgecolor {nopcolor} def
	/graphcolor {nopcolor} def
} bind def

/onlayer { curlayer ne {invis} if } def

/onlayers {
	/myupper exch def
	/mylower exch def
	curlayer mylower lt
	curlayer myupper gt
	or
	{invis} if
} def

/curlayer 0 def

%%EndResource
%%EndProlog
%%BeginSetup
14 default-font-family set_font
1 setmiterlimit
% /arrowlength 10 def
% /arrowwidth 5 def

% make sure pdfmark is harmless for PS-interpreters other than Distiller
/pdfmark where {pop} {userdict /pdfmark /cleartomark load put} ifelse
% make '<<' and '>>' safe on PS Level 1 devices
/languagelevel where {pop languagelevel}{1} ifelse
2 lt {
    userdict (<<) cvn ([) cvn load put
    userdict (>>) cvn ([) cvn load put
} if

%%EndSetup
setupLatin1
%%Page: 1 1
%%PageBoundingBox: 36 36 1086 1116
%%PageOrientation: Portrait
gsave
36 36 1086 1116 boxprim clip newpath
0 0 1 beginpage
1 1 set_scale 0 rotate 40 40 translate
% Node1
gsave
0.000 0.000 0.749 nodecolor
newpath 0 367 moveto
0 388 lineto
76 388 lineto
76 367 lineto
closepath fill
1 setlinewidth
filled
0.000 0.000 0.000 nodecolor
newpath 0 367 moveto
0 388 lineto
76 388 lineto
76 367 lineto
closepath stroke
0.000 0.000 0.000 nodecolor
10.00 /FreeSans.ttf set_font
38 374 moveto 60 -0.5 (agregaDoc) alignedtext
grestore
% Node2
gsave
[ /Rect [ 129 843 205 863 ]
  /Border [ 0 0 0 ]
  /Action << /Subtype /URI /URI ($Operaciones_8cpp.html#c3b6b570dd53678c88d7ef60f51bab4d) >>
  /Subtype /Link
/ANN pdfmark
[ /Rect [ 129 843 205 863 ]
  /Border [ 0 0 0 ]
  /Action << /Subtype /URI /URI ($Operaciones_8cpp.html#c3b6b570dd53678c88d7ef60f51bab4d) >>
  /Subtype /Link
/ANN pdfmark
1 setlinewidth
0.000 0.000 0.000 nodecolor
newpath 129 842 moveto
129 863 lineto
206 863 lineto
206 842 lineto
closepath stroke
0.000 0.000 0.000 nodecolor
10.00 /FreeSans.ttf set_font
167 849 moveto 61 -0.5 (calcRenum) alignedtext
grestore
% Node1->Node2
gsave
1 setlinewidth
solid
0.667 0.776 0.439 edgecolor
newpath 38 388 moveto
40 449 52 763 112 834 curveto
114 836 117 839 120 840 curveto
stroke
0.667 0.776 0.439 edgecolor
newpath 118.559 843.203 moveto
129 845 lineto
121.958 837.084 lineto
closepath fill
1 setlinewidth
solid
0.667 0.776 0.439 edgecolor
newpath 118.559 843.203 moveto
129 845 lineto
121.958 837.084 lineto
closepath stroke
grestore
% Node3
gsave
[ /Rect [ 116 805 218 825 ]
  /Border [ 0 0 0 ]
  /Action << /Subtype /URI /URI ($TrieSDisco_8cpp.html#df0711974693615ed7a5a7d1a2b050a7) >>
  /Subtype /Link
/ANN pdfmark
[ /Rect [ 116 805 218 825 ]
  /Border [ 0 0 0 ]
  /Action << /Subtype /URI /URI ($TrieSDisco_8cpp.html#df0711974693615ed7a5a7d1a2b050a7) >>
  /Subtype /Link
/ANN pdfmark
1 setlinewidth
0.000 0.000 0.000 nodecolor
newpath 116 804 moveto
116 825 lineto
218 825 lineto
218 804 lineto
closepath stroke
0.000 0.000 0.000 nodecolor
10.00 /FreeSans.ttf set_font
167 811 moveto 86 -0.5 (escribeRelacion) alignedtext
grestore
% Node1->Node3
gsave
1 setlinewidth
solid
0.667 0.776 0.439 edgecolor
newpath 38 388 moveto
41 445 57 731 112 796 curveto
113 797 113 797 114 798 curveto
stroke
0.667 0.776 0.439 edgecolor
newpath 111.9 800.8 moveto
122 804 lineto
116.1 795.2 lineto
closepath fill
1 setlinewidth
solid
0.667 0.776 0.439 edgecolor
newpath 111.9 800.8 moveto
122 804 lineto
116.1 795.2 lineto
closepath stroke
grestore
% Node5
gsave
[ /Rect [ 141 767 193 787 ]
  /Border [ 0 0 0 ]
  /Action << /Subtype /URI /URI ($Operaciones_8cpp.html#7b0b2f4ed1f93e2239f4d9d7cd303384) >>
  /Subtype /Link
/ANN pdfmark
[ /Rect [ 141 767 193 787 ]
  /Border [ 0 0 0 ]
  /Action << /Subtype /URI /URI ($Operaciones_8cpp.html#7b0b2f4ed1f93e2239f4d9d7cd303384) >>
  /Subtype /Link
/ANN pdfmark
1 setlinewidth
0.000 0.000 0.000 nodecolor
newpath 141 766 moveto
141 787 lineto
194 787 lineto
194 766 lineto
closepath stroke
0.000 0.000 0.000 nodecolor
10.00 /FreeSans.ttf set_font
167 773 moveto 37 -0.5 (indexa) alignedtext
grestore
% Node1->Node5
gsave
1 setlinewidth
solid
0.667 0.776 0.439 edgecolor
newpath 41 388 moveto
59 441 137 683 160 756 curveto
stroke
0.667 0.776 0.439 edgecolor
newpath 156.774 757.427 moveto
163 766 lineto
163.479 755.416 lineto
closepath fill
1 setlinewidth
solid
0.667 0.776 0.439 edgecolor
newpath 156.774 757.427 moveto
163 766 lineto
163.479 755.416 lineto
closepath stroke
grestore
% Node30
gsave
[ /Rect [ 299 122 379 142 ]
  /Border [ 0 0 0 ]
  /Action << /Subtype /URI /URI ($TrieSDisco_8cpp.html#acdb9639784b2fb341e069b1f54c3455) >>
  /Subtype /Link
/ANN pdfmark
[ /Rect [ 299 122 379 142 ]
  /Border [ 0 0 0 ]
  /Action << /Subtype /URI /URI ($TrieSDisco_8cpp.html#acdb9639784b2fb341e069b1f54c3455) >>
  /Subtype /Link
/ANN pdfmark
1 setlinewidth
0.000 0.000 0.000 nodecolor
newpath 299 121 moveto
299 142 lineto
379 142 lineto
379 121 lineto
closepath stroke
0.000 0.000 0.000 nodecolor
10.00 /FreeSans.ttf set_font
339 128 moveto 64 -0.5 (leeRelacion) alignedtext
grestore
% Node1->Node30
gsave
1 setlinewidth
solid
0.667 0.776 0.439 edgecolor
newpath 76 375 moveto
124 370 202 360 222 340 curveto
279 283 208 226 258 165 curveto
266 156 278 149 289 144 curveto
stroke
0.667 0.776 0.439 edgecolor
newpath 291.015 146.964 moveto
299 140 lineto
288.415 140.464 lineto
closepath fill
1 setlinewidth
solid
0.667 0.776 0.439 edgecolor
newpath 291.015 146.964 moveto
299 140 lineto
288.415 140.464 lineto
closepath stroke
grestore
% Node33
gsave
[ /Rect [ 112 387 222 407 ]
  /Border [ 0 0 0 ]
  /Action << /Subtype /URI /URI ($RamDisco_8cpp.html#9889da3dbb12ee73c109e4998e1269f4) >>
  /Subtype /Link
/ANN pdfmark
[ /Rect [ 112 387 222 407 ]
  /Border [ 0 0 0 ]
  /Action << /Subtype /URI /URI ($RamDisco_8cpp.html#9889da3dbb12ee73c109e4998e1269f4) >>
  /Subtype /Link
/ANN pdfmark
1 setlinewidth
0.000 0.000 0.000 nodecolor
newpath 112 386 moveto
112 407 lineto
222 407 lineto
222 386 lineto
closepath stroke
0.000 0.000 0.000 nodecolor
10.00 /FreeSans.ttf set_font
167 393 moveto 94 -0.5 (mezclaDiscoRam) alignedtext
grestore
% Node1->Node33
gsave
1 setlinewidth
solid
0.667 0.776 0.439 edgecolor
newpath 76 384 moveto
84 385 93 386 102 387 curveto
stroke
0.667 0.776 0.439 edgecolor
newpath 101.508 390.471 moveto
112 389 lineto
102.881 383.607 lineto
closepath fill
1 setlinewidth
solid
0.667 0.776 0.439 edgecolor
newpath 101.508 390.471 moveto
112 389 lineto
102.881 383.607 lineto
closepath stroke
grestore
% Node48
gsave
[ /Rect [ 126 273 208 293 ]
  /Border [ 0 0 0 ]
  /Action << /Subtype /URI /URI ($Doc_8cpp.html#9c643cf619a44c811431e60dee2029a2) >>
  /Subtype /Link
/ANN pdfmark
[ /Rect [ 126 273 208 293 ]
  /Border [ 0 0 0 ]
  /Action << /Subtype /URI /URI ($Doc_8cpp.html#9c643cf619a44c811431e60dee2029a2) >>
  /Subtype /Link
/ANN pdfmark
1 setlinewidth
0.000 0.000 0.000 nodecolor
newpath 126 272 moveto
126 293 lineto
208 293 lineto
208 272 lineto
closepath stroke
0.000 0.000 0.000 nodecolor
10.00 /FreeSans.ttf set_font
167 279 moveto 66 -0.5 (mezclaDocs) alignedtext
grestore
% Node1->Node48
gsave
1 setlinewidth
solid
0.667 0.776 0.439 edgecolor
newpath 46 367 moveto
59 350 84 320 112 302 curveto
115 300 118 298 121 297 curveto
stroke
0.667 0.776 0.439 edgecolor
newpath 122.283 300.26 moveto
130 293 lineto
119.44 293.863 lineto
closepath fill
1 setlinewidth
solid
0.667 0.776 0.439 edgecolor
newpath 122.283 300.26 moveto
130 293 lineto
119.44 293.863 lineto
closepath stroke
grestore
% Node49
gsave
[ /Rect [ 123 311 211 331 ]
  /Border [ 0 0 0 ]
  /Action << /Subtype /URI /URI ($TrieSDisco_8cpp.html#3b55801abcb3987a49125a0ddc9ff76c) >>
  /Subtype /Link
/ANN pdfmark
[ /Rect [ 123 311 211 331 ]
  /Border [ 0 0 0 ]
  /Action << /Subtype /URI /URI ($TrieSDisco_8cpp.html#3b55801abcb3987a49125a0ddc9ff76c) >>
  /Subtype /Link
/ANN pdfmark
1 setlinewidth
0.000 0.000 0.000 nodecolor
newpath 123 310 moveto
123 331 lineto
212 331 lineto
212 310 lineto
closepath stroke
0.000 0.000 0.000 nodecolor
10.00 /FreeSans.ttf set_font
167 317 moveto 73 -0.5 (verificaIndice) alignedtext
grestore
% Node1->Node49
gsave
1 setlinewidth
solid
0.667 0.776 0.439 edgecolor
newpath 63 367 moveto
77 360 96 352 112 345 curveto
120 342 127 338 134 335 curveto
stroke
0.667 0.776 0.439 edgecolor
newpath 136.015 337.964 moveto
144 331 lineto
133.415 331.464 lineto
closepath fill
1 setlinewidth
solid
0.667 0.776 0.439 edgecolor
newpath 136.015 337.964 moveto
144 331 lineto
133.415 331.464 lineto
closepath stroke
grestore
% Node50
gsave
[ /Rect [ 117 235 217 255 ]
  /Border [ 0 0 0 ]
  /Action << /Subtype /URI /URI ($comun_8cpp.html#ecd3ce9c133c650ebb919dcce6f77003) >>
  /Subtype /Link
/ANN pdfmark
[ /Rect [ 117 235 217 255 ]
  /Border [ 0 0 0 ]
  /Action << /Subtype /URI /URI ($comun_8cpp.html#ecd3ce9c133c650ebb919dcce6f77003) >>
  /Subtype /Link
/ANN pdfmark
1 setlinewidth
0.000 0.000 0.000 nodecolor
newpath 117 234 moveto
117 255 lineto
217 255 lineto
217 234 lineto
closepath stroke
0.000 0.000 0.000 nodecolor
10.00 /FreeSans.ttf set_font
167 241 moveto 84 -0.5 (verificaNombre) alignedtext
grestore
% Node1->Node50
gsave
1 setlinewidth
solid
0.667 0.776 0.439 edgecolor
newpath 42 367 moveto
52 344 76 292 112 264 curveto
114 262 116 261 119 259 curveto
stroke
0.667 0.776 0.439 edgecolor
newpath 120.283 262.26 moveto
128 255 lineto
117.44 255.863 lineto
closepath fill
1 setlinewidth
solid
0.667 0.776 0.439 edgecolor
newpath 120.283 262.26 moveto
128 255 lineto
117.44 255.863 lineto
closepath stroke
grestore
% Node4
gsave
[ /Rect [ 299 1052 379 1072 ]
  /Border [ 0 0 0 ]
  /Action << /Subtype /URI /URI ($Doc_8cpp.html#ccfa223b5e7e9f380b58db51687ff9a5) >>
  /Subtype /Link
/ANN pdfmark
[ /Rect [ 299 1052 379 1072 ]
  /Border [ 0 0 0 ]
  /Action << /Subtype /URI /URI ($Doc_8cpp.html#ccfa223b5e7e9f380b58db51687ff9a5) >>
  /Subtype /Link
/ANN pdfmark
1 setlinewidth
0.000 0.000 0.000 nodecolor
newpath 299 1051 moveto
299 1072 lineto
380 1072 lineto
380 1051 lineto
closepath stroke
0.000 0.000 0.000 nodecolor
10.00 /FreeSans.ttf set_font
339 1058 moveto 65 -0.5 (escribeDocs) alignedtext
grestore
% Node3->Node4
gsave
1 setlinewidth
solid
0.667 0.776 0.439 edgecolor
newpath 212 825 moveto
216 827 219 830 222 834 curveto
284 905 194 974 258 1043 curveto
267 1052 277 1056 289 1059 curveto
stroke
0.667 0.776 0.439 edgecolor
newpath 288.508 1062.47 moveto
299 1061 lineto
289.881 1055.61 lineto
closepath fill
1 setlinewidth
solid
0.667 0.776 0.439 edgecolor
newpath 288.508 1062.47 moveto
299 1061 lineto
289.881 1055.61 lineto
closepath stroke
grestore
% Node6
gsave
[ /Rect [ 280 938 398 958 ]
  /Border [ 0 0 0 ]
  /Action << /Subtype /URI /URI ($Operaciones_8cpp.html#962fb5669dbd34dd87d7bbfbffa042cc) >>
  /Subtype /Link
/ANN pdfmark
[ /Rect [ 280 938 398 958 ]
  /Border [ 0 0 0 ]
  /Action << /Subtype /URI /URI ($Operaciones_8cpp.html#962fb5669dbd34dd87d7bbfbffa042cc) >>
  /Subtype /Link
/ANN pdfmark
1 setlinewidth
0.000 0.000 0.000 nodecolor
newpath 280 937 moveto
280 958 lineto
399 958 lineto
399 937 lineto
closepath stroke
0.000 0.000 0.000 nodecolor
10.00 /FreeSans.ttf set_font
339 944 moveto 103 -0.5 (determinaFormato) alignedtext
grestore
% Node5->Node6
gsave
1 setlinewidth
solid
0.667 0.776 0.439 edgecolor
newpath 194 781 moveto
204 784 215 788 222 796 curveto
264 840 214 886 258 929 curveto
262 933 266 936 271 938 curveto
stroke
0.667 0.776 0.439 edgecolor
newpath 269.44 941.137 moveto
280 942 lineto
272.283 934.74 lineto
closepath fill
1 setlinewidth
solid
0.667 0.776 0.439 edgecolor
newpath 269.44 941.137 moveto
280 942 lineto
272.283 934.74 lineto
closepath stroke
grestore
% Node7
gsave
[ /Rect [ 313 900 365 920 ]
  /Border [ 0 0 0 ]
  /Action << /Subtype /URI /URI ($comun_8cpp.html#e156c1dd4bf7eda3abfcdf5d86cb85aa) >>
  /Subtype /Link
/ANN pdfmark
[ /Rect [ 313 900 365 920 ]
  /Border [ 0 0 0 ]
  /Action << /Subtype /URI /URI ($comun_8cpp.html#e156c1dd4bf7eda3abfcdf5d86cb85aa) >>
  /Subtype /Link
/ANN pdfmark
1 setlinewidth
0.000 0.000 0.000 nodecolor
newpath 313 899 moveto
313 920 lineto
365 920 lineto
365 899 lineto
closepath stroke
0.000 0.000 0.000 nodecolor
10.00 /FreeSans.ttf set_font
339 906 moveto 36 -0.5 (estalla) alignedtext
grestore
% Node5->Node7
gsave
1 setlinewidth
solid
0.667 0.776 0.439 edgecolor
newpath 194 781 moveto
204 784 215 789 222 796 curveto
254 825 227 856 258 886 curveto
270 897 287 903 303 906 curveto
stroke
0.667 0.776 0.439 edgecolor
newpath 302.508 909.471 moveto
313 908 lineto
303.881 902.607 lineto
closepath fill
1 setlinewidth
solid
0.667 0.776 0.439 edgecolor
newpath 302.508 909.471 moveto
313 908 lineto
303.881 902.607 lineto
closepath stroke
grestore
% Node8
gsave
[ /Rect [ 715 672 829 692 ]
  /Border [ 0 0 0 ]
  /Action << /Subtype /URI /URI ($classNodoTrieS.html#2fc30ff9fad0ba7dff585e913f34cc84) >>
  /Subtype /Link
/ANN pdfmark
[ /Rect [ 715 672 829 692 ]
  /Border [ 0 0 0 ]
  /Action << /Subtype /URI /URI ($classNodoTrieS.html#2fc30ff9fad0ba7dff585e913f34cc84) >>
  /Subtype /Link
/ANN pdfmark
1 setlinewidth
0.000 0.000 0.000 nodecolor
newpath 715 671 moveto
715 692 lineto
830 692 lineto
830 671 lineto
closepath stroke
0.000 0.000 0.000 nodecolor
10.00 /FreeSans.ttf set_font
772 678 moveto 99 -0.5 (NodoTrieS::inserta) alignedtext
grestore
% Node5->Node8
gsave
1 setlinewidth
solid
0.667 0.776 0.439 edgecolor
newpath 172 766 moveto
183 742 213 685 258 663 curveto
419 585 481 648 658 663 curveto
675 665 692 667 708 669 curveto
stroke
0.667 0.776 0.439 edgecolor
newpath 707.508 672.471 moveto
718 671 lineto
708.881 665.607 lineto
closepath fill
1 setlinewidth
solid
0.667 0.776 0.439 edgecolor
newpath 707.508 672.471 moveto
718 671 lineto
708.881 665.607 lineto
closepath stroke
grestore
% Node11
gsave
[ /Rect [ 466 862 648 882 ]
  /Border [ 0 0 0 ]
  /Action << /Subtype /URI /URI ($classNodoTrieS.html#3fec20c7c9b038e391e5a0fc07085927) >>
  /Subtype /Link
/ANN pdfmark
[ /Rect [ 466 862 648 882 ]
  /Border [ 0 0 0 ]
  /Action << /Subtype /URI /URI ($classNodoTrieS.html#3fec20c7c9b038e391e5a0fc07085927) >>
  /Subtype /Link
/ANN pdfmark
1 setlinewidth
0.000 0.000 0.000 nodecolor
newpath 466 861 moveto
466 882 lineto
648 882 lineto
648 861 lineto
closepath stroke
0.000 0.000 0.000 nodecolor
10.00 /FreeSans.ttf set_font
557 868 moveto 166 -0.5 (NodoTrieS::insertaConEtiqueta) alignedtext
grestore
% Node5->Node11
gsave
1 setlinewidth
solid
0.667 0.776 0.439 edgecolor
newpath 194 782 moveto
204 785 214 790 222 796 curveto
245 812 234 833 258 848 curveto
326 887 417 888 481 883 curveto
stroke
0.667 0.776 0.439 edgecolor
newpath 481.398 886.478 moveto
491 882 lineto
480.701 879.512 lineto
closepath fill
1 setlinewidth
solid
0.667 0.776 0.439 edgecolor
newpath 481.398 886.478 moveto
491 882 lineto
480.701 879.512 lineto
closepath stroke
grestore
% Node13
gsave
[ /Rect [ 737 805 807 825 ]
  /Border [ 0 0 0 ]
  /Action << /Subtype /URI /URI ($comun_8cpp.html#1f33d728a35dd4b43d2622c5471f5157) >>
  /Subtype /Link
/ANN pdfmark
[ /Rect [ 737 805 807 825 ]
  /Border [ 0 0 0 ]
  /Action << /Subtype /URI /URI ($comun_8cpp.html#1f33d728a35dd4b43d2622c5471f5157) >>
  /Subtype /Link
/ANN pdfmark
1 setlinewidth
0.000 0.000 0.000 nodecolor
newpath 737 804 moveto
737 825 lineto
808 825 lineto
808 804 lineto
closepath stroke
0.000 0.000 0.000 nodecolor
10.00 /FreeSans.ttf set_font
772 811 moveto 55 -0.5 (normaliza) alignedtext
grestore
% Node5->Node13
gsave
1 setlinewidth
solid
0.667 0.776 0.439 edgecolor
newpath 194 785 moveto
203 788 213 792 222 796 curveto
239 803 241 810 258 815 curveto
427 856 636 835 727 822 curveto
stroke
0.667 0.776 0.439 edgecolor
newpath 727.398 825.478 moveto
737 821 lineto
726.701 818.512 lineto
closepath fill
1 setlinewidth
solid
0.667 0.776 0.439 edgecolor
newpath 727.398 825.478 moveto
737 821 lineto
726.701 818.512 lineto
closepath stroke
grestore
% Node15
gsave
[ /Rect [ 308 786 370 806 ]
  /Border [ 0 0 0 ]
  /Action << /Subtype /URI /URI ($leeHTML_8cpp.html#250ca448b53ddf40ef05ee20dbe3a235) >>
  /Subtype /Link
/ANN pdfmark
[ /Rect [ 308 786 370 806 ]
  /Border [ 0 0 0 ]
  /Action << /Subtype /URI /URI ($leeHTML_8cpp.html#250ca448b53ddf40ef05ee20dbe3a235) >>
  /Subtype /Link
/ANN pdfmark
1 setlinewidth
0.000 0.000 0.000 nodecolor
newpath 308 785 moveto
308 806 lineto
371 806 lineto
371 785 lineto
closepath stroke
0.000 0.000 0.000 nodecolor
10.00 /FreeSans.ttf set_font
339 792 moveto 47 -0.5 (leeHTML) alignedtext
grestore
% Node5->Node15
gsave
1 setlinewidth
solid
0.667 0.776 0.439 edgecolor
newpath 194 780 moveto
222 783 265 788 298 791 curveto
stroke
0.667 0.776 0.439 edgecolor
newpath 297.701 794.488 moveto
308 792 lineto
298.398 787.522 lineto
closepath fill
1 setlinewidth
solid
0.667 0.776 0.439 edgecolor
newpath 297.701 794.488 moveto
308 792 lineto
298.398 787.522 lineto
closepath stroke
grestore
% Node17
gsave
[ /Rect [ 311 748 367 768 ]
  /Border [ 0 0 0 ]
  /Action << /Subtype /URI /URI ($leeODT_8cpp.html#c69c2cacaeed4d55fa0e9e1d1f3d9abb) >>
  /Subtype /Link
/ANN pdfmark
[ /Rect [ 311 748 367 768 ]
  /Border [ 0 0 0 ]
  /Action << /Subtype /URI /URI ($leeODT_8cpp.html#c69c2cacaeed4d55fa0e9e1d1f3d9abb) >>
  /Subtype /Link
/ANN pdfmark
1 setlinewidth
0.000 0.000 0.000 nodecolor
newpath 311 747 moveto
311 768 lineto
368 768 lineto
368 747 lineto
closepath stroke
0.000 0.000 0.000 nodecolor
10.00 /FreeSans.ttf set_font
339 754 moveto 41 -0.5 (leeODT) alignedtext
grestore
% Node5->Node17
gsave
1 setlinewidth
solid
0.667 0.776 0.439 edgecolor
newpath 194 774 moveto
223 771 269 766 301 762 curveto
stroke
0.667 0.776 0.439 edgecolor
newpath 301.398 765.478 moveto
311 761 lineto
300.701 758.512 lineto
closepath fill
1 setlinewidth
solid
0.667 0.776 0.439 edgecolor
newpath 301.398 765.478 moveto
311 761 lineto
300.701 758.512 lineto
closepath stroke
grestore
% Node19
gsave
[ /Rect [ 526 672 588 692 ]
  /Border [ 0 0 0 ]
  /Action << /Subtype /URI /URI ($NodoTrieS_8cpp.html#e8422311e58bfd8cfdfcc83509128cf7) >>
  /Subtype /Link
/ANN pdfmark
[ /Rect [ 526 672 588 692 ]
  /Border [ 0 0 0 ]
  /Action << /Subtype /URI /URI ($NodoTrieS_8cpp.html#e8422311e58bfd8cfdfcc83509128cf7) >>
  /Subtype /Link
/ANN pdfmark
1 setlinewidth
0.000 0.000 0.000 nodecolor
newpath 526 671 moveto
526 692 lineto
589 692 lineto
589 671 lineto
closepath stroke
0.000 0.000 0.000 nodecolor
10.00 /FreeSans.ttf set_font
557 678 moveto 47 -0.5 (leeTexto) alignedtext
grestore
% Node5->Node19
gsave
1 setlinewidth
solid
0.667 0.776 0.439 edgecolor
newpath 190 766 moveto
208 757 234 746 258 739 curveto
349 712 458 695 516 687 curveto
stroke
0.667 0.776 0.439 edgecolor
newpath 516.398 690.478 moveto
526 686 lineto
515.701 683.512 lineto
closepath fill
1 setlinewidth
solid
0.667 0.776 0.439 edgecolor
newpath 516.398 690.478 moveto
526 686 lineto
515.701 683.512 lineto
closepath stroke
grestore
% Node22
gsave
[ /Rect [ 313 672 365 692 ]
  /Border [ 0 0 0 ]
  /Action << /Subtype /URI /URI ($leePDF_8cpp.html#a38881dfe2f1239b61a3421cf9fd6290) >>
  /Subtype /Link
/ANN pdfmark
[ /Rect [ 313 672 365 692 ]
  /Border [ 0 0 0 ]
  /Action << /Subtype /URI /URI ($leePDF_8cpp.html#a38881dfe2f1239b61a3421cf9fd6290) >>
  /Subtype /Link
/ANN pdfmark
1 setlinewidth
0.000 0.000 0.000 nodecolor
newpath 313 671 moveto
313 692 lineto
366 692 lineto
366 671 lineto
closepath stroke
0.000 0.000 0.000 nodecolor
10.00 /FreeSans.ttf set_font
339 678 moveto 37 -0.5 (leePDF) alignedtext
grestore
% Node5->Node22
gsave
1 setlinewidth
solid
0.667 0.776 0.439 edgecolor
newpath 178 766 moveto
195 750 227 722 258 706 curveto
272 699 289 693 303 690 curveto
stroke
0.667 0.776 0.439 edgecolor
newpath 304.427 693.226 moveto
313 687 lineto
302.416 686.521 lineto
closepath fill
1 setlinewidth
solid
0.667 0.776 0.439 edgecolor
newpath 304.427 693.226 moveto
313 687 lineto
302.416 686.521 lineto
closepath stroke
grestore
% Node23
gsave
[ /Rect [ 312 596 366 616 ]
  /Border [ 0 0 0 ]
  /Action << /Subtype /URI /URI ($leeXML_8cpp.html#43301893734e326281369fc4c857caf1) >>
  /Subtype /Link
/ANN pdfmark
[ /Rect [ 312 596 366 616 ]
  /Border [ 0 0 0 ]
  /Action << /Subtype /URI /URI ($leeXML_8cpp.html#43301893734e326281369fc4c857caf1) >>
  /Subtype /Link
/ANN pdfmark
1 setlinewidth
0.000 0.000 0.000 nodecolor
newpath 312 595 moveto
312 616 lineto
367 616 lineto
367 595 lineto
closepath stroke
0.000 0.000 0.000 nodecolor
10.00 /FreeSans.ttf set_font
339 602 moveto 39 -0.5 (leeXML) alignedtext
grestore
% Node5->Node23
gsave
1 setlinewidth
solid
0.667 0.776 0.439 edgecolor
newpath 171 766 moveto
180 738 209 667 258 630 curveto
271 620 287 614 302 611 curveto
stroke
0.667 0.776 0.439 edgecolor
newpath 302.881 614.393 moveto
312 609 lineto
301.508 607.529 lineto
closepath fill
1 setlinewidth
solid
0.667 0.776 0.439 edgecolor
newpath 302.881 614.393 moveto
312 609 lineto
301.508 607.529 lineto
closepath stroke
grestore
% Node24
gsave
[ /Rect [ 298 1014 380 1034 ]
  /Border [ 0 0 0 ]
  /Action << /Subtype /URI /URI ($Operaciones_8cpp.html#e28ef4ade6bbd39872a25057c6037582) >>
  /Subtype /Link
/ANN pdfmark
[ /Rect [ 298 1014 380 1034 ]
  /Border [ 0 0 0 ]
  /Action << /Subtype /URI /URI ($Operaciones_8cpp.html#e28ef4ade6bbd39872a25057c6037582) >>
  /Subtype /Link
/ANN pdfmark
1 setlinewidth
0.000 0.000 0.000 nodecolor
newpath 298 1013 moveto
298 1034 lineto
380 1034 lineto
380 1013 lineto
closepath stroke
0.000 0.000 0.000 nodecolor
10.00 /FreeSans.ttf set_font
339 1020 moveto 66 -0.5 (prefijoASitio) alignedtext
grestore
% Node5->Node24
gsave
1 setlinewidth
solid
0.667 0.776 0.439 edgecolor
newpath 194 780 moveto
204 783 215 788 222 796 curveto
284 867 194 936 258 1005 curveto
266 1013 277 1018 288 1021 curveto
stroke
0.667 0.776 0.439 edgecolor
newpath 287.508 1024.47 moveto
298 1023 lineto
288.881 1017.61 lineto
closepath fill
1 setlinewidth
solid
0.667 0.776 0.439 edgecolor
newpath 287.508 1024.47 moveto
298 1023 lineto
288.881 1017.61 lineto
closepath stroke
grestore
% Node25
gsave
[ /Rect [ 292 976 386 996 ]
  /Border [ 0 0 0 ]
  /Action << /Subtype /URI /URI ($sha256_8cpp.html#23c461a74498c51def2406c5ab6aae67) >>
  /Subtype /Link
/ANN pdfmark
[ /Rect [ 292 976 386 996 ]
  /Border [ 0 0 0 ]
  /Action << /Subtype /URI /URI ($sha256_8cpp.html#23c461a74498c51def2406c5ab6aae67) >>
  /Subtype /Link
/ANN pdfmark
1 setlinewidth
0.000 0.000 0.000 nodecolor
newpath 292 975 moveto
292 996 lineto
386 996 lineto
386 975 lineto
closepath stroke
0.000 0.000 0.000 nodecolor
10.00 /FreeSans.ttf set_font
339 982 moveto 78 -0.5 (sha256archivo) alignedtext
grestore
% Node5->Node25
gsave
1 setlinewidth
solid
0.667 0.776 0.439 edgecolor
newpath 194 780 moveto
204 783 215 788 222 796 curveto
274 854 204 911 258 967 curveto
265 974 273 978 282 981 curveto
stroke
0.667 0.776 0.439 edgecolor
newpath 281.416 984.479 moveto
292 984 lineto
283.427 977.774 lineto
closepath fill
1 setlinewidth
solid
0.667 0.776 0.439 edgecolor
newpath 281.416 984.479 moveto
292 984 lineto
283.427 977.774 lineto
closepath stroke
grestore
% Node8->Node8
gsave
1 setlinewidth
solid
0.667 0.776 0.439 edgecolor
newpath 715 691 moveto
683 700 702 710 772 710 curveto
832 710 854 702 839 695 curveto
stroke
0.667 0.776 0.439 edgecolor
newpath 840.56 691.863 moveto
830 691 lineto
837.717 698.26 lineto
closepath fill
1 setlinewidth
solid
0.667 0.776 0.439 edgecolor
newpath 840.56 691.863 moveto
830 691 lineto
837.717 698.26 lineto
closepath stroke
grestore
% Node9
gsave
[ /Rect [ 897 672 1031 692 ]
  /Border [ 0 0 0 ]
  /Action << /Subtype /URI /URI ($classNodoTrieS.html#4f1525cf7f147f71e7be74c15d4f87a0) >>
  /Subtype /Link
/ANN pdfmark
[ /Rect [ 897 672 1031 692 ]
  /Border [ 0 0 0 ]
  /Action << /Subtype /URI /URI ($classNodoTrieS.html#4f1525cf7f147f71e7be74c15d4f87a0) >>
  /Subtype /Link
/ANN pdfmark
1 setlinewidth
0.000 0.000 0.000 nodecolor
newpath 897 671 moveto
897 692 lineto
1031 692 lineto
1031 671 lineto
closepath stroke
0.000 0.000 0.000 nodecolor
10.00 /FreeSans.ttf set_font
964 678 moveto 118 -0.5 (NodoTrieS::NodoTrieS) alignedtext
grestore
% Node8->Node9
gsave
1 setlinewidth
solid
0.667 0.776 0.439 edgecolor
newpath 830 682 moveto
848 682 868 682 887 682 curveto
stroke
0.667 0.776 0.439 edgecolor
newpath 887 685.5 moveto
897 682 lineto
887 678.5 lineto
closepath fill
1 setlinewidth
solid
0.667 0.776 0.439 edgecolor
newpath 887 685.5 moveto
897 682 lineto
887 678.5 lineto
closepath stroke
grestore
% Node10
gsave
[ /Rect [ 887 596 1041 616 ]
  /Border [ 0 0 0 ]
  /Action << /Subtype /URI /URI ($comun_8cpp.html#c74356d5b37d454e0ddce0de8fac34f8) >>
  /Subtype /Link
/ANN pdfmark
[ /Rect [ 887 596 1041 616 ]
  /Border [ 0 0 0 ]
  /Action << /Subtype /URI /URI ($comun_8cpp.html#c74356d5b37d454e0ddce0de8fac34f8) >>
  /Subtype /Link
/ANN pdfmark
1 setlinewidth
0.000 0.000 0.000 nodecolor
newpath 887 595 moveto
887 616 lineto
1042 616 lineto
1042 595 lineto
closepath stroke
0.000 0.000 0.000 nodecolor
10.00 /FreeSans.ttf set_font
964 602 moveto 139 -0.5 (prefijo_comun_mas_largo) alignedtext
grestore
% Node8->Node10
gsave
1 setlinewidth
solid
0.667 0.776 0.439 edgecolor
newpath 800 671 moveto
834 657 892 634 929 620 curveto
stroke
0.667 0.776 0.439 edgecolor
newpath 930.283 623.26 moveto
938 616 lineto
927.44 616.863 lineto
closepath fill
1 setlinewidth
solid
0.667 0.776 0.439 edgecolor
newpath 930.283 623.26 moveto
938 616 lineto
927.44 616.863 lineto
closepath stroke
grestore
% Node11->Node8
gsave
1 setlinewidth
solid
0.667 0.776 0.439 edgecolor
newpath 582 861 moveto
604 851 635 834 658 815 curveto
701 780 740 728 759 700 curveto
stroke
0.667 0.776 0.439 edgecolor
newpath 761.8 702.1 moveto
765 692 lineto
756.2 697.9 lineto
closepath fill
1 setlinewidth
solid
0.667 0.776 0.439 edgecolor
newpath 761.8 702.1 moveto
765 692 lineto
756.2 697.9 lineto
closepath stroke
grestore
% Node12
gsave
[ /Rect [ 726 881 818 901 ]
  /Border [ 0 0 0 ]
  /Action << /Subtype /URI /URI ($NodoTrieS_8cpp.html#059ce4cc73c3c7588eb0edc6cb879942) >>
  /Subtype /Link
/ANN pdfmark
[ /Rect [ 726 881 818 901 ]
  /Border [ 0 0 0 ]
  /Action << /Subtype /URI /URI ($NodoTrieS_8cpp.html#059ce4cc73c3c7588eb0edc6cb879942) >>
  /Subtype /Link
/ANN pdfmark
1 setlinewidth
0.000 0.000 0.000 nodecolor
newpath 726 880 moveto
726 901 lineto
818 901 lineto
818 880 lineto
closepath stroke
0.000 0.000 0.000 nodecolor
10.00 /FreeSans.ttf set_font
772 887 moveto 76 -0.5 (es_signo_punt) alignedtext
grestore
% Node11->Node12
gsave
1 setlinewidth
solid
0.667 0.776 0.439 edgecolor
newpath 648 880 moveto
671 882 695 884 716 886 curveto
stroke
0.667 0.776 0.439 edgecolor
newpath 715.701 889.488 moveto
726 887 lineto
716.398 882.522 lineto
closepath fill
1 setlinewidth
solid
0.667 0.776 0.439 edgecolor
newpath 715.701 889.488 moveto
726 887 lineto
716.398 882.522 lineto
closepath stroke
grestore
% Node11->Node13
gsave
1 setlinewidth
solid
0.667 0.776 0.439 edgecolor
newpath 604 861 moveto
621 857 641 852 658 848 curveto
682 842 708 834 729 828 curveto
stroke
0.667 0.776 0.439 edgecolor
newpath 730.427 831.226 moveto
739 825 lineto
728.416 824.521 lineto
closepath fill
1 setlinewidth
solid
0.667 0.776 0.439 edgecolor
newpath 730.427 831.226 moveto
739 825 lineto
728.416 824.521 lineto
closepath stroke
grestore
% Node14
gsave
[ /Rect [ 905 824 1023 844 ]
  /Border [ 0 0 0 ]
  /Action << /Subtype /URI /URI ($comun_8cpp.html#bc69e612ecd81636d091e0b60fdf327e) >>
  /Subtype /Link
/ANN pdfmark
[ /Rect [ 905 824 1023 844 ]
  /Border [ 0 0 0 ]
  /Action << /Subtype /URI /URI ($comun_8cpp.html#bc69e612ecd81636d091e0b60fdf327e) >>
  /Subtype /Link
/ANN pdfmark
1 setlinewidth
0.000 0.000 0.000 nodecolor
newpath 905 823 moveto
905 844 lineto
1023 844 lineto
1023 823 lineto
closepath stroke
0.000 0.000 0.000 nodecolor
10.00 /FreeSans.ttf set_font
964 830 moveto 102 -0.5 (normalizaCaracter) alignedtext
grestore
% Node11->Node14
gsave
1 setlinewidth
solid
0.667 0.776 0.439 edgecolor
newpath 648 863 moveto
723 856 827 847 895 840 curveto
stroke
0.667 0.776 0.439 edgecolor
newpath 895.398 843.478 moveto
905 839 lineto
894.701 836.512 lineto
closepath fill
1 setlinewidth
solid
0.667 0.776 0.439 edgecolor
newpath 895.398 843.478 moveto
905 839 lineto
894.701 836.512 lineto
closepath stroke
grestore
% Node13->Node14
gsave
1 setlinewidth
solid
0.667 0.776 0.439 edgecolor
newpath 808 819 moveto
832 821 865 824 895 827 curveto
stroke
0.667 0.776 0.439 edgecolor
newpath 894.701 830.488 moveto
905 828 lineto
895.398 823.522 lineto
closepath fill
1 setlinewidth
solid
0.667 0.776 0.439 edgecolor
newpath 894.701 830.488 moveto
905 828 lineto
895.398 823.522 lineto
closepath stroke
grestore
% Node16
gsave
[ /Rect [ 496 786 618 806 ]
  /Border [ 0 0 0 ]
  /Action << /Subtype /URI /URI ($leeHTML_8cpp.html#098130ed8eab7e70593552c3450c5fee) >>
  /Subtype /Link
/ANN pdfmark
[ /Rect [ 496 786 618 806 ]
  /Border [ 0 0 0 ]
  /Action << /Subtype /URI /URI ($leeHTML_8cpp.html#098130ed8eab7e70593552c3450c5fee) >>
  /Subtype /Link
/ANN pdfmark
1 setlinewidth
0.000 0.000 0.000 nodecolor
newpath 496 785 moveto
496 806 lineto
619 806 lineto
619 785 lineto
closepath stroke
0.000 0.000 0.000 nodecolor
10.00 /FreeSans.ttf set_font
557 792 moveto 107 -0.5 (insertaNormalizada) alignedtext
grestore
% Node15->Node16
gsave
1 setlinewidth
solid
0.667 0.776 0.439 edgecolor
newpath 371 796 moveto
401 796 447 796 486 796 curveto
stroke
0.667 0.776 0.439 edgecolor
newpath 486 799.5 moveto
496 796 lineto
486 792.5 lineto
closepath fill
1 setlinewidth
solid
0.667 0.776 0.439 edgecolor
newpath 486 799.5 moveto
496 796 lineto
486 792.5 lineto
closepath stroke
grestore
% Node16->Node8
gsave
1 setlinewidth
solid
0.667 0.776 0.439 edgecolor
newpath 619 789 moveto
632 787 646 783 658 777 curveto
698 757 735 721 756 700 curveto
stroke
0.667 0.776 0.439 edgecolor
newpath 759.049 701.831 moveto
763 692 lineto
753.781 697.221 lineto
closepath fill
1 setlinewidth
solid
0.667 0.776 0.439 edgecolor
newpath 759.049 701.831 moveto
763 692 lineto
753.781 697.221 lineto
closepath stroke
grestore
% Node16->Node13
gsave
1 setlinewidth
solid
0.667 0.776 0.439 edgecolor
newpath 619 801 moveto
653 805 695 808 727 811 curveto
stroke
0.667 0.776 0.439 edgecolor
newpath 726.701 814.488 moveto
737 812 lineto
727.398 807.522 lineto
closepath fill
1 setlinewidth
solid
0.667 0.776 0.439 edgecolor
newpath 726.701 814.488 moveto
737 812 lineto
727.398 807.522 lineto
closepath stroke
grestore
% Node18
gsave
[ /Rect [ 520 748 594 768 ]
  /Border [ 0 0 0 ]
  /Action << /Subtype /URI /URI ($leeODT_8cpp.html#481a5a769b145674dc3274f02d21fdbb) >>
  /Subtype /Link
/ANN pdfmark
[ /Rect [ 520 748 594 768 ]
  /Border [ 0 0 0 ]
  /Action << /Subtype /URI /URI ($leeODT_8cpp.html#481a5a769b145674dc3274f02d21fdbb) >>
  /Subtype /Link
/ANN pdfmark
1 setlinewidth
0.000 0.000 0.000 nodecolor
newpath 520 747 moveto
520 768 lineto
595 768 lineto
595 747 lineto
closepath stroke
0.000 0.000 0.000 nodecolor
10.00 /FreeSans.ttf set_font
557 754 moveto 59 -0.5 (aplicaXSLT) alignedtext
grestore
% Node17->Node18
gsave
1 setlinewidth
solid
0.667 0.776 0.439 edgecolor
newpath 368 758 moveto
404 758 467 758 510 758 curveto
stroke
0.667 0.776 0.439 edgecolor
newpath 510 761.5 moveto
520 758 lineto
510 754.5 lineto
closepath fill
1 setlinewidth
solid
0.667 0.776 0.439 edgecolor
newpath 510 761.5 moveto
520 758 lineto
510 754.5 lineto
closepath stroke
grestore
% Node17->Node19
gsave
1 setlinewidth
solid
0.667 0.776 0.439 edgecolor
newpath 368 753 moveto
384 749 404 743 420 734 curveto
439 723 437 710 456 701 curveto
475 692 497 687 516 684 curveto
stroke
0.667 0.776 0.439 edgecolor
newpath 516.398 687.478 moveto
526 683 lineto
515.701 680.512 lineto
closepath fill
1 setlinewidth
solid
0.667 0.776 0.439 edgecolor
newpath 516.398 687.478 moveto
526 683 lineto
515.701 680.512 lineto
closepath stroke
grestore
% Node20
gsave
[ /Rect [ 528 710 586 730 ]
  /Border [ 0 0 0 ]
  /Action << /Subtype /URI /URI ($leeODT_8cpp.html#b61277e3d14b11c5a54b80773dcae95a) >>
  /Subtype /Link
/ANN pdfmark
[ /Rect [ 528 710 586 730 ]
  /Border [ 0 0 0 ]
  /Action << /Subtype /URI /URI ($leeODT_8cpp.html#b61277e3d14b11c5a54b80773dcae95a) >>
  /Subtype /Link
/ANN pdfmark
1 setlinewidth
0.000 1.000 1.000 nodecolor
newpath 528 709 moveto
528 730 lineto
587 730 lineto
587 709 lineto
closepath stroke
0.000 0.000 0.000 nodecolor
10.00 /FreeSans.ttf set_font
557 716 moveto 43 -0.5 (prepara) alignedtext
grestore
% Node17->Node20
gsave
1 setlinewidth
solid
0.667 0.776 0.439 edgecolor
newpath 368 753 moveto
407 747 475 735 518 727 curveto
stroke
0.667 0.776 0.439 edgecolor
newpath 518.881 730.393 moveto
528 725 lineto
517.508 723.529 lineto
closepath fill
1 setlinewidth
solid
0.667 0.776 0.439 edgecolor
newpath 518.881 730.393 moveto
528 725 lineto
517.508 723.529 lineto
closepath stroke
grestore
% Node19->Node8
gsave
1 setlinewidth
solid
0.667 0.776 0.439 edgecolor
newpath 589 682 moveto
619 682 666 682 705 682 curveto
stroke
0.667 0.776 0.439 edgecolor
newpath 705 685.5 moveto
715 682 lineto
705 678.5 lineto
closepath fill
1 setlinewidth
solid
0.667 0.776 0.439 edgecolor
newpath 705 685.5 moveto
715 682 lineto
705 678.5 lineto
closepath stroke
grestore
% Node19->Node13
gsave
1 setlinewidth
solid
0.667 0.776 0.439 edgecolor
newpath 589 683 moveto
610 685 637 689 658 701 curveto
702 723 739 769 758 795 curveto
stroke
0.667 0.776 0.439 edgecolor
newpath 755.541 797.621 moveto
764 804 lineto
761.365 793.738 lineto
closepath fill
1 setlinewidth
solid
0.667 0.776 0.439 edgecolor
newpath 755.541 797.621 moveto
764 804 lineto
761.365 793.738 lineto
closepath stroke
grestore
% Node21
gsave
[ /Rect [ 721 615 823 635 ]
  /Border [ 0 0 0 ]
  /Action << /Subtype /URI /URI ($comun_8cpp.html#55db9e79615822cbc40390b2c2ab10fd) >>
  /Subtype /Link
/ANN pdfmark
[ /Rect [ 721 615 823 635 ]
  /Border [ 0 0 0 ]
  /Action << /Subtype /URI /URI ($comun_8cpp.html#55db9e79615822cbc40390b2c2ab10fd) >>
  /Subtype /Link
/ANN pdfmark
1 setlinewidth
0.000 0.000 0.000 nodecolor
newpath 721 614 moveto
721 635 lineto
823 635 lineto
823 614 lineto
closepath stroke
0.000 0.000 0.000 nodecolor
10.00 /FreeSans.ttf set_font
772 621 moveto 86 -0.5 (directorio_temp) alignedtext
grestore
% Node20->Node21
gsave
1 setlinewidth
solid
0.667 0.776 0.439 edgecolor
newpath 587 719 moveto
608 717 636 712 658 701 curveto
679 689 676 676 694 663 curveto
707 653 723 645 737 639 curveto
stroke
0.667 0.776 0.439 edgecolor
newpath 738.283 642.26 moveto
746 635 lineto
735.44 635.863 lineto
closepath fill
1 setlinewidth
solid
0.667 0.776 0.439 edgecolor
newpath 738.283 642.26 moveto
746 635 lineto
735.44 635.863 lineto
closepath stroke
grestore
% Node22->Node19
gsave
1 setlinewidth
solid
0.667 0.776 0.439 edgecolor
newpath 366 682 moveto
404 682 472 682 516 682 curveto
stroke
0.667 0.776 0.439 edgecolor
newpath 516 685.5 moveto
526 682 lineto
516 678.5 lineto
closepath fill
1 setlinewidth
solid
0.667 0.776 0.439 edgecolor
newpath 516 685.5 moveto
526 682 lineto
516 678.5 lineto
closepath stroke
grestore
% Node22->Node21
gsave
1 setlinewidth
solid
0.667 0.776 0.439 edgecolor
newpath 366 677 moveto
390 673 425 667 456 663 curveto
545 651 648 638 711 631 curveto
stroke
0.667 0.776 0.439 edgecolor
newpath 711.398 634.478 moveto
721 630 lineto
710.701 627.512 lineto
closepath fill
1 setlinewidth
solid
0.667 0.776 0.439 edgecolor
newpath 711.398 634.478 moveto
721 630 lineto
710.701 627.512 lineto
closepath stroke
grestore
% Node26
gsave
[ /Rect [ 515 995 599 1015 ]
  /Border [ 0 0 0 ]
  /Action << /Subtype /URI /URI ($sha256_8cpp.html#342ef15f8c70a70f56bfbe5e0d785646) >>
  /Subtype /Link
/ANN pdfmark
[ /Rect [ 515 995 599 1015 ]
  /Border [ 0 0 0 ]
  /Action << /Subtype /URI /URI ($sha256_8cpp.html#342ef15f8c70a70f56bfbe5e0d785646) >>
  /Subtype /Link
/ANN pdfmark
1 setlinewidth
0.000 0.000 0.000 nodecolor
newpath 515 994 moveto
515 1015 lineto
600 1015 lineto
600 994 lineto
closepath stroke
0.000 0.000 0.000 nodecolor
10.00 /FreeSans.ttf set_font
557 1001 moveto 69 -0.5 (hexaDeHash) alignedtext
grestore
% Node25->Node26
gsave
1 setlinewidth
solid
0.667 0.776 0.439 edgecolor
newpath 386 990 moveto
421 994 468 997 505 1000 curveto
stroke
0.667 0.776 0.439 edgecolor
newpath 504.701 1003.49 moveto
515 1001 lineto
505.398 996.522 lineto
closepath fill
1 setlinewidth
solid
0.667 0.776 0.439 edgecolor
newpath 504.701 1003.49 moveto
515 1001 lineto
505.398 996.522 lineto
closepath stroke
grestore
% Node27
gsave
[ /Rect [ 514 957 600 977 ]
  /Border [ 0 0 0 ]
  /Action << /Subtype /URI /URI ($sha256_8cpp.html#53db56f3eb9f35c59b134533be31c301) >>
  /Subtype /Link
/ANN pdfmark
[ /Rect [ 514 957 600 977 ]
  /Border [ 0 0 0 ]
  /Action << /Subtype /URI /URI ($sha256_8cpp.html#53db56f3eb9f35c59b134533be31c301) >>
  /Subtype /Link
/ANN pdfmark
1 setlinewidth
0.000 0.000 0.000 nodecolor
newpath 514 956 moveto
514 977 lineto
601 977 lineto
601 956 lineto
closepath stroke
0.000 0.000 0.000 nodecolor
10.00 /FreeSans.ttf set_font
557 963 moveto 71 -0.5 (sha256_done) alignedtext
grestore
% Node25->Node27
gsave
1 setlinewidth
solid
0.667 0.776 0.439 edgecolor
newpath 386 982 moveto
421 978 468 975 504 972 curveto
stroke
0.667 0.776 0.439 edgecolor
newpath 504.398 975.478 moveto
514 971 lineto
503.701 968.512 lineto
closepath fill
1 setlinewidth
solid
0.667 0.776 0.439 edgecolor
newpath 504.398 975.478 moveto
514 971 lineto
503.701 968.512 lineto
closepath stroke
grestore
% Node28
gsave
[ /Rect [ 519 919 595 939 ]
  /Border [ 0 0 0 ]
  /Action << /Subtype /URI /URI ($sha256_8cpp.html#6290ad544b02c822c2ca6c30b8d1ee07) >>
  /Subtype /Link
/ANN pdfmark
[ /Rect [ 519 919 595 939 ]
  /Border [ 0 0 0 ]
  /Action << /Subtype /URI /URI ($sha256_8cpp.html#6290ad544b02c822c2ca6c30b8d1ee07) >>
  /Subtype /Link
/ANN pdfmark
1 setlinewidth
0.000 0.000 0.000 nodecolor
newpath 519 918 moveto
519 939 lineto
595 939 lineto
595 918 lineto
closepath stroke
0.000 0.000 0.000 nodecolor
10.00 /FreeSans.ttf set_font
557 925 moveto 60 -0.5 (sha256_init) alignedtext
grestore
% Node25->Node28
gsave
1 setlinewidth
solid
0.667 0.776 0.439 edgecolor
newpath 386 977 moveto
397 974 409 971 420 967 curveto
437 960 439 953 456 948 curveto
473 942 492 938 509 935 curveto
stroke
0.667 0.776 0.439 edgecolor
newpath 509.881 938.393 moveto
519 933 lineto
508.508 931.529 lineto
closepath fill
1 setlinewidth
solid
0.667 0.776 0.439 edgecolor
newpath 509.881 938.393 moveto
519 933 lineto
508.508 931.529 lineto
closepath stroke
grestore
% Node29
gsave
[ /Rect [ 507 1033 607 1053 ]
  /Border [ 0 0 0 ]
  /Action << /Subtype /URI /URI ($sha256_8hpp.html#8b983a80c9edd5d997a3937963ae7856) >>
  /Subtype /Link
/ANN pdfmark
[ /Rect [ 507 1033 607 1053 ]
  /Border [ 0 0 0 ]
  /Action << /Subtype /URI /URI ($sha256_8hpp.html#8b983a80c9edd5d997a3937963ae7856) >>
  /Subtype /Link
/ANN pdfmark
1 setlinewidth
0.000 0.000 0.000 nodecolor
newpath 507 1032 moveto
507 1053 lineto
607 1053 lineto
607 1032 lineto
closepath stroke
0.000 0.000 0.000 nodecolor
10.00 /FreeSans.ttf set_font
557 1039 moveto 84 -0.5 (sha256_process) alignedtext
grestore
% Node25->Node29
gsave
1 setlinewidth
solid
0.667 0.776 0.439 edgecolor
newpath 386 995 moveto
397 998 409 1001 420 1005 curveto
437 1011 439 1018 456 1024 curveto
469 1029 483 1032 497 1035 curveto
stroke
0.667 0.776 0.439 edgecolor
newpath 496.508 1038.47 moveto
507 1037 lineto
497.881 1031.61 lineto
closepath fill
1 setlinewidth
solid
0.667 0.776 0.439 edgecolor
newpath 496.508 1038.47 moveto
507 1037 lineto
497.881 1031.61 lineto
closepath stroke
grestore
% Node31
gsave
[ /Rect [ 728 160 816 180 ]
  /Border [ 0 0 0 ]
  /Action << /Subtype /URI /URI ($comun_8cpp.html#88ffeb20e447cad877c37bb473033590) >>
  /Subtype /Link
/ANN pdfmark
[ /Rect [ 728 160 816 180 ]
  /Border [ 0 0 0 ]
  /Action << /Subtype /URI /URI ($comun_8cpp.html#88ffeb20e447cad877c37bb473033590) >>
  /Subtype /Link
/ANN pdfmark
1 setlinewidth
0.000 0.000 0.000 nodecolor
newpath 728 159 moveto
728 180 lineto
816 180 lineto
816 159 lineto
closepath stroke
0.000 0.000 0.000 nodecolor
10.00 /FreeSans.ttf set_font
772 166 moveto 72 -0.5 (errorFormato) alignedtext
grestore
% Node30->Node31
gsave
1 setlinewidth
solid
0.667 0.776 0.439 edgecolor
newpath 379 140 moveto
402 144 430 149 456 151 curveto
548 161 655 166 718 169 curveto
stroke
0.667 0.776 0.439 edgecolor
newpath 718 172.5 moveto
728 169 lineto
718 165.5 lineto
closepath fill
1 setlinewidth
solid
0.667 0.776 0.439 edgecolor
newpath 718 172.5 moveto
728 169 lineto
718 165.5 lineto
closepath stroke
grestore
% Node32
gsave
[ /Rect [ 528 122 586 142 ]
  /Border [ 0 0 0 ]
  /Action << /Subtype /URI /URI ($Doc_8cpp.html#e4bfd9bdedc0dd4fe00bf5f17f8f9e23) >>
  /Subtype /Link
/ANN pdfmark
[ /Rect [ 528 122 586 142 ]
  /Border [ 0 0 0 ]
  /Action << /Subtype /URI /URI ($Doc_8cpp.html#e4bfd9bdedc0dd4fe00bf5f17f8f9e23) >>
  /Subtype /Link
/ANN pdfmark
1 setlinewidth
0.000 0.000 0.000 nodecolor
newpath 528 121 moveto
528 142 lineto
587 142 lineto
587 121 lineto
closepath stroke
0.000 0.000 0.000 nodecolor
10.00 /FreeSans.ttf set_font
557 128 moveto 43 -0.5 (leeDocs) alignedtext
grestore
% Node30->Node32
gsave
1 setlinewidth
solid
0.667 0.776 0.439 edgecolor
newpath 379 132 moveto
418 132 478 132 518 132 curveto
stroke
0.667 0.776 0.439 edgecolor
newpath 518 135.5 moveto
528 132 lineto
518 128.5 lineto
closepath fill
1 setlinewidth
solid
0.667 0.776 0.439 edgecolor
newpath 518 135.5 moveto
528 132 lineto
518 128.5 lineto
closepath stroke
grestore
% Node32->Node31
gsave
1 setlinewidth
solid
0.667 0.776 0.439 edgecolor
newpath 587 137 moveto
621 143 677 153 718 160 curveto
stroke
0.667 0.776 0.439 edgecolor
newpath 717.508 163.471 moveto
728 162 lineto
718.881 156.607 lineto
closepath fill
1 setlinewidth
solid
0.667 0.776 0.439 edgecolor
newpath 717.508 163.471 moveto
728 162 lineto
718.881 156.607 lineto
closepath stroke
grestore
% Node33->Node10
gsave
1 setlinewidth
solid
0.667 0.776 0.439 edgecolor
newpath 170 407 moveto
179 434 207 507 258 539 curveto
310 570 700 593 877 602 curveto
stroke
0.667 0.776 0.439 edgecolor
newpath 877 605.5 moveto
887 602 lineto
877 598.5 lineto
closepath fill
1 setlinewidth
solid
0.667 0.776 0.439 edgecolor
newpath 877 605.5 moveto
887 602 lineto
877 598.5 lineto
closepath stroke
grestore
% Node33->Node33
gsave
1 setlinewidth
solid
0.667 0.776 0.439 edgecolor
newpath 127 407 moveto
109 416 122 425 167 425 curveto
201 425 216 420 215 414 curveto
stroke
0.667 0.776 0.439 edgecolor
newpath 216.831 410.951 moveto
207 407 lineto
212.221 416.219 lineto
closepath fill
1 setlinewidth
solid
0.667 0.776 0.439 edgecolor
newpath 216.831 410.951 moveto
207 407 lineto
212.221 416.219 lineto
closepath stroke
grestore
% Node34
gsave
[ /Rect [ 525 444 589 464 ]
  /Border [ 0 0 0 ]
  /Action << /Subtype /URI /URI ($Pos_8cpp.html#3c3cc0b0ac5ee434c66362380dda8ce8) >>
  /Subtype /Link
/ANN pdfmark
[ /Rect [ 525 444 589 464 ]
  /Border [ 0 0 0 ]
  /Action << /Subtype /URI /URI ($Pos_8cpp.html#3c3cc0b0ac5ee434c66362380dda8ce8) >>
  /Subtype /Link
/ANN pdfmark
1 setlinewidth
0.000 0.000 0.000 nodecolor
newpath 525 443 moveto
525 464 lineto
589 464 lineto
589 443 lineto
closepath stroke
0.000 0.000 0.000 nodecolor
10.00 /FreeSans.ttf set_font
557 450 moveto 48 -0.5 (copiaPos) alignedtext
grestore
% Node33->Node34
gsave
1 setlinewidth
solid
0.667 0.776 0.439 edgecolor
newpath 186 407 moveto
204 416 232 429 258 435 curveto
348 456 456 457 515 455 curveto
stroke
0.667 0.776 0.439 edgecolor
newpath 515 458.5 moveto
525 455 lineto
515 451.5 lineto
closepath fill
1 setlinewidth
solid
0.667 0.776 0.439 edgecolor
newpath 515 458.5 moveto
525 455 lineto
515 451.5 lineto
closepath stroke
grestore
% Node35
gsave
[ /Rect [ 281 236 397 256 ]
  /Border [ 0 0 0 ]
  /Action << /Subtype /URI /URI ($TrieSDisco_8cpp.html#4cc0e861f2e192242a40d6337c70fc5f) >>
  /Subtype /Link
/ANN pdfmark
[ /Rect [ 281 236 397 256 ]
  /Border [ 0 0 0 ]
  /Action << /Subtype /URI /URI ($TrieSDisco_8cpp.html#4cc0e861f2e192242a40d6337c70fc5f) >>
  /Subtype /Link
/ANN pdfmark
1 setlinewidth
0.000 0.000 0.000 nodecolor
newpath 281 235 moveto
281 256 lineto
397 256 lineto
397 235 lineto
closepath stroke
0.000 0.000 0.000 nodecolor
10.00 /FreeSans.ttf set_font
339 242 moveto 100 -0.5 (escribeCopiaNodo) alignedtext
grestore
% Node33->Node35
gsave
1 setlinewidth
solid
0.667 0.776 0.439 edgecolor
newpath 204 386 moveto
210 383 217 378 222 373 curveto
255 337 223 303 258 270 curveto
262 266 267 263 272 260 curveto
stroke
0.667 0.776 0.439 edgecolor
newpath 273.283 263.26 moveto
281 256 lineto
270.44 256.863 lineto
closepath fill
1 setlinewidth
solid
0.667 0.776 0.439 edgecolor
newpath 273.283 263.26 moveto
281 256 lineto
270.44 256.863 lineto
closepath stroke
grestore
% Node36
gsave
[ /Rect [ 515 330 599 350 ]
  /Border [ 0 0 0 ]
  /Action << /Subtype /URI /URI ($TrieSDisco_8cpp.html#95dfc28ebaa02e82d3d1ffce08251628) >>
  /Subtype /Link
/ANN pdfmark
[ /Rect [ 515 330 599 350 ]
  /Border [ 0 0 0 ]
  /Action << /Subtype /URI /URI ($TrieSDisco_8cpp.html#95dfc28ebaa02e82d3d1ffce08251628) >>
  /Subtype /Link
/ANN pdfmark
1 setlinewidth
0.000 0.000 0.000 nodecolor
newpath 515 329 moveto
515 350 lineto
599 350 lineto
599 329 lineto
closepath stroke
0.000 0.000 0.000 nodecolor
10.00 /FreeSans.ttf set_font
557 336 moveto 68 -0.5 (escribeNodo) alignedtext
grestore
% Node33->Node36
gsave
1 setlinewidth
solid
0.667 0.776 0.439 edgecolor
newpath 222 389 moveto
297 378 431 358 505 347 curveto
stroke
0.667 0.776 0.439 edgecolor
newpath 505.398 350.478 moveto
515 346 lineto
504.701 343.512 lineto
closepath fill
1 setlinewidth
solid
0.667 0.776 0.439 edgecolor
newpath 505.398 350.478 moveto
515 346 lineto
504.701 343.512 lineto
closepath stroke
grestore
% Node37
gsave
[ /Rect [ 727 454 817 474 ]
  /Border [ 0 0 0 ]
  /Action << /Subtype /URI /URI ($comun_8hpp.html#96402bda6527bf98dd8e49d62ae182f8) >>
  /Subtype /Link
/ANN pdfmark
[ /Rect [ 727 454 817 474 ]
  /Border [ 0 0 0 ]
  /Action << /Subtype /URI /URI ($comun_8hpp.html#96402bda6527bf98dd8e49d62ae182f8) >>
  /Subtype /Link
/ANN pdfmark
1 setlinewidth
0.000 0.000 0.000 nodecolor
newpath 727 453 moveto
727 474 lineto
817 474 lineto
817 453 lineto
closepath stroke
0.000 0.000 0.000 nodecolor
10.00 /FreeSans.ttf set_font
772 460 moveto 74 -0.5 (escribeNDesp) alignedtext
grestore
% Node33->Node37
gsave
1 setlinewidth
solid
0.667 0.776 0.439 edgecolor
newpath 171 407 moveto
182 430 212 488 258 511 curveto
424 591 656 512 740 478 curveto
stroke
0.667 0.776 0.439 edgecolor
newpath 741.283 481.26 moveto
749 474 lineto
738.44 474.863 lineto
closepath fill
1 setlinewidth
solid
0.667 0.776 0.439 edgecolor
newpath 741.283 481.26 moveto
749 474 lineto
738.44 474.863 lineto
closepath stroke
grestore
% Node41
gsave
[ /Rect [ 530 274 584 294 ]
  /Border [ 0 0 0 ]
  /Action << /Subtype /URI /URI ($comun_8cpp.html#4a359aa93f2dd4e34badd70c0e1f7082) >>
  /Subtype /Link
/ANN pdfmark
[ /Rect [ 530 274 584 294 ]
  /Border [ 0 0 0 ]
  /Action << /Subtype /URI /URI ($comun_8cpp.html#4a359aa93f2dd4e34badd70c0e1f7082) >>
  /Subtype /Link
/ANN pdfmark
1 setlinewidth
0.000 0.000 0.000 nodecolor
newpath 530 273 moveto
530 294 lineto
585 294 lineto
585 273 lineto
closepath stroke
0.000 0.000 0.000 nodecolor
10.00 /FreeSans.ttf set_font
557 280 moveto 39 -0.5 (leeCad) alignedtext
grestore
% Node33->Node41
gsave
1 setlinewidth
solid
0.667 0.776 0.439 edgecolor
newpath 202 386 moveto
209 383 216 378 222 373 curveto
248 349 229 322 258 303 curveto
300 275 448 279 520 282 curveto
stroke
0.667 0.776 0.439 edgecolor
newpath 520 285.5 moveto
530 282 lineto
520 278.5 lineto
closepath fill
1 setlinewidth
solid
0.667 0.776 0.439 edgecolor
newpath 520 285.5 moveto
530 282 lineto
520 278.5 lineto
closepath stroke
grestore
% Node42
gsave
[ /Rect [ 523 236 591 256 ]
  /Border [ 0 0 0 ]
  /Action << /Subtype /URI /URI ($comun_8hpp.html#9871d7357fc245ec5b7a227a9a62eb36) >>
  /Subtype /Link
/ANN pdfmark
[ /Rect [ 523 236 591 256 ]
  /Border [ 0 0 0 ]
  /Action << /Subtype /URI /URI ($comun_8hpp.html#9871d7357fc245ec5b7a227a9a62eb36) >>
  /Subtype /Link
/ANN pdfmark
1 setlinewidth
0.000 1.000 1.000 nodecolor
newpath 523 235 moveto
523 256 lineto
591 256 lineto
591 235 lineto
closepath stroke
0.000 0.000 0.000 nodecolor
10.00 /FreeSans.ttf set_font
557 242 moveto 52 -0.5 (leeNDesp) alignedtext
grestore
% Node33->Node42
gsave
1 setlinewidth
solid
0.667 0.776 0.439 edgecolor
newpath 205 386 moveto
211 383 217 378 222 373 curveto
266 321 206 268 258 227 curveto
315 183 349 222 420 227 curveto
451 229 486 234 513 238 curveto
stroke
0.667 0.776 0.439 edgecolor
newpath 512.508 241.471 moveto
523 240 lineto
513.881 234.607 lineto
closepath fill
1 setlinewidth
solid
0.667 0.776 0.439 edgecolor
newpath 512.508 241.471 moveto
523 240 lineto
513.881 234.607 lineto
closepath stroke
grestore
% Node43
gsave
[ /Rect [ 532 198 582 218 ]
  /Border [ 0 0 0 ]
  /Action << /Subtype /URI /URI ($Pos_8cpp.html#36b67a50cba6dc1789825a3111bee9d2) >>
  /Subtype /Link
/ANN pdfmark
[ /Rect [ 532 198 582 218 ]
  /Border [ 0 0 0 ]
  /Action << /Subtype /URI /URI ($Pos_8cpp.html#36b67a50cba6dc1789825a3111bee9d2) >>
  /Subtype /Link
/ANN pdfmark
1 setlinewidth
0.000 1.000 1.000 nodecolor
newpath 532 197 moveto
532 218 lineto
583 218 lineto
583 197 lineto
closepath stroke
0.000 0.000 0.000 nodecolor
10.00 /FreeSans.ttf set_font
557 204 moveto 35 -0.5 (leePos) alignedtext
grestore
% Node33->Node43
gsave
1 setlinewidth
solid
0.667 0.776 0.439 edgecolor
newpath 205 386 moveto
212 383 218 378 222 373 curveto
271 313 198 251 258 203 curveto
335 141 461 173 522 195 curveto
stroke
0.667 0.776 0.439 edgecolor
newpath 521.416 198.479 moveto
532 198 lineto
523.427 191.774 lineto
closepath fill
1 setlinewidth
solid
0.667 0.776 0.439 edgecolor
newpath 521.416 198.479 moveto
532 198 lineto
523.427 191.774 lineto
closepath stroke
grestore
% Node44
gsave
[ /Rect [ 269 406 409 426 ]
  /Border [ 0 0 0 ]
  /Action << /Subtype /URI /URI ($RamDisco_8cpp.html#2cef55a7d5a3eb177f0d3b5a067f9e17) >>
  /Subtype /Link
/ANN pdfmark
[ /Rect [ 269 406 409 426 ]
  /Border [ 0 0 0 ]
  /Action << /Subtype /URI /URI ($RamDisco_8cpp.html#2cef55a7d5a3eb177f0d3b5a067f9e17) >>
  /Subtype /Link
/ANN pdfmark
1 setlinewidth
0.000 0.000 0.000 nodecolor
newpath 269 405 moveto
269 426 lineto
410 426 lineto
410 405 lineto
closepath stroke
0.000 0.000 0.000 nodecolor
10.00 /FreeSans.ttf set_font
339 412 moveto 125 -0.5 (escribeCopiaNodoRam) alignedtext
grestore
% Node33->Node44
gsave
1 setlinewidth
solid
0.667 0.776 0.439 edgecolor
newpath 222 403 moveto
234 405 246 406 259 407 curveto
stroke
0.667 0.776 0.439 edgecolor
newpath 258.701 410.488 moveto
269 408 lineto
259.398 403.522 lineto
closepath fill
1 setlinewidth
solid
0.667 0.776 0.439 edgecolor
newpath 258.701 410.488 moveto
269 408 lineto
259.398 403.522 lineto
closepath stroke
grestore
% Node46
gsave
[ /Rect [ 271 312 407 332 ]
  /Border [ 0 0 0 ]
  /Action << /Subtype /URI /URI ($TrieSDisco_8cpp.html#485d02d9d7ec4ae0114122861420c1d1) >>
  /Subtype /Link
/ANN pdfmark
[ /Rect [ 271 312 407 332 ]
  /Border [ 0 0 0 ]
  /Action << /Subtype /URI /URI ($TrieSDisco_8cpp.html#485d02d9d7ec4ae0114122861420c1d1) >>
  /Subtype /Link
/ANN pdfmark
1 setlinewidth
0.000 0.000 0.000 nodecolor
newpath 271 311 moveto
271 332 lineto
407 332 lineto
407 311 lineto
closepath stroke
0.000 0.000 0.000 nodecolor
10.00 /FreeSans.ttf set_font
339 318 moveto 120 -0.5 (escribeCopiaSubarbol) alignedtext
grestore
% Node33->Node46
gsave
1 setlinewidth
solid
0.667 0.776 0.439 edgecolor
newpath 192 386 moveto
222 372 274 350 307 336 curveto
stroke
0.667 0.776 0.439 edgecolor
newpath 308.283 339.26 moveto
316 332 lineto
305.44 332.863 lineto
closepath fill
1 setlinewidth
solid
0.667 0.776 0.439 edgecolor
newpath 308.283 339.26 moveto
316 332 lineto
305.44 332.863 lineto
closepath stroke
grestore
% Node47
gsave
[ /Rect [ 259 482 419 502 ]
  /Border [ 0 0 0 ]
  /Action << /Subtype /URI /URI ($RamDisco_8cpp.html#1d654f71e19a8010c6fec648e8cf9899) >>
  /Subtype /Link
/ANN pdfmark
[ /Rect [ 259 482 419 502 ]
  /Border [ 0 0 0 ]
  /Action << /Subtype /URI /URI ($RamDisco_8cpp.html#1d654f71e19a8010c6fec648e8cf9899) >>
  /Subtype /Link
/ANN pdfmark
1 setlinewidth
0.000 0.000 0.000 nodecolor
newpath 259 481 moveto
259 502 lineto
420 502 lineto
420 481 lineto
closepath stroke
0.000 0.000 0.000 nodecolor
10.00 /FreeSans.ttf set_font
339 488 moveto 145 -0.5 (escribeCopiaSubarbolRam) alignedtext
grestore
% Node33->Node47
gsave
1 setlinewidth
solid
0.667 0.776 0.439 edgecolor
newpath 177 407 moveto
194 422 226 451 258 468 curveto
265 472 273 475 281 478 curveto
stroke
0.667 0.776 0.439 edgecolor
newpath 280.416 481.479 moveto
291 481 lineto
282.427 474.774 lineto
closepath fill
1 setlinewidth
solid
0.667 0.776 0.439 edgecolor
newpath 280.416 481.479 moveto
291 481 lineto
282.427 474.774 lineto
closepath stroke
grestore
% Node35->Node36
gsave
1 setlinewidth
solid
0.667 0.776 0.439 edgecolor
newpath 358 256 moveto
381 268 421 288 456 303 curveto
475 311 497 319 515 326 curveto
stroke
0.667 0.776 0.439 edgecolor
newpath 514.416 329.479 moveto
525 329 lineto
516.427 322.774 lineto
closepath fill
1 setlinewidth
solid
0.667 0.776 0.439 edgecolor
newpath 514.416 329.479 moveto
525 329 lineto
516.427 322.774 lineto
closepath stroke
grestore
% Node35->Node41
gsave
1 setlinewidth
solid
0.667 0.776 0.439 edgecolor
newpath 397 256 moveto
436 262 486 271 520 277 curveto
stroke
0.667 0.776 0.439 edgecolor
newpath 519.508 280.471 moveto
530 279 lineto
520.881 273.607 lineto
closepath fill
1 setlinewidth
solid
0.667 0.776 0.439 edgecolor
newpath 519.508 280.471 moveto
530 279 lineto
520.881 273.607 lineto
closepath stroke
grestore
% Node35->Node42
gsave
1 setlinewidth
solid
0.667 0.776 0.439 edgecolor
newpath 397 246 moveto
433 246 479 246 513 246 curveto
stroke
0.667 0.776 0.439 edgecolor
newpath 513 249.5 moveto
523 246 lineto
513 242.5 lineto
closepath fill
1 setlinewidth
solid
0.667 0.776 0.439 edgecolor
newpath 513 249.5 moveto
523 246 lineto
513 242.5 lineto
closepath stroke
grestore
% Node35->Node43
gsave
1 setlinewidth
solid
0.667 0.776 0.439 edgecolor
newpath 397 236 moveto
437 230 488 220 522 214 curveto
stroke
0.667 0.776 0.439 edgecolor
newpath 522.881 217.393 moveto
532 212 lineto
521.508 210.529 lineto
closepath fill
1 setlinewidth
solid
0.667 0.776 0.439 edgecolor
newpath 522.881 217.393 moveto
532 212 lineto
521.508 210.529 lineto
closepath stroke
grestore
% Node36->Node37
gsave
1 setlinewidth
solid
0.667 0.776 0.439 edgecolor
newpath 599 343 moveto
618 346 641 352 658 364 curveto
682 379 674 396 694 416 curveto
708 428 726 439 740 448 curveto
stroke
0.667 0.776 0.439 edgecolor
newpath 738.559 451.203 moveto
749 453 lineto
741.958 445.084 lineto
closepath fill
1 setlinewidth
solid
0.667 0.776 0.439 edgecolor
newpath 738.559 451.203 moveto
749 453 lineto
741.958 445.084 lineto
closepath stroke
grestore
% Node39
gsave
[ /Rect [ 736 330 808 350 ]
  /Border [ 0 0 0 ]
  /Action << /Subtype /URI /URI ($Pos_8cpp.html#42c2daaa880eeb397c024b6ffa22c8cf) >>
  /Subtype /Link
/ANN pdfmark
[ /Rect [ 736 330 808 350 ]
  /Border [ 0 0 0 ]
  /Action << /Subtype /URI /URI ($Pos_8cpp.html#42c2daaa880eeb397c024b6ffa22c8cf) >>
  /Subtype /Link
/ANN pdfmark
1 setlinewidth
0.000 1.000 1.000 nodecolor
newpath 736 329 moveto
736 350 lineto
809 350 lineto
809 329 lineto
closepath stroke
0.000 0.000 0.000 nodecolor
10.00 /FreeSans.ttf set_font
772 336 moveto 57 -0.5 (escribePos) alignedtext
grestore
% Node36->Node39
gsave
1 setlinewidth
solid
0.667 0.776 0.439 edgecolor
newpath 599 340 moveto
636 340 688 340 726 340 curveto
stroke
0.667 0.776 0.439 edgecolor
newpath 726 343.5 moveto
736 340 lineto
726 336.5 lineto
closepath fill
1 setlinewidth
solid
0.667 0.776 0.439 edgecolor
newpath 726 343.5 moveto
736 340 lineto
726 336.5 lineto
closepath stroke
grestore
% Node40
gsave
[ /Rect [ 694 387 850 407 ]
  /Border [ 0 0 0 ]
  /Action << /Subtype /URI /URI ($TrieSDisco_8cpp.html#453b277936104f13edb4f8158e015eba) >>
  /Subtype /Link
/ANN pdfmark
[ /Rect [ 694 387 850 407 ]
  /Border [ 0 0 0 ]
  /Action << /Subtype /URI /URI ($TrieSDisco_8cpp.html#453b277936104f13edb4f8158e015eba) >>
  /Subtype /Link
/ANN pdfmark
1 setlinewidth
0.000 1.000 1.000 nodecolor
newpath 694 386 moveto
694 407 lineto
850 407 lineto
850 386 lineto
closepath stroke
0.000 0.000 0.000 nodecolor
10.00 /FreeSans.ttf set_font
772 393 moveto 140 -0.5 (precalcula_escribe_actual) alignedtext
grestore
% Node36->Node40
gsave
1 setlinewidth
solid
0.667 0.776 0.439 edgecolor
newpath 599 349 moveto
617 354 639 359 658 364 curveto
681 370 706 377 727 383 curveto
stroke
0.667 0.776 0.439 edgecolor
newpath 726.416 386.479 moveto
737 386 lineto
728.427 379.774 lineto
closepath fill
1 setlinewidth
solid
0.667 0.776 0.439 edgecolor
newpath 726.416 386.479 moveto
737 386 lineto
728.427 379.774 lineto
closepath stroke
grestore
% Node38
gsave
[ /Rect [ 923 454 1005 474 ]
  /Border [ 0 0 0 ]
  /Action << /Subtype /URI /URI ($comun_8cpp.html#b5388a972300b0a3d2e70c16097a3781) >>
  /Subtype /Link
/ANN pdfmark
[ /Rect [ 923 454 1005 474 ]
  /Border [ 0 0 0 ]
  /Action << /Subtype /URI /URI ($comun_8cpp.html#b5388a972300b0a3d2e70c16097a3781) >>
  /Subtype /Link
/ANN pdfmark
1 setlinewidth
0.000 0.000 0.000 nodecolor
newpath 923 453 moveto
923 474 lineto
1005 474 lineto
1005 453 lineto
closepath stroke
0.000 0.000 0.000 nodecolor
10.00 /FreeSans.ttf set_font
964 460 moveto 66 -0.5 (escribe128b) alignedtext
grestore
% Node37->Node38
gsave
1 setlinewidth
solid
0.667 0.776 0.439 edgecolor
newpath 817 464 moveto
846 464 883 464 913 464 curveto
stroke
0.667 0.776 0.439 edgecolor
newpath 913 467.5 moveto
923 464 lineto
913 460.5 lineto
closepath fill
1 setlinewidth
solid
0.667 0.776 0.439 edgecolor
newpath 913 467.5 moveto
923 464 lineto
913 460.5 lineto
closepath stroke
grestore
% Node41->Node31
gsave
1 setlinewidth
solid
0.667 0.776 0.439 edgecolor
newpath 585 282 moveto
606 280 635 276 658 265 curveto
698 245 735 209 756 188 curveto
stroke
0.667 0.776 0.439 edgecolor
newpath 759.049 189.831 moveto
763 180 lineto
753.781 185.221 lineto
closepath fill
1 setlinewidth
solid
0.667 0.776 0.439 edgecolor
newpath 759.049 189.831 moveto
763 180 lineto
753.781 185.221 lineto
closepath stroke
grestore
% Node43->Node31
gsave
1 setlinewidth
solid
0.667 0.776 0.439 edgecolor
newpath 583 203 moveto
616 197 675 187 718 180 curveto
stroke
0.667 0.776 0.439 edgecolor
newpath 718.881 183.393 moveto
728 178 lineto
717.508 176.529 lineto
closepath fill
1 setlinewidth
solid
0.667 0.776 0.439 edgecolor
newpath 718.881 183.393 moveto
728 178 lineto
717.508 176.529 lineto
closepath stroke
grestore
% Node44->Node34
gsave
1 setlinewidth
solid
0.667 0.776 0.439 edgecolor
newpath 397 426 moveto
434 432 481 440 515 446 curveto
stroke
0.667 0.776 0.439 edgecolor
newpath 514.508 449.471 moveto
525 448 lineto
515.881 442.607 lineto
closepath fill
1 setlinewidth
solid
0.667 0.776 0.439 edgecolor
newpath 514.508 449.471 moveto
525 448 lineto
515.881 442.607 lineto
closepath stroke
grestore
% Node44->Node36
gsave
1 setlinewidth
solid
0.667 0.776 0.439 edgecolor
newpath 379 405 moveto
392 401 407 397 420 392 curveto
456 380 495 365 523 354 curveto
stroke
0.667 0.776 0.439 edgecolor
newpath 524.283 357.26 moveto
532 350 lineto
521.44 350.863 lineto
closepath fill
1 setlinewidth
solid
0.667 0.776 0.439 edgecolor
newpath 524.283 357.26 moveto
532 350 lineto
521.44 350.863 lineto
closepath stroke
grestore
% Node45
gsave
[ /Rect [ 456 406 658 426 ]
  /Border [ 0 0 0 ]
  /Action << /Subtype /URI /URI ($RamDisco_8cpp.html#5b79fc3f073aeb2481fb1d51274a52a6) >>
  /Subtype /Link
/ANN pdfmark
[ /Rect [ 456 406 658 426 ]
  /Border [ 0 0 0 ]
  /Action << /Subtype /URI /URI ($RamDisco_8cpp.html#5b79fc3f073aeb2481fb1d51274a52a6) >>
  /Subtype /Link
/ANN pdfmark
1 setlinewidth
0.000 0.000 0.000 nodecolor
newpath 456 405 moveto
456 426 lineto
658 426 lineto
658 405 lineto
closepath stroke
0.000 0.000 0.000 nodecolor
10.00 /FreeSans.ttf set_font
557 412 moveto 186 -0.5 (precalcula_escribe_con_hermanos) alignedtext
grestore
% Node44->Node45
gsave
1 setlinewidth
solid
0.667 0.776 0.439 edgecolor
newpath 410 416 moveto
422 416 434 416 446 416 curveto
stroke
0.667 0.776 0.439 edgecolor
newpath 446 419.5 moveto
456 416 lineto
446 412.5 lineto
closepath fill
1 setlinewidth
solid
0.667 0.776 0.439 edgecolor
newpath 446 419.5 moveto
456 416 lineto
446 412.5 lineto
closepath stroke
grestore
% Node45->Node40
gsave
1 setlinewidth
solid
0.667 0.776 0.439 edgecolor
newpath 658 407 moveto
667 406 675 406 684 405 curveto
stroke
0.667 0.776 0.439 edgecolor
newpath 684.398 408.478 moveto
694 404 lineto
683.701 401.512 lineto
closepath fill
1 setlinewidth
solid
0.667 0.776 0.439 edgecolor
newpath 684.398 408.478 moveto
694 404 lineto
683.701 401.512 lineto
closepath stroke
grestore
% Node46->Node36
gsave
1 setlinewidth
solid
0.667 0.776 0.439 edgecolor
newpath 407 328 moveto
438 331 475 333 505 336 curveto
stroke
0.667 0.776 0.439 edgecolor
newpath 504.701 339.488 moveto
515 337 lineto
505.398 332.522 lineto
closepath fill
1 setlinewidth
solid
0.667 0.776 0.439 edgecolor
newpath 504.701 339.488 moveto
515 337 lineto
505.398 332.522 lineto
closepath stroke
grestore
% Node46->Node37
gsave
1 setlinewidth
solid
0.667 0.776 0.439 edgecolor
newpath 368 332 moveto
392 340 426 351 456 359 curveto
545 381 573 364 658 397 curveto
667 401 714 429 745 448 curveto
stroke
0.667 0.776 0.439 edgecolor
newpath 743.559 451.203 moveto
754 453 lineto
746.958 445.084 lineto
closepath fill
1 setlinewidth
solid
0.667 0.776 0.439 edgecolor
newpath 743.559 451.203 moveto
754 453 lineto
746.958 445.084 lineto
closepath stroke
grestore
% Node46->Node41
gsave
1 setlinewidth
solid
0.667 0.776 0.439 edgecolor
newpath 402 311 moveto
441 305 488 296 520 291 curveto
stroke
0.667 0.776 0.439 edgecolor
newpath 520.881 294.393 moveto
530 289 lineto
519.508 287.529 lineto
closepath fill
1 setlinewidth
solid
0.667 0.776 0.439 edgecolor
newpath 520.881 294.393 moveto
530 289 lineto
519.508 287.529 lineto
closepath stroke
grestore
% Node46->Node42
gsave
1 setlinewidth
solid
0.667 0.776 0.439 edgecolor
newpath 358 311 moveto
381 298 420 277 456 265 curveto
474 259 495 255 513 252 curveto
stroke
0.667 0.776 0.439 edgecolor
newpath 513.881 255.393 moveto
523 250 lineto
512.508 248.529 lineto
closepath fill
1 setlinewidth
solid
0.667 0.776 0.439 edgecolor
newpath 513.881 255.393 moveto
523 250 lineto
512.508 248.529 lineto
closepath stroke
grestore
% Node46->Node43
gsave
1 setlinewidth
solid
0.667 0.776 0.439 edgecolor
newpath 357 311 moveto
374 300 400 282 420 265 curveto
438 249 436 238 456 227 curveto
476 217 502 212 522 210 curveto
stroke
0.667 0.776 0.439 edgecolor
newpath 522.398 213.478 moveto
532 209 lineto
521.701 206.512 lineto
closepath fill
1 setlinewidth
solid
0.667 0.776 0.439 edgecolor
newpath 522.398 213.478 moveto
532 209 lineto
521.701 206.512 lineto
closepath stroke
grestore
% Node46->Node46
gsave
1 setlinewidth
solid
0.667 0.776 0.439 edgecolor
newpath 285 332 moveto
261 341 279 350 339 350 curveto
388 350 409 344 402 337 curveto
stroke
0.667 0.776 0.439 edgecolor
newpath 403.441 333.797 moveto
393 332 lineto
400.042 339.916 lineto
closepath fill
1 setlinewidth
solid
0.667 0.776 0.439 edgecolor
newpath 403.441 333.797 moveto
393 332 lineto
400.042 339.916 lineto
closepath stroke
grestore
% Node47->Node34
gsave
1 setlinewidth
solid
0.667 0.776 0.439 edgecolor
newpath 402 481 moveto
438 475 483 467 515 462 curveto
stroke
0.667 0.776 0.439 edgecolor
newpath 515.881 465.393 moveto
525 460 lineto
514.508 458.529 lineto
closepath fill
1 setlinewidth
solid
0.667 0.776 0.439 edgecolor
newpath 515.881 465.393 moveto
525 460 lineto
514.508 458.529 lineto
closepath stroke
grestore
% Node47->Node36
gsave
1 setlinewidth
solid
0.667 0.776 0.439 edgecolor
newpath 357 481 moveto
374 470 400 452 420 435 curveto
438 419 438 411 456 397 curveto
478 380 505 365 526 354 curveto
stroke
0.667 0.776 0.439 edgecolor
newpath 527.283 357.26 moveto
535 350 lineto
524.44 350.863 lineto
closepath fill
1 setlinewidth
solid
0.667 0.776 0.439 edgecolor
newpath 527.283 357.26 moveto
535 350 lineto
524.44 350.863 lineto
closepath stroke
grestore
% Node47->Node37
gsave
1 setlinewidth
solid
0.667 0.776 0.439 edgecolor
newpath 420 487 moveto
485 484 577 478 658 473 curveto
677 471 698 470 717 469 curveto
stroke
0.667 0.776 0.439 edgecolor
newpath 717.398 472.478 moveto
727 468 lineto
716.701 465.512 lineto
closepath fill
1 setlinewidth
solid
0.667 0.776 0.439 edgecolor
newpath 717.398 472.478 moveto
727 468 lineto
716.701 465.512 lineto
closepath stroke
grestore
% Node49->Node31
gsave
1 setlinewidth
solid
0.667 0.776 0.439 edgecolor
newpath 212 310 moveto
216 308 219 305 222 302 curveto
278 237 193 168 258 113 curveto
395 0 485 73 658 113 curveto
691 121 725 139 747 153 curveto
stroke
0.667 0.776 0.439 edgecolor
newpath 745.738 156.365 moveto
756 159 lineto
749.621 150.541 lineto
closepath fill
1 setlinewidth
solid
0.667 0.776 0.439 edgecolor
newpath 745.738 156.365 moveto
756 159 lineto
749.621 150.541 lineto
closepath stroke
grestore
endpage
showpage
grestore
%%PageTrailer
%%EndPage: 1
%%Trailer
%%Pages: 1
%%BoundingBox: 36 36 1086 1116
end
restore
%%EOF
