%!PS-Adobe-2.0
%%Creator: Graphviz version 2.12 (Mon Nov 16 18:34:03 UTC 2009)
%%For: (vtamara) Vladimir
%%Title: G
%%Pages: (atend)
%%BoundingBox: (atend)
%%EndComments
save
%%BeginProlog
/DotDict 200 dict def
DotDict begin

/setupLatin1 {
mark
/EncodingVector 256 array def
 EncodingVector 0

ISOLatin1Encoding 0 255 getinterval putinterval
EncodingVector 45 /hyphen put

% Set up ISO Latin 1 character encoding
/starnetISO {
        dup dup findfont dup length dict begin
        { 1 index /FID ne { def }{ pop pop } ifelse
        } forall
        /Encoding EncodingVector def
        currentdict end definefont
} def
/Times-Roman starnetISO def
/Times-Italic starnetISO def
/Times-Bold starnetISO def
/Times-BoldItalic starnetISO def
/Helvetica starnetISO def
/Helvetica-Oblique starnetISO def
/Helvetica-Bold starnetISO def
/Helvetica-BoldOblique starnetISO def
/Courier starnetISO def
/Courier-Oblique starnetISO def
/Courier-Bold starnetISO def
/Courier-BoldOblique starnetISO def
cleartomark
} bind def

%%BeginResource: procset graphviz 0 0
/coord-font-family /Times-Roman def
/default-font-family /Times-Roman def
/coordfont coord-font-family findfont 8 scalefont def

/InvScaleFactor 1.0 def
/set_scale {
       dup 1 exch div /InvScaleFactor exch def
       scale
} bind def

% styles
/solid { [] 0 setdash } bind def
/dashed { [9 InvScaleFactor mul dup ] 0 setdash } bind def
/dotted { [1 InvScaleFactor mul 6 InvScaleFactor mul] 0 setdash } bind def
/invis {/fill {newpath} def /stroke {newpath} def /show {pop newpath} def} bind def
/bold { 2 setlinewidth } bind def
/filled { } bind def
/unfilled { } bind def
/rounded { } bind def
/diagonals { } bind def

% hooks for setting color 
/nodecolor { sethsbcolor } bind def
/edgecolor { sethsbcolor } bind def
/graphcolor { sethsbcolor } bind def
/nopcolor {pop pop pop} bind def

/beginpage {	% i j npages
	/npages exch def
	/j exch def
	/i exch def
	/str 10 string def
	npages 1 gt {
		gsave
			coordfont setfont
			0 0 moveto
			(\() show i str cvs show (,) show j str cvs show (\)) show
		grestore
	} if
} bind def

/set_font {
	findfont exch
	scalefont setfont
} def

% draw aligned label in bounding box aligned to current point
/alignedtext {			% width adj text
	/text exch def
	/adj exch def
	/width exch def
	gsave
		width 0 gt {
			text stringwidth pop adj mul 0 rmoveto
		} if
		[] 0 setdash
		text show
	grestore
} def

/boxprim {				% xcorner ycorner xsize ysize
		4 2 roll
		moveto
		2 copy
		exch 0 rlineto
		0 exch rlineto
		pop neg 0 rlineto
		closepath
} bind def

/ellipse_path {
	/ry exch def
	/rx exch def
	/y exch def
	/x exch def
	matrix currentmatrix
	newpath
	x y translate
	rx ry scale
	0 0 1 0 360 arc
	setmatrix
} bind def

/endpage { showpage } bind def
/showpage { } def

/layercolorseq
	[	% layer color sequence - darkest to lightest
		[0 0 0]
		[.2 .8 .8]
		[.4 .8 .8]
		[.6 .8 .8]
		[.8 .8 .8]
	]
def

/layerlen layercolorseq length def

/setlayer {/maxlayer exch def /curlayer exch def
	layercolorseq curlayer 1 sub layerlen mod get
	aload pop sethsbcolor
	/nodecolor {nopcolor} def
	/edgecolor {nopcolor} def
	/graphcolor {nopcolor} def
} bind def

/onlayer { curlayer ne {invis} if } def

/onlayers {
	/myupper exch def
	/mylower exch def
	curlayer mylower lt
	curlayer myupper gt
	or
	{invis} if
} def

/curlayer 0 def

%%EndResource
%%EndProlog
%%BeginSetup
14 default-font-family set_font
1 setmiterlimit
% /arrowlength 10 def
% /arrowwidth 5 def

% make sure pdfmark is harmless for PS-interpreters other than Distiller
/pdfmark where {pop} {userdict /pdfmark /cleartomark load put} ifelse
% make '<<' and '>>' safe on PS Level 1 devices
/languagelevel where {pop languagelevel}{1} ifelse
2 lt {
    userdict (<<) cvn ([) cvn load put
    userdict (>>) cvn ([) cvn load put
} if

%%EndSetup
setupLatin1
%%Page: 1 1
%%PageBoundingBox: 36 36 646 190
%%PageOrientation: Portrait
gsave
36 36 646 190 boxprim clip newpath
0 0 1 beginpage
1 1 set_scale 0 rotate 40 40 translate
% Node1
gsave
0.000 0.000 0.749 nodecolor
newpath 1 66 moveto
1 87 lineto
102 87 lineto
102 66 lineto
closepath fill
1 setlinewidth
filled
0.000 0.000 0.000 nodecolor
newpath 1 66 moveto
1 87 lineto
102 87 lineto
102 66 lineto
closepath stroke
0.000 0.000 0.000 nodecolor
10.00 /FreeSans.ttf set_font
51 73 moveto 85 -0.5 (muestraStream) alignedtext
grestore
% Node2
gsave
[ /Rect [ 276 114 336 134 ]
  /Border [ 0 0 0 ]
  /Action << /Subtype /URI /URI ($comun_8cpp.html#c7bf9e68bbdccea36ce786b806244ea1) >>
  /Subtype /Link
/ANN pdfmark
[ /Rect [ 276 114 336 134 ]
  /Border [ 0 0 0 ]
  /Action << /Subtype /URI /URI ($comun_8cpp.html#c7bf9e68bbdccea36ce786b806244ea1) >>
  /Subtype /Link
/ANN pdfmark
1 setlinewidth
0.000 0.000 0.000 nodecolor
newpath 276 113 moveto
276 134 lineto
336 134 lineto
336 113 lineto
closepath stroke
0.000 0.000 0.000 nodecolor
10.00 /FreeSans.ttf set_font
306 120 moveto 44 -0.5 (lee128b) alignedtext
grestore
% Node1->Node2
gsave
1 setlinewidth
solid
0.667 0.776 0.439 edgecolor
newpath 62 87 moveto
78 101 108 124 138 133 curveto
181 146 231 140 266 134 curveto
stroke
0.667 0.776 0.439 edgecolor
newpath 266.881 137.393 moveto
276 132 lineto
265.508 130.529 lineto
closepath fill
1 setlinewidth
solid
0.667 0.776 0.439 edgecolor
newpath 266.881 137.393 moveto
276 132 lineto
265.508 130.529 lineto
closepath stroke
grestore
% Node4
gsave
[ /Rect [ 279 76 333 96 ]
  /Border [ 0 0 0 ]
  /Action << /Subtype /URI /URI ($comun_8cpp.html#4a359aa93f2dd4e34badd70c0e1f7082) >>
  /Subtype /Link
/ANN pdfmark
[ /Rect [ 279 76 333 96 ]
  /Border [ 0 0 0 ]
  /Action << /Subtype /URI /URI ($comun_8cpp.html#4a359aa93f2dd4e34badd70c0e1f7082) >>
  /Subtype /Link
/ANN pdfmark
1 setlinewidth
0.000 0.000 0.000 nodecolor
newpath 279 75 moveto
279 96 lineto
334 96 lineto
334 75 lineto
closepath stroke
0.000 0.000 0.000 nodecolor
10.00 /FreeSans.ttf set_font
306 82 moveto 39 -0.5 (leeCad) alignedtext
grestore
% Node1->Node4
gsave
1 setlinewidth
solid
0.667 0.776 0.439 edgecolor
newpath 102 75 moveto
140 74 194 74 240 77 curveto
249 78 259 79 269 80 curveto
stroke
0.667 0.776 0.439 edgecolor
newpath 268.701 83.4875 moveto
279 81 lineto
269.398 76.5222 lineto
closepath fill
1 setlinewidth
solid
0.667 0.776 0.439 edgecolor
newpath 268.701 83.4875 moveto
279 81 lineto
269.398 76.5222 lineto
closepath stroke
grestore
% Node5
gsave
[ /Rect [ 281 29 331 49 ]
  /Border [ 0 0 0 ]
  /Action << /Subtype /URI /URI ($Pos_8cpp.html#36b67a50cba6dc1789825a3111bee9d2) >>
  /Subtype /Link
/ANN pdfmark
[ /Rect [ 281 29 331 49 ]
  /Border [ 0 0 0 ]
  /Action << /Subtype /URI /URI ($Pos_8cpp.html#36b67a50cba6dc1789825a3111bee9d2) >>
  /Subtype /Link
/ANN pdfmark
1 setlinewidth
0.000 0.000 0.000 nodecolor
newpath 281 28 moveto
281 49 lineto
332 49 lineto
332 28 lineto
closepath stroke
0.000 0.000 0.000 nodecolor
10.00 /FreeSans.ttf set_font
306 35 moveto 35 -0.5 (leePos) alignedtext
grestore
% Node1->Node5
gsave
1 setlinewidth
solid
0.667 0.776 0.439 edgecolor
newpath 102 69 moveto
152 62 227 51 271 44 curveto
stroke
0.667 0.776 0.439 edgecolor
newpath 271.398 47.4778 moveto
281 43 lineto
270.701 40.5125 lineto
closepath fill
1 setlinewidth
solid
0.667 0.776 0.439 edgecolor
newpath 271.398 47.4778 moveto
281 43 lineto
270.701 40.5125 lineto
closepath stroke
grestore
% Node7
gsave
[ /Rect [ 139 86 239 106 ]
  /Border [ 0 0 0 ]
  /Action << /Subtype /URI /URI ($Operaciones_8cpp.html#e72c6a088302629a5554e4af30d0e9fc) >>
  /Subtype /Link
/ANN pdfmark
[ /Rect [ 139 86 239 106 ]
  /Border [ 0 0 0 ]
  /Action << /Subtype /URI /URI ($Operaciones_8cpp.html#e72c6a088302629a5554e4af30d0e9fc) >>
  /Subtype /Link
/ANN pdfmark
1 setlinewidth
0.000 0.000 0.000 nodecolor
newpath 139 85 moveto
139 106 lineto
240 106 lineto
240 85 lineto
closepath stroke
0.000 0.000 0.000 nodecolor
10.00 /FreeSans.ttf set_font
189 92 moveto 85 -0.5 (muestraStream) alignedtext
grestore
% Node1->Node7
gsave
1 setlinewidth
solid
0.667 0.776 0.439 edgecolor
newpath 102 84 moveto
111 85 120 86 129 88 curveto
stroke
0.667 0.776 0.439 edgecolor
newpath 128.701 91.4875 moveto
139 89 lineto
129.398 84.5222 lineto
closepath fill
1 setlinewidth
solid
0.667 0.776 0.439 edgecolor
newpath 128.701 91.4875 moveto
139 89 lineto
129.398 84.5222 lineto
closepath stroke
grestore
% Node3
gsave
[ /Rect [ 514 57 602 77 ]
  /Border [ 0 0 0 ]
  /Action << /Subtype /URI /URI ($comun_8cpp.html#88ffeb20e447cad877c37bb473033590) >>
  /Subtype /Link
/ANN pdfmark
[ /Rect [ 514 57 602 77 ]
  /Border [ 0 0 0 ]
  /Action << /Subtype /URI /URI ($comun_8cpp.html#88ffeb20e447cad877c37bb473033590) >>
  /Subtype /Link
/ANN pdfmark
1 setlinewidth
0.000 0.000 0.000 nodecolor
newpath 514 56 moveto
514 77 lineto
602 77 lineto
602 56 lineto
closepath stroke
0.000 0.000 0.000 nodecolor
10.00 /FreeSans.ttf set_font
558 63 moveto 72 -0.5 (errorFormato) alignedtext
grestore
% Node2->Node3
gsave
1 setlinewidth
solid
0.667 0.776 0.439 edgecolor
newpath 336 119 moveto
371 112 429 101 478 89 curveto
490 86 502 83 513 80 curveto
stroke
0.667 0.776 0.439 edgecolor
newpath 514.427 83.2259 moveto
523 77 lineto
512.416 76.5212 lineto
closepath fill
1 setlinewidth
solid
0.667 0.776 0.439 edgecolor
newpath 514.427 83.2259 moveto
523 77 lineto
512.416 76.5212 lineto
closepath stroke
grestore
% Node4->Node3
gsave
1 setlinewidth
solid
0.667 0.776 0.439 edgecolor
newpath 334 84 moveto
375 81 452 75 504 71 curveto
stroke
0.667 0.776 0.439 edgecolor
newpath 504.398 74.4778 moveto
514 70 lineto
503.701 67.5125 lineto
closepath fill
1 setlinewidth
solid
0.667 0.776 0.439 edgecolor
newpath 504.398 74.4778 moveto
514 70 lineto
503.701 67.5125 lineto
closepath stroke
grestore
% Node5->Node3
gsave
1 setlinewidth
solid
0.667 0.776 0.439 edgecolor
newpath 332 42 moveto
372 47 451 55 504 61 curveto
stroke
0.667 0.776 0.439 edgecolor
newpath 503.701 64.4875 moveto
514 62 lineto
504.398 57.5222 lineto
closepath fill
1 setlinewidth
solid
0.667 0.776 0.439 edgecolor
newpath 503.701 64.4875 moveto
514 62 lineto
504.398 57.5222 lineto
closepath stroke
grestore
% Node6
gsave
[ /Rect [ 372 0 478 20 ]
  /Border [ 0 0 0 ]
  /Action << /Subtype /URI /URI ($Elias_8cpp.html#95ee5a0ffb91f203612d2ce9d063ec36) >>
  /Subtype /Link
/ANN pdfmark
[ /Rect [ 372 0 478 20 ]
  /Border [ 0 0 0 ]
  /Action << /Subtype /URI /URI ($Elias_8cpp.html#95ee5a0ffb91f203612d2ce9d063ec36) >>
  /Subtype /Link
/ANN pdfmark
1 setlinewidth
0.000 0.000 0.000 nodecolor
newpath 372 -1 moveto
372 20 lineto
478 20 lineto
478 -1 lineto
closepath stroke
0.000 0.000 0.000 nodecolor
10.00 /FreeSans.ttf set_font
425 6 moveto 90 -0.5 (lee_elias_gama2) alignedtext
grestore
% Node5->Node6
gsave
1 setlinewidth
solid
0.667 0.776 0.439 edgecolor
newpath 332 33 moveto
344 30 360 26 374 22 curveto
stroke
0.667 0.776 0.439 edgecolor
newpath 374.881 25.3933 moveto
384 20 lineto
373.508 18.5292 lineto
closepath fill
1 setlinewidth
solid
0.667 0.776 0.439 edgecolor
newpath 374.881 25.3933 moveto
384 20 lineto
373.508 18.5292 lineto
closepath stroke
grestore
% Node6->Node3
gsave
1 setlinewidth
solid
0.667 0.776 0.439 edgecolor
newpath 448 20 moveto
469 29 500 42 524 52 curveto
stroke
0.667 0.776 0.439 edgecolor
newpath 522.44 55.1369 moveto
533 56 lineto
525.283 48.7402 lineto
closepath fill
1 setlinewidth
solid
0.667 0.776 0.439 edgecolor
newpath 522.44 55.1369 moveto
533 56 lineto
525.283 48.7402 lineto
closepath stroke
grestore
% Node7->Node2
gsave
1 setlinewidth
solid
0.667 0.776 0.439 edgecolor
newpath 231 106 moveto
243 109 255 112 266 115 curveto
stroke
0.667 0.776 0.439 edgecolor
newpath 265.508 118.471 moveto
276 117 lineto
266.881 111.607 lineto
closepath fill
1 setlinewidth
solid
0.667 0.776 0.439 edgecolor
newpath 265.508 118.471 moveto
276 117 lineto
266.881 111.607 lineto
closepath stroke
grestore
% Node7->Node4
gsave
1 setlinewidth
solid
0.667 0.776 0.439 edgecolor
newpath 240 92 moveto
249 91 259 90 269 89 curveto
stroke
0.667 0.776 0.439 edgecolor
newpath 269.398 92.4778 moveto
279 88 lineto
268.701 85.5125 lineto
closepath fill
1 setlinewidth
solid
0.667 0.776 0.439 edgecolor
newpath 269.398 92.4778 moveto
279 88 lineto
268.701 85.5125 lineto
closepath stroke
grestore
% Node7->Node5
gsave
1 setlinewidth
solid
0.667 0.776 0.439 edgecolor
newpath 212 85 moveto
230 76 256 63 276 53 curveto
stroke
0.667 0.776 0.439 edgecolor
newpath 277.283 56.2598 moveto
285 49 lineto
274.44 49.8631 lineto
closepath fill
1 setlinewidth
solid
0.667 0.776 0.439 edgecolor
newpath 277.283 56.2598 moveto
285 49 lineto
274.44 49.8631 lineto
closepath stroke
grestore
% Node7->Node7
gsave
1 setlinewidth
solid
0.667 0.776 0.439 edgecolor
newpath 152 106 moveto
136 115 148 124 189 124 curveto
218 124 233 119 233 113 curveto
stroke
0.667 0.776 0.439 edgecolor
newpath 235.546 110.596 moveto
226 106 lineto
230.596 115.546 lineto
closepath fill
1 setlinewidth
solid
0.667 0.776 0.439 edgecolor
newpath 235.546 110.596 moveto
226 106 lineto
230.596 115.546 lineto
closepath stroke
grestore
endpage
showpage
grestore
%%PageTrailer
%%EndPage: 1
%%Trailer
%%Pages: 1
%%BoundingBox: 36 36 646 190
end
restore
%%EOF
