%!PS-Adobe-2.0
%%Creator: Graphviz version 2.12 (Mon Nov 16 18:34:03 UTC 2009)
%%For: (vtamara) Vladimir
%%Title: G
%%Pages: (atend)
%%BoundingBox: (atend)
%%EndComments
save
%%BeginProlog
/DotDict 200 dict def
DotDict begin

/setupLatin1 {
mark
/EncodingVector 256 array def
 EncodingVector 0

ISOLatin1Encoding 0 255 getinterval putinterval
EncodingVector 45 /hyphen put

% Set up ISO Latin 1 character encoding
/starnetISO {
        dup dup findfont dup length dict begin
        { 1 index /FID ne { def }{ pop pop } ifelse
        } forall
        /Encoding EncodingVector def
        currentdict end definefont
} def
/Times-Roman starnetISO def
/Times-Italic starnetISO def
/Times-Bold starnetISO def
/Times-BoldItalic starnetISO def
/Helvetica starnetISO def
/Helvetica-Oblique starnetISO def
/Helvetica-Bold starnetISO def
/Helvetica-BoldOblique starnetISO def
/Courier starnetISO def
/Courier-Oblique starnetISO def
/Courier-Bold starnetISO def
/Courier-BoldOblique starnetISO def
cleartomark
} bind def

%%BeginResource: procset graphviz 0 0
/coord-font-family /Times-Roman def
/default-font-family /Times-Roman def
/coordfont coord-font-family findfont 8 scalefont def

/InvScaleFactor 1.0 def
/set_scale {
       dup 1 exch div /InvScaleFactor exch def
       scale
} bind def

% styles
/solid { [] 0 setdash } bind def
/dashed { [9 InvScaleFactor mul dup ] 0 setdash } bind def
/dotted { [1 InvScaleFactor mul 6 InvScaleFactor mul] 0 setdash } bind def
/invis {/fill {newpath} def /stroke {newpath} def /show {pop newpath} def} bind def
/bold { 2 setlinewidth } bind def
/filled { } bind def
/unfilled { } bind def
/rounded { } bind def
/diagonals { } bind def

% hooks for setting color 
/nodecolor { sethsbcolor } bind def
/edgecolor { sethsbcolor } bind def
/graphcolor { sethsbcolor } bind def
/nopcolor {pop pop pop} bind def

/beginpage {	% i j npages
	/npages exch def
	/j exch def
	/i exch def
	/str 10 string def
	npages 1 gt {
		gsave
			coordfont setfont
			0 0 moveto
			(\() show i str cvs show (,) show j str cvs show (\)) show
		grestore
	} if
} bind def

/set_font {
	findfont exch
	scalefont setfont
} def

% draw aligned label in bounding box aligned to current point
/alignedtext {			% width adj text
	/text exch def
	/adj exch def
	/width exch def
	gsave
		width 0 gt {
			text stringwidth pop adj mul 0 rmoveto
		} if
		[] 0 setdash
		text show
	grestore
} def

/boxprim {				% xcorner ycorner xsize ysize
		4 2 roll
		moveto
		2 copy
		exch 0 rlineto
		0 exch rlineto
		pop neg 0 rlineto
		closepath
} bind def

/ellipse_path {
	/ry exch def
	/rx exch def
	/y exch def
	/x exch def
	matrix currentmatrix
	newpath
	x y translate
	rx ry scale
	0 0 1 0 360 arc
	setmatrix
} bind def

/endpage { showpage } bind def
/showpage { } def

/layercolorseq
	[	% layer color sequence - darkest to lightest
		[0 0 0]
		[.2 .8 .8]
		[.4 .8 .8]
		[.6 .8 .8]
		[.8 .8 .8]
	]
def

/layerlen layercolorseq length def

/setlayer {/maxlayer exch def /curlayer exch def
	layercolorseq curlayer 1 sub layerlen mod get
	aload pop sethsbcolor
	/nodecolor {nopcolor} def
	/edgecolor {nopcolor} def
	/graphcolor {nopcolor} def
} bind def

/onlayer { curlayer ne {invis} if } def

/onlayers {
	/myupper exch def
	/mylower exch def
	curlayer mylower lt
	curlayer myupper gt
	or
	{invis} if
} def

/curlayer 0 def

%%EndResource
%%EndProlog
%%BeginSetup
14 default-font-family set_font
1 setmiterlimit
% /arrowlength 10 def
% /arrowwidth 5 def

% make sure pdfmark is harmless for PS-interpreters other than Distiller
/pdfmark where {pop} {userdict /pdfmark /cleartomark load put} ifelse
% make '<<' and '>>' safe on PS Level 1 devices
/languagelevel where {pop languagelevel}{1} ifelse
2 lt {
    userdict (<<) cvn ([) cvn load put
    userdict (>>) cvn ([) cvn load put
} if

%%EndSetup
setupLatin1
%%Page: 1 1
%%PageBoundingBox: 36 36 1190 538
%%PageOrientation: Portrait
gsave
36 36 1190 538 boxprim clip newpath
0 0 1 beginpage
1 1 set_scale 0 rotate 40 40 translate
% Node1
gsave
0.000 0.000 0.749 nodecolor
newpath 1 113 moveto
1 134 lineto
106 134 lineto
106 113 lineto
closepath fill
1 setlinewidth
filled
0.000 0.000 0.000 nodecolor
newpath 1 113 moveto
1 134 lineto
106 134 lineto
106 113 lineto
closepath stroke
0.000 0.000 0.000 nodecolor
10.00 /FreeSans.ttf set_font
53 120 moveto 89 -0.5 (mezclaDosDisco) alignedtext
grestore
% Node2
gsave
[ /Rect [ 155 341 231 361 ]
  /Border [ 0 0 0 ]
  /Action << /Subtype /URI /URI ($Operaciones_8cpp.html#c3b6b570dd53678c88d7ef60f51bab4d) >>
  /Subtype /Link
/ANN pdfmark
[ /Rect [ 155 341 231 361 ]
  /Border [ 0 0 0 ]
  /Action << /Subtype /URI /URI ($Operaciones_8cpp.html#c3b6b570dd53678c88d7ef60f51bab4d) >>
  /Subtype /Link
/ANN pdfmark
1 setlinewidth
0.000 0.000 0.000 nodecolor
newpath 155 340 moveto
155 361 lineto
232 361 lineto
232 340 lineto
closepath stroke
0.000 0.000 0.000 nodecolor
10.00 /FreeSans.ttf set_font
193 347 moveto 61 -0.5 (calcRenum) alignedtext
grestore
% Node1->Node2
gsave
1 setlinewidth
solid
0.667 0.776 0.439 edgecolor
newpath 55 134 moveto
60 167 82 273 142 332 curveto
143 333 145 334 146 335 curveto
stroke
0.667 0.776 0.439 edgecolor
newpath 144.559 338.203 moveto
155 340 lineto
147.958 332.084 lineto
closepath fill
1 setlinewidth
solid
0.667 0.776 0.439 edgecolor
newpath 144.559 338.203 moveto
155 340 lineto
147.958 332.084 lineto
closepath stroke
grestore
% Node3
gsave
[ /Rect [ 142 303 244 323 ]
  /Border [ 0 0 0 ]
  /Action << /Subtype /URI /URI ($TrieSDisco_8cpp.html#df0711974693615ed7a5a7d1a2b050a7) >>
  /Subtype /Link
/ANN pdfmark
[ /Rect [ 142 303 244 323 ]
  /Border [ 0 0 0 ]
  /Action << /Subtype /URI /URI ($TrieSDisco_8cpp.html#df0711974693615ed7a5a7d1a2b050a7) >>
  /Subtype /Link
/ANN pdfmark
1 setlinewidth
0.000 0.000 0.000 nodecolor
newpath 142 302 moveto
142 323 lineto
244 323 lineto
244 302 lineto
closepath stroke
0.000 0.000 0.000 nodecolor
10.00 /FreeSans.ttf set_font
193 309 moveto 86 -0.5 (escribeRelacion) alignedtext
grestore
% Node1->Node3
gsave
1 setlinewidth
solid
0.667 0.776 0.439 edgecolor
newpath 56 134 moveto
64 164 91 247 142 294 curveto
143 295 145 296 146 297 curveto
stroke
0.667 0.776 0.439 edgecolor
newpath 144.559 300.203 moveto
155 302 lineto
147.958 294.084 lineto
closepath fill
1 setlinewidth
solid
0.667 0.776 0.439 edgecolor
newpath 144.559 300.203 moveto
155 302 lineto
147.958 294.084 lineto
closepath stroke
grestore
% Node5
gsave
[ /Rect [ 474 114 554 134 ]
  /Border [ 0 0 0 ]
  /Action << /Subtype /URI /URI ($TrieSDisco_8cpp.html#acdb9639784b2fb341e069b1f54c3455) >>
  /Subtype /Link
/ANN pdfmark
[ /Rect [ 474 114 554 134 ]
  /Border [ 0 0 0 ]
  /Action << /Subtype /URI /URI ($TrieSDisco_8cpp.html#acdb9639784b2fb341e069b1f54c3455) >>
  /Subtype /Link
/ANN pdfmark
1 setlinewidth
0.000 0.000 0.000 nodecolor
newpath 474 113 moveto
474 134 lineto
554 134 lineto
554 113 lineto
closepath stroke
0.000 0.000 0.000 nodecolor
10.00 /FreeSans.ttf set_font
514 120 moveto 64 -0.5 (leeRelacion) alignedtext
grestore
% Node1->Node5
gsave
1 setlinewidth
solid
0.667 0.776 0.439 edgecolor
newpath 106 124 moveto
196 124 376 124 464 124 curveto
stroke
0.667 0.776 0.439 edgecolor
newpath 464 127.5 moveto
474 124 lineto
464 120.5 lineto
closepath fill
1 setlinewidth
solid
0.667 0.776 0.439 edgecolor
newpath 464 127.5 moveto
474 124 lineto
464 120.5 lineto
closepath stroke
grestore
% Node8
gsave
[ /Rect [ 152 38 234 58 ]
  /Border [ 0 0 0 ]
  /Action << /Subtype /URI /URI ($Doc_8cpp.html#9c643cf619a44c811431e60dee2029a2) >>
  /Subtype /Link
/ANN pdfmark
[ /Rect [ 152 38 234 58 ]
  /Border [ 0 0 0 ]
  /Action << /Subtype /URI /URI ($Doc_8cpp.html#9c643cf619a44c811431e60dee2029a2) >>
  /Subtype /Link
/ANN pdfmark
1 setlinewidth
0.000 0.000 0.000 nodecolor
newpath 152 37 moveto
152 58 lineto
234 58 lineto
234 37 lineto
closepath stroke
0.000 0.000 0.000 nodecolor
10.00 /FreeSans.ttf set_font
193 44 moveto 66 -0.5 (mezclaDocs) alignedtext
grestore
% Node1->Node8
gsave
1 setlinewidth
solid
0.667 0.776 0.439 edgecolor
newpath 71 113 moveto
89 102 117 86 142 72 curveto
149 69 155 65 162 62 curveto
stroke
0.667 0.776 0.439 edgecolor
newpath 163.283 65.2598 moveto
171 58 lineto
160.44 58.8631 lineto
closepath fill
1 setlinewidth
solid
0.667 0.776 0.439 edgecolor
newpath 163.283 65.2598 moveto
171 58 lineto
160.44 58.8631 lineto
closepath stroke
grestore
% Node9
gsave
[ /Rect [ 155 247 231 267 ]
  /Border [ 0 0 0 ]
  /Action << /Subtype /URI /URI ($TrieSDisco_8cpp.html#2650ad438abcd85c2ac08ab5c207620d) >>
  /Subtype /Link
/ANN pdfmark
[ /Rect [ 155 247 231 267 ]
  /Border [ 0 0 0 ]
  /Action << /Subtype /URI /URI ($TrieSDisco_8cpp.html#2650ad438abcd85c2ac08ab5c207620d) >>
  /Subtype /Link
/ANN pdfmark
1 setlinewidth
0.000 0.000 0.000 nodecolor
newpath 155 246 moveto
155 267 lineto
231 267 lineto
231 246 lineto
closepath stroke
0.000 0.000 0.000 nodecolor
10.00 /FreeSans.ttf set_font
193 253 moveto 60 -0.5 (mezclaRec) alignedtext
grestore
% Node1->Node9
gsave
1 setlinewidth
solid
0.667 0.776 0.439 edgecolor
newpath 64 134 moveto
88 157 144 211 173 239 curveto
stroke
0.667 0.776 0.439 edgecolor
newpath 171.169 242.049 moveto
181 246 lineto
175.779 236.781 lineto
closepath fill
1 setlinewidth
solid
0.667 0.776 0.439 edgecolor
newpath 171.169 242.049 moveto
181 246 lineto
175.779 236.781 lineto
closepath stroke
grestore
% Node28
gsave
[ /Rect [ 314 57 402 77 ]
  /Border [ 0 0 0 ]
  /Action << /Subtype /URI /URI ($TrieSDisco_8cpp.html#3b55801abcb3987a49125a0ddc9ff76c) >>
  /Subtype /Link
/ANN pdfmark
[ /Rect [ 314 57 402 77 ]
  /Border [ 0 0 0 ]
  /Action << /Subtype /URI /URI ($TrieSDisco_8cpp.html#3b55801abcb3987a49125a0ddc9ff76c) >>
  /Subtype /Link
/ANN pdfmark
1 setlinewidth
0.000 0.000 0.000 nodecolor
newpath 314 56 moveto
314 77 lineto
403 77 lineto
403 56 lineto
closepath stroke
0.000 0.000 0.000 nodecolor
10.00 /FreeSans.ttf set_font
358 63 moveto 73 -0.5 (verificaIndice) alignedtext
grestore
% Node1->Node28
gsave
1 setlinewidth
solid
0.667 0.776 0.439 edgecolor
newpath 106 114 moveto
162 104 248 88 304 77 curveto
stroke
0.667 0.776 0.439 edgecolor
newpath 304.881 80.3933 moveto
314 75 lineto
303.508 73.5292 lineto
closepath fill
1 setlinewidth
solid
0.667 0.776 0.439 edgecolor
newpath 304.881 80.3933 moveto
314 75 lineto
303.508 73.5292 lineto
closepath stroke
grestore
% Node29
gsave
[ /Rect [ 143 0 243 20 ]
  /Border [ 0 0 0 ]
  /Action << /Subtype /URI /URI ($comun_8cpp.html#ecd3ce9c133c650ebb919dcce6f77003) >>
  /Subtype /Link
/ANN pdfmark
[ /Rect [ 143 0 243 20 ]
  /Border [ 0 0 0 ]
  /Action << /Subtype /URI /URI ($comun_8cpp.html#ecd3ce9c133c650ebb919dcce6f77003) >>
  /Subtype /Link
/ANN pdfmark
1 setlinewidth
0.000 0.000 0.000 nodecolor
newpath 143 -1 moveto
143 20 lineto
243 20 lineto
243 -1 lineto
closepath stroke
0.000 0.000 0.000 nodecolor
10.00 /FreeSans.ttf set_font
193 6 moveto 84 -0.5 (verificaNombre) alignedtext
grestore
% Node1->Node29
gsave
1 setlinewidth
solid
0.667 0.776 0.439 edgecolor
newpath 61 113 moveto
75 94 107 53 142 29 curveto
145 27 148 26 151 24 curveto
stroke
0.667 0.776 0.439 edgecolor
newpath 152.283 27.2598 moveto
160 20 lineto
149.44 20.8631 lineto
closepath fill
1 setlinewidth
solid
0.667 0.776 0.439 edgecolor
newpath 152.283 27.2598 moveto
160 20 lineto
149.44 20.8631 lineto
closepath stroke
grestore
% Node4
gsave
[ /Rect [ 318 474 398 494 ]
  /Border [ 0 0 0 ]
  /Action << /Subtype /URI /URI ($Doc_8cpp.html#ccfa223b5e7e9f380b58db51687ff9a5) >>
  /Subtype /Link
/ANN pdfmark
[ /Rect [ 318 474 398 494 ]
  /Border [ 0 0 0 ]
  /Action << /Subtype /URI /URI ($Doc_8cpp.html#ccfa223b5e7e9f380b58db51687ff9a5) >>
  /Subtype /Link
/ANN pdfmark
1 setlinewidth
0.000 0.000 0.000 nodecolor
newpath 318 473 moveto
318 494 lineto
399 494 lineto
399 473 lineto
closepath stroke
0.000 0.000 0.000 nodecolor
10.00 /FreeSans.ttf set_font
358 480 moveto 65 -0.5 (escribeDocs) alignedtext
grestore
% Node3->Node4
gsave
1 setlinewidth
solid
0.667 0.776 0.439 edgecolor
newpath 232 323 moveto
237 325 241 328 244 332 curveto
286 377 237 422 280 465 curveto
288 472 298 476 308 480 curveto
stroke
0.667 0.776 0.439 edgecolor
newpath 307.508 483.471 moveto
318 482 lineto
308.881 476.607 lineto
closepath fill
1 setlinewidth
solid
0.667 0.776 0.439 edgecolor
newpath 307.508 483.471 moveto
318 482 lineto
308.881 476.607 lineto
closepath stroke
grestore
% Node6
gsave
[ /Rect [ 784 152 872 172 ]
  /Border [ 0 0 0 ]
  /Action << /Subtype /URI /URI ($comun_8cpp.html#88ffeb20e447cad877c37bb473033590) >>
  /Subtype /Link
/ANN pdfmark
[ /Rect [ 784 152 872 172 ]
  /Border [ 0 0 0 ]
  /Action << /Subtype /URI /URI ($comun_8cpp.html#88ffeb20e447cad877c37bb473033590) >>
  /Subtype /Link
/ANN pdfmark
1 setlinewidth
0.000 0.000 0.000 nodecolor
newpath 784 151 moveto
784 172 lineto
872 172 lineto
872 151 lineto
closepath stroke
0.000 0.000 0.000 nodecolor
10.00 /FreeSans.ttf set_font
828 158 moveto 72 -0.5 (errorFormato) alignedtext
grestore
% Node5->Node6
gsave
1 setlinewidth
solid
0.667 0.776 0.439 edgecolor
newpath 554 127 moveto
601 131 681 138 748 148 curveto
757 149 765 150 774 151 curveto
stroke
0.667 0.776 0.439 edgecolor
newpath 773.508 154.471 moveto
784 153 lineto
774.881 147.607 lineto
closepath fill
1 setlinewidth
solid
0.667 0.776 0.439 edgecolor
newpath 773.508 154.471 moveto
784 153 lineto
774.881 147.607 lineto
closepath stroke
grestore
% Node7
gsave
[ /Rect [ 641 76 699 96 ]
  /Border [ 0 0 0 ]
  /Action << /Subtype /URI /URI ($Doc_8cpp.html#e4bfd9bdedc0dd4fe00bf5f17f8f9e23) >>
  /Subtype /Link
/ANN pdfmark
[ /Rect [ 641 76 699 96 ]
  /Border [ 0 0 0 ]
  /Action << /Subtype /URI /URI ($Doc_8cpp.html#e4bfd9bdedc0dd4fe00bf5f17f8f9e23) >>
  /Subtype /Link
/ANN pdfmark
1 setlinewidth
0.000 0.000 0.000 nodecolor
newpath 641 75 moveto
641 96 lineto
700 96 lineto
700 75 lineto
closepath stroke
0.000 0.000 0.000 nodecolor
10.00 /FreeSans.ttf set_font
670 82 moveto 43 -0.5 (leeDocs) alignedtext
grestore
% Node5->Node7
gsave
1 setlinewidth
solid
0.667 0.776 0.439 edgecolor
newpath 554 114 moveto
578 109 607 101 631 95 curveto
stroke
0.667 0.776 0.439 edgecolor
newpath 631.881 98.3933 moveto
641 93 lineto
630.508 91.5292 lineto
closepath fill
1 setlinewidth
solid
0.667 0.776 0.439 edgecolor
newpath 631.881 98.3933 moveto
641 93 lineto
630.508 91.5292 lineto
closepath stroke
grestore
% Node7->Node6
gsave
1 setlinewidth
solid
0.667 0.776 0.439 edgecolor
newpath 700 93 moveto
715 97 733 103 748 110 curveto
769 119 790 133 806 145 curveto
stroke
0.667 0.776 0.439 edgecolor
newpath 803.9 147.8 moveto
814 151 lineto
808.1 142.2 lineto
closepath fill
1 setlinewidth
solid
0.667 0.776 0.439 edgecolor
newpath 803.9 147.8 moveto
814 151 lineto
808.1 142.2 lineto
closepath stroke
grestore
% Node9->Node9
gsave
1 setlinewidth
solid
0.667 0.776 0.439 edgecolor
newpath 155 265 moveto
127 274 140 285 193 285 curveto
239 285 255 277 240 269 curveto
stroke
0.667 0.776 0.439 edgecolor
newpath 241.56 265.863 moveto
231 265 lineto
238.717 272.26 lineto
closepath fill
1 setlinewidth
solid
0.667 0.776 0.439 edgecolor
newpath 241.56 265.863 moveto
231 265 lineto
238.717 272.26 lineto
closepath stroke
grestore
% Node10
gsave
[ /Rect [ 300 228 416 248 ]
  /Border [ 0 0 0 ]
  /Action << /Subtype /URI /URI ($TrieSDisco_8cpp.html#4cc0e861f2e192242a40d6337c70fc5f) >>
  /Subtype /Link
/ANN pdfmark
[ /Rect [ 300 228 416 248 ]
  /Border [ 0 0 0 ]
  /Action << /Subtype /URI /URI ($TrieSDisco_8cpp.html#4cc0e861f2e192242a40d6337c70fc5f) >>
  /Subtype /Link
/ANN pdfmark
1 setlinewidth
0.000 0.000 0.000 nodecolor
newpath 300 227 moveto
300 248 lineto
416 248 lineto
416 227 lineto
closepath stroke
0.000 0.000 0.000 nodecolor
10.00 /FreeSans.ttf set_font
358 234 moveto 100 -0.5 (escribeCopiaNodo) alignedtext
grestore
% Node9->Node10
gsave
1 setlinewidth
solid
0.667 0.776 0.439 edgecolor
newpath 231 253 moveto
248 250 270 248 290 246 curveto
stroke
0.667 0.776 0.439 edgecolor
newpath 290.398 249.478 moveto
300 245 lineto
289.701 242.512 lineto
closepath fill
1 setlinewidth
solid
0.667 0.776 0.439 edgecolor
newpath 290.398 249.478 moveto
300 245 lineto
289.701 242.512 lineto
closepath stroke
grestore
% Node11
gsave
[ /Rect [ 472 308 556 328 ]
  /Border [ 0 0 0 ]
  /Action << /Subtype /URI /URI ($TrieSDisco_8cpp.html#95dfc28ebaa02e82d3d1ffce08251628) >>
  /Subtype /Link
/ANN pdfmark
[ /Rect [ 472 308 556 328 ]
  /Border [ 0 0 0 ]
  /Action << /Subtype /URI /URI ($TrieSDisco_8cpp.html#95dfc28ebaa02e82d3d1ffce08251628) >>
  /Subtype /Link
/ANN pdfmark
1 setlinewidth
0.000 0.000 0.000 nodecolor
newpath 472 307 moveto
472 328 lineto
556 328 lineto
556 307 lineto
closepath stroke
0.000 0.000 0.000 nodecolor
10.00 /FreeSans.ttf set_font
514 314 moveto 68 -0.5 (escribeNodo) alignedtext
grestore
% Node9->Node11
gsave
1 setlinewidth
solid
0.667 0.776 0.439 edgecolor
newpath 210 267 moveto
221 274 234 283 244 294 curveto
265 315 254 336 280 351 curveto
346 387 440 354 486 332 curveto
stroke
0.667 0.776 0.439 edgecolor
newpath 487.283 335.26 moveto
495 328 lineto
484.44 328.863 lineto
closepath fill
1 setlinewidth
solid
0.667 0.776 0.439 edgecolor
newpath 487.283 335.26 moveto
495 328 lineto
484.44 328.863 lineto
closepath stroke
grestore
% Node12
gsave
[ /Rect [ 625 380 715 400 ]
  /Border [ 0 0 0 ]
  /Action << /Subtype /URI /URI ($comun_8hpp.html#96402bda6527bf98dd8e49d62ae182f8) >>
  /Subtype /Link
/ANN pdfmark
[ /Rect [ 625 380 715 400 ]
  /Border [ 0 0 0 ]
  /Action << /Subtype /URI /URI ($comun_8hpp.html#96402bda6527bf98dd8e49d62ae182f8) >>
  /Subtype /Link
/ANN pdfmark
1 setlinewidth
0.000 0.000 0.000 nodecolor
newpath 625 379 moveto
625 400 lineto
715 400 lineto
715 379 lineto
closepath stroke
0.000 0.000 0.000 nodecolor
10.00 /FreeSans.ttf set_font
670 386 moveto 74 -0.5 (escribeNDesp) alignedtext
grestore
% Node9->Node12
gsave
1 setlinewidth
solid
0.667 0.776 0.439 edgecolor
newpath 212 267 moveto
223 274 235 283 244 294 curveto
269 323 249 349 280 371 curveto
385 441 543 419 622 402 curveto
stroke
0.667 0.776 0.439 edgecolor
newpath 622.881 405.393 moveto
632 400 lineto
621.508 398.529 lineto
closepath fill
1 setlinewidth
solid
0.667 0.776 0.439 edgecolor
newpath 622.881 405.393 moveto
632 400 lineto
621.508 398.529 lineto
closepath stroke
grestore
% Node21
gsave
[ /Rect [ 487 266 541 286 ]
  /Border [ 0 0 0 ]
  /Action << /Subtype /URI /URI ($comun_8cpp.html#4a359aa93f2dd4e34badd70c0e1f7082) >>
  /Subtype /Link
/ANN pdfmark
[ /Rect [ 487 266 541 286 ]
  /Border [ 0 0 0 ]
  /Action << /Subtype /URI /URI ($comun_8cpp.html#4a359aa93f2dd4e34badd70c0e1f7082) >>
  /Subtype /Link
/ANN pdfmark
1 setlinewidth
0.000 0.000 0.000 nodecolor
newpath 487 265 moveto
487 286 lineto
542 286 lineto
542 265 lineto
closepath stroke
0.000 0.000 0.000 nodecolor
10.00 /FreeSans.ttf set_font
514 272 moveto 39 -0.5 (leeCad) alignedtext
grestore
% Node9->Node21
gsave
1 setlinewidth
solid
0.667 0.776 0.439 edgecolor
newpath 231 259 moveto
293 263 415 270 477 273 curveto
stroke
0.667 0.776 0.439 edgecolor
newpath 476.701 276.488 moveto
487 274 lineto
477.398 269.522 lineto
closepath fill
1 setlinewidth
solid
0.667 0.776 0.439 edgecolor
newpath 476.701 276.488 moveto
487 274 lineto
477.398 269.522 lineto
closepath stroke
grestore
% Node22
gsave
[ /Rect [ 480 228 548 248 ]
  /Border [ 0 0 0 ]
  /Action << /Subtype /URI /URI ($comun_8hpp.html#9871d7357fc245ec5b7a227a9a62eb36) >>
  /Subtype /Link
/ANN pdfmark
[ /Rect [ 480 228 548 248 ]
  /Border [ 0 0 0 ]
  /Action << /Subtype /URI /URI ($comun_8hpp.html#9871d7357fc245ec5b7a227a9a62eb36) >>
  /Subtype /Link
/ANN pdfmark
1 setlinewidth
0.000 0.000 0.000 nodecolor
newpath 480 227 moveto
480 248 lineto
548 248 lineto
548 227 lineto
closepath stroke
0.000 0.000 0.000 nodecolor
10.00 /FreeSans.ttf set_font
514 234 moveto 52 -0.5 (leeNDesp) alignedtext
grestore
% Node9->Node22
gsave
1 setlinewidth
solid
0.667 0.776 0.439 edgecolor
newpath 212 246 moveto
229 236 255 224 280 219 curveto
348 204 368 210 436 219 curveto
447 221 459 223 470 225 curveto
stroke
0.667 0.776 0.439 edgecolor
newpath 469.416 228.479 moveto
480 228 lineto
471.427 221.774 lineto
closepath fill
1 setlinewidth
solid
0.667 0.776 0.439 edgecolor
newpath 469.416 228.479 moveto
480 228 lineto
471.427 221.774 lineto
closepath stroke
grestore
% Node24
gsave
[ /Rect [ 489 190 539 210 ]
  /Border [ 0 0 0 ]
  /Action << /Subtype /URI /URI ($Pos_8cpp.html#36b67a50cba6dc1789825a3111bee9d2) >>
  /Subtype /Link
/ANN pdfmark
[ /Rect [ 489 190 539 210 ]
  /Border [ 0 0 0 ]
  /Action << /Subtype /URI /URI ($Pos_8cpp.html#36b67a50cba6dc1789825a3111bee9d2) >>
  /Subtype /Link
/ANN pdfmark
1 setlinewidth
0.000 0.000 0.000 nodecolor
newpath 489 189 moveto
489 210 lineto
540 210 lineto
540 189 lineto
closepath stroke
0.000 0.000 0.000 nodecolor
10.00 /FreeSans.ttf set_font
514 196 moveto 35 -0.5 (leePos) alignedtext
grestore
% Node9->Node24
gsave
1 setlinewidth
solid
0.667 0.776 0.439 edgecolor
newpath 206 246 moveto
222 233 251 212 280 204 curveto
348 184 432 190 479 195 curveto
stroke
0.667 0.776 0.439 edgecolor
newpath 478.701 198.488 moveto
489 196 lineto
479.398 191.522 lineto
closepath fill
1 setlinewidth
solid
0.667 0.776 0.439 edgecolor
newpath 478.701 198.488 moveto
489 196 lineto
479.398 191.522 lineto
closepath stroke
grestore
% Node26
gsave
[ /Rect [ 290 304 426 324 ]
  /Border [ 0 0 0 ]
  /Action << /Subtype /URI /URI ($TrieSDisco_8cpp.html#485d02d9d7ec4ae0114122861420c1d1) >>
  /Subtype /Link
/ANN pdfmark
[ /Rect [ 290 304 426 324 ]
  /Border [ 0 0 0 ]
  /Action << /Subtype /URI /URI ($TrieSDisco_8cpp.html#485d02d9d7ec4ae0114122861420c1d1) >>
  /Subtype /Link
/ANN pdfmark
1 setlinewidth
0.000 0.000 0.000 nodecolor
newpath 290 303 moveto
290 324 lineto
426 324 lineto
426 303 lineto
closepath stroke
0.000 0.000 0.000 nodecolor
10.00 /FreeSans.ttf set_font
358 310 moveto 120 -0.5 (escribeCopiaSubarbol) alignedtext
grestore
% Node9->Node26
gsave
1 setlinewidth
solid
0.667 0.776 0.439 edgecolor
newpath 219 267 moveto
236 274 259 283 280 290 curveto
291 293 302 297 312 300 curveto
stroke
0.667 0.776 0.439 edgecolor
newpath 311.416 303.479 moveto
322 303 lineto
313.427 296.774 lineto
closepath fill
1 setlinewidth
solid
0.667 0.776 0.439 edgecolor
newpath 311.416 303.479 moveto
322 303 lineto
313.427 296.774 lineto
closepath stroke
grestore
% Node27
gsave
[ /Rect [ 281 436 435 456 ]
  /Border [ 0 0 0 ]
  /Action << /Subtype /URI /URI ($comun_8cpp.html#c74356d5b37d454e0ddce0de8fac34f8) >>
  /Subtype /Link
/ANN pdfmark
[ /Rect [ 281 436 435 456 ]
  /Border [ 0 0 0 ]
  /Action << /Subtype /URI /URI ($comun_8cpp.html#c74356d5b37d454e0ddce0de8fac34f8) >>
  /Subtype /Link
/ANN pdfmark
1 setlinewidth
0.000 0.000 0.000 nodecolor
newpath 281 435 moveto
281 456 lineto
436 456 lineto
436 435 lineto
closepath stroke
0.000 0.000 0.000 nodecolor
10.00 /FreeSans.ttf set_font
358 442 moveto 139 -0.5 (prefijo_comun_mas_largo) alignedtext
grestore
% Node9->Node27
gsave
1 setlinewidth
solid
0.667 0.776 0.439 edgecolor
newpath 213 267 moveto
223 273 236 283 244 294 curveto
278 342 239 379 280 422 curveto
283 425 287 428 291 430 curveto
stroke
0.667 0.776 0.439 edgecolor
newpath 289.559 433.203 moveto
300 435 lineto
292.958 427.084 lineto
closepath fill
1 setlinewidth
solid
0.667 0.776 0.439 edgecolor
newpath 289.559 433.203 moveto
300 435 lineto
292.958 427.084 lineto
closepath stroke
grestore
% Node10->Node11
gsave
1 setlinewidth
solid
0.667 0.776 0.439 edgecolor
newpath 378 248 moveto
404 262 452 286 483 302 curveto
stroke
0.667 0.776 0.439 edgecolor
newpath 481.559 305.203 moveto
492 307 lineto
484.958 299.084 lineto
closepath fill
1 setlinewidth
solid
0.667 0.776 0.439 edgecolor
newpath 481.559 305.203 moveto
492 307 lineto
484.958 299.084 lineto
closepath stroke
grestore
% Node10->Node21
gsave
1 setlinewidth
solid
0.667 0.776 0.439 edgecolor
newpath 399 248 moveto
423 254 454 261 477 267 curveto
stroke
0.667 0.776 0.439 edgecolor
newpath 476.508 270.471 moveto
487 269 lineto
477.881 263.607 lineto
closepath fill
1 setlinewidth
solid
0.667 0.776 0.439 edgecolor
newpath 476.508 270.471 moveto
487 269 lineto
477.881 263.607 lineto
closepath stroke
grestore
% Node10->Node22
gsave
1 setlinewidth
solid
0.667 0.776 0.439 edgecolor
newpath 416 238 moveto
433 238 453 238 470 238 curveto
stroke
0.667 0.776 0.439 edgecolor
newpath 470 241.5 moveto
480 238 lineto
470 234.5 lineto
closepath fill
1 setlinewidth
solid
0.667 0.776 0.439 edgecolor
newpath 470 241.5 moveto
480 238 lineto
470 234.5 lineto
closepath stroke
grestore
% Node10->Node24
gsave
1 setlinewidth
solid
0.667 0.776 0.439 edgecolor
newpath 404 227 moveto
428 221 457 214 479 208 curveto
stroke
0.667 0.776 0.439 edgecolor
newpath 479.881 211.393 moveto
489 206 lineto
478.508 204.529 lineto
closepath fill
1 setlinewidth
solid
0.667 0.776 0.439 edgecolor
newpath 479.881 211.393 moveto
489 206 lineto
478.508 204.529 lineto
closepath stroke
grestore
% Node11->Node12
gsave
1 setlinewidth
solid
0.667 0.776 0.439 edgecolor
newpath 526 328 moveto
541 340 567 359 592 371 curveto
599 374 607 377 615 379 curveto
stroke
0.667 0.776 0.439 edgecolor
newpath 614.416 382.479 moveto
625 382 lineto
616.427 375.774 lineto
closepath fill
1 setlinewidth
solid
0.667 0.776 0.439 edgecolor
newpath 614.416 382.479 moveto
625 382 lineto
616.427 375.774 lineto
closepath stroke
grestore
% Node14
gsave
[ /Rect [ 634 342 706 362 ]
  /Border [ 0 0 0 ]
  /Action << /Subtype /URI /URI ($Pos_8cpp.html#42c2daaa880eeb397c024b6ffa22c8cf) >>
  /Subtype /Link
/ANN pdfmark
[ /Rect [ 634 342 706 362 ]
  /Border [ 0 0 0 ]
  /Action << /Subtype /URI /URI ($Pos_8cpp.html#42c2daaa880eeb397c024b6ffa22c8cf) >>
  /Subtype /Link
/ANN pdfmark
1 setlinewidth
0.000 0.000 0.000 nodecolor
newpath 634 341 moveto
634 362 lineto
707 362 lineto
707 341 lineto
closepath stroke
0.000 0.000 0.000 nodecolor
10.00 /FreeSans.ttf set_font
670 348 moveto 57 -0.5 (escribePos) alignedtext
grestore
% Node11->Node14
gsave
1 setlinewidth
solid
0.667 0.776 0.439 edgecolor
newpath 556 327 moveto
577 331 603 337 624 342 curveto
stroke
0.667 0.776 0.439 edgecolor
newpath 623.508 345.471 moveto
634 344 lineto
624.881 338.607 lineto
closepath fill
1 setlinewidth
solid
0.667 0.776 0.439 edgecolor
newpath 623.508 345.471 moveto
634 344 lineto
624.881 338.607 lineto
closepath stroke
grestore
% Node17
gsave
[ /Rect [ 592 304 748 324 ]
  /Border [ 0 0 0 ]
  /Action << /Subtype /URI /URI ($TrieSDisco_8cpp.html#453b277936104f13edb4f8158e015eba) >>
  /Subtype /Link
/ANN pdfmark
[ /Rect [ 592 304 748 324 ]
  /Border [ 0 0 0 ]
  /Action << /Subtype /URI /URI ($TrieSDisco_8cpp.html#453b277936104f13edb4f8158e015eba) >>
  /Subtype /Link
/ANN pdfmark
1 setlinewidth
0.000 0.000 0.000 nodecolor
newpath 592 303 moveto
592 324 lineto
748 324 lineto
748 303 lineto
closepath stroke
0.000 0.000 0.000 nodecolor
10.00 /FreeSans.ttf set_font
670 310 moveto 140 -0.5 (precalcula_escribe_actual) alignedtext
grestore
% Node11->Node17
gsave
1 setlinewidth
solid
0.667 0.776 0.439 edgecolor
newpath 556 317 moveto
564 317 573 316 582 316 curveto
stroke
0.667 0.776 0.439 edgecolor
newpath 582 319.5 moveto
592 316 lineto
582 312.5 lineto
closepath fill
1 setlinewidth
solid
0.667 0.776 0.439 edgecolor
newpath 582 319.5 moveto
592 316 lineto
582 312.5 lineto
closepath stroke
grestore
% Node13
gsave
[ /Rect [ 787 380 869 400 ]
  /Border [ 0 0 0 ]
  /Action << /Subtype /URI /URI ($comun_8cpp.html#b5388a972300b0a3d2e70c16097a3781) >>
  /Subtype /Link
/ANN pdfmark
[ /Rect [ 787 380 869 400 ]
  /Border [ 0 0 0 ]
  /Action << /Subtype /URI /URI ($comun_8cpp.html#b5388a972300b0a3d2e70c16097a3781) >>
  /Subtype /Link
/ANN pdfmark
1 setlinewidth
0.000 0.000 0.000 nodecolor
newpath 787 379 moveto
787 400 lineto
869 400 lineto
869 379 lineto
closepath stroke
0.000 0.000 0.000 nodecolor
10.00 /FreeSans.ttf set_font
828 386 moveto 66 -0.5 (escribe128b) alignedtext
grestore
% Node12->Node13
gsave
1 setlinewidth
solid
0.667 0.776 0.439 edgecolor
newpath 715 390 moveto
735 390 757 390 777 390 curveto
stroke
0.667 0.776 0.439 edgecolor
newpath 777 393.5 moveto
787 390 lineto
777 386.5 lineto
closepath fill
1 setlinewidth
solid
0.667 0.776 0.439 edgecolor
newpath 777 393.5 moveto
787 390 lineto
777 386.5 lineto
closepath stroke
grestore
% Node15
gsave
[ /Rect [ 908 332 1036 352 ]
  /Border [ 0 0 0 ]
  /Action << /Subtype /URI /URI ($Elias_8cpp.html#59732ce42a1e75fbbb382a6964ef4620) >>
  /Subtype /Link
/ANN pdfmark
[ /Rect [ 908 332 1036 352 ]
  /Border [ 0 0 0 ]
  /Action << /Subtype /URI /URI ($Elias_8cpp.html#59732ce42a1e75fbbb382a6964ef4620) >>
  /Subtype /Link
/ANN pdfmark
1 setlinewidth
0.000 0.000 0.000 nodecolor
newpath 908 331 moveto
908 352 lineto
1036 352 lineto
1036 331 lineto
closepath stroke
0.000 0.000 0.000 nodecolor
10.00 /FreeSans.ttf set_font
972 338 moveto 112 -0.5 (escribe_elias_gama2) alignedtext
grestore
% Node14->Node15
gsave
1 setlinewidth
solid
0.667 0.776 0.439 edgecolor
newpath 707 351 moveto
754 349 837 346 898 344 curveto
stroke
0.667 0.776 0.439 edgecolor
newpath 898 347.5 moveto
908 344 lineto
898 340.5 lineto
closepath fill
1 setlinewidth
solid
0.667 0.776 0.439 edgecolor
newpath 898 347.5 moveto
908 344 lineto
898 340.5 lineto
closepath stroke
grestore
% Node16
gsave
[ /Rect [ 1073 308 1145 328 ]
  /Border [ 0 0 0 ]
  /Action << /Subtype /URI /URI ($Elias_8cpp.html#7127ec8dff13cc2ad873693ca8933d38) >>
  /Subtype /Link
/ANN pdfmark
[ /Rect [ 1073 308 1145 328 ]
  /Border [ 0 0 0 ]
  /Action << /Subtype /URI /URI ($Elias_8cpp.html#7127ec8dff13cc2ad873693ca8933d38) >>
  /Subtype /Link
/ANN pdfmark
1 setlinewidth
0.000 0.000 0.000 nodecolor
newpath 1073 307 moveto
1073 328 lineto
1146 328 lineto
1146 307 lineto
closepath stroke
0.000 0.000 0.000 nodecolor
10.00 /FreeSans.ttf set_font
1109 314 moveto 57 -0.5 (piso_logb2) alignedtext
grestore
% Node15->Node16
gsave
1 setlinewidth
solid
0.667 0.776 0.439 edgecolor
newpath 1035 331 moveto
1044 330 1054 328 1063 327 curveto
stroke
0.667 0.776 0.439 edgecolor
newpath 1063.88 330.393 moveto
1073 325 lineto
1062.51 323.529 lineto
closepath fill
1 setlinewidth
solid
0.667 0.776 0.439 edgecolor
newpath 1063.88 330.393 moveto
1073 325 lineto
1062.51 323.529 lineto
closepath stroke
grestore
% Node18
gsave
[ /Rect [ 791 304 865 324 ]
  /Border [ 0 0 0 ]
  /Action << /Subtype /URI /URI ($comun_8hpp.html#3f1f97c70ac3ffba1584b0fc02661cab) >>
  /Subtype /Link
/ANN pdfmark
[ /Rect [ 791 304 865 324 ]
  /Border [ 0 0 0 ]
  /Action << /Subtype /URI /URI ($comun_8hpp.html#3f1f97c70ac3ffba1584b0fc02661cab) >>
  /Subtype /Link
/ANN pdfmark
1 setlinewidth
0.000 0.000 0.000 nodecolor
newpath 791 303 moveto
791 324 lineto
866 324 lineto
866 303 lineto
closepath stroke
0.000 0.000 0.000 nodecolor
10.00 /FreeSans.ttf set_font
828 310 moveto 59 -0.5 (longNDesp) alignedtext
grestore
% Node17->Node18
gsave
1 setlinewidth
solid
0.667 0.776 0.439 edgecolor
newpath 748 314 moveto
759 314 770 314 781 314 curveto
stroke
0.667 0.776 0.439 edgecolor
newpath 781 317.5 moveto
791 314 lineto
781 310.5 lineto
closepath fill
1 setlinewidth
solid
0.667 0.776 0.439 edgecolor
newpath 781 317.5 moveto
791 314 lineto
781 310.5 lineto
closepath stroke
grestore
% Node19
gsave
[ /Rect [ 799 266 857 286 ]
  /Border [ 0 0 0 ]
  /Action << /Subtype /URI /URI ($Pos_8cpp.html#ad8740377e9e19836d654491a170ac9a) >>
  /Subtype /Link
/ANN pdfmark
[ /Rect [ 799 266 857 286 ]
  /Border [ 0 0 0 ]
  /Action << /Subtype /URI /URI ($Pos_8cpp.html#ad8740377e9e19836d654491a170ac9a) >>
  /Subtype /Link
/ANN pdfmark
1 setlinewidth
0.000 0.000 0.000 nodecolor
newpath 799 265 moveto
799 286 lineto
857 286 lineto
857 265 lineto
closepath stroke
0.000 0.000 0.000 nodecolor
10.00 /FreeSans.ttf set_font
828 272 moveto 42 -0.5 (longPos) alignedtext
grestore
% Node17->Node19
gsave
1 setlinewidth
solid
0.667 0.776 0.439 edgecolor
newpath 716 303 moveto
739 298 767 291 789 285 curveto
stroke
0.667 0.776 0.439 edgecolor
newpath 789.881 288.393 moveto
799 283 lineto
788.508 281.529 lineto
closepath fill
1 setlinewidth
solid
0.667 0.776 0.439 edgecolor
newpath 789.881 288.393 moveto
799 283 lineto
788.508 281.529 lineto
closepath stroke
grestore
% Node20
gsave
[ /Rect [ 919 285 1025 305 ]
  /Border [ 0 0 0 ]
  /Action << /Subtype /URI /URI ($Elias_8cpp.html#214c4fd6adcbe1fe7de47c4ba521198a) >>
  /Subtype /Link
/ANN pdfmark
[ /Rect [ 919 285 1025 305 ]
  /Border [ 0 0 0 ]
  /Action << /Subtype /URI /URI ($Elias_8cpp.html#214c4fd6adcbe1fe7de47c4ba521198a) >>
  /Subtype /Link
/ANN pdfmark
1 setlinewidth
0.000 0.000 0.000 nodecolor
newpath 919 284 moveto
919 305 lineto
1026 305 lineto
1026 284 lineto
closepath stroke
0.000 0.000 0.000 nodecolor
10.00 /FreeSans.ttf set_font
972 291 moveto 91 -0.5 (long_elias_gama) alignedtext
grestore
% Node19->Node20
gsave
1 setlinewidth
solid
0.667 0.776 0.439 edgecolor
newpath 857 280 moveto
872 282 891 284 909 287 curveto
stroke
0.667 0.776 0.439 edgecolor
newpath 908.701 290.488 moveto
919 288 lineto
909.398 283.522 lineto
closepath fill
1 setlinewidth
solid
0.667 0.776 0.439 edgecolor
newpath 908.701 290.488 moveto
919 288 lineto
909.398 283.522 lineto
closepath stroke
grestore
% Node20->Node16
gsave
1 setlinewidth
solid
0.667 0.776 0.439 edgecolor
newpath 1026 304 moveto
1038 306 1051 309 1063 311 curveto
stroke
0.667 0.776 0.439 edgecolor
newpath 1062.7 314.488 moveto
1073 312 lineto
1063.4 307.522 lineto
closepath fill
1 setlinewidth
solid
0.667 0.776 0.439 edgecolor
newpath 1062.7 314.488 moveto
1073 312 lineto
1063.4 307.522 lineto
closepath stroke
grestore
% Node21->Node6
gsave
1 setlinewidth
solid
0.667 0.776 0.439 edgecolor
newpath 542 280 moveto
588 286 681 291 748 257 curveto
781 240 806 203 818 181 curveto
stroke
0.667 0.776 0.439 edgecolor
newpath 821.203 182.441 moveto
823 172 lineto
815.084 179.042 lineto
closepath fill
1 setlinewidth
solid
0.667 0.776 0.439 edgecolor
newpath 821.203 182.441 moveto
823 172 lineto
815.084 179.042 lineto
closepath stroke
grestore
% Node23
gsave
[ /Rect [ 640 228 700 248 ]
  /Border [ 0 0 0 ]
  /Action << /Subtype /URI /URI ($comun_8cpp.html#c7bf9e68bbdccea36ce786b806244ea1) >>
  /Subtype /Link
/ANN pdfmark
[ /Rect [ 640 228 700 248 ]
  /Border [ 0 0 0 ]
  /Action << /Subtype /URI /URI ($comun_8cpp.html#c7bf9e68bbdccea36ce786b806244ea1) >>
  /Subtype /Link
/ANN pdfmark
1 setlinewidth
0.000 0.000 0.000 nodecolor
newpath 640 227 moveto
640 248 lineto
700 248 lineto
700 227 lineto
closepath stroke
0.000 0.000 0.000 nodecolor
10.00 /FreeSans.ttf set_font
670 234 moveto 44 -0.5 (lee128b) alignedtext
grestore
% Node22->Node23
gsave
1 setlinewidth
solid
0.667 0.776 0.439 edgecolor
newpath 548 238 moveto
572 238 604 238 630 238 curveto
stroke
0.667 0.776 0.439 edgecolor
newpath 630 241.5 moveto
640 238 lineto
630 234.5 lineto
closepath fill
1 setlinewidth
solid
0.667 0.776 0.439 edgecolor
newpath 630 241.5 moveto
640 238 lineto
630 234.5 lineto
closepath stroke
grestore
% Node23->Node6
gsave
1 setlinewidth
solid
0.667 0.776 0.439 edgecolor
newpath 700 233 moveto
715 230 733 226 748 219 curveto
771 208 794 191 809 179 curveto
stroke
0.667 0.776 0.439 edgecolor
newpath 811.779 181.219 moveto
817 172 lineto
807.169 175.951 lineto
closepath fill
1 setlinewidth
solid
0.667 0.776 0.439 edgecolor
newpath 811.779 181.219 moveto
817 172 lineto
807.169 175.951 lineto
closepath stroke
grestore
% Node24->Node6
gsave
1 setlinewidth
solid
0.667 0.776 0.439 edgecolor
newpath 540 192 moveto
555 188 575 183 592 181 curveto
653 171 725 166 774 163 curveto
stroke
0.667 0.776 0.439 edgecolor
newpath 774 166.5 moveto
784 163 lineto
774 159.5 lineto
closepath fill
1 setlinewidth
solid
0.667 0.776 0.439 edgecolor
newpath 774 166.5 moveto
784 163 lineto
774 159.5 lineto
closepath stroke
grestore
% Node25
gsave
[ /Rect [ 617 190 723 210 ]
  /Border [ 0 0 0 ]
  /Action << /Subtype /URI /URI ($Elias_8cpp.html#95ee5a0ffb91f203612d2ce9d063ec36) >>
  /Subtype /Link
/ANN pdfmark
[ /Rect [ 617 190 723 210 ]
  /Border [ 0 0 0 ]
  /Action << /Subtype /URI /URI ($Elias_8cpp.html#95ee5a0ffb91f203612d2ce9d063ec36) >>
  /Subtype /Link
/ANN pdfmark
1 setlinewidth
0.000 0.000 0.000 nodecolor
newpath 617 189 moveto
617 210 lineto
723 210 lineto
723 189 lineto
closepath stroke
0.000 0.000 0.000 nodecolor
10.00 /FreeSans.ttf set_font
670 196 moveto 90 -0.5 (lee_elias_gama2) alignedtext
grestore
% Node24->Node25
gsave
1 setlinewidth
solid
0.667 0.776 0.439 edgecolor
newpath 540 200 moveto
558 200 583 200 607 200 curveto
stroke
0.667 0.776 0.439 edgecolor
newpath 607 203.5 moveto
617 200 lineto
607 196.5 lineto
closepath fill
1 setlinewidth
solid
0.667 0.776 0.439 edgecolor
newpath 607 203.5 moveto
617 200 lineto
607 196.5 lineto
closepath stroke
grestore
% Node25->Node6
gsave
1 setlinewidth
solid
0.667 0.776 0.439 edgecolor
newpath 716 189 moveto
736 185 758 179 777 174 curveto
stroke
0.667 0.776 0.439 edgecolor
newpath 777.881 177.393 moveto
787 172 lineto
776.508 170.529 lineto
closepath fill
1 setlinewidth
solid
0.667 0.776 0.439 edgecolor
newpath 777.881 177.393 moveto
787 172 lineto
776.508 170.529 lineto
closepath stroke
grestore
% Node26->Node11
gsave
1 setlinewidth
solid
0.667 0.776 0.439 edgecolor
newpath 426 316 moveto
438 316 450 317 462 317 curveto
stroke
0.667 0.776 0.439 edgecolor
newpath 462 320.5 moveto
472 317 lineto
462 313.5 lineto
closepath fill
1 setlinewidth
solid
0.667 0.776 0.439 edgecolor
newpath 462 320.5 moveto
472 317 lineto
462 313.5 lineto
closepath stroke
grestore
% Node26->Node12
gsave
1 setlinewidth
solid
0.667 0.776 0.439 edgecolor
newpath 399 324 moveto
455 337 553 361 615 377 curveto
stroke
0.667 0.776 0.439 edgecolor
newpath 614.508 380.471 moveto
625 379 lineto
615.881 373.607 lineto
closepath fill
1 setlinewidth
solid
0.667 0.776 0.439 edgecolor
newpath 614.508 380.471 moveto
625 379 lineto
615.881 373.607 lineto
closepath stroke
grestore
% Node26->Node21
gsave
1 setlinewidth
solid
0.667 0.776 0.439 edgecolor
newpath 404 303 moveto
427 298 455 290 477 285 curveto
stroke
0.667 0.776 0.439 edgecolor
newpath 477.881 288.393 moveto
487 283 lineto
476.508 281.529 lineto
closepath fill
1 setlinewidth
solid
0.667 0.776 0.439 edgecolor
newpath 477.881 288.393 moveto
487 283 lineto
476.508 281.529 lineto
closepath stroke
grestore
% Node26->Node22
gsave
1 setlinewidth
solid
0.667 0.776 0.439 edgecolor
newpath 379 303 moveto
402 291 440 272 472 257 curveto
475 255 478 254 482 252 curveto
stroke
0.667 0.776 0.439 edgecolor
newpath 483.283 255.26 moveto
491 248 lineto
480.44 248.863 lineto
closepath fill
1 setlinewidth
solid
0.667 0.776 0.439 edgecolor
newpath 483.283 255.26 moveto
491 248 lineto
480.44 248.863 lineto
closepath stroke
grestore
% Node26->Node24
gsave
1 setlinewidth
solid
0.667 0.776 0.439 edgecolor
newpath 375 303 moveto
391 292 416 274 436 257 curveto
454 241 454 232 472 219 curveto
474 217 477 215 480 214 curveto
stroke
0.667 0.776 0.439 edgecolor
newpath 481.958 216.916 moveto
489 209 lineto
478.559 210.797 lineto
closepath fill
1 setlinewidth
solid
0.667 0.776 0.439 edgecolor
newpath 481.958 216.916 moveto
489 209 lineto
478.559 210.797 lineto
closepath stroke
grestore
% Node26->Node26
gsave
1 setlinewidth
solid
0.667 0.776 0.439 edgecolor
newpath 309 324 moveto
287 333 303 342 358 342 curveto
402 342 421 336 416 329 curveto
stroke
0.667 0.776 0.439 edgecolor
newpath 417.441 325.797 moveto
407 324 lineto
414.042 331.916 lineto
closepath fill
1 setlinewidth
solid
0.667 0.776 0.439 edgecolor
newpath 417.441 325.797 moveto
407 324 lineto
414.042 331.916 lineto
closepath stroke
grestore
% Node28->Node6
gsave
1 setlinewidth
solid
0.667 0.776 0.439 edgecolor
newpath 400 56 moveto
474 39 632 13 748 67 curveto
781 83 805 119 818 142 curveto
stroke
0.667 0.776 0.439 edgecolor
newpath 815.084 143.958 moveto
823 151 lineto
821.203 140.559 lineto
closepath fill
1 setlinewidth
solid
0.667 0.776 0.439 edgecolor
newpath 815.084 143.958 moveto
823 151 lineto
821.203 140.559 lineto
closepath stroke
grestore
endpage
showpage
grestore
%%PageTrailer
%%EndPage: 1
%%Trailer
%%Pages: 1
%%BoundingBox: 36 36 1190 538
end
restore
%%EOF
