%!PS-Adobe-2.0
%%Creator: Graphviz version 2.12 (Mon Nov 16 18:34:03 UTC 2009)
%%For: (vtamara) Vladimir
%%Title: G
%%Pages: (atend)
%%BoundingBox: (atend)
%%EndComments
save
%%BeginProlog
/DotDict 200 dict def
DotDict begin

/setupLatin1 {
mark
/EncodingVector 256 array def
 EncodingVector 0

ISOLatin1Encoding 0 255 getinterval putinterval
EncodingVector 45 /hyphen put

% Set up ISO Latin 1 character encoding
/starnetISO {
        dup dup findfont dup length dict begin
        { 1 index /FID ne { def }{ pop pop } ifelse
        } forall
        /Encoding EncodingVector def
        currentdict end definefont
} def
/Times-Roman starnetISO def
/Times-Italic starnetISO def
/Times-Bold starnetISO def
/Times-BoldItalic starnetISO def
/Helvetica starnetISO def
/Helvetica-Oblique starnetISO def
/Helvetica-Bold starnetISO def
/Helvetica-BoldOblique starnetISO def
/Courier starnetISO def
/Courier-Oblique starnetISO def
/Courier-Bold starnetISO def
/Courier-BoldOblique starnetISO def
cleartomark
} bind def

%%BeginResource: procset graphviz 0 0
/coord-font-family /Times-Roman def
/default-font-family /Times-Roman def
/coordfont coord-font-family findfont 8 scalefont def

/InvScaleFactor 1.0 def
/set_scale {
       dup 1 exch div /InvScaleFactor exch def
       scale
} bind def

% styles
/solid { [] 0 setdash } bind def
/dashed { [9 InvScaleFactor mul dup ] 0 setdash } bind def
/dotted { [1 InvScaleFactor mul 6 InvScaleFactor mul] 0 setdash } bind def
/invis {/fill {newpath} def /stroke {newpath} def /show {pop newpath} def} bind def
/bold { 2 setlinewidth } bind def
/filled { } bind def
/unfilled { } bind def
/rounded { } bind def
/diagonals { } bind def

% hooks for setting color 
/nodecolor { sethsbcolor } bind def
/edgecolor { sethsbcolor } bind def
/graphcolor { sethsbcolor } bind def
/nopcolor {pop pop pop} bind def

/beginpage {	% i j npages
	/npages exch def
	/j exch def
	/i exch def
	/str 10 string def
	npages 1 gt {
		gsave
			coordfont setfont
			0 0 moveto
			(\() show i str cvs show (,) show j str cvs show (\)) show
		grestore
	} if
} bind def

/set_font {
	findfont exch
	scalefont setfont
} def

% draw aligned label in bounding box aligned to current point
/alignedtext {			% width adj text
	/text exch def
	/adj exch def
	/width exch def
	gsave
		width 0 gt {
			text stringwidth pop adj mul 0 rmoveto
		} if
		[] 0 setdash
		text show
	grestore
} def

/boxprim {				% xcorner ycorner xsize ysize
		4 2 roll
		moveto
		2 copy
		exch 0 rlineto
		0 exch rlineto
		pop neg 0 rlineto
		closepath
} bind def

/ellipse_path {
	/ry exch def
	/rx exch def
	/y exch def
	/x exch def
	matrix currentmatrix
	newpath
	x y translate
	rx ry scale
	0 0 1 0 360 arc
	setmatrix
} bind def

/endpage { showpage } bind def
/showpage { } def

/layercolorseq
	[	% layer color sequence - darkest to lightest
		[0 0 0]
		[.2 .8 .8]
		[.4 .8 .8]
		[.6 .8 .8]
		[.8 .8 .8]
	]
def

/layerlen layercolorseq length def

/setlayer {/maxlayer exch def /curlayer exch def
	layercolorseq curlayer 1 sub layerlen mod get
	aload pop sethsbcolor
	/nodecolor {nopcolor} def
	/edgecolor {nopcolor} def
	/graphcolor {nopcolor} def
} bind def

/onlayer { curlayer ne {invis} if } def

/onlayers {
	/myupper exch def
	/mylower exch def
	curlayer mylower lt
	curlayer myupper gt
	or
	{invis} if
} def

/curlayer 0 def

%%EndResource
%%EndProlog
%%BeginSetup
14 default-font-family set_font
1 setmiterlimit
% /arrowlength 10 def
% /arrowwidth 5 def

% make sure pdfmark is harmless for PS-interpreters other than Distiller
/pdfmark where {pop} {userdict /pdfmark /cleartomark load put} ifelse
% make '<<' and '>>' safe on PS Level 1 devices
/languagelevel where {pop languagelevel}{1} ifelse
2 lt {
    userdict (<<) cvn ([) cvn load put
    userdict (>>) cvn ([) cvn load put
} if

%%EndSetup
setupLatin1
%%Page: 1 1
%%PageBoundingBox: 36 36 642 472
%%PageOrientation: Portrait
gsave
36 36 642 472 boxprim clip newpath
0 0 1 beginpage
1 1 set_scale 0 rotate 40 40 translate
% Node1
gsave
0.000 0.000 0.749 nodecolor
newpath 116 406 moveto
116 427 lineto
220 427 lineto
220 406 lineto
closepath fill
1 setlinewidth
filled
0.000 0.000 0.000 nodecolor
newpath 116 406 moveto
116 427 lineto
220 427 lineto
220 406 lineto
closepath stroke
0.000 0.000 0.000 nodecolor
10.00 /FreeSans.ttf set_font
168 413 moveto 88 -0.5 (operaindice.cpp) alignedtext
grestore
% Node2
gsave
1 setlinewidth
0.000 0.000 0.749 nodecolor
newpath 32 174 moveto
32 195 lineto
96 195 lineto
96 174 lineto
closepath stroke
0.000 0.000 0.000 nodecolor
10.00 /FreeSans.ttf set_font
64 181 moveto 48 -0.5 (iostream) alignedtext
grestore
% Node1->Node2
gsave
1 setlinewidth
solid
0.667 0.776 0.439 edgecolor
newpath 152 406 moveto
141 397 126 384 117 370 curveto
85 316 71 241 66 205 curveto
stroke
0.667 0.776 0.439 edgecolor
newpath 69.4778 204.602 moveto
65 195 lineto
62.5125 205.299 lineto
closepath fill
1 setlinewidth
solid
0.667 0.776 0.439 edgecolor
newpath 69.4778 204.602 moveto
65 195 lineto
62.5125 205.299 lineto
closepath stroke
grestore
% Node3
gsave
1 setlinewidth
0.000 0.000 0.749 nodecolor
newpath 114 174 moveto
114 195 lineto
175 195 lineto
175 174 lineto
closepath stroke
0.000 0.000 0.000 nodecolor
10.00 /FreeSans.ttf set_font
144 181 moveto 45 -0.5 (iomanip) alignedtext
grestore
% Node1->Node3
gsave
1 setlinewidth
solid
0.667 0.776 0.439 edgecolor
newpath 154 406 moveto
144 397 132 384 126 370 curveto
105 312 115 292 126 232 curveto
128 223 132 213 135 204 curveto
stroke
0.667 0.776 0.439 edgecolor
newpath 138.137 205.56 moveto
139 195 lineto
131.74 202.717 lineto
closepath fill
1 setlinewidth
solid
0.667 0.776 0.439 edgecolor
newpath 138.137 205.56 moveto
139 195 lineto
131.74 202.717 lineto
closepath stroke
grestore
% Node4
gsave
1 setlinewidth
0.000 0.000 0.749 nodecolor
newpath 192 174 moveto
192 195 lineto
223 195 lineto
223 174 lineto
closepath stroke
0.000 0.000 0.000 nodecolor
10.00 /FreeSans.ttf set_font
207 181 moveto 15 -0.5 (list) alignedtext
grestore
% Node1->Node4
gsave
1 setlinewidth
solid
0.667 0.776 0.439 edgecolor
newpath 164 406 moveto
155 376 134 293 159 232 curveto
164 220 174 209 184 201 curveto
stroke
0.667 0.776 0.439 edgecolor
newpath 186.1 203.8 moveto
192 195 lineto
181.9 198.2 lineto
closepath fill
1 setlinewidth
solid
0.667 0.776 0.439 edgecolor
newpath 186.1 203.8 moveto
192 195 lineto
181.9 198.2 lineto
closepath stroke
grestore
% Node5
gsave
1 setlinewidth
0.000 0.000 0.749 nodecolor
newpath 244 116 moveto
244 137 lineto
294 137 lineto
294 116 lineto
closepath stroke
0.000 0.000 0.000 nodecolor
10.00 /FreeSans.ttf set_font
269 123 moveto 34 -0.5 (vector) alignedtext
grestore
% Node1->Node5
gsave
1 setlinewidth
solid
0.667 0.776 0.439 edgecolor
newpath 123 406 moveto
74 391 4 359 4 301 curveto
4 301 4 301 4 243 curveto
4 211 0 195 23 174 curveto
53 146 173 133 234 129 curveto
stroke
0.667 0.776 0.439 edgecolor
newpath 234.398 132.478 moveto
244 128 lineto
233.701 125.512 lineto
closepath fill
1 setlinewidth
solid
0.667 0.776 0.439 edgecolor
newpath 234.398 132.478 moveto
244 128 lineto
233.701 125.512 lineto
closepath stroke
grestore
% Node6
gsave
1 setlinewidth
0.000 0.000 0.749 nodecolor
newpath 168 348 moveto
168 369 lineto
226 369 lineto
226 348 lineto
closepath stroke
0.000 0.000 0.000 nodecolor
10.00 /FreeSans.ttf set_font
197 355 moveto 42 -0.5 (fstream) alignedtext
grestore
% Node1->Node6
gsave
1 setlinewidth
solid
0.667 0.776 0.439 edgecolor
newpath 174 406 moveto
178 398 183 387 187 378 curveto
stroke
0.667 0.776 0.439 edgecolor
newpath 190.203 379.441 moveto
192 369 lineto
184.084 376.042 lineto
closepath fill
1 setlinewidth
solid
0.667 0.776 0.439 edgecolor
newpath 190.203 379.441 moveto
192 369 lineto
184.084 376.042 lineto
closepath stroke
grestore
% Node7
gsave
1 setlinewidth
0.000 0.000 0.749 nodecolor
newpath 244 348 moveto
244 369 lineto
301 369 lineto
301 348 lineto
closepath stroke
0.000 0.000 0.000 nodecolor
10.00 /FreeSans.ttf set_font
272 355 moveto 41 -0.5 (istream) alignedtext
grestore
% Node1->Node7
gsave
1 setlinewidth
solid
0.667 0.776 0.439 edgecolor
newpath 188 406 moveto
204 397 227 384 245 374 curveto
stroke
0.667 0.776 0.439 edgecolor
newpath 246.958 376.916 moveto
254 369 lineto
243.559 370.797 lineto
closepath fill
1 setlinewidth
solid
0.667 0.776 0.439 edgecolor
newpath 246.958 376.916 moveto
254 369 lineto
243.559 370.797 lineto
closepath stroke
grestore
% Node8
gsave
[ /Rect [ 351 291 445 311 ]
  /Border [ 0 0 0 ]
  /Action << /Subtype /URI /URI ($RamDisco_8hpp.html) >>
  /Subtype /Link
/ANN pdfmark
[ /Rect [ 351 291 445 311 ]
  /Border [ 0 0 0 ]
  /Action << /Subtype /URI /URI ($RamDisco_8hpp.html) >>
  /Subtype /Link
/ANN pdfmark
1 setlinewidth
0.000 0.000 0.000 nodecolor
newpath 351 290 moveto
351 311 lineto
445 311 lineto
445 290 lineto
closepath stroke
0.000 0.000 0.000 nodecolor
10.00 /FreeSans.ttf set_font
398 297 moveto 78 -0.5 (RamDisco.hpp) alignedtext
grestore
% Node1->Node8
gsave
1 setlinewidth
solid
0.667 0.776 0.439 edgecolor
newpath 214 406 moveto
242 398 279 386 309 370 curveto
336 355 362 333 379 318 curveto
stroke
0.667 0.776 0.439 edgecolor
newpath 381.779 320.219 moveto
387 311 lineto
377.169 314.951 lineto
closepath fill
1 setlinewidth
solid
0.667 0.776 0.439 edgecolor
newpath 381.779 320.219 moveto
387 311 lineto
377.169 314.951 lineto
closepath stroke
grestore
% Node18
gsave
[ /Rect [ 356 349 464 369 ]
  /Border [ 0 0 0 ]
  /Action << /Subtype /URI /URI ($Operaciones_8hpp.html) >>
  /Subtype /Link
/ANN pdfmark
[ /Rect [ 356 349 464 369 ]
  /Border [ 0 0 0 ]
  /Action << /Subtype /URI /URI ($Operaciones_8hpp.html) >>
  /Subtype /Link
/ANN pdfmark
1 setlinewidth
0.000 0.000 0.000 nodecolor
newpath 356 348 moveto
356 369 lineto
465 369 lineto
465 348 lineto
closepath stroke
0.000 0.000 0.000 nodecolor
10.00 /FreeSans.ttf set_font
410 355 moveto 93 -0.5 (Operaciones.hpp) alignedtext
grestore
% Node1->Node18
gsave
1 setlinewidth
solid
0.667 0.776 0.439 edgecolor
newpath 214 406 moveto
255 396 315 381 358 371 curveto
stroke
0.667 0.776 0.439 edgecolor
newpath 358.881 374.393 moveto
368 369 lineto
357.508 367.529 lineto
closepath fill
1 setlinewidth
solid
0.667 0.776 0.439 edgecolor
newpath 358.881 374.393 moveto
368 369 lineto
357.508 367.529 lineto
closepath stroke
grestore
% Node8->Node5
gsave
1 setlinewidth
solid
0.667 0.776 0.439 edgecolor
newpath 387 290 moveto
369 271 332 232 307 196 curveto
296 180 285 161 278 146 curveto
stroke
0.667 0.776 0.439 edgecolor
newpath 281.26 144.717 moveto
274 137 lineto
274.863 147.56 lineto
closepath fill
1 setlinewidth
solid
0.667 0.776 0.439 edgecolor
newpath 281.26 144.717 moveto
274 137 lineto
274.863 147.56 lineto
closepath stroke
grestore
% Node9
gsave
[ /Rect [ 453 59 531 79 ]
  /Border [ 0 0 0 ]
  /Action << /Subtype /URI /URI ($comun_8hpp.html) >>
  /Subtype /Link
/ANN pdfmark
[ /Rect [ 453 59 531 79 ]
  /Border [ 0 0 0 ]
  /Action << /Subtype /URI /URI ($comun_8hpp.html) >>
  /Subtype /Link
/ANN pdfmark
1 setlinewidth
0.000 0.000 0.000 nodecolor
newpath 453 58 moveto
453 79 lineto
531 79 lineto
531 58 lineto
closepath stroke
0.000 0.000 0.000 nodecolor
10.00 /FreeSans.ttf set_font
492 65 moveto 62 -0.5 (comun.hpp) alignedtext
grestore
% Node8->Node9
gsave
1 setlinewidth
solid
0.667 0.776 0.439 edgecolor
newpath 443 290 moveto
488 276 552 248 575 196 curveto
593 153 546 108 515 85 curveto
stroke
0.667 0.776 0.439 edgecolor
newpath 517.1 82.2 moveto
507 79 lineto
512.9 87.8 lineto
closepath fill
1 setlinewidth
solid
0.667 0.776 0.439 edgecolor
newpath 517.1 82.2 moveto
507 79 lineto
512.9 87.8 lineto
closepath stroke
grestore
% Node14
gsave
[ /Rect [ 444 117 502 137 ]
  /Border [ 0 0 0 ]
  /Action << /Subtype /URI /URI ($Pos_8hpp.html) >>
  /Subtype /Link
/ANN pdfmark
[ /Rect [ 444 117 502 137 ]
  /Border [ 0 0 0 ]
  /Action << /Subtype /URI /URI ($Pos_8hpp.html) >>
  /Subtype /Link
/ANN pdfmark
1 setlinewidth
0.000 0.000 0.000 nodecolor
newpath 444 116 moveto
444 137 lineto
502 137 lineto
502 116 lineto
closepath stroke
0.000 0.000 0.000 nodecolor
10.00 /FreeSans.ttf set_font
473 123 moveto 42 -0.5 (Pos.hpp) alignedtext
grestore
% Node8->Node14
gsave
1 setlinewidth
solid
0.667 0.776 0.439 edgecolor
newpath 403 290 moveto
411 271 429 230 444 196 curveto
451 179 459 160 465 146 curveto
stroke
0.667 0.776 0.439 edgecolor
newpath 468.137 147.56 moveto
469 137 lineto
461.74 144.717 lineto
closepath fill
1 setlinewidth
solid
0.667 0.776 0.439 edgecolor
newpath 468.137 147.56 moveto
469 137 lineto
461.74 144.717 lineto
closepath stroke
grestore
% Node15
gsave
[ /Rect [ 506 175 566 195 ]
  /Border [ 0 0 0 ]
  /Action << /Subtype /URI /URI ($Doc_8hpp.html) >>
  /Subtype /Link
/ANN pdfmark
[ /Rect [ 506 175 566 195 ]
  /Border [ 0 0 0 ]
  /Action << /Subtype /URI /URI ($Doc_8hpp.html) >>
  /Subtype /Link
/ANN pdfmark
1 setlinewidth
0.000 0.000 0.000 nodecolor
newpath 506 174 moveto
506 195 lineto
567 195 lineto
567 174 lineto
closepath stroke
0.000 0.000 0.000 nodecolor
10.00 /FreeSans.ttf set_font
536 181 moveto 45 -0.5 (Doc.hpp) alignedtext
grestore
% Node8->Node15
gsave
1 setlinewidth
solid
0.667 0.776 0.439 edgecolor
newpath 430 290 moveto
450 282 474 270 492 254 curveto
507 240 520 220 527 205 curveto
stroke
0.667 0.776 0.439 edgecolor
newpath 530.536 205.585 moveto
531 195 lineto
524.036 202.985 lineto
closepath fill
1 setlinewidth
solid
0.667 0.776 0.439 edgecolor
newpath 530.536 205.585 moveto
531 195 lineto
524.036 202.985 lineto
closepath stroke
grestore
% Node16
gsave
[ /Rect [ 316 175 412 195 ]
  /Border [ 0 0 0 ]
  /Action << /Subtype /URI /URI ($NodoTrieS_8hpp.html) >>
  /Subtype /Link
/ANN pdfmark
[ /Rect [ 316 175 412 195 ]
  /Border [ 0 0 0 ]
  /Action << /Subtype /URI /URI ($NodoTrieS_8hpp.html) >>
  /Subtype /Link
/ANN pdfmark
1 setlinewidth
0.000 0.000 0.000 nodecolor
newpath 316 174 moveto
316 195 lineto
412 195 lineto
412 174 lineto
closepath stroke
0.000 0.000 0.000 nodecolor
10.00 /FreeSans.ttf set_font
364 181 moveto 80 -0.5 (NodoTrieS.hpp) alignedtext
grestore
% Node8->Node16
gsave
1 setlinewidth
solid
0.667 0.776 0.439 edgecolor
newpath 395 290 moveto
389 271 377 230 370 205 curveto
stroke
0.667 0.776 0.439 edgecolor
newpath 373.226 203.573 moveto
367 195 lineto
366.521 205.584 lineto
closepath fill
1 setlinewidth
solid
0.667 0.776 0.439 edgecolor
newpath 373.226 203.573 moveto
367 195 lineto
366.521 205.584 lineto
closepath stroke
grestore
% Node17
gsave
[ /Rect [ 168 233 264 253 ]
  /Border [ 0 0 0 ]
  /Action << /Subtype /URI /URI ($TrieSDisco_8hpp.html) >>
  /Subtype /Link
/ANN pdfmark
[ /Rect [ 168 233 264 253 ]
  /Border [ 0 0 0 ]
  /Action << /Subtype /URI /URI ($TrieSDisco_8hpp.html) >>
  /Subtype /Link
/ANN pdfmark
1 setlinewidth
0.000 0.000 0.000 nodecolor
newpath 168 232 moveto
168 253 lineto
264 253 lineto
264 232 lineto
closepath stroke
0.000 0.000 0.000 nodecolor
10.00 /FreeSans.ttf set_font
216 239 moveto 80 -0.5 (TrieSDisco.hpp) alignedtext
grestore
% Node8->Node17
gsave
1 setlinewidth
solid
0.667 0.776 0.439 edgecolor
newpath 363 290 moveto
333 280 290 266 258 256 curveto
stroke
0.667 0.776 0.439 edgecolor
newpath 258.584 252.521 moveto
248 253 lineto
256.573 259.226 lineto
closepath fill
1 setlinewidth
solid
0.667 0.776 0.439 edgecolor
newpath 258.584 252.521 moveto
248 253 lineto
256.573 259.226 lineto
closepath stroke
grestore
% Node10
gsave
1 setlinewidth
0.000 0.000 0.749 nodecolor
newpath 348 0 moveto
348 21 lineto
380 21 lineto
380 0 lineto
closepath stroke
0.000 0.000 0.000 nodecolor
10.00 /FreeSans.ttf set_font
364 7 moveto 16 -0.5 (set) alignedtext
grestore
% Node9->Node10
gsave
1 setlinewidth
solid
0.667 0.776 0.439 edgecolor
newpath 468 58 moveto
445 48 412 33 389 22 curveto
stroke
0.667 0.776 0.439 edgecolor
newpath 390.56 18.8631 moveto
380 18 lineto
387.717 25.2598 lineto
closepath fill
1 setlinewidth
solid
0.667 0.776 0.439 edgecolor
newpath 390.56 18.8631 moveto
380 18 lineto
387.717 25.2598 lineto
closepath stroke
grestore
% Node11
gsave
1 setlinewidth
0.000 0.000 0.749 nodecolor
newpath 398 0 moveto
398 21 lineto
444 21 lineto
444 0 lineto
closepath stroke
0.000 0.000 0.000 nodecolor
10.00 /FreeSans.ttf set_font
421 7 moveto 30 -0.5 (string) alignedtext
grestore
% Node9->Node11
gsave
1 setlinewidth
solid
0.667 0.776 0.439 edgecolor
newpath 478 58 moveto
467 49 453 37 441 27 curveto
stroke
0.667 0.776 0.439 edgecolor
newpath 443.1 24.2 moveto
433 21 lineto
438.9 29.8 lineto
closepath fill
1 setlinewidth
solid
0.667 0.776 0.439 edgecolor
newpath 443.1 24.2 moveto
433 21 lineto
438.9 29.8 lineto
closepath stroke
grestore
% Node12
gsave
1 setlinewidth
0.000 0.000 0.749 nodecolor
newpath 462 0 moveto
462 21 lineto
523 21 lineto
523 0 lineto
closepath stroke
0.000 0.000 0.000 nodecolor
10.00 /FreeSans.ttf set_font
492 7 moveto 45 -0.5 (ostream) alignedtext
grestore
% Node9->Node12
gsave
1 setlinewidth
solid
0.667 0.776 0.439 edgecolor
newpath 492 58 moveto
492 50 492 40 492 31 curveto
stroke
0.667 0.776 0.439 edgecolor
newpath 495.5 31 moveto
492 21 lineto
488.5 31 lineto
closepath fill
1 setlinewidth
solid
0.667 0.776 0.439 edgecolor
newpath 495.5 31 moveto
492 21 lineto
488.5 31 lineto
closepath stroke
grestore
% Node13
gsave
1 setlinewidth
0.000 0.000 0.749 nodecolor
newpath 540 0 moveto
540 21 lineto
599 21 lineto
599 0 lineto
closepath stroke
0.000 0.000 0.000 nodecolor
10.00 /FreeSans.ttf set_font
569 7 moveto 43 -0.5 (sstream) alignedtext
grestore
% Node9->Node13
gsave
1 setlinewidth
solid
0.667 0.776 0.439 edgecolor
newpath 507 58 moveto
518 49 535 37 548 27 curveto
stroke
0.667 0.776 0.439 edgecolor
newpath 550.1 29.8 moveto
556 21 lineto
545.9 24.2 lineto
closepath fill
1 setlinewidth
solid
0.667 0.776 0.439 edgecolor
newpath 550.1 29.8 moveto
556 21 lineto
545.9 24.2 lineto
closepath stroke
grestore
% Node14->Node9
gsave
1 setlinewidth
solid
0.667 0.776 0.439 edgecolor
newpath 477 116 moveto
479 108 482 98 485 89 curveto
stroke
0.667 0.776 0.439 edgecolor
newpath 488.536 89.5847 moveto
489 79 lineto
482.036 86.9849 lineto
closepath fill
1 setlinewidth
solid
0.667 0.776 0.439 edgecolor
newpath 488.536 89.5847 moveto
489 79 lineto
482.036 86.9849 lineto
closepath stroke
grestore
% Node15->Node9
gsave
1 setlinewidth
solid
0.667 0.776 0.439 edgecolor
newpath 532 174 moveto
527 160 518 136 511 116 curveto
507 107 503 97 500 88 curveto
stroke
0.667 0.776 0.439 edgecolor
newpath 503.26 86.7166 moveto
496 79 lineto
496.863 89.5596 lineto
closepath fill
1 setlinewidth
solid
0.667 0.776 0.439 edgecolor
newpath 503.26 86.7166 moveto
496 79 lineto
496.863 89.5596 lineto
closepath stroke
grestore
% Node16->Node5
gsave
1 setlinewidth
solid
0.667 0.776 0.439 edgecolor
newpath 346 174 moveto
331 165 310 152 294 142 curveto
stroke
0.667 0.776 0.439 edgecolor
newpath 295.441 138.797 moveto
285 137 lineto
292.042 144.916 lineto
closepath fill
1 setlinewidth
solid
0.667 0.776 0.439 edgecolor
newpath 295.441 138.797 moveto
285 137 lineto
292.042 144.916 lineto
closepath stroke
grestore
% Node16->Node10
gsave
1 setlinewidth
solid
0.667 0.776 0.439 edgecolor
newpath 364 174 moveto
364 145 364 68 364 31 curveto
stroke
0.667 0.776 0.439 edgecolor
newpath 367.5 31 moveto
364 21 lineto
360.5 31 lineto
closepath fill
1 setlinewidth
solid
0.667 0.776 0.439 edgecolor
newpath 367.5 31 moveto
364 21 lineto
360.5 31 lineto
closepath stroke
grestore
% Node16->Node11
gsave
1 setlinewidth
solid
0.667 0.776 0.439 edgecolor
newpath 368 174 moveto
377 145 402 68 415 31 curveto
stroke
0.667 0.776 0.439 edgecolor
newpath 418.479 31.584 moveto
418 21 lineto
411.774 29.5725 lineto
closepath fill
1 setlinewidth
solid
0.667 0.776 0.439 edgecolor
newpath 418.479 31.584 moveto
418 21 lineto
411.774 29.5725 lineto
closepath stroke
grestore
% Node16->Node14
gsave
1 setlinewidth
solid
0.667 0.776 0.439 edgecolor
newpath 385 174 moveto
402 165 427 152 445 142 curveto
stroke
0.667 0.776 0.439 edgecolor
newpath 446.958 144.916 moveto
454 137 lineto
443.559 138.797 lineto
closepath fill
1 setlinewidth
solid
0.667 0.776 0.439 edgecolor
newpath 446.958 144.916 moveto
454 137 lineto
443.559 138.797 lineto
closepath stroke
grestore
% Node17->Node2
gsave
1 setlinewidth
solid
0.667 0.776 0.439 edgecolor
newpath 187 232 moveto
162 222 126 209 100 199 curveto
stroke
0.667 0.776 0.439 edgecolor
newpath 100.585 195.464 moveto
90 195 lineto
97.9849 201.964 lineto
closepath fill
1 setlinewidth
solid
0.667 0.776 0.439 edgecolor
newpath 100.585 195.464 moveto
90 195 lineto
97.9849 201.964 lineto
closepath stroke
grestore
% Node17->Node3
gsave
1 setlinewidth
solid
0.667 0.776 0.439 edgecolor
newpath 202 232 moveto
191 223 176 211 164 201 curveto
stroke
0.667 0.776 0.439 edgecolor
newpath 166.1 198.2 moveto
156 195 lineto
161.9 203.8 lineto
closepath fill
1 setlinewidth
solid
0.667 0.776 0.439 edgecolor
newpath 166.1 198.2 moveto
156 195 lineto
161.9 203.8 lineto
closepath stroke
grestore
% Node17->Node4
gsave
1 setlinewidth
solid
0.667 0.776 0.439 edgecolor
newpath 214 232 moveto
213 224 212 214 210 205 curveto
stroke
0.667 0.776 0.439 edgecolor
newpath 213.478 204.602 moveto
209 195 lineto
206.512 205.299 lineto
closepath fill
1 setlinewidth
solid
0.667 0.776 0.439 edgecolor
newpath 213.478 204.602 moveto
209 195 lineto
206.512 205.299 lineto
closepath stroke
grestore
% Node17->Node5
gsave
1 setlinewidth
solid
0.667 0.776 0.439 edgecolor
newpath 221 232 moveto
230 213 249 171 260 146 curveto
stroke
0.667 0.776 0.439 edgecolor
newpath 263.137 147.56 moveto
264 137 lineto
256.74 144.717 lineto
closepath fill
1 setlinewidth
solid
0.667 0.776 0.439 edgecolor
newpath 263.137 147.56 moveto
264 137 lineto
256.74 144.717 lineto
closepath stroke
grestore
% Node17->Node14
gsave
1 setlinewidth
solid
0.667 0.776 0.439 edgecolor
newpath 264 236 moveto
316 227 395 212 421 196 curveto
440 184 454 162 463 146 curveto
stroke
0.667 0.776 0.439 edgecolor
newpath 466.203 147.441 moveto
468 137 lineto
460.084 144.042 lineto
closepath fill
1 setlinewidth
solid
0.667 0.776 0.439 edgecolor
newpath 466.203 147.441 moveto
468 137 lineto
460.084 144.042 lineto
closepath stroke
grestore
% Node17->Node15
gsave
1 setlinewidth
solid
0.667 0.776 0.439 edgecolor
newpath 264 234 moveto
327 223 437 203 496 192 curveto
stroke
0.667 0.776 0.439 edgecolor
newpath 496.881 195.393 moveto
506 190 lineto
495.508 188.529 lineto
closepath fill
1 setlinewidth
solid
0.667 0.776 0.439 edgecolor
newpath 496.881 195.393 moveto
506 190 lineto
495.508 188.529 lineto
closepath stroke
grestore
% Node17->Node16
gsave
1 setlinewidth
solid
0.667 0.776 0.439 edgecolor
newpath 244 232 moveto
268 222 303 209 329 199 curveto
stroke
0.667 0.776 0.439 edgecolor
newpath 330.283 202.26 moveto
338 195 lineto
327.44 195.863 lineto
closepath fill
1 setlinewidth
solid
0.667 0.776 0.439 edgecolor
newpath 330.283 202.26 moveto
338 195 lineto
327.44 195.863 lineto
closepath stroke
grestore
% Node18->Node8
gsave
1 setlinewidth
solid
0.667 0.776 0.439 edgecolor
newpath 408 348 moveto
406 340 404 330 402 321 curveto
stroke
0.667 0.776 0.439 edgecolor
newpath 405.393 320.119 moveto
400 311 lineto
398.529 321.492 lineto
closepath fill
1 setlinewidth
solid
0.667 0.776 0.439 edgecolor
newpath 405.393 320.119 moveto
400 311 lineto
398.529 321.492 lineto
closepath stroke
grestore
endpage
showpage
grestore
%%PageTrailer
%%EndPage: 1
%%Trailer
%%Pages: 1
%%BoundingBox: 36 36 642 472
end
restore
%%EOF
