%!PS-Adobe-2.0
%%Creator: Graphviz version 2.12 (Mon Nov 16 18:34:03 UTC 2009)
%%For: (vtamara) Vladimir
%%Title: G
%%Pages: (atend)
%%BoundingBox: (atend)
%%EndComments
save
%%BeginProlog
/DotDict 200 dict def
DotDict begin

/setupLatin1 {
mark
/EncodingVector 256 array def
 EncodingVector 0

ISOLatin1Encoding 0 255 getinterval putinterval
EncodingVector 45 /hyphen put

% Set up ISO Latin 1 character encoding
/starnetISO {
        dup dup findfont dup length dict begin
        { 1 index /FID ne { def }{ pop pop } ifelse
        } forall
        /Encoding EncodingVector def
        currentdict end definefont
} def
/Times-Roman starnetISO def
/Times-Italic starnetISO def
/Times-Bold starnetISO def
/Times-BoldItalic starnetISO def
/Helvetica starnetISO def
/Helvetica-Oblique starnetISO def
/Helvetica-Bold starnetISO def
/Helvetica-BoldOblique starnetISO def
/Courier starnetISO def
/Courier-Oblique starnetISO def
/Courier-Bold starnetISO def
/Courier-BoldOblique starnetISO def
cleartomark
} bind def

%%BeginResource: procset graphviz 0 0
/coord-font-family /Times-Roman def
/default-font-family /Times-Roman def
/coordfont coord-font-family findfont 8 scalefont def

/InvScaleFactor 1.0 def
/set_scale {
       dup 1 exch div /InvScaleFactor exch def
       scale
} bind def

% styles
/solid { [] 0 setdash } bind def
/dashed { [9 InvScaleFactor mul dup ] 0 setdash } bind def
/dotted { [1 InvScaleFactor mul 6 InvScaleFactor mul] 0 setdash } bind def
/invis {/fill {newpath} def /stroke {newpath} def /show {pop newpath} def} bind def
/bold { 2 setlinewidth } bind def
/filled { } bind def
/unfilled { } bind def
/rounded { } bind def
/diagonals { } bind def

% hooks for setting color 
/nodecolor { sethsbcolor } bind def
/edgecolor { sethsbcolor } bind def
/graphcolor { sethsbcolor } bind def
/nopcolor {pop pop pop} bind def

/beginpage {	% i j npages
	/npages exch def
	/j exch def
	/i exch def
	/str 10 string def
	npages 1 gt {
		gsave
			coordfont setfont
			0 0 moveto
			(\() show i str cvs show (,) show j str cvs show (\)) show
		grestore
	} if
} bind def

/set_font {
	findfont exch
	scalefont setfont
} def

% draw aligned label in bounding box aligned to current point
/alignedtext {			% width adj text
	/text exch def
	/adj exch def
	/width exch def
	gsave
		width 0 gt {
			text stringwidth pop adj mul 0 rmoveto
		} if
		[] 0 setdash
		text show
	grestore
} def

/boxprim {				% xcorner ycorner xsize ysize
		4 2 roll
		moveto
		2 copy
		exch 0 rlineto
		0 exch rlineto
		pop neg 0 rlineto
		closepath
} bind def

/ellipse_path {
	/ry exch def
	/rx exch def
	/y exch def
	/x exch def
	matrix currentmatrix
	newpath
	x y translate
	rx ry scale
	0 0 1 0 360 arc
	setmatrix
} bind def

/endpage { showpage } bind def
/showpage { } def

/layercolorseq
	[	% layer color sequence - darkest to lightest
		[0 0 0]
		[.2 .8 .8]
		[.4 .8 .8]
		[.6 .8 .8]
		[.8 .8 .8]
	]
def

/layerlen layercolorseq length def

/setlayer {/maxlayer exch def /curlayer exch def
	layercolorseq curlayer 1 sub layerlen mod get
	aload pop sethsbcolor
	/nodecolor {nopcolor} def
	/edgecolor {nopcolor} def
	/graphcolor {nopcolor} def
} bind def

/onlayer { curlayer ne {invis} if } def

/onlayers {
	/myupper exch def
	/mylower exch def
	curlayer mylower lt
	curlayer myupper gt
	or
	{invis} if
} def

/curlayer 0 def

%%EndResource
%%EndProlog
%%BeginSetup
14 default-font-family set_font
1 setmiterlimit
% /arrowlength 10 def
% /arrowwidth 5 def

% make sure pdfmark is harmless for PS-interpreters other than Distiller
/pdfmark where {pop} {userdict /pdfmark /cleartomark load put} ifelse
% make '<<' and '>>' safe on PS Level 1 devices
/languagelevel where {pop languagelevel}{1} ifelse
2 lt {
    userdict (<<) cvn ([) cvn load put
    userdict (>>) cvn ([) cvn load put
} if

%%EndSetup
setupLatin1
%%Page: 1 1
%%PageBoundingBox: 36 36 906 577
%%PageOrientation: Portrait
gsave
36 36 906 577 boxprim clip newpath
0 0 1 beginpage
1 1 set_scale 0 rotate 40 40 translate
% Node1
gsave
0.000 0.000 0.749 nodecolor
newpath 1 303 moveto
1 324 lineto
54 324 lineto
54 303 lineto
closepath fill
1 setlinewidth
filled
0.000 0.000 0.000 nodecolor
newpath 1 303 moveto
1 324 lineto
54 324 lineto
54 303 lineto
closepath stroke
0.000 0.000 0.000 nodecolor
10.00 /FreeSans.ttf set_font
27 310 moveto 37 -0.5 (indexa) alignedtext
grestore
% Node2
gsave
[ /Rect [ 91 513 209 533 ]
  /Border [ 0 0 0 ]
  /Action << /Subtype /URI /URI ($Operaciones_8cpp.html#962fb5669dbd34dd87d7bbfbffa042cc) >>
  /Subtype /Link
/ANN pdfmark
[ /Rect [ 91 513 209 533 ]
  /Border [ 0 0 0 ]
  /Action << /Subtype /URI /URI ($Operaciones_8cpp.html#962fb5669dbd34dd87d7bbfbffa042cc) >>
  /Subtype /Link
/ANN pdfmark
1 setlinewidth
0.000 0.000 0.000 nodecolor
newpath 91 512 moveto
91 533 lineto
210 533 lineto
210 512 lineto
closepath stroke
0.000 0.000 0.000 nodecolor
10.00 /FreeSans.ttf set_font
150 519 moveto 103 -0.5 (determinaFormato) alignedtext
grestore
% Node1->Node2
gsave
1 setlinewidth
solid
0.667 0.776 0.439 edgecolor
newpath 29 324 moveto
37 360 64 477 90 504 curveto
91 505 92 506 92 506 curveto
stroke
0.667 0.776 0.439 edgecolor
newpath 90.738 509.365 moveto
101 512 lineto
94.6209 503.541 lineto
closepath fill
1 setlinewidth
solid
0.667 0.776 0.439 edgecolor
newpath 90.738 509.365 moveto
101 512 lineto
94.6209 503.541 lineto
closepath stroke
grestore
% Node3
gsave
[ /Rect [ 124 475 176 495 ]
  /Border [ 0 0 0 ]
  /Action << /Subtype /URI /URI ($comun_8cpp.html#e156c1dd4bf7eda3abfcdf5d86cb85aa) >>
  /Subtype /Link
/ANN pdfmark
[ /Rect [ 124 475 176 495 ]
  /Border [ 0 0 0 ]
  /Action << /Subtype /URI /URI ($comun_8cpp.html#e156c1dd4bf7eda3abfcdf5d86cb85aa) >>
  /Subtype /Link
/ANN pdfmark
1 setlinewidth
0.000 0.000 0.000 nodecolor
newpath 124 474 moveto
124 495 lineto
176 495 lineto
176 474 lineto
closepath stroke
0.000 0.000 0.000 nodecolor
10.00 /FreeSans.ttf set_font
150 481 moveto 36 -0.5 (estalla) alignedtext
grestore
% Node1->Node3
gsave
1 setlinewidth
solid
0.667 0.776 0.439 edgecolor
newpath 29 324 moveto
33 350 50 421 90 461 curveto
97 468 105 473 114 476 curveto
stroke
0.667 0.776 0.439 edgecolor
newpath 113.416 479.479 moveto
124 479 lineto
115.427 472.774 lineto
closepath fill
1 setlinewidth
solid
0.667 0.776 0.439 edgecolor
newpath 113.416 479.479 moveto
124 479 lineto
115.427 472.774 lineto
closepath stroke
grestore
% Node4
gsave
[ /Rect [ 465 328 579 348 ]
  /Border [ 0 0 0 ]
  /Action << /Subtype /URI /URI ($classNodoTrieS.html#2fc30ff9fad0ba7dff585e913f34cc84) >>
  /Subtype /Link
/ANN pdfmark
[ /Rect [ 465 328 579 348 ]
  /Border [ 0 0 0 ]
  /Action << /Subtype /URI /URI ($classNodoTrieS.html#2fc30ff9fad0ba7dff585e913f34cc84) >>
  /Subtype /Link
/ANN pdfmark
1 setlinewidth
0.000 0.000 0.000 nodecolor
newpath 465 327 moveto
465 348 lineto
580 348 lineto
580 327 lineto
closepath stroke
0.000 0.000 0.000 nodecolor
10.00 /FreeSans.ttf set_font
522 334 moveto 99 -0.5 (NodoTrieS::inserta) alignedtext
grestore
% Node1->Node4
gsave
1 setlinewidth
solid
0.667 0.776 0.439 edgecolor
newpath 32 303 moveto
41 285 62 251 90 238 curveto
139 215 157 233 210 238 curveto
308 246 337 239 428 276 curveto
455 286 483 305 501 320 curveto
stroke
0.667 0.776 0.439 edgecolor
newpath 499.169 323.049 moveto
509 327 lineto
503.779 317.781 lineto
closepath fill
1 setlinewidth
solid
0.667 0.776 0.439 edgecolor
newpath 499.169 323.049 moveto
509 327 lineto
503.779 317.781 lineto
closepath stroke
grestore
% Node7
gsave
[ /Rect [ 246 437 428 457 ]
  /Border [ 0 0 0 ]
  /Action << /Subtype /URI /URI ($classNodoTrieS.html#3fec20c7c9b038e391e5a0fc07085927) >>
  /Subtype /Link
/ANN pdfmark
[ /Rect [ 246 437 428 457 ]
  /Border [ 0 0 0 ]
  /Action << /Subtype /URI /URI ($classNodoTrieS.html#3fec20c7c9b038e391e5a0fc07085927) >>
  /Subtype /Link
/ANN pdfmark
1 setlinewidth
0.000 0.000 0.000 nodecolor
newpath 246 436 moveto
246 457 lineto
428 457 lineto
428 436 lineto
closepath stroke
0.000 0.000 0.000 nodecolor
10.00 /FreeSans.ttf set_font
337 443 moveto 166 -0.5 (NodoTrieS::insertaConEtiqueta) alignedtext
grestore
% Node1->Node7
gsave
1 setlinewidth
solid
0.667 0.776 0.439 edgecolor
newpath 30 324 moveto
36 346 53 399 90 423 curveto
135 451 193 458 242 457 curveto
stroke
0.667 0.776 0.439 edgecolor
newpath 242 460.5 moveto
252 457 lineto
242 453.5 lineto
closepath fill
1 setlinewidth
solid
0.667 0.776 0.439 edgecolor
newpath 242 460.5 moveto
252 457 lineto
242 453.5 lineto
closepath stroke
grestore
% Node9
gsave
[ /Rect [ 487 394 557 414 ]
  /Border [ 0 0 0 ]
  /Action << /Subtype /URI /URI ($comun_8cpp.html#1f33d728a35dd4b43d2622c5471f5157) >>
  /Subtype /Link
/ANN pdfmark
[ /Rect [ 487 394 557 414 ]
  /Border [ 0 0 0 ]
  /Action << /Subtype /URI /URI ($comun_8cpp.html#1f33d728a35dd4b43d2622c5471f5157) >>
  /Subtype /Link
/ANN pdfmark
1 setlinewidth
0.000 0.000 0.000 nodecolor
newpath 487 393 moveto
487 414 lineto
558 414 lineto
558 393 lineto
closepath stroke
0.000 0.000 0.000 nodecolor
10.00 /FreeSans.ttf set_font
522 400 moveto 55 -0.5 (normaliza) alignedtext
grestore
% Node1->Node9
gsave
1 setlinewidth
solid
0.667 0.776 0.439 edgecolor
newpath 32 324 moveto
41 341 61 375 90 390 curveto
158 423 381 413 477 407 curveto
stroke
0.667 0.776 0.439 edgecolor
newpath 477.398 410.478 moveto
487 406 lineto
476.701 403.512 lineto
closepath fill
1 setlinewidth
solid
0.667 0.776 0.439 edgecolor
newpath 477.398 410.478 moveto
487 406 lineto
476.701 403.512 lineto
closepath stroke
grestore
% Node11
gsave
[ /Rect [ 119 361 181 381 ]
  /Border [ 0 0 0 ]
  /Action << /Subtype /URI /URI ($leeHTML_8cpp.html#250ca448b53ddf40ef05ee20dbe3a235) >>
  /Subtype /Link
/ANN pdfmark
[ /Rect [ 119 361 181 381 ]
  /Border [ 0 0 0 ]
  /Action << /Subtype /URI /URI ($leeHTML_8cpp.html#250ca448b53ddf40ef05ee20dbe3a235) >>
  /Subtype /Link
/ANN pdfmark
1 setlinewidth
0.000 0.000 0.000 nodecolor
newpath 119 360 moveto
119 381 lineto
182 381 lineto
182 360 lineto
closepath stroke
0.000 0.000 0.000 nodecolor
10.00 /FreeSans.ttf set_font
150 367 moveto 47 -0.5 (leeHTML) alignedtext
grestore
% Node1->Node11
gsave
1 setlinewidth
solid
0.667 0.776 0.439 edgecolor
newpath 46 324 moveto
58 331 75 340 90 347 curveto
97 350 104 353 111 356 curveto
stroke
0.667 0.776 0.439 edgecolor
newpath 110.415 359.536 moveto
121 360 lineto
113.015 353.036 lineto
closepath fill
1 setlinewidth
solid
0.667 0.776 0.439 edgecolor
newpath 110.415 359.536 moveto
121 360 lineto
113.015 353.036 lineto
closepath stroke
grestore
% Node13
gsave
[ /Rect [ 122 285 178 305 ]
  /Border [ 0 0 0 ]
  /Action << /Subtype /URI /URI ($leeODT_8cpp.html#c69c2cacaeed4d55fa0e9e1d1f3d9abb) >>
  /Subtype /Link
/ANN pdfmark
[ /Rect [ 122 285 178 305 ]
  /Border [ 0 0 0 ]
  /Action << /Subtype /URI /URI ($leeODT_8cpp.html#c69c2cacaeed4d55fa0e9e1d1f3d9abb) >>
  /Subtype /Link
/ANN pdfmark
1 setlinewidth
0.000 0.000 0.000 nodecolor
newpath 122 284 moveto
122 305 lineto
179 305 lineto
179 284 lineto
closepath stroke
0.000 0.000 0.000 nodecolor
10.00 /FreeSans.ttf set_font
150 291 moveto 41 -0.5 (leeODT) alignedtext
grestore
% Node1->Node13
gsave
1 setlinewidth
solid
0.667 0.776 0.439 edgecolor
newpath 54 310 moveto
71 307 93 303 112 300 curveto
stroke
0.667 0.776 0.439 edgecolor
newpath 112.398 303.478 moveto
122 299 lineto
111.701 296.512 lineto
closepath fill
1 setlinewidth
solid
0.667 0.776 0.439 edgecolor
newpath 112.398 303.478 moveto
122 299 lineto
111.701 296.512 lineto
closepath stroke
grestore
% Node15
gsave
[ /Rect [ 306 323 368 343 ]
  /Border [ 0 0 0 ]
  /Action << /Subtype /URI /URI ($NodoTrieS_8cpp.html#e8422311e58bfd8cfdfcc83509128cf7) >>
  /Subtype /Link
/ANN pdfmark
[ /Rect [ 306 323 368 343 ]
  /Border [ 0 0 0 ]
  /Action << /Subtype /URI /URI ($NodoTrieS_8cpp.html#e8422311e58bfd8cfdfcc83509128cf7) >>
  /Subtype /Link
/ANN pdfmark
1 setlinewidth
0.000 0.000 0.000 nodecolor
newpath 306 322 moveto
306 343 lineto
369 343 lineto
369 322 lineto
closepath stroke
0.000 0.000 0.000 nodecolor
10.00 /FreeSans.ttf set_font
337 329 moveto 47 -0.5 (leeTexto) alignedtext
grestore
% Node1->Node15
gsave
1 setlinewidth
solid
0.667 0.776 0.439 edgecolor
newpath 54 316 moveto
109 319 231 326 296 330 curveto
stroke
0.667 0.776 0.439 edgecolor
newpath 295.701 333.488 moveto
306 331 lineto
296.398 326.522 lineto
closepath fill
1 setlinewidth
solid
0.667 0.776 0.439 edgecolor
newpath 295.701 333.488 moveto
306 331 lineto
296.398 326.522 lineto
closepath stroke
grestore
% Node22
gsave
[ /Rect [ 124 247 176 267 ]
  /Border [ 0 0 0 ]
  /Action << /Subtype /URI /URI ($leePDF_8cpp.html#a38881dfe2f1239b61a3421cf9fd6290) >>
  /Subtype /Link
/ANN pdfmark
[ /Rect [ 124 247 176 267 ]
  /Border [ 0 0 0 ]
  /Action << /Subtype /URI /URI ($leePDF_8cpp.html#a38881dfe2f1239b61a3421cf9fd6290) >>
  /Subtype /Link
/ANN pdfmark
1 setlinewidth
0.000 0.000 0.000 nodecolor
newpath 124 246 moveto
124 267 lineto
177 267 lineto
177 246 lineto
closepath stroke
0.000 0.000 0.000 nodecolor
10.00 /FreeSans.ttf set_font
150 253 moveto 37 -0.5 (leePDF) alignedtext
grestore
% Node1->Node22
gsave
1 setlinewidth
solid
0.667 0.776 0.439 edgecolor
newpath 43 303 moveto
56 295 74 283 90 276 curveto
98 272 106 269 114 267 curveto
stroke
0.667 0.776 0.439 edgecolor
newpath 115.427 270.226 moveto
124 264 lineto
113.416 263.521 lineto
closepath fill
1 setlinewidth
solid
0.667 0.776 0.439 edgecolor
newpath 115.427 270.226 moveto
124 264 lineto
113.416 263.521 lineto
closepath stroke
grestore
% Node23
gsave
[ /Rect [ 123 171 177 191 ]
  /Border [ 0 0 0 ]
  /Action << /Subtype /URI /URI ($leeXML_8cpp.html#43301893734e326281369fc4c857caf1) >>
  /Subtype /Link
/ANN pdfmark
[ /Rect [ 123 171 177 191 ]
  /Border [ 0 0 0 ]
  /Action << /Subtype /URI /URI ($leeXML_8cpp.html#43301893734e326281369fc4c857caf1) >>
  /Subtype /Link
/ANN pdfmark
1 setlinewidth
0.000 0.000 0.000 nodecolor
newpath 123 170 moveto
123 191 lineto
178 191 lineto
178 170 lineto
closepath stroke
0.000 0.000 0.000 nodecolor
10.00 /FreeSans.ttf set_font
150 177 moveto 39 -0.5 (leeXML) alignedtext
grestore
% Node1->Node23
gsave
1 setlinewidth
solid
0.667 0.776 0.439 edgecolor
newpath 31 303 moveto
38 281 58 232 90 205 curveto
96 199 105 195 113 191 curveto
stroke
0.667 0.776 0.439 edgecolor
newpath 114.427 194.226 moveto
123 188 lineto
112.416 187.521 lineto
closepath fill
1 setlinewidth
solid
0.667 0.776 0.439 edgecolor
newpath 114.427 194.226 moveto
123 188 lineto
112.416 187.521 lineto
closepath stroke
grestore
% Node24
gsave
[ /Rect [ 109 133 191 153 ]
  /Border [ 0 0 0 ]
  /Action << /Subtype /URI /URI ($Operaciones_8cpp.html#e28ef4ade6bbd39872a25057c6037582) >>
  /Subtype /Link
/ANN pdfmark
[ /Rect [ 109 133 191 153 ]
  /Border [ 0 0 0 ]
  /Action << /Subtype /URI /URI ($Operaciones_8cpp.html#e28ef4ade6bbd39872a25057c6037582) >>
  /Subtype /Link
/ANN pdfmark
1 setlinewidth
0.000 0.000 0.000 nodecolor
newpath 109 132 moveto
109 153 lineto
191 153 lineto
191 132 lineto
closepath stroke
0.000 0.000 0.000 nodecolor
10.00 /FreeSans.ttf set_font
150 139 moveto 66 -0.5 (prefijoASitio) alignedtext
grestore
% Node1->Node24
gsave
1 setlinewidth
solid
0.667 0.776 0.439 edgecolor
newpath 28 303 moveto
33 275 48 201 90 162 curveto
93 159 96 157 100 155 curveto
stroke
0.667 0.776 0.439 edgecolor
newpath 101.283 158.26 moveto
109 151 lineto
98.4404 151.863 lineto
closepath fill
1 setlinewidth
solid
0.667 0.776 0.439 edgecolor
newpath 101.283 158.26 moveto
109 151 lineto
98.4404 151.863 lineto
closepath stroke
grestore
% Node25
gsave
[ /Rect [ 103 76 197 96 ]
  /Border [ 0 0 0 ]
  /Action << /Subtype /URI /URI ($sha256_8cpp.html#23c461a74498c51def2406c5ab6aae67) >>
  /Subtype /Link
/ANN pdfmark
[ /Rect [ 103 76 197 96 ]
  /Border [ 0 0 0 ]
  /Action << /Subtype /URI /URI ($sha256_8cpp.html#23c461a74498c51def2406c5ab6aae67) >>
  /Subtype /Link
/ANN pdfmark
1 setlinewidth
0.000 0.000 0.000 nodecolor
newpath 103 75 moveto
103 96 lineto
197 96 lineto
197 75 lineto
closepath stroke
0.000 0.000 0.000 nodecolor
10.00 /FreeSans.ttf set_font
150 82 moveto 78 -0.5 (sha256archivo) alignedtext
grestore
% Node1->Node25
gsave
1 setlinewidth
solid
0.667 0.776 0.439 edgecolor
newpath 28 303 moveto
32 272 46 181 90 124 curveto
98 115 108 107 118 101 curveto
stroke
0.667 0.776 0.439 edgecolor
newpath 119.958 103.916 moveto
127 96 lineto
116.559 97.7969 lineto
closepath fill
1 setlinewidth
solid
0.667 0.776 0.439 edgecolor
newpath 119.958 103.916 moveto
127 96 lineto
116.559 97.7969 lineto
closepath stroke
grestore
% Node4->Node4
gsave
1 setlinewidth
solid
0.667 0.776 0.439 edgecolor
newpath 468 348 moveto
444 357 462 366 522 366 curveto
571 366 592 360 585 353 curveto
stroke
0.667 0.776 0.439 edgecolor
newpath 586.441 349.797 moveto
576 348 lineto
583.042 355.916 lineto
closepath fill
1 setlinewidth
solid
0.667 0.776 0.439 edgecolor
newpath 586.441 349.797 moveto
576 348 lineto
583.042 355.916 lineto
closepath stroke
grestore
% Node5
gsave
[ /Rect [ 627 354 761 374 ]
  /Border [ 0 0 0 ]
  /Action << /Subtype /URI /URI ($classNodoTrieS.html#4f1525cf7f147f71e7be74c15d4f87a0) >>
  /Subtype /Link
/ANN pdfmark
[ /Rect [ 627 354 761 374 ]
  /Border [ 0 0 0 ]
  /Action << /Subtype /URI /URI ($classNodoTrieS.html#4f1525cf7f147f71e7be74c15d4f87a0) >>
  /Subtype /Link
/ANN pdfmark
1 setlinewidth
0.000 0.000 0.000 nodecolor
newpath 627 353 moveto
627 374 lineto
761 374 lineto
761 353 lineto
closepath stroke
0.000 0.000 0.000 nodecolor
10.00 /FreeSans.ttf set_font
694 360 moveto 118 -0.5 (NodoTrieS::NodoTrieS) alignedtext
grestore
% Node4->Node5
gsave
1 setlinewidth
solid
0.667 0.776 0.439 edgecolor
newpath 580 347 moveto
592 349 604 350 617 352 curveto
stroke
0.667 0.776 0.439 edgecolor
newpath 616.508 355.471 moveto
627 354 lineto
617.881 348.607 lineto
closepath fill
1 setlinewidth
solid
0.667 0.776 0.439 edgecolor
newpath 616.508 355.471 moveto
627 354 lineto
617.881 348.607 lineto
closepath stroke
grestore
% Node6
gsave
[ /Rect [ 617 316 771 336 ]
  /Border [ 0 0 0 ]
  /Action << /Subtype /URI /URI ($comun_8cpp.html#c74356d5b37d454e0ddce0de8fac34f8) >>
  /Subtype /Link
/ANN pdfmark
[ /Rect [ 617 316 771 336 ]
  /Border [ 0 0 0 ]
  /Action << /Subtype /URI /URI ($comun_8cpp.html#c74356d5b37d454e0ddce0de8fac34f8) >>
  /Subtype /Link
/ANN pdfmark
1 setlinewidth
0.000 0.000 0.000 nodecolor
newpath 617 315 moveto
617 336 lineto
772 336 lineto
772 315 lineto
closepath stroke
0.000 0.000 0.000 nodecolor
10.00 /FreeSans.ttf set_font
694 322 moveto 139 -0.5 (prefijo_comun_mas_largo) alignedtext
grestore
% Node4->Node6
gsave
1 setlinewidth
solid
0.667 0.776 0.439 edgecolor
newpath 580 334 moveto
589 333 598 333 607 332 curveto
stroke
0.667 0.776 0.439 edgecolor
newpath 607.398 335.478 moveto
617 331 lineto
606.701 328.512 lineto
closepath fill
1 setlinewidth
solid
0.667 0.776 0.439 edgecolor
newpath 607.398 335.478 moveto
617 331 lineto
606.701 328.512 lineto
closepath stroke
grestore
% Node7->Node4
gsave
1 setlinewidth
solid
0.667 0.776 0.439 edgecolor
newpath 356 436 moveto
389 417 458 376 496 353 curveto
stroke
0.667 0.776 0.439 edgecolor
newpath 497.958 355.916 moveto
505 348 lineto
494.559 349.797 lineto
closepath fill
1 setlinewidth
solid
0.667 0.776 0.439 edgecolor
newpath 497.958 355.916 moveto
505 348 lineto
494.559 349.797 lineto
closepath stroke
grestore
% Node8
gsave
[ /Rect [ 476 470 568 490 ]
  /Border [ 0 0 0 ]
  /Action << /Subtype /URI /URI ($NodoTrieS_8cpp.html#059ce4cc73c3c7588eb0edc6cb879942) >>
  /Subtype /Link
/ANN pdfmark
[ /Rect [ 476 470 568 490 ]
  /Border [ 0 0 0 ]
  /Action << /Subtype /URI /URI ($NodoTrieS_8cpp.html#059ce4cc73c3c7588eb0edc6cb879942) >>
  /Subtype /Link
/ANN pdfmark
1 setlinewidth
0.000 0.000 0.000 nodecolor
newpath 476 469 moveto
476 490 lineto
568 490 lineto
568 469 lineto
closepath stroke
0.000 0.000 0.000 nodecolor
10.00 /FreeSans.ttf set_font
522 476 moveto 76 -0.5 (es_signo_punt) alignedtext
grestore
% Node7->Node8
gsave
1 setlinewidth
solid
0.667 0.776 0.439 edgecolor
newpath 393 457 moveto
417 461 443 466 466 470 curveto
stroke
0.667 0.776 0.439 edgecolor
newpath 465.508 473.471 moveto
476 472 lineto
466.881 466.607 lineto
closepath fill
1 setlinewidth
solid
0.667 0.776 0.439 edgecolor
newpath 465.508 473.471 moveto
476 472 lineto
466.881 466.607 lineto
closepath stroke
grestore
% Node7->Node9
gsave
1 setlinewidth
solid
0.667 0.776 0.439 edgecolor
newpath 385 436 moveto
413 429 449 421 477 414 curveto
stroke
0.667 0.776 0.439 edgecolor
newpath 477.881 417.393 moveto
487 412 lineto
476.508 410.529 lineto
closepath fill
1 setlinewidth
solid
0.667 0.776 0.439 edgecolor
newpath 477.881 417.393 moveto
487 412 lineto
476.508 410.529 lineto
closepath stroke
grestore
% Node10
gsave
[ /Rect [ 635 406 753 426 ]
  /Border [ 0 0 0 ]
  /Action << /Subtype /URI /URI ($comun_8cpp.html#bc69e612ecd81636d091e0b60fdf327e) >>
  /Subtype /Link
/ANN pdfmark
[ /Rect [ 635 406 753 426 ]
  /Border [ 0 0 0 ]
  /Action << /Subtype /URI /URI ($comun_8cpp.html#bc69e612ecd81636d091e0b60fdf327e) >>
  /Subtype /Link
/ANN pdfmark
1 setlinewidth
0.000 0.000 0.000 nodecolor
newpath 635 405 moveto
635 426 lineto
753 426 lineto
753 405 lineto
closepath stroke
0.000 0.000 0.000 nodecolor
10.00 /FreeSans.ttf set_font
694 412 moveto 102 -0.5 (normalizaCaracter) alignedtext
grestore
% Node7->Node10
gsave
1 setlinewidth
solid
0.667 0.776 0.439 edgecolor
newpath 428 439 moveto
489 433 569 427 625 422 curveto
stroke
0.667 0.776 0.439 edgecolor
newpath 625.398 425.478 moveto
635 421 lineto
624.701 418.512 lineto
closepath fill
1 setlinewidth
solid
0.667 0.776 0.439 edgecolor
newpath 625.398 425.478 moveto
635 421 lineto
624.701 418.512 lineto
closepath stroke
grestore
% Node9->Node10
gsave
1 setlinewidth
solid
0.667 0.776 0.439 edgecolor
newpath 558 407 moveto
577 408 602 410 625 411 curveto
stroke
0.667 0.776 0.439 edgecolor
newpath 624.701 414.488 moveto
635 412 lineto
625.398 407.522 lineto
closepath fill
1 setlinewidth
solid
0.667 0.776 0.439 edgecolor
newpath 624.701 414.488 moveto
635 412 lineto
625.398 407.522 lineto
closepath stroke
grestore
% Node12
gsave
[ /Rect [ 276 361 398 381 ]
  /Border [ 0 0 0 ]
  /Action << /Subtype /URI /URI ($leeHTML_8cpp.html#098130ed8eab7e70593552c3450c5fee) >>
  /Subtype /Link
/ANN pdfmark
[ /Rect [ 276 361 398 381 ]
  /Border [ 0 0 0 ]
  /Action << /Subtype /URI /URI ($leeHTML_8cpp.html#098130ed8eab7e70593552c3450c5fee) >>
  /Subtype /Link
/ANN pdfmark
1 setlinewidth
0.000 0.000 0.000 nodecolor
newpath 276 360 moveto
276 381 lineto
399 381 lineto
399 360 lineto
closepath stroke
0.000 0.000 0.000 nodecolor
10.00 /FreeSans.ttf set_font
337 367 moveto 107 -0.5 (insertaNormalizada) alignedtext
grestore
% Node11->Node12
gsave
1 setlinewidth
solid
0.667 0.776 0.439 edgecolor
newpath 182 371 moveto
205 371 237 371 266 371 curveto
stroke
0.667 0.776 0.439 edgecolor
newpath 266 374.5 moveto
276 371 lineto
266 367.5 lineto
closepath fill
1 setlinewidth
solid
0.667 0.776 0.439 edgecolor
newpath 266 374.5 moveto
276 371 lineto
266 367.5 lineto
closepath stroke
grestore
% Node12->Node4
gsave
1 setlinewidth
solid
0.667 0.776 0.439 edgecolor
newpath 399 360 moveto
417 357 437 353 455 350 curveto
stroke
0.667 0.776 0.439 edgecolor
newpath 455.881 353.393 moveto
465 348 lineto
454.508 346.529 lineto
closepath fill
1 setlinewidth
solid
0.667 0.776 0.439 edgecolor
newpath 455.881 353.393 moveto
465 348 lineto
454.508 346.529 lineto
closepath stroke
grestore
% Node12->Node9
gsave
1 setlinewidth
solid
0.667 0.776 0.439 edgecolor
newpath 393 381 moveto
420 386 452 392 477 396 curveto
stroke
0.667 0.776 0.439 edgecolor
newpath 476.508 399.471 moveto
487 398 lineto
477.881 392.607 lineto
closepath fill
1 setlinewidth
solid
0.667 0.776 0.439 edgecolor
newpath 476.508 399.471 moveto
487 398 lineto
477.881 392.607 lineto
closepath stroke
grestore
% Node14
gsave
[ /Rect [ 300 285 374 305 ]
  /Border [ 0 0 0 ]
  /Action << /Subtype /URI /URI ($leeODT_8cpp.html#481a5a769b145674dc3274f02d21fdbb) >>
  /Subtype /Link
/ANN pdfmark
[ /Rect [ 300 285 374 305 ]
  /Border [ 0 0 0 ]
  /Action << /Subtype /URI /URI ($leeODT_8cpp.html#481a5a769b145674dc3274f02d21fdbb) >>
  /Subtype /Link
/ANN pdfmark
1 setlinewidth
0.000 0.000 0.000 nodecolor
newpath 300 284 moveto
300 305 lineto
375 305 lineto
375 284 lineto
closepath stroke
0.000 0.000 0.000 nodecolor
10.00 /FreeSans.ttf set_font
337 291 moveto 59 -0.5 (aplicaXSLT) alignedtext
grestore
% Node13->Node14
gsave
1 setlinewidth
solid
0.667 0.776 0.439 edgecolor
newpath 179 295 moveto
209 295 255 295 290 295 curveto
stroke
0.667 0.776 0.439 edgecolor
newpath 290 298.5 moveto
300 295 lineto
290 291.5 lineto
closepath fill
1 setlinewidth
solid
0.667 0.776 0.439 edgecolor
newpath 290 298.5 moveto
300 295 lineto
290 291.5 lineto
closepath stroke
grestore
% Node13->Node15
gsave
1 setlinewidth
solid
0.667 0.776 0.439 edgecolor
newpath 179 301 moveto
211 307 261 318 296 325 curveto
stroke
0.667 0.776 0.439 edgecolor
newpath 295.508 328.471 moveto
306 327 lineto
296.881 321.607 lineto
closepath fill
1 setlinewidth
solid
0.667 0.776 0.439 edgecolor
newpath 295.508 328.471 moveto
306 327 lineto
296.881 321.607 lineto
closepath stroke
grestore
% Node16
gsave
[ /Rect [ 308 190 366 210 ]
  /Border [ 0 0 0 ]
  /Action << /Subtype /URI /URI ($leeODT_8cpp.html#b61277e3d14b11c5a54b80773dcae95a) >>
  /Subtype /Link
/ANN pdfmark
[ /Rect [ 308 190 366 210 ]
  /Border [ 0 0 0 ]
  /Action << /Subtype /URI /URI ($leeODT_8cpp.html#b61277e3d14b11c5a54b80773dcae95a) >>
  /Subtype /Link
/ANN pdfmark
1 setlinewidth
0.000 0.000 0.000 nodecolor
newpath 308 189 moveto
308 210 lineto
367 210 lineto
367 189 lineto
closepath stroke
0.000 0.000 0.000 nodecolor
10.00 /FreeSans.ttf set_font
337 196 moveto 43 -0.5 (prepara) alignedtext
grestore
% Node13->Node16
gsave
1 setlinewidth
solid
0.667 0.776 0.439 edgecolor
newpath 179 287 moveto
189 284 200 280 210 276 curveto
248 258 289 232 314 216 curveto
stroke
0.667 0.776 0.439 edgecolor
newpath 316.1 218.8 moveto
322 210 lineto
311.9 213.2 lineto
closepath fill
1 setlinewidth
solid
0.667 0.776 0.439 edgecolor
newpath 316.1 218.8 moveto
322 210 lineto
311.9 213.2 lineto
closepath stroke
grestore
% Node15->Node4
gsave
1 setlinewidth
solid
0.667 0.776 0.439 edgecolor
newpath 369 334 moveto
392 334 425 335 455 336 curveto
stroke
0.667 0.776 0.439 edgecolor
newpath 455 339.5 moveto
465 336 lineto
455 332.5 lineto
closepath fill
1 setlinewidth
solid
0.667 0.776 0.439 edgecolor
newpath 455 339.5 moveto
465 336 lineto
455 332.5 lineto
closepath stroke
grestore
% Node15->Node9
gsave
1 setlinewidth
solid
0.667 0.776 0.439 edgecolor
newpath 369 337 moveto
387 339 409 344 428 352 curveto
446 359 448 365 464 375 curveto
473 379 481 384 490 389 curveto
stroke
0.667 0.776 0.439 edgecolor
newpath 488.44 392.137 moveto
499 393 lineto
491.283 385.74 lineto
closepath fill
1 setlinewidth
solid
0.667 0.776 0.439 edgecolor
newpath 488.44 392.137 moveto
499 393 lineto
491.283 385.74 lineto
closepath stroke
grestore
% Node17
gsave
[ /Rect [ 471 152 573 172 ]
  /Border [ 0 0 0 ]
  /Action << /Subtype /URI /URI ($comun_8cpp.html#55db9e79615822cbc40390b2c2ab10fd) >>
  /Subtype /Link
/ANN pdfmark
[ /Rect [ 471 152 573 172 ]
  /Border [ 0 0 0 ]
  /Action << /Subtype /URI /URI ($comun_8cpp.html#55db9e79615822cbc40390b2c2ab10fd) >>
  /Subtype /Link
/ANN pdfmark
1 setlinewidth
0.000 0.000 0.000 nodecolor
newpath 471 151 moveto
471 172 lineto
573 172 lineto
573 151 lineto
closepath stroke
0.000 0.000 0.000 nodecolor
10.00 /FreeSans.ttf set_font
522 158 moveto 86 -0.5 (directorio_temp) alignedtext
grestore
% Node16->Node17
gsave
1 setlinewidth
solid
0.667 0.776 0.439 edgecolor
newpath 367 194 moveto
393 189 432 181 463 174 curveto
stroke
0.667 0.776 0.439 edgecolor
newpath 463.881 177.393 moveto
473 172 lineto
462.508 170.529 lineto
closepath fill
1 setlinewidth
solid
0.667 0.776 0.439 edgecolor
newpath 463.881 177.393 moveto
473 172 lineto
462.508 170.529 lineto
closepath stroke
grestore
% Node18
gsave
[ /Rect [ 489 190 555 210 ]
  /Border [ 0 0 0 ]
  /Action << /Subtype /URI /URI ($leeODT_8cpp.html#bb9f8e651699cb8afeaa92e4c360c47a) >>
  /Subtype /Link
/ANN pdfmark
[ /Rect [ 489 190 555 210 ]
  /Border [ 0 0 0 ]
  /Action << /Subtype /URI /URI ($leeODT_8cpp.html#bb9f8e651699cb8afeaa92e4c360c47a) >>
  /Subtype /Link
/ANN pdfmark
1 setlinewidth
0.000 0.000 0.000 nodecolor
newpath 489 189 moveto
489 210 lineto
556 210 lineto
556 189 lineto
closepath stroke
0.000 0.000 0.000 nodecolor
10.00 /FreeSans.ttf set_font
522 196 moveto 51 -0.5 (extraezip) alignedtext
grestore
% Node16->Node18
gsave
1 setlinewidth
solid
0.667 0.776 0.439 edgecolor
newpath 367 200 moveto
398 200 444 200 479 200 curveto
stroke
0.667 0.776 0.439 edgecolor
newpath 479 203.5 moveto
489 200 lineto
479 196.5 lineto
closepath fill
1 setlinewidth
solid
0.667 0.776 0.439 edgecolor
newpath 479 203.5 moveto
489 200 lineto
479 196.5 lineto
closepath stroke
grestore
% Node19
gsave
[ /Rect [ 660 190 728 210 ]
  /Border [ 0 0 0 ]
  /Action << /Subtype /URI /URI ($funzipuno_8cpp.html#4f263e043a55b1ad587682abcd279c9b) >>
  /Subtype /Link
/ANN pdfmark
[ /Rect [ 660 190 728 210 ]
  /Border [ 0 0 0 ]
  /Action << /Subtype /URI /URI ($funzipuno_8cpp.html#4f263e043a55b1ad587682abcd279c9b) >>
  /Subtype /Link
/ANN pdfmark
1 setlinewidth
0.000 0.000 0.000 nodecolor
newpath 660 189 moveto
660 210 lineto
728 210 lineto
728 189 lineto
closepath stroke
0.000 0.000 0.000 nodecolor
10.00 /FreeSans.ttf set_font
694 196 moveto 52 -0.5 (unzipUno) alignedtext
grestore
% Node18->Node19
gsave
1 setlinewidth
solid
0.667 0.776 0.439 edgecolor
newpath 556 200 moveto
583 200 621 200 650 200 curveto
stroke
0.667 0.776 0.439 edgecolor
newpath 650 203.5 moveto
660 200 lineto
650 196.5 lineto
closepath fill
1 setlinewidth
solid
0.667 0.776 0.439 edgecolor
newpath 650 203.5 moveto
660 200 lineto
650 196.5 lineto
closepath stroke
grestore
% Node20
gsave
[ /Rect [ 820 209 850 229 ]
  /Border [ 0 0 0 ]
  /Action << /Subtype /URI /URI ($funzipuno_8cpp.html#324627cf8964a10784459105e5f8a183) >>
  /Subtype /Link
/ANN pdfmark
[ /Rect [ 820 209 850 229 ]
  /Border [ 0 0 0 ]
  /Action << /Subtype /URI /URI ($funzipuno_8cpp.html#324627cf8964a10784459105e5f8a183) >>
  /Subtype /Link
/ANN pdfmark
1 setlinewidth
0.000 0.000 0.000 nodecolor
newpath 820 208 moveto
820 229 lineto
851 229 lineto
851 208 lineto
closepath stroke
0.000 0.000 0.000 nodecolor
10.00 /FreeSans.ttf set_font
835 215 moveto 15 -0.5 (err) alignedtext
grestore
% Node19->Node20
gsave
1 setlinewidth
solid
0.667 0.776 0.439 edgecolor
newpath 728 205 moveto
753 208 787 212 810 216 curveto
stroke
0.667 0.776 0.439 edgecolor
newpath 809.701 219.488 moveto
820 217 lineto
810.398 212.522 lineto
closepath fill
1 setlinewidth
solid
0.667 0.776 0.439 edgecolor
newpath 809.701 219.488 moveto
820 217 lineto
810.398 212.522 lineto
closepath stroke
grestore
% Node21
gsave
[ /Rect [ 809 171 861 191 ]
  /Border [ 0 0 0 ]
  /Action << /Subtype /URI /URI ($funzipuno_8cpp.html#ecb1826a5ec50e6578954980daf315b0) >>
  /Subtype /Link
/ANN pdfmark
[ /Rect [ 809 171 861 191 ]
  /Border [ 0 0 0 ]
  /Action << /Subtype /URI /URI ($funzipuno_8cpp.html#ecb1826a5ec50e6578954980daf315b0) >>
  /Subtype /Link
/ANN pdfmark
1 setlinewidth
0.000 0.000 0.000 nodecolor
newpath 809 170 moveto
809 191 lineto
862 191 lineto
862 170 lineto
closepath stroke
0.000 0.000 0.000 nodecolor
10.00 /FreeSans.ttf set_font
835 177 moveto 37 -0.5 (updcrc) alignedtext
grestore
% Node19->Node21
gsave
1 setlinewidth
solid
0.667 0.776 0.439 edgecolor
newpath 728 195 moveto
750 192 777 189 799 186 curveto
stroke
0.667 0.776 0.439 edgecolor
newpath 799.398 189.478 moveto
809 185 lineto
798.701 182.512 lineto
closepath fill
1 setlinewidth
solid
0.667 0.776 0.439 edgecolor
newpath 799.398 189.478 moveto
809 185 lineto
798.701 182.512 lineto
closepath stroke
grestore
% Node22->Node15
gsave
1 setlinewidth
solid
0.667 0.776 0.439 edgecolor
newpath 177 262 moveto
188 265 200 270 210 276 curveto
230 288 226 302 246 314 curveto
262 322 280 327 296 330 curveto
stroke
0.667 0.776 0.439 edgecolor
newpath 295.701 333.488 moveto
306 331 lineto
296.398 326.522 lineto
closepath fill
1 setlinewidth
solid
0.667 0.776 0.439 edgecolor
newpath 295.701 333.488 moveto
306 331 lineto
296.398 326.522 lineto
closepath stroke
grestore
% Node22->Node17
gsave
1 setlinewidth
solid
0.667 0.776 0.439 edgecolor
newpath 160 246 moveto
176 228 210 195 246 181 curveto
316 155 403 153 461 156 curveto
stroke
0.667 0.776 0.439 edgecolor
newpath 460.701 159.488 moveto
471 157 lineto
461.398 152.522 lineto
closepath fill
1 setlinewidth
solid
0.667 0.776 0.439 edgecolor
newpath 460.701 159.488 moveto
471 157 lineto
461.398 152.522 lineto
closepath stroke
grestore
% Node26
gsave
[ /Rect [ 295 114 379 134 ]
  /Border [ 0 0 0 ]
  /Action << /Subtype /URI /URI ($sha256_8cpp.html#342ef15f8c70a70f56bfbe5e0d785646) >>
  /Subtype /Link
/ANN pdfmark
[ /Rect [ 295 114 379 134 ]
  /Border [ 0 0 0 ]
  /Action << /Subtype /URI /URI ($sha256_8cpp.html#342ef15f8c70a70f56bfbe5e0d785646) >>
  /Subtype /Link
/ANN pdfmark
1 setlinewidth
0.000 0.000 0.000 nodecolor
newpath 295 113 moveto
295 134 lineto
380 134 lineto
380 113 lineto
closepath stroke
0.000 0.000 0.000 nodecolor
10.00 /FreeSans.ttf set_font
337 120 moveto 69 -0.5 (hexaDeHash) alignedtext
grestore
% Node25->Node26
gsave
1 setlinewidth
solid
0.667 0.776 0.439 edgecolor
newpath 197 96 moveto
224 101 258 108 285 113 curveto
stroke
0.667 0.776 0.439 edgecolor
newpath 284.508 116.471 moveto
295 115 lineto
285.881 109.607 lineto
closepath fill
1 setlinewidth
solid
0.667 0.776 0.439 edgecolor
newpath 284.508 116.471 moveto
295 115 lineto
285.881 109.607 lineto
closepath stroke
grestore
% Node27
gsave
[ /Rect [ 294 76 380 96 ]
  /Border [ 0 0 0 ]
  /Action << /Subtype /URI /URI ($sha256_8cpp.html#53db56f3eb9f35c59b134533be31c301) >>
  /Subtype /Link
/ANN pdfmark
[ /Rect [ 294 76 380 96 ]
  /Border [ 0 0 0 ]
  /Action << /Subtype /URI /URI ($sha256_8cpp.html#53db56f3eb9f35c59b134533be31c301) >>
  /Subtype /Link
/ANN pdfmark
1 setlinewidth
0.000 0.000 0.000 nodecolor
newpath 294 75 moveto
294 96 lineto
381 96 lineto
381 75 lineto
closepath stroke
0.000 0.000 0.000 nodecolor
10.00 /FreeSans.ttf set_font
337 82 moveto 71 -0.5 (sha256_done) alignedtext
grestore
% Node25->Node27
gsave
1 setlinewidth
solid
0.667 0.776 0.439 edgecolor
newpath 197 86 moveto
224 86 256 86 284 86 curveto
stroke
0.667 0.776 0.439 edgecolor
newpath 284 89.5001 moveto
294 86 lineto
284 82.5001 lineto
closepath fill
1 setlinewidth
solid
0.667 0.776 0.439 edgecolor
newpath 284 89.5001 moveto
294 86 lineto
284 82.5001 lineto
closepath stroke
grestore
% Node28
gsave
[ /Rect [ 299 38 375 58 ]
  /Border [ 0 0 0 ]
  /Action << /Subtype /URI /URI ($sha256_8cpp.html#6290ad544b02c822c2ca6c30b8d1ee07) >>
  /Subtype /Link
/ANN pdfmark
[ /Rect [ 299 38 375 58 ]
  /Border [ 0 0 0 ]
  /Action << /Subtype /URI /URI ($sha256_8cpp.html#6290ad544b02c822c2ca6c30b8d1ee07) >>
  /Subtype /Link
/ANN pdfmark
1 setlinewidth
0.000 0.000 0.000 nodecolor
newpath 299 37 moveto
299 58 lineto
375 58 lineto
375 37 lineto
closepath stroke
0.000 0.000 0.000 nodecolor
10.00 /FreeSans.ttf set_font
337 44 moveto 60 -0.5 (sha256_init) alignedtext
grestore
% Node25->Node28
gsave
1 setlinewidth
solid
0.667 0.776 0.439 edgecolor
newpath 197 76 moveto
225 71 260 64 289 58 curveto
stroke
0.667 0.776 0.439 edgecolor
newpath 289.881 61.3933 moveto
299 56 lineto
288.508 54.5292 lineto
closepath fill
1 setlinewidth
solid
0.667 0.776 0.439 edgecolor
newpath 289.881 61.3933 moveto
299 56 lineto
288.508 54.5292 lineto
closepath stroke
grestore
% Node29
gsave
[ /Rect [ 287 0 387 20 ]
  /Border [ 0 0 0 ]
  /Action << /Subtype /URI /URI ($sha256_8hpp.html#8b983a80c9edd5d997a3937963ae7856) >>
  /Subtype /Link
/ANN pdfmark
[ /Rect [ 287 0 387 20 ]
  /Border [ 0 0 0 ]
  /Action << /Subtype /URI /URI ($sha256_8hpp.html#8b983a80c9edd5d997a3937963ae7856) >>
  /Subtype /Link
/ANN pdfmark
1 setlinewidth
0.000 0.000 0.000 nodecolor
newpath 287 -1 moveto
287 20 lineto
387 20 lineto
387 -1 lineto
closepath stroke
0.000 0.000 0.000 nodecolor
10.00 /FreeSans.ttf set_font
337 6 moveto 84 -0.5 (sha256_process) alignedtext
grestore
% Node25->Node29
gsave
1 setlinewidth
solid
0.667 0.776 0.439 edgecolor
newpath 165 75 moveto
184 62 216 41 246 29 curveto
256 25 266 23 277 20 curveto
stroke
0.667 0.776 0.439 edgecolor
newpath 277.881 23.3933 moveto
287 18 lineto
276.508 16.5292 lineto
closepath fill
1 setlinewidth
solid
0.667 0.776 0.439 edgecolor
newpath 277.881 23.3933 moveto
287 18 lineto
276.508 16.5292 lineto
closepath stroke
grestore
endpage
showpage
grestore
%%PageTrailer
%%EndPage: 1
%%Trailer
%%Pages: 1
%%BoundingBox: 36 36 906 577
end
restore
%%EOF
