%!PS-Adobe-2.0
%%Creator: Graphviz version 2.12 (Mon Nov 16 18:34:03 UTC 2009)
%%For: (vtamara) Vladimir
%%Title: G
%%Pages: (atend)
%%BoundingBox: (atend)
%%EndComments
save
%%BeginProlog
/DotDict 200 dict def
DotDict begin

/setupLatin1 {
mark
/EncodingVector 256 array def
 EncodingVector 0

ISOLatin1Encoding 0 255 getinterval putinterval
EncodingVector 45 /hyphen put

% Set up ISO Latin 1 character encoding
/starnetISO {
        dup dup findfont dup length dict begin
        { 1 index /FID ne { def }{ pop pop } ifelse
        } forall
        /Encoding EncodingVector def
        currentdict end definefont
} def
/Times-Roman starnetISO def
/Times-Italic starnetISO def
/Times-Bold starnetISO def
/Times-BoldItalic starnetISO def
/Helvetica starnetISO def
/Helvetica-Oblique starnetISO def
/Helvetica-Bold starnetISO def
/Helvetica-BoldOblique starnetISO def
/Courier starnetISO def
/Courier-Oblique starnetISO def
/Courier-Bold starnetISO def
/Courier-BoldOblique starnetISO def
cleartomark
} bind def

%%BeginResource: procset graphviz 0 0
/coord-font-family /Times-Roman def
/default-font-family /Times-Roman def
/coordfont coord-font-family findfont 8 scalefont def

/InvScaleFactor 1.0 def
/set_scale {
       dup 1 exch div /InvScaleFactor exch def
       scale
} bind def

% styles
/solid { [] 0 setdash } bind def
/dashed { [9 InvScaleFactor mul dup ] 0 setdash } bind def
/dotted { [1 InvScaleFactor mul 6 InvScaleFactor mul] 0 setdash } bind def
/invis {/fill {newpath} def /stroke {newpath} def /show {pop newpath} def} bind def
/bold { 2 setlinewidth } bind def
/filled { } bind def
/unfilled { } bind def
/rounded { } bind def
/diagonals { } bind def

% hooks for setting color 
/nodecolor { sethsbcolor } bind def
/edgecolor { sethsbcolor } bind def
/graphcolor { sethsbcolor } bind def
/nopcolor {pop pop pop} bind def

/beginpage {	% i j npages
	/npages exch def
	/j exch def
	/i exch def
	/str 10 string def
	npages 1 gt {
		gsave
			coordfont setfont
			0 0 moveto
			(\() show i str cvs show (,) show j str cvs show (\)) show
		grestore
	} if
} bind def

/set_font {
	findfont exch
	scalefont setfont
} def

% draw aligned label in bounding box aligned to current point
/alignedtext {			% width adj text
	/text exch def
	/adj exch def
	/width exch def
	gsave
		width 0 gt {
			text stringwidth pop adj mul 0 rmoveto
		} if
		[] 0 setdash
		text show
	grestore
} def

/boxprim {				% xcorner ycorner xsize ysize
		4 2 roll
		moveto
		2 copy
		exch 0 rlineto
		0 exch rlineto
		pop neg 0 rlineto
		closepath
} bind def

/ellipse_path {
	/ry exch def
	/rx exch def
	/y exch def
	/x exch def
	matrix currentmatrix
	newpath
	x y translate
	rx ry scale
	0 0 1 0 360 arc
	setmatrix
} bind def

/endpage { showpage } bind def
/showpage { } def

/layercolorseq
	[	% layer color sequence - darkest to lightest
		[0 0 0]
		[.2 .8 .8]
		[.4 .8 .8]
		[.6 .8 .8]
		[.8 .8 .8]
	]
def

/layerlen layercolorseq length def

/setlayer {/maxlayer exch def /curlayer exch def
	layercolorseq curlayer 1 sub layerlen mod get
	aload pop sethsbcolor
	/nodecolor {nopcolor} def
	/edgecolor {nopcolor} def
	/graphcolor {nopcolor} def
} bind def

/onlayer { curlayer ne {invis} if } def

/onlayers {
	/myupper exch def
	/mylower exch def
	curlayer mylower lt
	curlayer myupper gt
	or
	{invis} if
} def

/curlayer 0 def

%%EndResource
%%EndProlog
%%BeginSetup
14 default-font-family set_font
1 setmiterlimit
% /arrowlength 10 def
% /arrowwidth 5 def

% make sure pdfmark is harmless for PS-interpreters other than Distiller
/pdfmark where {pop} {userdict /pdfmark /cleartomark load put} ifelse
% make '<<' and '>>' safe on PS Level 1 devices
/languagelevel where {pop languagelevel}{1} ifelse
2 lt {
    userdict (<<) cvn ([) cvn load put
    userdict (>>) cvn ([) cvn load put
} if

%%EndSetup
setupLatin1
%%Page: 1 1
%%PageBoundingBox: 36 36 648 302
%%PageOrientation: Portrait
gsave
36 36 648 302 boxprim clip newpath
0 0 1 beginpage
1 1 set_scale 0 rotate 40 40 translate
% Node1
gsave
0.000 0.000 0.749 nodecolor
newpath 0 128 moveto
0 149 lineto
84 149 lineto
84 128 lineto
closepath fill
1 setlinewidth
filled
0.000 0.000 0.000 nodecolor
newpath 0 128 moveto
0 149 lineto
84 149 lineto
84 128 lineto
closepath stroke
0.000 0.000 0.000 nodecolor
10.00 /FreeSans.ttf set_font
42 135 moveto 68 -0.5 (listaPalabras) alignedtext
grestore
% Node2
gsave
[ /Rect [ 258 205 338 225 ]
  /Border [ 0 0 0 ]
  /Action << /Subtype /URI /URI ($TrieSDisco_8cpp.html#acdb9639784b2fb341e069b1f54c3455) >>
  /Subtype /Link
/ANN pdfmark
[ /Rect [ 258 205 338 225 ]
  /Border [ 0 0 0 ]
  /Action << /Subtype /URI /URI ($TrieSDisco_8cpp.html#acdb9639784b2fb341e069b1f54c3455) >>
  /Subtype /Link
/ANN pdfmark
1 setlinewidth
0.000 0.000 0.000 nodecolor
newpath 258 204 moveto
258 225 lineto
338 225 lineto
338 204 lineto
closepath stroke
0.000 0.000 0.000 nodecolor
10.00 /FreeSans.ttf set_font
298 211 moveto 64 -0.5 (leeRelacion) alignedtext
grestore
% Node1->Node2
gsave
1 setlinewidth
solid
0.667 0.776 0.439 edgecolor
newpath 61 149 moveto
76 157 99 168 120 176 curveto
162 191 212 201 248 207 curveto
stroke
0.667 0.776 0.439 edgecolor
newpath 247.508 210.471 moveto
258 209 lineto
248.881 203.607 lineto
closepath fill
1 setlinewidth
solid
0.667 0.776 0.439 edgecolor
newpath 247.508 210.471 moveto
258 209 lineto
248.881 203.607 lineto
closepath stroke
grestore
% Node5
gsave
[ /Rect [ 121 129 221 149 ]
  /Border [ 0 0 0 ]
  /Action << /Subtype /URI /URI ($Operaciones_8cpp.html#e72c6a088302629a5554e4af30d0e9fc) >>
  /Subtype /Link
/ANN pdfmark
[ /Rect [ 121 129 221 149 ]
  /Border [ 0 0 0 ]
  /Action << /Subtype /URI /URI ($Operaciones_8cpp.html#e72c6a088302629a5554e4af30d0e9fc) >>
  /Subtype /Link
/ANN pdfmark
1 setlinewidth
0.000 0.000 0.000 nodecolor
newpath 121 128 moveto
121 149 lineto
222 149 lineto
222 128 lineto
closepath stroke
0.000 0.000 0.000 nodecolor
10.00 /FreeSans.ttf set_font
171 135 moveto 85 -0.5 (muestraStream) alignedtext
grestore
% Node1->Node5
gsave
1 setlinewidth
solid
0.667 0.776 0.439 edgecolor
newpath 84 139 moveto
93 139 102 139 111 139 curveto
stroke
0.667 0.776 0.439 edgecolor
newpath 111 142.5 moveto
121 139 lineto
111 135.5 lineto
closepath fill
1 setlinewidth
solid
0.667 0.776 0.439 edgecolor
newpath 111 142.5 moveto
121 139 lineto
111 135.5 lineto
closepath stroke
grestore
% Node10
gsave
[ /Rect [ 127 53 215 73 ]
  /Border [ 0 0 0 ]
  /Action << /Subtype /URI /URI ($TrieSDisco_8cpp.html#3b55801abcb3987a49125a0ddc9ff76c) >>
  /Subtype /Link
/ANN pdfmark
[ /Rect [ 127 53 215 73 ]
  /Border [ 0 0 0 ]
  /Action << /Subtype /URI /URI ($TrieSDisco_8cpp.html#3b55801abcb3987a49125a0ddc9ff76c) >>
  /Subtype /Link
/ANN pdfmark
1 setlinewidth
0.000 0.000 0.000 nodecolor
newpath 127 52 moveto
127 73 lineto
216 73 lineto
216 52 lineto
closepath stroke
0.000 0.000 0.000 nodecolor
10.00 /FreeSans.ttf set_font
171 59 moveto 73 -0.5 (verificaIndice) alignedtext
grestore
% Node1->Node10
gsave
1 setlinewidth
solid
0.667 0.776 0.439 edgecolor
newpath 61 128 moveto
83 115 120 93 145 78 curveto
stroke
0.667 0.776 0.439 edgecolor
newpath 146.958 80.916 moveto
154 73 lineto
143.559 74.7969 lineto
closepath fill
1 setlinewidth
solid
0.667 0.776 0.439 edgecolor
newpath 146.958 80.916 moveto
154 73 lineto
143.559 74.7969 lineto
closepath stroke
grestore
% Node3
gsave
[ /Rect [ 516 129 604 149 ]
  /Border [ 0 0 0 ]
  /Action << /Subtype /URI /URI ($comun_8cpp.html#88ffeb20e447cad877c37bb473033590) >>
  /Subtype /Link
/ANN pdfmark
[ /Rect [ 516 129 604 149 ]
  /Border [ 0 0 0 ]
  /Action << /Subtype /URI /URI ($comun_8cpp.html#88ffeb20e447cad877c37bb473033590) >>
  /Subtype /Link
/ANN pdfmark
1 setlinewidth
0.000 0.000 0.000 nodecolor
newpath 516 128 moveto
516 149 lineto
604 149 lineto
604 128 lineto
closepath stroke
0.000 0.000 0.000 nodecolor
10.00 /FreeSans.ttf set_font
560 135 moveto 72 -0.5 (errorFormato) alignedtext
grestore
% Node2->Node3
gsave
1 setlinewidth
solid
0.667 0.776 0.439 edgecolor
newpath 322 225 moveto
358 238 428 258 480 234 curveto
514 218 538 181 551 158 curveto
stroke
0.667 0.776 0.439 edgecolor
newpath 554.137 159.56 moveto
555 149 lineto
547.74 156.717 lineto
closepath fill
1 setlinewidth
solid
0.667 0.776 0.439 edgecolor
newpath 554.137 159.56 moveto
555 149 lineto
547.74 156.717 lineto
closepath stroke
grestore
% Node4
gsave
[ /Rect [ 398 205 456 225 ]
  /Border [ 0 0 0 ]
  /Action << /Subtype /URI /URI ($Doc_8cpp.html#e4bfd9bdedc0dd4fe00bf5f17f8f9e23) >>
  /Subtype /Link
/ANN pdfmark
[ /Rect [ 398 205 456 225 ]
  /Border [ 0 0 0 ]
  /Action << /Subtype /URI /URI ($Doc_8cpp.html#e4bfd9bdedc0dd4fe00bf5f17f8f9e23) >>
  /Subtype /Link
/ANN pdfmark
1 setlinewidth
0.000 0.000 0.000 nodecolor
newpath 398 204 moveto
398 225 lineto
457 225 lineto
457 204 lineto
closepath stroke
0.000 0.000 0.000 nodecolor
10.00 /FreeSans.ttf set_font
427 211 moveto 43 -0.5 (leeDocs) alignedtext
grestore
% Node2->Node4
gsave
1 setlinewidth
solid
0.667 0.776 0.439 edgecolor
newpath 338 215 moveto
354 215 372 215 388 215 curveto
stroke
0.667 0.776 0.439 edgecolor
newpath 388 218.5 moveto
398 215 lineto
388 211.5 lineto
closepath fill
1 setlinewidth
solid
0.667 0.776 0.439 edgecolor
newpath 388 218.5 moveto
398 215 lineto
388 211.5 lineto
closepath stroke
grestore
% Node4->Node3
gsave
1 setlinewidth
solid
0.667 0.776 0.439 edgecolor
newpath 457 206 moveto
465 203 473 200 480 196 curveto
502 184 525 167 540 155 curveto
stroke
0.667 0.776 0.439 edgecolor
newpath 542.1 157.8 moveto
548 149 lineto
537.9 152.2 lineto
closepath fill
1 setlinewidth
solid
0.667 0.776 0.439 edgecolor
newpath 542.1 157.8 moveto
548 149 lineto
537.9 152.2 lineto
closepath stroke
grestore
% Node5->Node5
gsave
1 setlinewidth
solid
0.667 0.776 0.439 edgecolor
newpath 131 149 moveto
114 158 127 167 171 167 curveto
203 167 219 162 218 156 curveto
stroke
0.667 0.776 0.439 edgecolor
newpath 220.546 153.596 moveto
211 149 lineto
215.596 158.546 lineto
closepath fill
1 setlinewidth
solid
0.667 0.776 0.439 edgecolor
newpath 220.546 153.596 moveto
211 149 lineto
215.596 158.546 lineto
closepath stroke
grestore
% Node6
gsave
[ /Rect [ 397 167 457 187 ]
  /Border [ 0 0 0 ]
  /Action << /Subtype /URI /URI ($comun_8cpp.html#c7bf9e68bbdccea36ce786b806244ea1) >>
  /Subtype /Link
/ANN pdfmark
[ /Rect [ 397 167 457 187 ]
  /Border [ 0 0 0 ]
  /Action << /Subtype /URI /URI ($comun_8cpp.html#c7bf9e68bbdccea36ce786b806244ea1) >>
  /Subtype /Link
/ANN pdfmark
1 setlinewidth
0.000 0.000 0.000 nodecolor
newpath 397 166 moveto
397 187 lineto
457 187 lineto
457 166 lineto
closepath stroke
0.000 0.000 0.000 nodecolor
10.00 /FreeSans.ttf set_font
427 173 moveto 44 -0.5 (lee128b) alignedtext
grestore
% Node5->Node6
gsave
1 setlinewidth
solid
0.667 0.776 0.439 edgecolor
newpath 214 149 moveto
228 152 244 155 258 158 curveto
301 165 352 170 387 173 curveto
stroke
0.667 0.776 0.439 edgecolor
newpath 386.701 176.488 moveto
397 174 lineto
387.398 169.522 lineto
closepath fill
1 setlinewidth
solid
0.667 0.776 0.439 edgecolor
newpath 386.701 176.488 moveto
397 174 lineto
387.398 169.522 lineto
closepath stroke
grestore
% Node7
gsave
[ /Rect [ 271 129 325 149 ]
  /Border [ 0 0 0 ]
  /Action << /Subtype /URI /URI ($comun_8cpp.html#4a359aa93f2dd4e34badd70c0e1f7082) >>
  /Subtype /Link
/ANN pdfmark
[ /Rect [ 271 129 325 149 ]
  /Border [ 0 0 0 ]
  /Action << /Subtype /URI /URI ($comun_8cpp.html#4a359aa93f2dd4e34badd70c0e1f7082) >>
  /Subtype /Link
/ANN pdfmark
1 setlinewidth
0.000 0.000 0.000 nodecolor
newpath 271 128 moveto
271 149 lineto
326 149 lineto
326 128 lineto
closepath stroke
0.000 0.000 0.000 nodecolor
10.00 /FreeSans.ttf set_font
298 135 moveto 39 -0.5 (leeCad) alignedtext
grestore
% Node5->Node7
gsave
1 setlinewidth
solid
0.667 0.776 0.439 edgecolor
newpath 222 139 moveto
235 139 249 139 261 139 curveto
stroke
0.667 0.776 0.439 edgecolor
newpath 261 142.5 moveto
271 139 lineto
261 135.5 lineto
closepath fill
1 setlinewidth
solid
0.667 0.776 0.439 edgecolor
newpath 261 142.5 moveto
271 139 lineto
261 135.5 lineto
closepath stroke
grestore
% Node8
gsave
[ /Rect [ 273 91 323 111 ]
  /Border [ 0 0 0 ]
  /Action << /Subtype /URI /URI ($Pos_8cpp.html#36b67a50cba6dc1789825a3111bee9d2) >>
  /Subtype /Link
/ANN pdfmark
[ /Rect [ 273 91 323 111 ]
  /Border [ 0 0 0 ]
  /Action << /Subtype /URI /URI ($Pos_8cpp.html#36b67a50cba6dc1789825a3111bee9d2) >>
  /Subtype /Link
/ANN pdfmark
1 setlinewidth
0.000 0.000 0.000 nodecolor
newpath 273 90 moveto
273 111 lineto
324 111 lineto
324 90 lineto
closepath stroke
0.000 0.000 0.000 nodecolor
10.00 /FreeSans.ttf set_font
298 97 moveto 35 -0.5 (leePos) alignedtext
grestore
% Node5->Node8
gsave
1 setlinewidth
solid
0.667 0.776 0.439 edgecolor
newpath 208 128 moveto
226 123 246 117 263 112 curveto
stroke
0.667 0.776 0.439 edgecolor
newpath 264.427 115.226 moveto
273 109 lineto
262.416 108.521 lineto
closepath fill
1 setlinewidth
solid
0.667 0.776 0.439 edgecolor
newpath 264.427 115.226 moveto
273 109 lineto
262.416 108.521 lineto
closepath stroke
grestore
% Node6->Node3
gsave
1 setlinewidth
solid
0.667 0.776 0.439 edgecolor
newpath 457 168 moveto
474 163 495 157 514 152 curveto
stroke
0.667 0.776 0.439 edgecolor
newpath 515.427 155.226 moveto
524 149 lineto
513.416 148.521 lineto
closepath fill
1 setlinewidth
solid
0.667 0.776 0.439 edgecolor
newpath 515.427 155.226 moveto
524 149 lineto
513.416 148.521 lineto
closepath stroke
grestore
% Node7->Node3
gsave
1 setlinewidth
solid
0.667 0.776 0.439 edgecolor
newpath 326 139 moveto
369 139 451 139 506 139 curveto
stroke
0.667 0.776 0.439 edgecolor
newpath 506 142.5 moveto
516 139 lineto
506 135.5 lineto
closepath fill
1 setlinewidth
solid
0.667 0.776 0.439 edgecolor
newpath 506 142.5 moveto
516 139 lineto
506 135.5 lineto
closepath stroke
grestore
% Node8->Node3
gsave
1 setlinewidth
solid
0.667 0.776 0.439 edgecolor
newpath 324 105 moveto
366 111 450 123 506 131 curveto
stroke
0.667 0.776 0.439 edgecolor
newpath 505.508 134.471 moveto
516 133 lineto
506.881 127.607 lineto
closepath fill
1 setlinewidth
solid
0.667 0.776 0.439 edgecolor
newpath 505.508 134.471 moveto
516 133 lineto
506.881 127.607 lineto
closepath stroke
grestore
% Node9
gsave
[ /Rect [ 374 53 480 73 ]
  /Border [ 0 0 0 ]
  /Action << /Subtype /URI /URI ($Elias_8cpp.html#95ee5a0ffb91f203612d2ce9d063ec36) >>
  /Subtype /Link
/ANN pdfmark
[ /Rect [ 374 53 480 73 ]
  /Border [ 0 0 0 ]
  /Action << /Subtype /URI /URI ($Elias_8cpp.html#95ee5a0ffb91f203612d2ce9d063ec36) >>
  /Subtype /Link
/ANN pdfmark
1 setlinewidth
0.000 0.000 0.000 nodecolor
newpath 374 52 moveto
374 73 lineto
480 73 lineto
480 52 lineto
closepath stroke
0.000 0.000 0.000 nodecolor
10.00 /FreeSans.ttf set_font
427 59 moveto 90 -0.5 (lee_elias_gama2) alignedtext
grestore
% Node8->Node9
gsave
1 setlinewidth
solid
0.667 0.776 0.439 edgecolor
newpath 324 93 moveto
341 88 363 81 383 76 curveto
stroke
0.667 0.776 0.439 edgecolor
newpath 384.427 79.2259 moveto
393 73 lineto
382.416 72.5212 lineto
closepath fill
1 setlinewidth
solid
0.667 0.776 0.439 edgecolor
newpath 384.427 79.2259 moveto
393 73 lineto
382.416 72.5212 lineto
closepath stroke
grestore
% Node9->Node3
gsave
1 setlinewidth
solid
0.667 0.776 0.439 edgecolor
newpath 452 73 moveto
461 77 471 82 480 87 curveto
500 98 521 112 536 122 curveto
stroke
0.667 0.776 0.439 edgecolor
newpath 534.738 125.365 moveto
545 128 lineto
538.621 119.541 lineto
closepath fill
1 setlinewidth
solid
0.667 0.776 0.439 edgecolor
newpath 534.738 125.365 moveto
545 128 lineto
538.621 119.541 lineto
closepath stroke
grestore
% Node10->Node3
gsave
1 setlinewidth
solid
0.667 0.776 0.439 edgecolor
newpath 202 52 moveto
260 33 387 0 480 44 curveto
513 59 537 96 550 119 curveto
stroke
0.667 0.776 0.439 edgecolor
newpath 547.084 120.958 moveto
555 128 lineto
553.203 117.559 lineto
closepath fill
1 setlinewidth
solid
0.667 0.776 0.439 edgecolor
newpath 547.084 120.958 moveto
555 128 lineto
553.203 117.559 lineto
closepath stroke
grestore
endpage
showpage
grestore
%%PageTrailer
%%EndPage: 1
%%Trailer
%%Pages: 1
%%BoundingBox: 36 36 648 302
end
restore
%%EOF
