%!PS-Adobe-2.0
%%Creator: Graphviz version 2.12 (Mon Nov 16 18:34:03 UTC 2009)
%%For: (vtamara) Vladimir
%%Title: G
%%Pages: (atend)
%%BoundingBox: (atend)
%%EndComments
save
%%BeginProlog
/DotDict 200 dict def
DotDict begin

/setupLatin1 {
mark
/EncodingVector 256 array def
 EncodingVector 0

ISOLatin1Encoding 0 255 getinterval putinterval
EncodingVector 45 /hyphen put

% Set up ISO Latin 1 character encoding
/starnetISO {
        dup dup findfont dup length dict begin
        { 1 index /FID ne { def }{ pop pop } ifelse
        } forall
        /Encoding EncodingVector def
        currentdict end definefont
} def
/Times-Roman starnetISO def
/Times-Italic starnetISO def
/Times-Bold starnetISO def
/Times-BoldItalic starnetISO def
/Helvetica starnetISO def
/Helvetica-Oblique starnetISO def
/Helvetica-Bold starnetISO def
/Helvetica-BoldOblique starnetISO def
/Courier starnetISO def
/Courier-Oblique starnetISO def
/Courier-Bold starnetISO def
/Courier-BoldOblique starnetISO def
cleartomark
} bind def

%%BeginResource: procset graphviz 0 0
/coord-font-family /Times-Roman def
/default-font-family /Times-Roman def
/coordfont coord-font-family findfont 8 scalefont def

/InvScaleFactor 1.0 def
/set_scale {
       dup 1 exch div /InvScaleFactor exch def
       scale
} bind def

% styles
/solid { [] 0 setdash } bind def
/dashed { [9 InvScaleFactor mul dup ] 0 setdash } bind def
/dotted { [1 InvScaleFactor mul 6 InvScaleFactor mul] 0 setdash } bind def
/invis {/fill {newpath} def /stroke {newpath} def /show {pop newpath} def} bind def
/bold { 2 setlinewidth } bind def
/filled { } bind def
/unfilled { } bind def
/rounded { } bind def
/diagonals { } bind def

% hooks for setting color 
/nodecolor { sethsbcolor } bind def
/edgecolor { sethsbcolor } bind def
/graphcolor { sethsbcolor } bind def
/nopcolor {pop pop pop} bind def

/beginpage {	% i j npages
	/npages exch def
	/j exch def
	/i exch def
	/str 10 string def
	npages 1 gt {
		gsave
			coordfont setfont
			0 0 moveto
			(\() show i str cvs show (,) show j str cvs show (\)) show
		grestore
	} if
} bind def

/set_font {
	findfont exch
	scalefont setfont
} def

% draw aligned label in bounding box aligned to current point
/alignedtext {			% width adj text
	/text exch def
	/adj exch def
	/width exch def
	gsave
		width 0 gt {
			text stringwidth pop adj mul 0 rmoveto
		} if
		[] 0 setdash
		text show
	grestore
} def

/boxprim {				% xcorner ycorner xsize ysize
		4 2 roll
		moveto
		2 copy
		exch 0 rlineto
		0 exch rlineto
		pop neg 0 rlineto
		closepath
} bind def

/ellipse_path {
	/ry exch def
	/rx exch def
	/y exch def
	/x exch def
	matrix currentmatrix
	newpath
	x y translate
	rx ry scale
	0 0 1 0 360 arc
	setmatrix
} bind def

/endpage { showpage } bind def
/showpage { } def

/layercolorseq
	[	% layer color sequence - darkest to lightest
		[0 0 0]
		[.2 .8 .8]
		[.4 .8 .8]
		[.6 .8 .8]
		[.8 .8 .8]
	]
def

/layerlen layercolorseq length def

/setlayer {/maxlayer exch def /curlayer exch def
	layercolorseq curlayer 1 sub layerlen mod get
	aload pop sethsbcolor
	/nodecolor {nopcolor} def
	/edgecolor {nopcolor} def
	/graphcolor {nopcolor} def
} bind def

/onlayer { curlayer ne {invis} if } def

/onlayers {
	/myupper exch def
	/mylower exch def
	curlayer mylower lt
	curlayer myupper gt
	or
	{invis} if
} def

/curlayer 0 def

%%EndResource
%%EndProlog
%%BeginSetup
14 default-font-family set_font
1 setmiterlimit
% /arrowlength 10 def
% /arrowwidth 5 def

% make sure pdfmark is harmless for PS-interpreters other than Distiller
/pdfmark where {pop} {userdict /pdfmark /cleartomark load put} ifelse
% make '<<' and '>>' safe on PS Level 1 devices
/languagelevel where {pop languagelevel}{1} ifelse
2 lt {
    userdict (<<) cvn ([) cvn load put
    userdict (>>) cvn ([) cvn load put
} if

%%EndSetup
setupLatin1
%%Page: 1 1
%%PageBoundingBox: 36 36 1122 472
%%PageOrientation: Portrait
gsave
36 36 1122 472 boxprim clip newpath
0 0 1 beginpage
1 1 set_scale 0 rotate 40 40 translate
% Node1
gsave
0.000 0.000 0.749 nodecolor
newpath 542 406 moveto
542 427 lineto
650 427 lineto
650 406 lineto
closepath fill
1 setlinewidth
filled
0.000 0.000 0.000 nodecolor
newpath 542 406 moveto
542 427 lineto
650 427 lineto
650 406 lineto
closepath stroke
0.000 0.000 0.000 nodecolor
10.00 /FreeSans.ttf set_font
596 413 moveto 92 -0.5 (Operaciones.cpp) alignedtext
grestore
% Node2
gsave
1 setlinewidth
0.000 0.000 0.749 nodecolor
newpath 0 174 moveto
0 195 lineto
64 195 lineto
64 174 lineto
closepath stroke
0.000 0.000 0.000 nodecolor
10.00 /FreeSans.ttf set_font
32 181 moveto 48 -0.5 (iostream) alignedtext
grestore
% Node1->Node2
gsave
1 setlinewidth
solid
0.667 0.776 0.439 edgecolor
newpath 542 414 moveto
455 408 288 395 235 370 curveto
150 330 76 242 46 203 curveto
stroke
0.667 0.776 0.439 edgecolor
newpath 48.8 200.9 moveto
40 195 lineto
43.2 205.1 lineto
closepath fill
1 setlinewidth
solid
0.667 0.776 0.439 edgecolor
newpath 48.8 200.9 moveto
40 195 lineto
43.2 205.1 lineto
closepath stroke
grestore
% Node3
gsave
1 setlinewidth
0.000 0.000 0.749 nodecolor
newpath 82 174 moveto
82 195 lineto
143 195 lineto
143 174 lineto
closepath stroke
0.000 0.000 0.000 nodecolor
10.00 /FreeSans.ttf set_font
112 181 moveto 45 -0.5 (iomanip) alignedtext
grestore
% Node1->Node3
gsave
1 setlinewidth
solid
0.667 0.776 0.439 edgecolor
newpath 542 414 moveto
461 408 313 395 267 370 curveto
196 331 143 243 122 204 curveto
stroke
0.667 0.776 0.439 edgecolor
newpath 124.916 202.042 moveto
117 195 lineto
118.797 205.441 lineto
closepath fill
1 setlinewidth
solid
0.667 0.776 0.439 edgecolor
newpath 124.916 202.042 moveto
117 195 lineto
118.797 205.441 lineto
closepath stroke
grestore
% Node4
gsave
1 setlinewidth
0.000 0.000 0.749 nodecolor
newpath 160 174 moveto
160 195 lineto
191 195 lineto
191 174 lineto
closepath stroke
0.000 0.000 0.000 nodecolor
10.00 /FreeSans.ttf set_font
175 181 moveto 15 -0.5 (list) alignedtext
grestore
% Node1->Node4
gsave
1 setlinewidth
solid
0.667 0.776 0.439 edgecolor
newpath 542 413 moveto
468 406 343 392 303 370 curveto
242 336 234 314 198 254 curveto
189 239 183 219 179 205 curveto
stroke
0.667 0.776 0.439 edgecolor
newpath 182.393 204.119 moveto
177 195 lineto
175.529 205.492 lineto
closepath fill
1 setlinewidth
solid
0.667 0.776 0.439 edgecolor
newpath 182.393 204.119 moveto
177 195 lineto
175.529 205.492 lineto
closepath stroke
grestore
% Node5
gsave
1 setlinewidth
0.000 0.000 0.749 nodecolor
newpath 476 116 moveto
476 137 lineto
526 137 lineto
526 116 lineto
closepath stroke
0.000 0.000 0.000 nodecolor
10.00 /FreeSans.ttf set_font
501 123 moveto 34 -0.5 (vector) alignedtext
grestore
% Node1->Node5
gsave
1 setlinewidth
solid
0.667 0.776 0.439 edgecolor
newpath 573 406 moveto
541 388 486 351 486 301 curveto
486 301 486 301 486 243 curveto
486 209 493 170 497 147 curveto
stroke
0.667 0.776 0.439 edgecolor
newpath 500.471 147.492 moveto
499 137 lineto
493.607 146.119 lineto
closepath fill
1 setlinewidth
solid
0.667 0.776 0.439 edgecolor
newpath 500.471 147.492 moveto
499 137 lineto
493.607 146.119 lineto
closepath stroke
grestore
% Node6
gsave
1 setlinewidth
0.000 0.000 0.749 nodecolor
newpath 796 348 moveto
796 369 lineto
854 369 lineto
854 348 lineto
closepath stroke
0.000 0.000 0.000 nodecolor
10.00 /FreeSans.ttf set_font
825 355 moveto 42 -0.5 (fstream) alignedtext
grestore
% Node1->Node6
gsave
1 setlinewidth
solid
0.667 0.776 0.439 edgecolor
newpath 642 406 moveto
679 398 732 385 786 370 curveto
stroke
0.667 0.776 0.439 edgecolor
newpath 787.427 373.226 moveto
796 367 lineto
785.416 366.521 lineto
closepath fill
1 setlinewidth
solid
0.667 0.776 0.439 edgecolor
newpath 787.427 373.226 moveto
796 367 lineto
785.416 366.521 lineto
closepath stroke
grestore
% Node7
gsave
1 setlinewidth
0.000 0.000 0.749 nodecolor
newpath 872 348 moveto
872 369 lineto
929 369 lineto
929 348 lineto
closepath stroke
0.000 0.000 0.000 nodecolor
10.00 /FreeSans.ttf set_font
900 355 moveto 41 -0.5 (istream) alignedtext
grestore
% Node1->Node7
gsave
1 setlinewidth
solid
0.667 0.776 0.439 edgecolor
newpath 650 409 moveto
702 401 783 388 862 370 curveto
stroke
0.667 0.776 0.439 edgecolor
newpath 862.881 373.393 moveto
872 368 lineto
861.508 366.529 lineto
closepath fill
1 setlinewidth
solid
0.667 0.776 0.439 edgecolor
newpath 862.881 373.393 moveto
872 368 lineto
861.508 366.529 lineto
closepath stroke
grestore
% Node8
gsave
1 setlinewidth
0.000 0.000 0.749 nodecolor
newpath 946 348 moveto
946 369 lineto
1011 369 lineto
1011 348 lineto
closepath stroke
0.000 0.000 0.000 nodecolor
10.00 /FreeSans.ttf set_font
978 355 moveto 49 -0.5 (sys/stat.h) alignedtext
grestore
% Node1->Node8
gsave
1 setlinewidth
solid
0.667 0.776 0.439 edgecolor
newpath 650 412 moveto
716 404 830 391 936 370 curveto
stroke
0.667 0.776 0.439 edgecolor
newpath 936.881 373.393 moveto
946 368 lineto
935.508 366.529 lineto
closepath fill
1 setlinewidth
solid
0.667 0.776 0.439 edgecolor
newpath 936.881 373.393 moveto
946 368 lineto
935.508 366.529 lineto
closepath stroke
grestore
% Node9
gsave
1 setlinewidth
0.000 0.000 0.749 nodecolor
newpath 1028 348 moveto
1028 369 lineto
1079 369 lineto
1079 348 lineto
closepath stroke
0.000 0.000 0.000 nodecolor
10.00 /FreeSans.ttf set_font
1053 355 moveto 35 -0.5 (time.h) alignedtext
grestore
% Node1->Node9
gsave
1 setlinewidth
solid
0.667 0.776 0.439 edgecolor
newpath 650 414 moveto
729 410 881 399 1018 369 curveto
stroke
0.667 0.776 0.439 edgecolor
newpath 1018.88 372.393 moveto
1028 367 lineto
1017.51 365.529 lineto
closepath fill
1 setlinewidth
solid
0.667 0.776 0.439 edgecolor
newpath 1018.88 372.393 moveto
1028 367 lineto
1017.51 365.529 lineto
closepath stroke
grestore
% Node10
gsave
[ /Rect [ 344 291 438 311 ]
  /Border [ 0 0 0 ]
  /Action << /Subtype /URI /URI ($RamDisco_8hpp.html) >>
  /Subtype /Link
/ANN pdfmark
[ /Rect [ 344 291 438 311 ]
  /Border [ 0 0 0 ]
  /Action << /Subtype /URI /URI ($RamDisco_8hpp.html) >>
  /Subtype /Link
/ANN pdfmark
1 setlinewidth
0.000 0.000 0.000 nodecolor
newpath 344 290 moveto
344 311 lineto
438 311 lineto
438 290 lineto
closepath stroke
0.000 0.000 0.000 nodecolor
10.00 /FreeSans.ttf set_font
391 297 moveto 78 -0.5 (RamDisco.hpp) alignedtext
grestore
% Node1->Node10
gsave
1 setlinewidth
solid
0.667 0.776 0.439 edgecolor
newpath 558 406 moveto
532 398 499 385 472 370 curveto
447 356 423 334 408 318 curveto
stroke
0.667 0.776 0.439 edgecolor
newpath 410.546 315.596 moveto
401 311 lineto
405.596 320.546 lineto
closepath fill
1 setlinewidth
solid
0.667 0.776 0.439 edgecolor
newpath 410.546 315.596 moveto
401 311 lineto
405.596 320.546 lineto
closepath stroke
grestore
% Node20
gsave
[ /Rect [ 312 349 420 369 ]
  /Border [ 0 0 0 ]
  /Action << /Subtype /URI /URI ($Operaciones_8hpp.html) >>
  /Subtype /Link
/ANN pdfmark
[ /Rect [ 312 349 420 369 ]
  /Border [ 0 0 0 ]
  /Action << /Subtype /URI /URI ($Operaciones_8hpp.html) >>
  /Subtype /Link
/ANN pdfmark
1 setlinewidth
0.000 0.000 0.000 nodecolor
newpath 312 348 moveto
312 369 lineto
421 369 lineto
421 348 lineto
closepath stroke
0.000 0.000 0.000 nodecolor
10.00 /FreeSans.ttf set_font
366 355 moveto 93 -0.5 (Operaciones.hpp) alignedtext
grestore
% Node1->Node20
gsave
1 setlinewidth
solid
0.667 0.776 0.439 edgecolor
newpath 552 406 moveto
513 396 456 381 416 371 curveto
stroke
0.667 0.776 0.439 edgecolor
newpath 416.492 367.529 moveto
406 369 lineto
415.119 374.393 lineto
closepath fill
1 setlinewidth
solid
0.667 0.776 0.439 edgecolor
newpath 416.492 367.529 moveto
406 369 lineto
415.119 374.393 lineto
closepath stroke
grestore
% Node21
gsave
[ /Rect [ 700 349 778 369 ]
  /Border [ 0 0 0 ]
  /Action << /Subtype /URI /URI ($sha256_8hpp.html) >>
  /Subtype /Link
/ANN pdfmark
[ /Rect [ 700 349 778 369 ]
  /Border [ 0 0 0 ]
  /Action << /Subtype /URI /URI ($sha256_8hpp.html) >>
  /Subtype /Link
/ANN pdfmark
1 setlinewidth
0.000 0.000 0.000 nodecolor
newpath 700 348 moveto
700 369 lineto
778 369 lineto
778 348 lineto
closepath stroke
0.000 0.000 0.000 nodecolor
10.00 /FreeSans.ttf set_font
739 355 moveto 62 -0.5 (sha256.hpp) alignedtext
grestore
% Node1->Node21
gsave
1 setlinewidth
solid
0.667 0.776 0.439 edgecolor
newpath 623 406 moveto
647 396 680 383 705 373 curveto
stroke
0.667 0.776 0.439 edgecolor
newpath 706.283 376.26 moveto
714 369 lineto
703.44 369.863 lineto
closepath fill
1 setlinewidth
solid
0.667 0.776 0.439 edgecolor
newpath 706.283 376.26 moveto
714 369 lineto
703.44 369.863 lineto
closepath stroke
grestore
% Node23
gsave
[ /Rect [ 846 233 926 253 ]
  /Border [ 0 0 0 ]
  /Action << /Subtype /URI /URI ($leeODT_8hpp.html) >>
  /Subtype /Link
/ANN pdfmark
[ /Rect [ 846 233 926 253 ]
  /Border [ 0 0 0 ]
  /Action << /Subtype /URI /URI ($leeODT_8hpp.html) >>
  /Subtype /Link
/ANN pdfmark
1 setlinewidth
0.000 0.000 0.000 nodecolor
newpath 846 232 moveto
846 253 lineto
927 253 lineto
927 232 lineto
closepath stroke
0.000 0.000 0.000 nodecolor
10.00 /FreeSans.ttf set_font
886 239 moveto 65 -0.5 (leeODT.hpp) alignedtext
grestore
% Node1->Node23
gsave
1 setlinewidth
solid
0.667 0.776 0.439 edgecolor
newpath 610 406 moveto
628 392 660 366 691 348 curveto
747 312 817 277 856 258 curveto
stroke
0.667 0.776 0.439 edgecolor
newpath 857.958 260.916 moveto
865 253 lineto
854.559 254.797 lineto
closepath fill
1 setlinewidth
solid
0.667 0.776 0.439 edgecolor
newpath 857.958 260.916 moveto
865 253 lineto
854.559 254.797 lineto
closepath stroke
grestore
% Node24
gsave
[ /Rect [ 552 233 630 253 ]
  /Border [ 0 0 0 ]
  /Action << /Subtype /URI /URI ($leeXML_8hpp.html) >>
  /Subtype /Link
/ANN pdfmark
[ /Rect [ 552 233 630 253 ]
  /Border [ 0 0 0 ]
  /Action << /Subtype /URI /URI ($leeXML_8hpp.html) >>
  /Subtype /Link
/ANN pdfmark
1 setlinewidth
0.000 0.000 0.000 nodecolor
newpath 552 232 moveto
552 253 lineto
631 253 lineto
631 232 lineto
closepath stroke
0.000 0.000 0.000 nodecolor
10.00 /FreeSans.ttf set_font
591 239 moveto 63 -0.5 (leeXML.hpp) alignedtext
grestore
% Node1->Node24
gsave
1 setlinewidth
solid
0.667 0.776 0.439 edgecolor
newpath 592 406 moveto
588 396 584 382 582 370 curveto
576 334 578 325 582 290 curveto
583 281 584 271 586 263 curveto
stroke
0.667 0.776 0.439 edgecolor
newpath 589.471 263.492 moveto
588 253 lineto
582.607 262.119 lineto
closepath fill
1 setlinewidth
solid
0.667 0.776 0.439 edgecolor
newpath 589.471 263.492 moveto
588 253 lineto
582.607 262.119 lineto
closepath stroke
grestore
% Node25
gsave
[ /Rect [ 742 233 828 253 ]
  /Border [ 0 0 0 ]
  /Action << /Subtype /URI /URI ($leeHTML_8hpp.html) >>
  /Subtype /Link
/ANN pdfmark
[ /Rect [ 742 233 828 253 ]
  /Border [ 0 0 0 ]
  /Action << /Subtype /URI /URI ($leeHTML_8hpp.html) >>
  /Subtype /Link
/ANN pdfmark
1 setlinewidth
0.000 0.000 0.000 nodecolor
newpath 742 232 moveto
742 253 lineto
829 253 lineto
829 232 lineto
closepath stroke
0.000 0.000 0.000 nodecolor
10.00 /FreeSans.ttf set_font
785 239 moveto 71 -0.5 (leeHTML.hpp) alignedtext
grestore
% Node1->Node25
gsave
1 setlinewidth
solid
0.667 0.776 0.439 edgecolor
newpath 600 406 moveto
611 378 639 307 658 290 curveto
670 278 708 266 738 256 curveto
stroke
0.667 0.776 0.439 edgecolor
newpath 739.427 259.226 moveto
748 253 lineto
737.416 252.521 lineto
closepath fill
1 setlinewidth
solid
0.667 0.776 0.439 edgecolor
newpath 739.427 259.226 moveto
748 253 lineto
737.416 252.521 lineto
closepath stroke
grestore
% Node26
gsave
[ /Rect [ 648 233 724 253 ]
  /Border [ 0 0 0 ]
  /Action << /Subtype /URI /URI ($leePDF_8hpp.html) >>
  /Subtype /Link
/ANN pdfmark
[ /Rect [ 648 233 724 253 ]
  /Border [ 0 0 0 ]
  /Action << /Subtype /URI /URI ($leePDF_8hpp.html) >>
  /Subtype /Link
/ANN pdfmark
1 setlinewidth
0.000 0.000 0.000 nodecolor
newpath 648 232 moveto
648 253 lineto
724 253 lineto
724 232 lineto
closepath stroke
0.000 0.000 0.000 nodecolor
10.00 /FreeSans.ttf set_font
686 239 moveto 60 -0.5 (leePDF.hpp) alignedtext
grestore
% Node1->Node26
gsave
1 setlinewidth
solid
0.667 0.776 0.439 edgecolor
newpath 595 406 moveto
595 382 596 327 620 290 curveto
628 276 642 266 654 258 curveto
stroke
0.667 0.776 0.439 edgecolor
newpath 655.958 260.916 moveto
663 253 lineto
652.559 254.797 lineto
closepath fill
1 setlinewidth
solid
0.667 0.776 0.439 edgecolor
newpath 655.958 260.916 moveto
663 253 lineto
652.559 254.797 lineto
closepath stroke
grestore
% Node10->Node5
gsave
1 setlinewidth
solid
0.667 0.776 0.439 edgecolor
newpath 398 290 moveto
416 261 466 182 489 146 curveto
stroke
0.667 0.776 0.439 edgecolor
newpath 492.203 147.441 moveto
494 137 lineto
486.084 144.042 lineto
closepath fill
1 setlinewidth
solid
0.667 0.776 0.439 edgecolor
newpath 492.203 147.441 moveto
494 137 lineto
486.084 144.042 lineto
closepath stroke
grestore
% Node11
gsave
[ /Rect [ 407 59 485 79 ]
  /Border [ 0 0 0 ]
  /Action << /Subtype /URI /URI ($comun_8hpp.html) >>
  /Subtype /Link
/ANN pdfmark
[ /Rect [ 407 59 485 79 ]
  /Border [ 0 0 0 ]
  /Action << /Subtype /URI /URI ($comun_8hpp.html) >>
  /Subtype /Link
/ANN pdfmark
1 setlinewidth
0.000 0.000 0.000 nodecolor
newpath 407 58 moveto
407 79 lineto
485 79 lineto
485 58 lineto
closepath stroke
0.000 0.000 0.000 nodecolor
10.00 /FreeSans.ttf set_font
446 65 moveto 62 -0.5 (comun.hpp) alignedtext
grestore
% Node10->Node11
gsave
1 setlinewidth
solid
0.667 0.776 0.439 edgecolor
newpath 388 290 moveto
380 260 363 176 391 116 curveto
397 103 408 93 418 85 curveto
stroke
0.667 0.776 0.439 edgecolor
newpath 420.621 87.4592 moveto
427 79 lineto
416.738 81.6349 lineto
closepath fill
1 setlinewidth
solid
0.667 0.776 0.439 edgecolor
newpath 420.621 87.4592 moveto
427 79 lineto
416.738 81.6349 lineto
closepath stroke
grestore
% Node16
gsave
[ /Rect [ 400 117 458 137 ]
  /Border [ 0 0 0 ]
  /Action << /Subtype /URI /URI ($Pos_8hpp.html) >>
  /Subtype /Link
/ANN pdfmark
[ /Rect [ 400 117 458 137 ]
  /Border [ 0 0 0 ]
  /Action << /Subtype /URI /URI ($Pos_8hpp.html) >>
  /Subtype /Link
/ANN pdfmark
1 setlinewidth
0.000 0.000 0.000 nodecolor
newpath 400 116 moveto
400 137 lineto
458 137 lineto
458 116 lineto
closepath stroke
0.000 0.000 0.000 nodecolor
10.00 /FreeSans.ttf set_font
429 123 moveto 42 -0.5 (Pos.hpp) alignedtext
grestore
% Node10->Node16
gsave
1 setlinewidth
solid
0.667 0.776 0.439 edgecolor
newpath 393 290 moveto
399 261 416 184 425 147 curveto
stroke
0.667 0.776 0.439 edgecolor
newpath 428.471 147.492 moveto
427 137 lineto
421.607 146.119 lineto
closepath fill
1 setlinewidth
solid
0.667 0.776 0.439 edgecolor
newpath 428.471 147.492 moveto
427 137 lineto
421.607 146.119 lineto
closepath stroke
grestore
% Node17
gsave
[ /Rect [ 246 175 306 195 ]
  /Border [ 0 0 0 ]
  /Action << /Subtype /URI /URI ($Doc_8hpp.html) >>
  /Subtype /Link
/ANN pdfmark
[ /Rect [ 246 175 306 195 ]
  /Border [ 0 0 0 ]
  /Action << /Subtype /URI /URI ($Doc_8hpp.html) >>
  /Subtype /Link
/ANN pdfmark
1 setlinewidth
0.000 0.000 0.000 nodecolor
newpath 246 174 moveto
246 195 lineto
307 195 lineto
307 174 lineto
closepath stroke
0.000 0.000 0.000 nodecolor
10.00 /FreeSans.ttf set_font
276 181 moveto 45 -0.5 (Doc.hpp) alignedtext
grestore
% Node10->Node17
gsave
1 setlinewidth
solid
0.667 0.776 0.439 edgecolor
newpath 380 290 moveto
360 270 317 227 293 202 curveto
stroke
0.667 0.776 0.439 edgecolor
newpath 295.546 199.596 moveto
286 195 lineto
290.596 204.546 lineto
closepath fill
1 setlinewidth
solid
0.667 0.776 0.439 edgecolor
newpath 295.546 199.596 moveto
286 195 lineto
290.596 204.546 lineto
closepath stroke
grestore
% Node18
gsave
[ /Rect [ 552 175 648 195 ]
  /Border [ 0 0 0 ]
  /Action << /Subtype /URI /URI ($NodoTrieS_8hpp.html) >>
  /Subtype /Link
/ANN pdfmark
[ /Rect [ 552 175 648 195 ]
  /Border [ 0 0 0 ]
  /Action << /Subtype /URI /URI ($NodoTrieS_8hpp.html) >>
  /Subtype /Link
/ANN pdfmark
1 setlinewidth
0.000 0.000 0.000 nodecolor
newpath 552 174 moveto
552 195 lineto
648 195 lineto
648 174 lineto
closepath stroke
0.000 0.000 0.000 nodecolor
10.00 /FreeSans.ttf set_font
600 181 moveto 80 -0.5 (NodoTrieS.hpp) alignedtext
grestore
% Node10->Node18
gsave
1 setlinewidth
solid
0.667 0.776 0.439 edgecolor
newpath 411 290 moveto
448 270 530 224 573 200 curveto
stroke
0.667 0.776 0.439 edgecolor
newpath 574.958 202.916 moveto
582 195 lineto
571.559 196.797 lineto
closepath fill
1 setlinewidth
solid
0.667 0.776 0.439 edgecolor
newpath 574.958 202.916 moveto
582 195 lineto
571.559 196.797 lineto
closepath stroke
grestore
% Node19
gsave
[ /Rect [ 207 233 303 253 ]
  /Border [ 0 0 0 ]
  /Action << /Subtype /URI /URI ($TrieSDisco_8hpp.html) >>
  /Subtype /Link
/ANN pdfmark
[ /Rect [ 207 233 303 253 ]
  /Border [ 0 0 0 ]
  /Action << /Subtype /URI /URI ($TrieSDisco_8hpp.html) >>
  /Subtype /Link
/ANN pdfmark
1 setlinewidth
0.000 0.000 0.000 nodecolor
newpath 207 232 moveto
207 253 lineto
303 253 lineto
303 232 lineto
closepath stroke
0.000 0.000 0.000 nodecolor
10.00 /FreeSans.ttf set_font
255 239 moveto 80 -0.5 (TrieSDisco.hpp) alignedtext
grestore
% Node10->Node19
gsave
1 setlinewidth
solid
0.667 0.776 0.439 edgecolor
newpath 365 290 moveto
343 280 312 267 288 257 curveto
stroke
0.667 0.776 0.439 edgecolor
newpath 289.56 253.863 moveto
279 253 lineto
286.717 260.26 lineto
closepath fill
1 setlinewidth
solid
0.667 0.776 0.439 edgecolor
newpath 289.56 253.863 moveto
279 253 lineto
286.717 260.26 lineto
closepath stroke
grestore
% Node12
gsave
1 setlinewidth
0.000 0.000 0.749 nodecolor
newpath 546 0 moveto
546 21 lineto
578 21 lineto
578 0 lineto
closepath stroke
0.000 0.000 0.000 nodecolor
10.00 /FreeSans.ttf set_font
562 7 moveto 16 -0.5 (set) alignedtext
grestore
% Node11->Node12
gsave
1 setlinewidth
solid
0.667 0.776 0.439 edgecolor
newpath 468 58 moveto
488 48 516 34 537 23 curveto
stroke
0.667 0.776 0.439 edgecolor
newpath 538.283 26.2598 moveto
546 19 lineto
535.44 19.8631 lineto
closepath fill
1 setlinewidth
solid
0.667 0.776 0.439 edgecolor
newpath 538.283 26.2598 moveto
546 19 lineto
535.44 19.8631 lineto
closepath stroke
grestore
% Node13
gsave
1 setlinewidth
0.000 0.000 0.749 nodecolor
newpath 767 0 moveto
767 21 lineto
813 21 lineto
813 0 lineto
closepath stroke
0.000 0.000 0.000 nodecolor
10.00 /FreeSans.ttf set_font
790 7 moveto 30 -0.5 (string) alignedtext
grestore
% Node11->Node13
gsave
1 setlinewidth
solid
0.667 0.776 0.439 edgecolor
newpath 485 62 moveto
553 51 693 28 757 17 curveto
stroke
0.667 0.776 0.439 edgecolor
newpath 757.881 20.3933 moveto
767 15 lineto
756.508 13.5292 lineto
closepath fill
1 setlinewidth
solid
0.667 0.776 0.439 edgecolor
newpath 757.881 20.3933 moveto
767 15 lineto
756.508 13.5292 lineto
closepath stroke
grestore
% Node14
gsave
1 setlinewidth
0.000 0.000 0.749 nodecolor
newpath 357 0 moveto
357 21 lineto
418 21 lineto
418 0 lineto
closepath stroke
0.000 0.000 0.000 nodecolor
10.00 /FreeSans.ttf set_font
387 7 moveto 45 -0.5 (ostream) alignedtext
grestore
% Node11->Node14
gsave
1 setlinewidth
solid
0.667 0.776 0.439 edgecolor
newpath 435 58 moveto
426 49 414 38 404 28 curveto
stroke
0.667 0.776 0.439 edgecolor
newpath 406.546 25.5962 moveto
397 21 lineto
401.596 30.546 lineto
closepath fill
1 setlinewidth
solid
0.667 0.776 0.439 edgecolor
newpath 406.546 25.5962 moveto
397 21 lineto
401.596 30.546 lineto
closepath stroke
grestore
% Node15
gsave
1 setlinewidth
0.000 0.000 0.749 nodecolor
newpath 435 0 moveto
435 21 lineto
494 21 lineto
494 0 lineto
closepath stroke
0.000 0.000 0.000 nodecolor
10.00 /FreeSans.ttf set_font
464 7 moveto 43 -0.5 (sstream) alignedtext
grestore
% Node11->Node15
gsave
1 setlinewidth
solid
0.667 0.776 0.439 edgecolor
newpath 449 58 moveto
452 50 455 40 458 31 curveto
stroke
0.667 0.776 0.439 edgecolor
newpath 461.479 31.584 moveto
461 21 lineto
454.774 29.5725 lineto
closepath fill
1 setlinewidth
solid
0.667 0.776 0.439 edgecolor
newpath 461.479 31.584 moveto
461 21 lineto
454.774 29.5725 lineto
closepath stroke
grestore
% Node16->Node11
gsave
1 setlinewidth
solid
0.667 0.776 0.439 edgecolor
newpath 432 116 moveto
434 108 437 98 440 89 curveto
stroke
0.667 0.776 0.439 edgecolor
newpath 443.479 89.584 moveto
443 79 lineto
436.774 87.5725 lineto
closepath fill
1 setlinewidth
solid
0.667 0.776 0.439 edgecolor
newpath 443.479 89.584 moveto
443 79 lineto
436.774 87.5725 lineto
closepath stroke
grestore
% Node17->Node11
gsave
1 setlinewidth
solid
0.667 0.776 0.439 edgecolor
newpath 287 174 moveto
302 159 331 134 358 116 curveto
376 103 397 92 415 84 curveto
stroke
0.667 0.776 0.439 edgecolor
newpath 416.958 86.916 moveto
424 79 lineto
413.559 80.7969 lineto
closepath fill
1 setlinewidth
solid
0.667 0.776 0.439 edgecolor
newpath 416.958 86.916 moveto
424 79 lineto
413.559 80.7969 lineto
closepath stroke
grestore
% Node18->Node5
gsave
1 setlinewidth
solid
0.667 0.776 0.439 edgecolor
newpath 581 174 moveto
566 165 544 152 527 142 curveto
stroke
0.667 0.776 0.439 edgecolor
newpath 528.441 138.797 moveto
518 137 lineto
525.042 144.916 lineto
closepath fill
1 setlinewidth
solid
0.667 0.776 0.439 edgecolor
newpath 528.441 138.797 moveto
518 137 lineto
525.042 144.916 lineto
closepath stroke
grestore
% Node18->Node12
gsave
1 setlinewidth
solid
0.667 0.776 0.439 edgecolor
newpath 598 174 moveto
592 145 575 68 566 31 curveto
stroke
0.667 0.776 0.439 edgecolor
newpath 569.393 30.1194 moveto
564 21 lineto
562.529 31.4922 lineto
closepath fill
1 setlinewidth
solid
0.667 0.776 0.439 edgecolor
newpath 569.393 30.1194 moveto
564 21 lineto
562.529 31.4922 lineto
closepath stroke
grestore
% Node18->Node13
gsave
1 setlinewidth
solid
0.667 0.776 0.439 edgecolor
newpath 606 174 moveto
621 150 657 93 700 58 curveto
717 44 739 32 758 24 curveto
stroke
0.667 0.776 0.439 edgecolor
newpath 759.283 27.2598 moveto
767 20 lineto
756.44 20.8631 lineto
closepath fill
1 setlinewidth
solid
0.667 0.776 0.439 edgecolor
newpath 759.283 27.2598 moveto
767 20 lineto
756.44 20.8631 lineto
closepath stroke
grestore
% Node18->Node16
gsave
1 setlinewidth
solid
0.667 0.776 0.439 edgecolor
newpath 567 174 moveto
539 164 498 150 468 140 curveto
stroke
0.667 0.776 0.439 edgecolor
newpath 468.584 136.521 moveto
458 137 lineto
466.573 143.226 lineto
closepath fill
1 setlinewidth
solid
0.667 0.776 0.439 edgecolor
newpath 468.584 136.521 moveto
458 137 lineto
466.573 143.226 lineto
closepath stroke
grestore
% Node19->Node2
gsave
1 setlinewidth
solid
0.667 0.776 0.439 edgecolor
newpath 212 232 moveto
177 223 127 210 74 196 curveto
stroke
0.667 0.776 0.439 edgecolor
newpath 74.4922 192.529 moveto
64 194 lineto
73.1194 199.393 lineto
closepath fill
1 setlinewidth
solid
0.667 0.776 0.439 edgecolor
newpath 74.4922 192.529 moveto
64 194 lineto
73.1194 199.393 lineto
closepath stroke
grestore
% Node19->Node3
gsave
1 setlinewidth
solid
0.667 0.776 0.439 edgecolor
newpath 228 232 moveto
204 222 171 209 146 199 curveto
stroke
0.667 0.776 0.439 edgecolor
newpath 147.56 195.863 moveto
137 195 lineto
144.717 202.26 lineto
closepath fill
1 setlinewidth
solid
0.667 0.776 0.439 edgecolor
newpath 147.56 195.863 moveto
137 195 lineto
144.717 202.26 lineto
closepath stroke
grestore
% Node19->Node4
gsave
1 setlinewidth
solid
0.667 0.776 0.439 edgecolor
newpath 240 232 moveto
228 223 211 211 197 201 curveto
stroke
0.667 0.776 0.439 edgecolor
newpath 199.1 198.2 moveto
189 195 lineto
194.9 203.8 lineto
closepath fill
1 setlinewidth
solid
0.667 0.776 0.439 edgecolor
newpath 199.1 198.2 moveto
189 195 lineto
194.9 203.8 lineto
closepath stroke
grestore
% Node19->Node5
gsave
1 setlinewidth
solid
0.667 0.776 0.439 edgecolor
newpath 279 232 moveto
323 211 421 165 471 141 curveto
stroke
0.667 0.776 0.439 edgecolor
newpath 472.283 144.26 moveto
480 137 lineto
469.44 137.863 lineto
closepath fill
1 setlinewidth
solid
0.667 0.776 0.439 edgecolor
newpath 472.283 144.26 moveto
480 137 lineto
469.44 137.863 lineto
closepath stroke
grestore
% Node19->Node16
gsave
1 setlinewidth
solid
0.667 0.776 0.439 edgecolor
newpath 247 232 moveto
237 217 224 191 237 174 curveto
257 150 339 137 390 131 curveto
stroke
0.667 0.776 0.439 edgecolor
newpath 390.398 134.478 moveto
400 130 lineto
389.701 127.512 lineto
closepath fill
1 setlinewidth
solid
0.667 0.776 0.439 edgecolor
newpath 390.398 134.478 moveto
400 130 lineto
389.701 127.512 lineto
closepath stroke
grestore
% Node19->Node17
gsave
1 setlinewidth
solid
0.667 0.776 0.439 edgecolor
newpath 259 232 moveto
262 224 266 214 269 205 curveto
stroke
0.667 0.776 0.439 edgecolor
newpath 272.479 205.584 moveto
272 195 lineto
265.774 203.573 lineto
closepath fill
1 setlinewidth
solid
0.667 0.776 0.439 edgecolor
newpath 272.479 205.584 moveto
272 195 lineto
265.774 203.573 lineto
closepath stroke
grestore
% Node19->Node18
gsave
1 setlinewidth
solid
0.667 0.776 0.439 edgecolor
newpath 303 235 moveto
366 225 475 206 542 195 curveto
stroke
0.667 0.776 0.439 edgecolor
newpath 542.881 198.393 moveto
552 193 lineto
541.508 191.529 lineto
closepath fill
1 setlinewidth
solid
0.667 0.776 0.439 edgecolor
newpath 542.881 198.393 moveto
552 193 lineto
541.508 191.529 lineto
closepath stroke
grestore
% Node20->Node10
gsave
1 setlinewidth
solid
0.667 0.776 0.439 edgecolor
newpath 371 348 moveto
374 340 378 329 383 320 curveto
stroke
0.667 0.776 0.439 edgecolor
newpath 386.137 321.56 moveto
387 311 lineto
379.74 318.717 lineto
closepath fill
1 setlinewidth
solid
0.667 0.776 0.439 edgecolor
newpath 386.137 321.56 moveto
387 311 lineto
379.74 318.717 lineto
closepath stroke
grestore
% Node21->Node13
gsave
1 setlinewidth
solid
0.667 0.776 0.439 edgecolor
newpath 774 348 moveto
835 328 954 283 954 243 curveto
954 243 954 243 954 127 curveto
954 63 871 31 823 19 curveto
stroke
0.667 0.776 0.439 edgecolor
newpath 823.584 15.5212 moveto
813 16 lineto
821.573 22.2259 lineto
closepath fill
1 setlinewidth
solid
0.667 0.776 0.439 edgecolor
newpath 823.584 15.5212 moveto
813 16 lineto
821.573 22.2259 lineto
closepath stroke
grestore
% Node22
gsave
1 setlinewidth
0.000 0.000 0.749 nodecolor
newpath 982 290 moveto
982 311 lineto
1040 311 lineto
1040 290 lineto
closepath stroke
0.000 0.000 0.000 nodecolor
10.00 /FreeSans.ttf set_font
1011 297 moveto 42 -0.5 (signal.h) alignedtext
grestore
% Node21->Node22
gsave
1 setlinewidth
solid
0.667 0.776 0.439 edgecolor
newpath 778 350 moveto
781 349 784 349 787 348 curveto
867 330 888 330 968 312 curveto
969 312 971 311 972 311 curveto
stroke
0.667 0.776 0.439 edgecolor
newpath 973.427 314.226 moveto
982 308 lineto
971.416 307.521 lineto
closepath fill
1 setlinewidth
solid
0.667 0.776 0.439 edgecolor
newpath 973.427 314.226 moveto
982 308 lineto
971.416 307.521 lineto
closepath stroke
grestore
% Node23->Node13
gsave
1 setlinewidth
solid
0.667 0.776 0.439 edgecolor
newpath 883 232 moveto
874 202 850 121 819 58 curveto
814 48 808 38 802 29 curveto
stroke
0.667 0.776 0.439 edgecolor
newpath 805.268 27.625 moveto
797 21 lineto
799.332 31.335 lineto
closepath fill
1 setlinewidth
solid
0.667 0.776 0.439 edgecolor
newpath 805.268 27.625 moveto
797 21 lineto
799.332 31.335 lineto
closepath stroke
grestore
% Node23->Node18
gsave
1 setlinewidth
solid
0.667 0.776 0.439 edgecolor
newpath 846 234 moveto
843 233 840 233 837 232 curveto
775 219 706 205 658 196 curveto
stroke
0.667 0.776 0.439 edgecolor
newpath 658.492 192.529 moveto
648 194 lineto
657.119 199.393 lineto
closepath fill
1 setlinewidth
solid
0.667 0.776 0.439 edgecolor
newpath 658.492 192.529 moveto
648 194 lineto
657.119 199.393 lineto
closepath stroke
grestore
% Node24->Node5
gsave
1 setlinewidth
solid
0.667 0.776 0.439 edgecolor
newpath 578 232 moveto
567 223 553 209 543 196 curveto
530 180 518 160 511 146 curveto
stroke
0.667 0.776 0.439 edgecolor
newpath 513.916 144.042 moveto
506 137 lineto
507.797 147.441 lineto
closepath fill
1 setlinewidth
solid
0.667 0.776 0.439 edgecolor
newpath 513.916 144.042 moveto
506 137 lineto
507.797 147.441 lineto
closepath stroke
grestore
% Node24->Node12
gsave
1 setlinewidth
solid
0.667 0.776 0.439 edgecolor
newpath 617 232 moveto
631 224 648 212 657 196 curveto
661 187 659 183 657 174 curveto
642 116 600 58 577 29 curveto
stroke
0.667 0.776 0.439 edgecolor
newpath 579.8 26.9 moveto
571 21 lineto
574.2 31.1 lineto
closepath fill
1 setlinewidth
solid
0.667 0.776 0.439 edgecolor
newpath 579.8 26.9 moveto
571 21 lineto
574.2 31.1 lineto
closepath stroke
grestore
% Node24->Node13
gsave
1 setlinewidth
solid
0.667 0.776 0.439 edgecolor
newpath 616 232 moveto
632 224 654 211 670 196 curveto
721 145 714 117 755 58 curveto
761 48 769 37 776 29 curveto
stroke
0.667 0.776 0.439 edgecolor
newpath 778.8 31.1 moveto
782 21 lineto
773.2 26.9 lineto
closepath fill
1 setlinewidth
solid
0.667 0.776 0.439 edgecolor
newpath 778.8 31.1 moveto
782 21 lineto
773.2 26.9 lineto
closepath stroke
grestore
% Node24->Node18
gsave
1 setlinewidth
solid
0.667 0.776 0.439 edgecolor
newpath 593 232 moveto
594 224 595 214 597 205 curveto
stroke
0.667 0.776 0.439 edgecolor
newpath 600.488 205.299 moveto
598 195 lineto
593.522 204.602 lineto
closepath fill
1 setlinewidth
solid
0.667 0.776 0.439 edgecolor
newpath 600.488 205.299 moveto
598 195 lineto
593.522 204.602 lineto
closepath stroke
grestore
% Node25->Node13
gsave
1 setlinewidth
solid
0.667 0.776 0.439 edgecolor
newpath 791 232 moveto
795 222 801 209 804 196 curveto
815 135 812 118 804 58 curveto
803 49 800 39 797 31 curveto
stroke
0.667 0.776 0.439 edgecolor
newpath 800.226 29.5725 moveto
794 21 lineto
793.521 31.584 lineto
closepath fill
1 setlinewidth
solid
0.667 0.776 0.439 edgecolor
newpath 800.226 29.5725 moveto
794 21 lineto
793.521 31.584 lineto
closepath stroke
grestore
% Node25->Node18
gsave
1 setlinewidth
solid
0.667 0.776 0.439 edgecolor
newpath 750 232 moveto
719 222 674 208 642 198 curveto
stroke
0.667 0.776 0.439 edgecolor
newpath 642.584 194.521 moveto
632 195 lineto
640.573 201.226 lineto
closepath fill
1 setlinewidth
solid
0.667 0.776 0.439 edgecolor
newpath 642.584 194.521 moveto
632 195 lineto
640.573 201.226 lineto
closepath stroke
grestore
% Node26->Node11
gsave
1 setlinewidth
solid
0.667 0.776 0.439 edgecolor
newpath 684 232 moveto
680 217 672 191 657 174 curveto
612 126 541 97 494 82 curveto
stroke
0.667 0.776 0.439 edgecolor
newpath 494.584 78.5212 moveto
484 79 lineto
492.573 85.2259 lineto
closepath fill
1 setlinewidth
solid
0.667 0.776 0.439 edgecolor
newpath 494.584 78.5212 moveto
484 79 lineto
492.573 85.2259 lineto
closepath stroke
grestore
% Node26->Node13
gsave
1 setlinewidth
solid
0.667 0.776 0.439 edgecolor
newpath 691 232 moveto
708 195 760 77 781 30 curveto
stroke
0.667 0.776 0.439 edgecolor
newpath 784.137 31.5596 moveto
785 21 lineto
777.74 28.7166 lineto
closepath fill
1 setlinewidth
solid
0.667 0.776 0.439 edgecolor
newpath 784.137 31.5596 moveto
785 21 lineto
777.74 28.7166 lineto
closepath stroke
grestore
% Node26->Node18
gsave
1 setlinewidth
solid
0.667 0.776 0.439 edgecolor
newpath 669 232 moveto
656 223 638 210 623 201 curveto
stroke
0.667 0.776 0.439 edgecolor
newpath 625.1 198.2 moveto
615 195 lineto
620.9 203.8 lineto
closepath fill
1 setlinewidth
solid
0.667 0.776 0.439 edgecolor
newpath 625.1 198.2 moveto
615 195 lineto
620.9 203.8 lineto
closepath stroke
grestore
endpage
showpage
grestore
%%PageTrailer
%%EndPage: 1
%%Trailer
%%Pages: 1
%%BoundingBox: 36 36 1122 472
end
restore
%%EOF
