%!PS-Adobe-2.0
%%Creator: Graphviz version 2.12 (Mon Nov 16 18:34:03 UTC 2009)
%%For: (vtamara) Vladimir
%%Title: G
%%Pages: (atend)
%%BoundingBox: (atend)
%%EndComments
save
%%BeginProlog
/DotDict 200 dict def
DotDict begin

/setupLatin1 {
mark
/EncodingVector 256 array def
 EncodingVector 0

ISOLatin1Encoding 0 255 getinterval putinterval
EncodingVector 45 /hyphen put

% Set up ISO Latin 1 character encoding
/starnetISO {
        dup dup findfont dup length dict begin
        { 1 index /FID ne { def }{ pop pop } ifelse
        } forall
        /Encoding EncodingVector def
        currentdict end definefont
} def
/Times-Roman starnetISO def
/Times-Italic starnetISO def
/Times-Bold starnetISO def
/Times-BoldItalic starnetISO def
/Helvetica starnetISO def
/Helvetica-Oblique starnetISO def
/Helvetica-Bold starnetISO def
/Helvetica-BoldOblique starnetISO def
/Courier starnetISO def
/Courier-Oblique starnetISO def
/Courier-Bold starnetISO def
/Courier-BoldOblique starnetISO def
cleartomark
} bind def

%%BeginResource: procset graphviz 0 0
/coord-font-family /Times-Roman def
/default-font-family /Times-Roman def
/coordfont coord-font-family findfont 8 scalefont def

/InvScaleFactor 1.0 def
/set_scale {
       dup 1 exch div /InvScaleFactor exch def
       scale
} bind def

% styles
/solid { [] 0 setdash } bind def
/dashed { [9 InvScaleFactor mul dup ] 0 setdash } bind def
/dotted { [1 InvScaleFactor mul 6 InvScaleFactor mul] 0 setdash } bind def
/invis {/fill {newpath} def /stroke {newpath} def /show {pop newpath} def} bind def
/bold { 2 setlinewidth } bind def
/filled { } bind def
/unfilled { } bind def
/rounded { } bind def
/diagonals { } bind def

% hooks for setting color 
/nodecolor { sethsbcolor } bind def
/edgecolor { sethsbcolor } bind def
/graphcolor { sethsbcolor } bind def
/nopcolor {pop pop pop} bind def

/beginpage {	% i j npages
	/npages exch def
	/j exch def
	/i exch def
	/str 10 string def
	npages 1 gt {
		gsave
			coordfont setfont
			0 0 moveto
			(\() show i str cvs show (,) show j str cvs show (\)) show
		grestore
	} if
} bind def

/set_font {
	findfont exch
	scalefont setfont
} def

% draw aligned label in bounding box aligned to current point
/alignedtext {			% width adj text
	/text exch def
	/adj exch def
	/width exch def
	gsave
		width 0 gt {
			text stringwidth pop adj mul 0 rmoveto
		} if
		[] 0 setdash
		text show
	grestore
} def

/boxprim {				% xcorner ycorner xsize ysize
		4 2 roll
		moveto
		2 copy
		exch 0 rlineto
		0 exch rlineto
		pop neg 0 rlineto
		closepath
} bind def

/ellipse_path {
	/ry exch def
	/rx exch def
	/y exch def
	/x exch def
	matrix currentmatrix
	newpath
	x y translate
	rx ry scale
	0 0 1 0 360 arc
	setmatrix
} bind def

/endpage { showpage } bind def
/showpage { } def

/layercolorseq
	[	% layer color sequence - darkest to lightest
		[0 0 0]
		[.2 .8 .8]
		[.4 .8 .8]
		[.6 .8 .8]
		[.8 .8 .8]
	]
def

/layerlen layercolorseq length def

/setlayer {/maxlayer exch def /curlayer exch def
	layercolorseq curlayer 1 sub layerlen mod get
	aload pop sethsbcolor
	/nodecolor {nopcolor} def
	/edgecolor {nopcolor} def
	/graphcolor {nopcolor} def
} bind def

/onlayer { curlayer ne {invis} if } def

/onlayers {
	/myupper exch def
	/mylower exch def
	curlayer mylower lt
	curlayer myupper gt
	or
	{invis} if
} def

/curlayer 0 def

%%EndResource
%%EndProlog
%%BeginSetup
14 default-font-family set_font
1 setmiterlimit
% /arrowlength 10 def
% /arrowwidth 5 def

% make sure pdfmark is harmless for PS-interpreters other than Distiller
/pdfmark where {pop} {userdict /pdfmark /cleartomark load put} ifelse
% make '<<' and '>>' safe on PS Level 1 devices
/languagelevel where {pop languagelevel}{1} ifelse
2 lt {
    userdict (<<) cvn ([) cvn load put
    userdict (>>) cvn ([) cvn load put
} if

%%EndSetup
setupLatin1
%%Page: 1 1
%%PageBoundingBox: 36 36 1320 356
%%PageOrientation: Portrait
gsave
36 36 1320 356 boxprim clip newpath
0 0 1 beginpage
1 1 set_scale 0 rotate 40 40 translate
% Node1
gsave
0.000 0.000 0.749 nodecolor
newpath 444 290 moveto
444 311 lineto
502 311 lineto
502 290 lineto
closepath fill
1 setlinewidth
filled
0.000 0.000 0.000 nodecolor
newpath 444 290 moveto
444 311 lineto
502 311 lineto
502 290 lineto
closepath stroke
0.000 0.000 0.000 nodecolor
10.00 /FreeSans.ttf set_font
473 297 moveto 42 -0.5 (Pos.hpp) alignedtext
grestore
% Node2
gsave
[ /Rect [ 0 117 88 137 ]
  /Border [ 0 0 0 ]
  /Action << /Subtype /URI /URI ($buscador_8cpp.html) >>
  /Subtype /Link
/ANN pdfmark
[ /Rect [ 0 117 88 137 ]
  /Border [ 0 0 0 ]
  /Action << /Subtype /URI /URI ($buscador_8cpp.html) >>
  /Subtype /Link
/ANN pdfmark
1 setlinewidth
0.000 0.000 0.000 nodecolor
newpath 0 116 moveto
0 137 lineto
89 137 lineto
89 116 lineto
closepath stroke
0.000 0.000 0.000 nodecolor
10.00 /FreeSans.ttf set_font
44 123 moveto 73 -0.5 (buscador.cpp) alignedtext
grestore
% Node1->Node2
gsave
1 setlinewidth
solid
0.667 0.776 0.439 edgecolor
newpath 434 295 moveto
392 289 324 275 270 254 curveto
186 221 94 161 59 137 curveto
stroke
0.667 0.776 0.439 edgecolor
newpath 433.508 298.471 moveto
444 297 lineto
434.881 291.607 lineto
closepath fill
1 setlinewidth
solid
0.667 0.776 0.439 edgecolor
newpath 433.508 298.471 moveto
444 297 lineto
434.881 291.607 lineto
closepath stroke
grestore
% Node3
gsave
[ /Rect [ 542 233 638 253 ]
  /Border [ 0 0 0 ]
  /Action << /Subtype /URI /URI ($NodoTrieS_8hpp.html) >>
  /Subtype /Link
/ANN pdfmark
[ /Rect [ 542 233 638 253 ]
  /Border [ 0 0 0 ]
  /Action << /Subtype /URI /URI ($NodoTrieS_8hpp.html) >>
  /Subtype /Link
/ANN pdfmark
1 setlinewidth
0.000 0.000 0.000 nodecolor
newpath 542 232 moveto
542 253 lineto
638 253 lineto
638 232 lineto
closepath stroke
0.000 0.000 0.000 nodecolor
10.00 /FreeSans.ttf set_font
590 239 moveto 80 -0.5 (NodoTrieS.hpp) alignedtext
grestore
% Node1->Node3
gsave
1 setlinewidth
solid
0.667 0.776 0.439 edgecolor
newpath 504 286 moveto
525 275 552 262 570 253 curveto
stroke
0.667 0.776 0.439 edgecolor
newpath 502.717 282.74 moveto
495 290 lineto
505.56 289.137 lineto
closepath fill
1 setlinewidth
solid
0.667 0.776 0.439 edgecolor
newpath 502.717 282.74 moveto
495 290 lineto
505.56 289.137 lineto
closepath stroke
grestore
% Node4
gsave
[ /Rect [ 232 175 328 195 ]
  /Border [ 0 0 0 ]
  /Action << /Subtype /URI /URI ($TrieSDisco_8hpp.html) >>
  /Subtype /Link
/ANN pdfmark
[ /Rect [ 232 175 328 195 ]
  /Border [ 0 0 0 ]
  /Action << /Subtype /URI /URI ($TrieSDisco_8hpp.html) >>
  /Subtype /Link
/ANN pdfmark
1 setlinewidth
0.000 0.000 0.000 nodecolor
newpath 232 174 moveto
232 195 lineto
328 195 lineto
328 174 lineto
closepath stroke
0.000 0.000 0.000 nodecolor
10.00 /FreeSans.ttf set_font
280 181 moveto 80 -0.5 (TrieSDisco.hpp) alignedtext
grestore
% Node1->Node4
gsave
1 setlinewidth
solid
0.667 0.776 0.439 edgecolor
newpath 434 292 moveto
407 285 370 273 342 254 curveto
318 238 297 210 287 195 curveto
stroke
0.667 0.776 0.439 edgecolor
newpath 433.416 295.479 moveto
444 295 lineto
435.427 288.774 lineto
closepath fill
1 setlinewidth
solid
0.667 0.776 0.439 edgecolor
newpath 433.416 295.479 moveto
444 295 lineto
435.427 288.774 lineto
closepath stroke
grestore
% Node5
gsave
[ /Rect [ 106 117 216 137 ]
  /Border [ 0 0 0 ]
  /Action << /Subtype /URI /URI ($depuraindice_8cpp.html) >>
  /Subtype /Link
/ANN pdfmark
[ /Rect [ 106 117 216 137 ]
  /Border [ 0 0 0 ]
  /Action << /Subtype /URI /URI ($depuraindice_8cpp.html) >>
  /Subtype /Link
/ANN pdfmark
1 setlinewidth
0.000 0.000 0.000 nodecolor
newpath 106 116 moveto
106 137 lineto
217 137 lineto
217 116 lineto
closepath stroke
0.000 0.000 0.000 nodecolor
10.00 /FreeSans.ttf set_font
161 123 moveto 95 -0.5 (depuraindice.cpp) alignedtext
grestore
% Node1->Node5
gsave
1 setlinewidth
solid
0.667 0.776 0.439 edgecolor
newpath 434 293 moveto
401 285 352 272 312 254 curveto
270 234 259 226 223 196 curveto
201 177 180 151 169 137 curveto
stroke
0.667 0.776 0.439 edgecolor
newpath 433.508 296.471 moveto
444 295 lineto
434.881 289.607 lineto
closepath fill
1 setlinewidth
solid
0.667 0.776 0.439 edgecolor
newpath 433.508 296.471 moveto
444 295 lineto
434.881 289.607 lineto
closepath stroke
grestore
% Node6
gsave
[ /Rect [ 422 117 516 137 ]
  /Border [ 0 0 0 ]
  /Action << /Subtype /URI /URI ($RamDisco_8hpp.html) >>
  /Subtype /Link
/ANN pdfmark
[ /Rect [ 422 117 516 137 ]
  /Border [ 0 0 0 ]
  /Action << /Subtype /URI /URI ($RamDisco_8hpp.html) >>
  /Subtype /Link
/ANN pdfmark
1 setlinewidth
0.000 0.000 0.000 nodecolor
newpath 422 116 moveto
422 137 lineto
516 137 lineto
516 116 lineto
closepath stroke
0.000 0.000 0.000 nodecolor
10.00 /FreeSans.ttf set_font
469 123 moveto 78 -0.5 (RamDisco.hpp) alignedtext
grestore
% Node1->Node6
gsave
1 setlinewidth
solid
0.667 0.776 0.439 edgecolor
newpath 470 280 moveto
467 254 462 211 464 174 curveto
465 161 466 147 468 137 curveto
stroke
0.667 0.776 0.439 edgecolor
newpath 466.522 280.398 moveto
471 290 lineto
473.488 279.701 lineto
closepath fill
1 setlinewidth
solid
0.667 0.776 0.439 edgecolor
newpath 466.522 280.398 moveto
471 290 lineto
473.488 279.701 lineto
closepath stroke
grestore
% Node24
gsave
[ /Rect [ 1182 175 1276 195 ]
  /Border [ 0 0 0 ]
  /Action << /Subtype /URI /URI ($NodoTrieS_8cpp.html) >>
  /Subtype /Link
/ANN pdfmark
[ /Rect [ 1182 175 1276 195 ]
  /Border [ 0 0 0 ]
  /Action << /Subtype /URI /URI ($NodoTrieS_8cpp.html) >>
  /Subtype /Link
/ANN pdfmark
1 setlinewidth
0.000 0.000 0.000 nodecolor
newpath 1182 174 moveto
1182 195 lineto
1277 195 lineto
1277 174 lineto
closepath stroke
0.000 0.000 0.000 nodecolor
10.00 /FreeSans.ttf set_font
1229 181 moveto 79 -0.5 (NodoTrieS.cpp) alignedtext
grestore
% Node1->Node24
gsave
1 setlinewidth
solid
0.667 0.776 0.439 edgecolor
newpath 512 293 moveto
548 285 602 272 647 254 curveto
665 246 666 237 685 232 curveto
892 167 957 225 1173 196 curveto
1176 196 1179 195 1182 194 curveto
stroke
0.667 0.776 0.439 edgecolor
newpath 511.119 289.607 moveto
502 295 lineto
512.492 296.471 lineto
closepath fill
1 setlinewidth
solid
0.667 0.776 0.439 edgecolor
newpath 511.119 289.607 moveto
502 295 lineto
512.492 296.471 lineto
closepath stroke
grestore
% Node26
gsave
[ /Rect [ 694 233 750 253 ]
  /Border [ 0 0 0 ]
  /Action << /Subtype /URI /URI ($Pos_8cpp.html) >>
  /Subtype /Link
/ANN pdfmark
[ /Rect [ 694 233 750 253 ]
  /Border [ 0 0 0 ]
  /Action << /Subtype /URI /URI ($Pos_8cpp.html) >>
  /Subtype /Link
/ANN pdfmark
1 setlinewidth
0.000 0.000 0.000 nodecolor
newpath 694 232 moveto
694 253 lineto
751 253 lineto
751 232 lineto
closepath stroke
0.000 0.000 0.000 nodecolor
10.00 /FreeSans.ttf set_font
722 239 moveto 41 -0.5 (Pos.cpp) alignedtext
grestore
% Node1->Node26
gsave
1 setlinewidth
solid
0.667 0.776 0.439 edgecolor
newpath 512 293 moveto
554 283 622 268 680 254 curveto
684 253 689 252 694 250 curveto
stroke
0.667 0.776 0.439 edgecolor
newpath 511.119 289.607 moveto
502 295 lineto
512.492 296.471 lineto
closepath fill
1 setlinewidth
solid
0.667 0.776 0.439 edgecolor
newpath 511.119 289.607 moveto
502 295 lineto
512.492 296.471 lineto
closepath stroke
grestore
% Node27
gsave
[ /Rect [ 768 233 890 253 ]
  /Border [ 0 0 0 ]
  /Action << /Subtype /URI /URI ($PosCasoPrueba_8cpp.html) >>
  /Subtype /Link
/ANN pdfmark
[ /Rect [ 768 233 890 253 ]
  /Border [ 0 0 0 ]
  /Action << /Subtype /URI /URI ($PosCasoPrueba_8cpp.html) >>
  /Subtype /Link
/ANN pdfmark
1 setlinewidth
0.000 0.000 0.000 nodecolor
newpath 768 232 moveto
768 253 lineto
890 253 lineto
890 232 lineto
closepath stroke
0.000 0.000 0.000 nodecolor
10.00 /FreeSans.ttf set_font
829 239 moveto 106 -0.5 (PosCasoPrueba.cpp) alignedtext
grestore
% Node1->Node27
gsave
1 setlinewidth
solid
0.667 0.776 0.439 edgecolor
newpath 512 294 moveto
574 284 694 264 768 253 curveto
stroke
0.667 0.776 0.439 edgecolor
newpath 511.119 290.607 moveto
502 296 lineto
512.492 297.471 lineto
closepath fill
1 setlinewidth
solid
0.667 0.776 0.439 edgecolor
newpath 511.119 290.607 moveto
502 296 lineto
512.492 297.471 lineto
closepath stroke
grestore
% Node3->Node4
gsave
1 setlinewidth
solid
0.667 0.776 0.439 edgecolor
newpath 532 232 moveto
474 221 384 204 328 194 curveto
stroke
0.667 0.776 0.439 edgecolor
newpath 531.508 235.471 moveto
542 234 lineto
532.881 228.607 lineto
closepath fill
1 setlinewidth
solid
0.667 0.776 0.439 edgecolor
newpath 531.508 235.471 moveto
542 234 lineto
532.881 228.607 lineto
closepath stroke
grestore
% Node3->Node6
gsave
1 setlinewidth
solid
0.667 0.776 0.439 edgecolor
newpath 532 231 moveto
512 224 491 213 478 196 curveto
465 179 466 152 467 137 curveto
stroke
0.667 0.776 0.439 edgecolor
newpath 531.416 234.479 moveto
542 234 lineto
533.427 227.774 lineto
closepath fill
1 setlinewidth
solid
0.667 0.776 0.439 edgecolor
newpath 531.416 234.479 moveto
542 234 lineto
533.427 227.774 lineto
closepath stroke
grestore
% Node13
gsave
[ /Rect [ 88 59 248 79 ]
  /Border [ 0 0 0 ]
  /Action << /Subtype /URI /URI ($TrieSDiscoCasoPrueba_8cpp.html) >>
  /Subtype /Link
/ANN pdfmark
[ /Rect [ 88 59 248 79 ]
  /Border [ 0 0 0 ]
  /Action << /Subtype /URI /URI ($TrieSDiscoCasoPrueba_8cpp.html) >>
  /Subtype /Link
/ANN pdfmark
1 setlinewidth
0.000 0.000 0.000 nodecolor
newpath 88 58 moveto
88 79 lineto
248 79 lineto
248 58 lineto
closepath stroke
0.000 0.000 0.000 nodecolor
10.00 /FreeSans.ttf set_font
168 65 moveto 144 -0.5 (TrieSDiscoCasoPrueba.cpp) alignedtext
grestore
% Node3->Node13
gsave
1 setlinewidth
solid
0.667 0.776 0.439 edgecolor
newpath 543 229 moveto
519 221 489 209 464 196 curveto
409 167 407 141 352 116 curveto
314 98 268 86 232 79 curveto
stroke
0.667 0.776 0.439 edgecolor
newpath 542.416 232.479 moveto
553 232 lineto
544.427 225.774 lineto
closepath fill
1 setlinewidth
solid
0.667 0.776 0.439 edgecolor
newpath 542.416 232.479 moveto
553 232 lineto
544.427 225.774 lineto
closepath stroke
grestore
% Node15
gsave
[ /Rect [ 498 175 584 195 ]
  /Border [ 0 0 0 ]
  /Action << /Subtype /URI /URI ($leeHTML_8cpp.html) >>
  /Subtype /Link
/ANN pdfmark
[ /Rect [ 498 175 584 195 ]
  /Border [ 0 0 0 ]
  /Action << /Subtype /URI /URI ($leeHTML_8cpp.html) >>
  /Subtype /Link
/ANN pdfmark
1 setlinewidth
0.000 0.000 0.000 nodecolor
newpath 498 174 moveto
498 195 lineto
584 195 lineto
584 174 lineto
closepath stroke
0.000 0.000 0.000 nodecolor
10.00 /FreeSans.ttf set_font
541 181 moveto 70 -0.5 (leeHTML.cpp) alignedtext
grestore
% Node3->Node15
gsave
1 setlinewidth
solid
0.667 0.776 0.439 edgecolor
newpath 574 224 moveto
566 214 556 203 549 195 curveto
stroke
0.667 0.776 0.439 edgecolor
newpath 571.781 226.779 moveto
581 232 lineto
577.049 222.169 lineto
closepath fill
1 setlinewidth
solid
0.667 0.776 0.439 edgecolor
newpath 571.781 226.779 moveto
581 232 lineto
577.049 222.169 lineto
closepath stroke
grestore
% Node16
gsave
[ /Rect [ 924 59 1010 79 ]
  /Border [ 0 0 0 ]
  /Action << /Subtype /URI /URI ($leeHTML_8hpp.html) >>
  /Subtype /Link
/ANN pdfmark
[ /Rect [ 924 59 1010 79 ]
  /Border [ 0 0 0 ]
  /Action << /Subtype /URI /URI ($leeHTML_8hpp.html) >>
  /Subtype /Link
/ANN pdfmark
1 setlinewidth
0.000 0.000 0.000 nodecolor
newpath 924 58 moveto
924 79 lineto
1011 79 lineto
1011 58 lineto
closepath stroke
0.000 0.000 0.000 nodecolor
10.00 /FreeSans.ttf set_font
967 65 moveto 71 -0.5 (leeHTML.hpp) alignedtext
grestore
% Node3->Node16
gsave
1 setlinewidth
solid
0.667 0.776 0.439 edgecolor
newpath 648 232 moveto
737 222 947 253 999 196 curveto
1030 161 992 103 975 79 curveto
stroke
0.667 0.776 0.439 edgecolor
newpath 647.602 228.522 moveto
638 233 lineto
648.299 235.488 lineto
closepath fill
1 setlinewidth
solid
0.667 0.776 0.439 edgecolor
newpath 647.602 228.522 moveto
638 233 lineto
648.299 235.488 lineto
closepath stroke
grestore
% Node17
gsave
[ /Rect [ 1031 117 1111 137 ]
  /Border [ 0 0 0 ]
  /Action << /Subtype /URI /URI ($leeODT_8cpp.html) >>
  /Subtype /Link
/ANN pdfmark
[ /Rect [ 1031 117 1111 137 ]
  /Border [ 0 0 0 ]
  /Action << /Subtype /URI /URI ($leeODT_8cpp.html) >>
  /Subtype /Link
/ANN pdfmark
1 setlinewidth
0.000 0.000 0.000 nodecolor
newpath 1031 116 moveto
1031 137 lineto
1111 137 lineto
1111 116 lineto
closepath stroke
0.000 0.000 0.000 nodecolor
10.00 /FreeSans.ttf set_font
1071 123 moveto 64 -0.5 (leeODT.cpp) alignedtext
grestore
% Node3->Node17
gsave
1 setlinewidth
solid
0.667 0.776 0.439 edgecolor
newpath 648 232 moveto
649 232 651 232 652 232 curveto
736 220 960 242 1032 196 curveto
1053 182 1064 153 1068 137 curveto
stroke
0.667 0.776 0.439 edgecolor
newpath 647.119 228.607 moveto
638 234 lineto
648.492 235.471 lineto
closepath fill
1 setlinewidth
solid
0.667 0.776 0.439 edgecolor
newpath 647.119 228.607 moveto
638 234 lineto
648.492 235.471 lineto
closepath stroke
grestore
% Node18
gsave
[ /Rect [ 1084 175 1164 195 ]
  /Border [ 0 0 0 ]
  /Action << /Subtype /URI /URI ($leeODT_8hpp.html) >>
  /Subtype /Link
/ANN pdfmark
[ /Rect [ 1084 175 1164 195 ]
  /Border [ 0 0 0 ]
  /Action << /Subtype /URI /URI ($leeODT_8hpp.html) >>
  /Subtype /Link
/ANN pdfmark
1 setlinewidth
0.000 0.000 0.000 nodecolor
newpath 1084 174 moveto
1084 195 lineto
1165 195 lineto
1165 174 lineto
closepath stroke
0.000 0.000 0.000 nodecolor
10.00 /FreeSans.ttf set_font
1124 181 moveto 65 -0.5 (leeODT.hpp) alignedtext
grestore
% Node3->Node18
gsave
1 setlinewidth
solid
0.667 0.776 0.439 edgecolor
newpath 648 232 moveto
649 232 651 232 652 232 curveto
836 207 885 222 1070 196 curveto
1075 195 1079 194 1084 193 curveto
stroke
0.667 0.776 0.439 edgecolor
newpath 647.119 228.607 moveto
638 234 lineto
648.492 235.471 lineto
closepath fill
1 setlinewidth
solid
0.667 0.776 0.439 edgecolor
newpath 647.119 228.607 moveto
638 234 lineto
648.492 235.471 lineto
closepath stroke
grestore
% Node20
gsave
[ /Rect [ 568 117 642 137 ]
  /Border [ 0 0 0 ]
  /Action << /Subtype /URI /URI ($leePDF_8cpp.html) >>
  /Subtype /Link
/ANN pdfmark
[ /Rect [ 568 117 642 137 ]
  /Border [ 0 0 0 ]
  /Action << /Subtype /URI /URI ($leePDF_8cpp.html) >>
  /Subtype /Link
/ANN pdfmark
1 setlinewidth
0.000 0.000 0.000 nodecolor
newpath 568 116 moveto
568 137 lineto
643 137 lineto
643 116 lineto
closepath stroke
0.000 0.000 0.000 nodecolor
10.00 /FreeSans.ttf set_font
605 123 moveto 59 -0.5 (leePDF.cpp) alignedtext
grestore
% Node3->Node20
gsave
1 setlinewidth
solid
0.667 0.776 0.439 edgecolor
newpath 536 229 moveto
504 217 472 199 489 174 curveto
506 148 541 136 568 131 curveto
stroke
0.667 0.776 0.439 edgecolor
newpath 535.416 232.479 moveto
546 232 lineto
537.427 225.774 lineto
closepath fill
1 setlinewidth
solid
0.667 0.776 0.439 edgecolor
newpath 535.416 232.479 moveto
546 232 lineto
537.427 225.774 lineto
closepath stroke
grestore
% Node21
gsave
[ /Rect [ 602 175 678 195 ]
  /Border [ 0 0 0 ]
  /Action << /Subtype /URI /URI ($leePDF_8hpp.html) >>
  /Subtype /Link
/ANN pdfmark
[ /Rect [ 602 175 678 195 ]
  /Border [ 0 0 0 ]
  /Action << /Subtype /URI /URI ($leePDF_8hpp.html) >>
  /Subtype /Link
/ANN pdfmark
1 setlinewidth
0.000 0.000 0.000 nodecolor
newpath 602 174 moveto
602 195 lineto
678 195 lineto
678 174 lineto
closepath stroke
0.000 0.000 0.000 nodecolor
10.00 /FreeSans.ttf set_font
640 181 moveto 60 -0.5 (leePDF.hpp) alignedtext
grestore
% Node3->Node21
gsave
1 setlinewidth
solid
0.667 0.776 0.439 edgecolor
newpath 607 224 moveto
615 214 625 203 631 195 curveto
stroke
0.667 0.776 0.439 edgecolor
newpath 603.951 222.169 moveto
600 232 lineto
609.219 226.779 lineto
closepath fill
1 setlinewidth
solid
0.667 0.776 0.439 edgecolor
newpath 603.951 222.169 moveto
600 232 lineto
609.219 226.779 lineto
closepath stroke
grestore
% Node22
gsave
[ /Rect [ 696 175 774 195 ]
  /Border [ 0 0 0 ]
  /Action << /Subtype /URI /URI ($leeXML_8cpp.html) >>
  /Subtype /Link
/ANN pdfmark
[ /Rect [ 696 175 774 195 ]
  /Border [ 0 0 0 ]
  /Action << /Subtype /URI /URI ($leeXML_8cpp.html) >>
  /Subtype /Link
/ANN pdfmark
1 setlinewidth
0.000 0.000 0.000 nodecolor
newpath 696 174 moveto
696 195 lineto
774 195 lineto
774 174 lineto
closepath stroke
0.000 0.000 0.000 nodecolor
10.00 /FreeSans.ttf set_font
735 181 moveto 62 -0.5 (leeXML.cpp) alignedtext
grestore
% Node3->Node22
gsave
1 setlinewidth
solid
0.667 0.776 0.439 edgecolor
newpath 628 228 moveto
654 217 687 204 710 195 curveto
stroke
0.667 0.776 0.439 edgecolor
newpath 625.985 225.036 moveto
618 232 lineto
628.585 231.536 lineto
closepath fill
1 setlinewidth
solid
0.667 0.776 0.439 edgecolor
newpath 625.985 225.036 moveto
618 232 lineto
628.585 231.536 lineto
closepath stroke
grestore
% Node23
gsave
[ /Rect [ 792 59 870 79 ]
  /Border [ 0 0 0 ]
  /Action << /Subtype /URI /URI ($leeXML_8hpp.html) >>
  /Subtype /Link
/ANN pdfmark
[ /Rect [ 792 59 870 79 ]
  /Border [ 0 0 0 ]
  /Action << /Subtype /URI /URI ($leeXML_8hpp.html) >>
  /Subtype /Link
/ANN pdfmark
1 setlinewidth
0.000 0.000 0.000 nodecolor
newpath 792 58 moveto
792 79 lineto
871 79 lineto
871 58 lineto
closepath stroke
0.000 0.000 0.000 nodecolor
10.00 /FreeSans.ttf set_font
831 65 moveto 63 -0.5 (leeXML.hpp) alignedtext
grestore
% Node3->Node23
gsave
1 setlinewidth
solid
0.667 0.776 0.439 edgecolor
newpath 648 230 moveto
703 218 777 201 783 196 curveto
819 164 828 104 830 79 curveto
stroke
0.667 0.776 0.439 edgecolor
newpath 647.119 226.607 moveto
638 232 lineto
648.492 233.471 lineto
closepath fill
1 setlinewidth
solid
0.667 0.776 0.439 edgecolor
newpath 647.119 226.607 moveto
638 232 lineto
648.492 233.471 lineto
closepath stroke
grestore
% Node3->Node24
gsave
1 setlinewidth
solid
0.667 0.776 0.439 edgecolor
newpath 648 232 moveto
649 232 651 232 652 232 curveto
882 203 942 226 1173 196 curveto
1176 196 1179 195 1182 194 curveto
stroke
0.667 0.776 0.439 edgecolor
newpath 647.119 228.607 moveto
638 234 lineto
648.492 235.471 lineto
closepath fill
1 setlinewidth
solid
0.667 0.776 0.439 edgecolor
newpath 647.119 228.607 moveto
638 234 lineto
648.492 235.471 lineto
closepath stroke
grestore
% Node25
gsave
[ /Rect [ 830 175 990 195 ]
  /Border [ 0 0 0 ]
  /Action << /Subtype /URI /URI ($NodoTrieSCasoPrueba_8cpp.html) >>
  /Subtype /Link
/ANN pdfmark
[ /Rect [ 830 175 990 195 ]
  /Border [ 0 0 0 ]
  /Action << /Subtype /URI /URI ($NodoTrieSCasoPrueba_8cpp.html) >>
  /Subtype /Link
/ANN pdfmark
1 setlinewidth
0.000 0.000 0.000 nodecolor
newpath 830 174 moveto
830 195 lineto
990 195 lineto
990 174 lineto
closepath stroke
0.000 0.000 0.000 nodecolor
10.00 /FreeSans.ttf set_font
910 181 moveto 144 -0.5 (NodoTrieSCasoPrueba.cpp) alignedtext
grestore
% Node3->Node25
gsave
1 setlinewidth
solid
0.667 0.776 0.439 edgecolor
newpath 648 232 moveto
707 222 797 205 855 195 curveto
stroke
0.667 0.776 0.439 edgecolor
newpath 647.119 228.607 moveto
638 234 lineto
648.492 235.471 lineto
closepath fill
1 setlinewidth
solid
0.667 0.776 0.439 edgecolor
newpath 647.119 228.607 moveto
638 234 lineto
648.492 235.471 lineto
closepath stroke
grestore
% Node4->Node2
gsave
1 setlinewidth
solid
0.667 0.776 0.439 edgecolor
newpath 225 171 moveto
182 161 124 146 85 137 curveto
stroke
0.667 0.776 0.439 edgecolor
newpath 224.416 174.479 moveto
235 174 lineto
226.427 167.774 lineto
closepath fill
1 setlinewidth
solid
0.667 0.776 0.439 edgecolor
newpath 224.416 174.479 moveto
235 174 lineto
226.427 167.774 lineto
closepath stroke
grestore
% Node4->Node5
gsave
1 setlinewidth
solid
0.667 0.776 0.439 edgecolor
newpath 248 170 moveto
227 159 200 146 182 137 curveto
stroke
0.667 0.776 0.439 edgecolor
newpath 246.44 173.137 moveto
257 174 lineto
249.283 166.74 lineto
closepath fill
1 setlinewidth
solid
0.667 0.776 0.439 edgecolor
newpath 246.44 173.137 moveto
257 174 lineto
249.283 166.74 lineto
closepath stroke
grestore
% Node4->Node6
gsave
1 setlinewidth
solid
0.667 0.776 0.439 edgecolor
newpath 326 171 moveto
360 160 406 146 436 137 curveto
stroke
0.667 0.776 0.439 edgecolor
newpath 324.573 167.774 moveto
316 174 lineto
326.584 174.479 lineto
closepath fill
1 setlinewidth
solid
0.667 0.776 0.439 edgecolor
newpath 324.573 167.774 moveto
316 174 lineto
326.584 174.479 lineto
closepath stroke
grestore
% Node4->Node13
gsave
1 setlinewidth
solid
0.667 0.776 0.439 edgecolor
newpath 309 169 moveto
330 154 351 134 337 116 curveto
324 99 277 87 236 79 curveto
stroke
0.667 0.776 0.439 edgecolor
newpath 307.042 166.084 moveto
300 174 lineto
310.441 172.203 lineto
closepath fill
1 setlinewidth
solid
0.667 0.776 0.439 edgecolor
newpath 307.042 166.084 moveto
300 174 lineto
310.441 172.203 lineto
closepath stroke
grestore
% Node14
gsave
[ /Rect [ 234 117 328 137 ]
  /Border [ 0 0 0 ]
  /Action << /Subtype /URI /URI ($TrieSDisco_8cpp.html) >>
  /Subtype /Link
/ANN pdfmark
[ /Rect [ 234 117 328 137 ]
  /Border [ 0 0 0 ]
  /Action << /Subtype /URI /URI ($TrieSDisco_8cpp.html) >>
  /Subtype /Link
/ANN pdfmark
1 setlinewidth
0.000 0.000 0.000 nodecolor
newpath 234 116 moveto
234 137 lineto
329 137 lineto
329 116 lineto
closepath stroke
0.000 0.000 0.000 nodecolor
10.00 /FreeSans.ttf set_font
281 123 moveto 79 -0.5 (TrieSDisco.cpp) alignedtext
grestore
% Node4->Node14
gsave
1 setlinewidth
solid
0.667 0.776 0.439 edgecolor
newpath 280 164 moveto
280 154 280 144 281 137 curveto
stroke
0.667 0.776 0.439 edgecolor
newpath 276.5 164 moveto
280 174 lineto
283.5 164 lineto
closepath fill
1 setlinewidth
solid
0.667 0.776 0.439 edgecolor
newpath 276.5 164 moveto
280 174 lineto
283.5 164 lineto
closepath stroke
grestore
% Node7
gsave
[ /Rect [ 590 59 698 79 ]
  /Border [ 0 0 0 ]
  /Action << /Subtype /URI /URI ($Operaciones_8hpp.html) >>
  /Subtype /Link
/ANN pdfmark
[ /Rect [ 590 59 698 79 ]
  /Border [ 0 0 0 ]
  /Action << /Subtype /URI /URI ($Operaciones_8hpp.html) >>
  /Subtype /Link
/ANN pdfmark
1 setlinewidth
0.000 0.000 0.000 nodecolor
newpath 590 58 moveto
590 79 lineto
699 79 lineto
699 58 lineto
closepath stroke
0.000 0.000 0.000 nodecolor
10.00 /FreeSans.ttf set_font
644 65 moveto 93 -0.5 (Operaciones.hpp) alignedtext
grestore
% Node6->Node7
gsave
1 setlinewidth
solid
0.667 0.776 0.439 edgecolor
newpath 512 113 moveto
543 102 586 88 614 79 curveto
stroke
0.667 0.776 0.439 edgecolor
newpath 510.573 109.774 moveto
502 116 lineto
512.584 116.479 lineto
closepath fill
1 setlinewidth
solid
0.667 0.776 0.439 edgecolor
newpath 510.573 109.774 moveto
502 116 lineto
512.584 116.479 lineto
closepath stroke
grestore
% Node9
gsave
[ /Rect [ 743 1 851 21 ]
  /Border [ 0 0 0 ]
  /Action << /Subtype /URI /URI ($Operaciones_8cpp.html) >>
  /Subtype /Link
/ANN pdfmark
[ /Rect [ 743 1 851 21 ]
  /Border [ 0 0 0 ]
  /Action << /Subtype /URI /URI ($Operaciones_8cpp.html) >>
  /Subtype /Link
/ANN pdfmark
1 setlinewidth
0.000 0.000 0.000 nodecolor
newpath 743 0 moveto
743 21 lineto
851 21 lineto
851 0 lineto
closepath stroke
0.000 0.000 0.000 nodecolor
10.00 /FreeSans.ttf set_font
797 7 moveto 92 -0.5 (Operaciones.cpp) alignedtext
grestore
% Node6->Node9
gsave
1 setlinewidth
solid
0.667 0.776 0.439 edgecolor
newpath 526 118 moveto
586 109 675 94 707 80 curveto
739 65 771 36 787 21 curveto
stroke
0.667 0.776 0.439 edgecolor
newpath 525.119 114.607 moveto
516 120 lineto
526.492 121.471 lineto
closepath fill
1 setlinewidth
solid
0.667 0.776 0.439 edgecolor
newpath 525.119 114.607 moveto
516 120 lineto
526.492 121.471 lineto
closepath stroke
grestore
% Node10
gsave
[ /Rect [ 350 1 454 21 ]
  /Border [ 0 0 0 ]
  /Action << /Subtype /URI /URI ($operaindice_8cpp.html) >>
  /Subtype /Link
/ANN pdfmark
[ /Rect [ 350 1 454 21 ]
  /Border [ 0 0 0 ]
  /Action << /Subtype /URI /URI ($operaindice_8cpp.html) >>
  /Subtype /Link
/ANN pdfmark
1 setlinewidth
0.000 0.000 0.000 nodecolor
newpath 350 0 moveto
350 21 lineto
454 21 lineto
454 0 lineto
closepath stroke
0.000 0.000 0.000 nodecolor
10.00 /FreeSans.ttf set_font
402 7 moveto 88 -0.5 (operaindice.cpp) alignedtext
grestore
% Node6->Node10
gsave
1 setlinewidth
solid
0.667 0.776 0.439 edgecolor
newpath 412 115 moveto
364 104 302 89 295 80 curveto
274 52 321 32 359 21 curveto
stroke
0.667 0.776 0.439 edgecolor
newpath 411.508 118.471 moveto
422 117 lineto
412.881 111.607 lineto
closepath fill
1 setlinewidth
solid
0.667 0.776 0.439 edgecolor
newpath 411.508 118.471 moveto
422 117 lineto
412.881 111.607 lineto
closepath stroke
grestore
% Node11
gsave
[ /Rect [ 304 59 396 79 ]
  /Border [ 0 0 0 ]
  /Action << /Subtype /URI /URI ($RamDisco_8cpp.html) >>
  /Subtype /Link
/ANN pdfmark
[ /Rect [ 304 59 396 79 ]
  /Border [ 0 0 0 ]
  /Action << /Subtype /URI /URI ($RamDisco_8cpp.html) >>
  /Subtype /Link
/ANN pdfmark
1 setlinewidth
0.000 0.000 0.000 nodecolor
newpath 304 58 moveto
304 79 lineto
397 79 lineto
397 58 lineto
closepath stroke
0.000 0.000 0.000 nodecolor
10.00 /FreeSans.ttf set_font
350 65 moveto 77 -0.5 (RamDisco.cpp) alignedtext
grestore
% Node6->Node11
gsave
1 setlinewidth
solid
0.667 0.776 0.439 edgecolor
newpath 437 112 moveto
416 101 389 88 371 79 curveto
stroke
0.667 0.776 0.439 edgecolor
newpath 435.44 115.137 moveto
446 116 lineto
438.283 108.74 lineto
closepath fill
1 setlinewidth
solid
0.667 0.776 0.439 edgecolor
newpath 435.44 115.137 moveto
446 116 lineto
438.283 108.74 lineto
closepath stroke
grestore
% Node12
gsave
[ /Rect [ 414 59 572 79 ]
  /Border [ 0 0 0 ]
  /Action << /Subtype /URI /URI ($RamDiscoCasoPrueba_8cpp.html) >>
  /Subtype /Link
/ANN pdfmark
[ /Rect [ 414 59 572 79 ]
  /Border [ 0 0 0 ]
  /Action << /Subtype /URI /URI ($RamDiscoCasoPrueba_8cpp.html) >>
  /Subtype /Link
/ANN pdfmark
1 setlinewidth
0.000 0.000 0.000 nodecolor
newpath 414 58 moveto
414 79 lineto
572 79 lineto
572 58 lineto
closepath stroke
0.000 0.000 0.000 nodecolor
10.00 /FreeSans.ttf set_font
493 65 moveto 142 -0.5 (RamDiscoCasoPrueba.cpp) alignedtext
grestore
% Node6->Node12
gsave
1 setlinewidth
solid
0.667 0.776 0.439 edgecolor
newpath 478 106 moveto
482 97 486 86 489 79 curveto
stroke
0.667 0.776 0.439 edgecolor
newpath 474.464 105.415 moveto
474 116 lineto
480.964 108.015 lineto
closepath fill
1 setlinewidth
solid
0.667 0.776 0.439 edgecolor
newpath 474.464 105.415 moveto
474 116 lineto
480.964 108.015 lineto
closepath stroke
grestore
% Node6->Node13
gsave
1 setlinewidth
solid
0.667 0.776 0.439 edgecolor
newpath 412 116 moveto
356 106 273 89 219 79 curveto
stroke
0.667 0.776 0.439 edgecolor
newpath 411.508 119.471 moveto
422 118 lineto
412.881 112.607 lineto
closepath fill
1 setlinewidth
solid
0.667 0.776 0.439 edgecolor
newpath 411.508 119.471 moveto
422 118 lineto
412.881 112.607 lineto
closepath stroke
grestore
% Node8
gsave
[ /Rect [ 597 1 691 21 ]
  /Border [ 0 0 0 ]
  /Action << /Subtype /URI /URI ($indexador_8cpp.html) >>
  /Subtype /Link
/ANN pdfmark
[ /Rect [ 597 1 691 21 ]
  /Border [ 0 0 0 ]
  /Action << /Subtype /URI /URI ($indexador_8cpp.html) >>
  /Subtype /Link
/ANN pdfmark
1 setlinewidth
0.000 0.000 0.000 nodecolor
newpath 597 0 moveto
597 21 lineto
691 21 lineto
691 0 lineto
closepath stroke
0.000 0.000 0.000 nodecolor
10.00 /FreeSans.ttf set_font
644 7 moveto 78 -0.5 (indexador.cpp) alignedtext
grestore
% Node7->Node8
gsave
1 setlinewidth
solid
0.667 0.776 0.439 edgecolor
newpath 644 48 moveto
644 38 644 28 644 21 curveto
stroke
0.667 0.776 0.439 edgecolor
newpath 640.5 48 moveto
644 58 lineto
647.5 48 lineto
closepath fill
1 setlinewidth
solid
0.667 0.776 0.439 edgecolor
newpath 640.5 48 moveto
644 58 lineto
647.5 48 lineto
closepath stroke
grestore
% Node7->Node9
gsave
1 setlinewidth
solid
0.667 0.776 0.439 edgecolor
newpath 682 54 moveto
710 44 747 30 771 21 curveto
stroke
0.667 0.776 0.439 edgecolor
newpath 680.717 50.7402 moveto
673 58 lineto
683.56 57.1369 lineto
closepath fill
1 setlinewidth
solid
0.667 0.776 0.439 edgecolor
newpath 680.717 50.7402 moveto
673 58 lineto
683.56 57.1369 lineto
closepath stroke
grestore
% Node7->Node10
gsave
1 setlinewidth
solid
0.667 0.776 0.439 edgecolor
newpath 588 56 moveto
544 45 484 30 444 21 curveto
stroke
0.667 0.776 0.439 edgecolor
newpath 587.508 59.4708 moveto
598 58 lineto
588.881 52.6067 lineto
closepath fill
1 setlinewidth
solid
0.667 0.776 0.439 edgecolor
newpath 587.508 59.4708 moveto
598 58 lineto
588.881 52.6067 lineto
closepath stroke
grestore
% Node16->Node9
gsave
1 setlinewidth
solid
0.667 0.776 0.439 edgecolor
newpath 925 55 moveto
894 44 854 30 826 21 curveto
stroke
0.667 0.776 0.439 edgecolor
newpath 924.416 58.4788 moveto
935 58 lineto
926.427 51.7741 lineto
closepath fill
1 setlinewidth
solid
0.667 0.776 0.439 edgecolor
newpath 924.416 58.4788 moveto
935 58 lineto
926.427 51.7741 lineto
closepath stroke
grestore
% Node18->Node9
gsave
1 setlinewidth
solid
0.667 0.776 0.439 edgecolor
newpath 1128 164 moveto
1129 149 1129 130 1120 116 curveto
1092 71 1067 76 1019 58 curveto
963 37 897 24 851 18 curveto
stroke
0.667 0.776 0.439 edgecolor
newpath 1124.53 163.508 moveto
1126 174 lineto
1131.39 164.881 lineto
closepath fill
1 setlinewidth
solid
0.667 0.776 0.439 edgecolor
newpath 1124.53 163.508 moveto
1126 174 lineto
1131.39 164.881 lineto
closepath stroke
grestore
% Node18->Node17
gsave
1 setlinewidth
solid
0.667 0.776 0.439 edgecolor
newpath 1107 166 moveto
1098 157 1087 145 1080 137 curveto
stroke
0.667 0.776 0.439 edgecolor
newpath 1104.78 168.779 moveto
1114 174 lineto
1110.05 164.169 lineto
closepath fill
1 setlinewidth
solid
0.667 0.776 0.439 edgecolor
newpath 1104.78 168.779 moveto
1114 174 lineto
1110.05 164.169 lineto
closepath stroke
grestore
% Node19
gsave
[ /Rect [ 1167 117 1251 137 ]
  /Border [ 0 0 0 ]
  /Action << /Subtype /URI /URI ($txtdeodt_8cpp.html) >>
  /Subtype /Link
/ANN pdfmark
[ /Rect [ 1167 117 1251 137 ]
  /Border [ 0 0 0 ]
  /Action << /Subtype /URI /URI ($txtdeodt_8cpp.html) >>
  /Subtype /Link
/ANN pdfmark
1 setlinewidth
0.000 0.000 0.000 nodecolor
newpath 1167 116 moveto
1167 137 lineto
1252 137 lineto
1252 116 lineto
closepath stroke
0.000 0.000 0.000 nodecolor
10.00 /FreeSans.ttf set_font
1209 123 moveto 69 -0.5 (txtdeodt.cpp) alignedtext
grestore
% Node18->Node19
gsave
1 setlinewidth
solid
0.667 0.776 0.439 edgecolor
newpath 1148 168 moveto
1163 158 1181 145 1194 137 curveto
stroke
0.667 0.776 0.439 edgecolor
newpath 1145.9 165.2 moveto
1140 174 lineto
1150.1 170.8 lineto
closepath fill
1 setlinewidth
solid
0.667 0.776 0.439 edgecolor
newpath 1145.9 165.2 moveto
1140 174 lineto
1150.1 170.8 lineto
closepath stroke
grestore
% Node21->Node9
gsave
1 setlinewidth
solid
0.667 0.776 0.439 edgecolor
newpath 657 166 moveto
690 130 762 50 788 21 curveto
stroke
0.667 0.776 0.439 edgecolor
newpath 653.951 164.169 moveto
650 174 lineto
659.219 168.779 lineto
closepath fill
1 setlinewidth
solid
0.667 0.776 0.439 edgecolor
newpath 653.951 164.169 moveto
650 174 lineto
659.219 168.779 lineto
closepath stroke
grestore
% Node21->Node20
gsave
1 setlinewidth
solid
0.667 0.776 0.439 edgecolor
newpath 628 165 moveto
622 156 616 145 611 137 curveto
stroke
0.667 0.776 0.439 edgecolor
newpath 625.084 166.958 moveto
633 174 lineto
631.203 163.559 lineto
closepath fill
1 setlinewidth
solid
0.667 0.776 0.439 edgecolor
newpath 625.084 166.958 moveto
633 174 lineto
631.203 163.559 lineto
closepath stroke
grestore
% Node23->Node9
gsave
1 setlinewidth
solid
0.667 0.776 0.439 edgecolor
newpath 819 49 moveto
814 39 808 29 803 21 curveto
stroke
0.667 0.776 0.439 edgecolor
newpath 816.084 50.9582 moveto
824 58 lineto
822.203 47.5586 lineto
closepath fill
1 setlinewidth
solid
0.667 0.776 0.439 edgecolor
newpath 816.084 50.9582 moveto
824 58 lineto
822.203 47.5586 lineto
closepath stroke
grestore
endpage
showpage
grestore
%%PageTrailer
%%EndPage: 1
%%Trailer
%%Pages: 1
%%BoundingBox: 36 36 1320 356
end
restore
%%EOF
