%!PS-Adobe-2.0
%%Creator: Graphviz version 2.12 (Mon Nov 16 18:34:03 UTC 2009)
%%For: (vtamara) Vladimir
%%Title: G
%%Pages: (atend)
%%BoundingBox: (atend)
%%EndComments
save
%%BeginProlog
/DotDict 200 dict def
DotDict begin

/setupLatin1 {
mark
/EncodingVector 256 array def
 EncodingVector 0

ISOLatin1Encoding 0 255 getinterval putinterval
EncodingVector 45 /hyphen put

% Set up ISO Latin 1 character encoding
/starnetISO {
        dup dup findfont dup length dict begin
        { 1 index /FID ne { def }{ pop pop } ifelse
        } forall
        /Encoding EncodingVector def
        currentdict end definefont
} def
/Times-Roman starnetISO def
/Times-Italic starnetISO def
/Times-Bold starnetISO def
/Times-BoldItalic starnetISO def
/Helvetica starnetISO def
/Helvetica-Oblique starnetISO def
/Helvetica-Bold starnetISO def
/Helvetica-BoldOblique starnetISO def
/Courier starnetISO def
/Courier-Oblique starnetISO def
/Courier-Bold starnetISO def
/Courier-BoldOblique starnetISO def
cleartomark
} bind def

%%BeginResource: procset graphviz 0 0
/coord-font-family /Times-Roman def
/default-font-family /Times-Roman def
/coordfont coord-font-family findfont 8 scalefont def

/InvScaleFactor 1.0 def
/set_scale {
       dup 1 exch div /InvScaleFactor exch def
       scale
} bind def

% styles
/solid { [] 0 setdash } bind def
/dashed { [9 InvScaleFactor mul dup ] 0 setdash } bind def
/dotted { [1 InvScaleFactor mul 6 InvScaleFactor mul] 0 setdash } bind def
/invis {/fill {newpath} def /stroke {newpath} def /show {pop newpath} def} bind def
/bold { 2 setlinewidth } bind def
/filled { } bind def
/unfilled { } bind def
/rounded { } bind def
/diagonals { } bind def

% hooks for setting color 
/nodecolor { sethsbcolor } bind def
/edgecolor { sethsbcolor } bind def
/graphcolor { sethsbcolor } bind def
/nopcolor {pop pop pop} bind def

/beginpage {	% i j npages
	/npages exch def
	/j exch def
	/i exch def
	/str 10 string def
	npages 1 gt {
		gsave
			coordfont setfont
			0 0 moveto
			(\() show i str cvs show (,) show j str cvs show (\)) show
		grestore
	} if
} bind def

/set_font {
	findfont exch
	scalefont setfont
} def

% draw aligned label in bounding box aligned to current point
/alignedtext {			% width adj text
	/text exch def
	/adj exch def
	/width exch def
	gsave
		width 0 gt {
			text stringwidth pop adj mul 0 rmoveto
		} if
		[] 0 setdash
		text show
	grestore
} def

/boxprim {				% xcorner ycorner xsize ysize
		4 2 roll
		moveto
		2 copy
		exch 0 rlineto
		0 exch rlineto
		pop neg 0 rlineto
		closepath
} bind def

/ellipse_path {
	/ry exch def
	/rx exch def
	/y exch def
	/x exch def
	matrix currentmatrix
	newpath
	x y translate
	rx ry scale
	0 0 1 0 360 arc
	setmatrix
} bind def

/endpage { showpage } bind def
/showpage { } def

/layercolorseq
	[	% layer color sequence - darkest to lightest
		[0 0 0]
		[.2 .8 .8]
		[.4 .8 .8]
		[.6 .8 .8]
		[.8 .8 .8]
	]
def

/layerlen layercolorseq length def

/setlayer {/maxlayer exch def /curlayer exch def
	layercolorseq curlayer 1 sub layerlen mod get
	aload pop sethsbcolor
	/nodecolor {nopcolor} def
	/edgecolor {nopcolor} def
	/graphcolor {nopcolor} def
} bind def

/onlayer { curlayer ne {invis} if } def

/onlayers {
	/myupper exch def
	/mylower exch def
	curlayer mylower lt
	curlayer myupper gt
	or
	{invis} if
} def

/curlayer 0 def

%%EndResource
%%EndProlog
%%BeginSetup
14 default-font-family set_font
1 setmiterlimit
% /arrowlength 10 def
% /arrowwidth 5 def

% make sure pdfmark is harmless for PS-interpreters other than Distiller
/pdfmark where {pop} {userdict /pdfmark /cleartomark load put} ifelse
% make '<<' and '>>' safe on PS Level 1 devices
/languagelevel where {pop languagelevel}{1} ifelse
2 lt {
    userdict (<<) cvn ([) cvn load put
    userdict (>>) cvn ([) cvn load put
} if

%%EndSetup
setupLatin1
%%Page: 1 1
%%PageBoundingBox: 36 36 699 240
%%PageOrientation: Portrait
gsave
36 36 699 240 boxprim clip newpath
0 0 1 beginpage
1 1 set_scale 0 rotate 40 40 translate
% Node1
gsave
0.000 0.000 0.749 nodecolor
newpath 259 174 moveto
259 195 lineto
316 195 lineto
316 174 lineto
closepath fill
1 setlinewidth
filled
0.000 0.000 0.000 nodecolor
newpath 259 174 moveto
259 195 lineto
316 195 lineto
316 174 lineto
closepath stroke
0.000 0.000 0.000 nodecolor
10.00 /FreeSans.ttf set_font
287 181 moveto 41 -0.5 (Pos.cpp) alignedtext
grestore
% Node2
gsave
1 setlinewidth
0.000 0.000 0.749 nodecolor
newpath 0 0 moveto
0 21 lineto
32 21 lineto
32 0 lineto
closepath stroke
0.000 0.000 0.000 nodecolor
10.00 /FreeSans.ttf set_font
16 7 moveto 16 -0.5 (set) alignedtext
grestore
% Node1->Node2
gsave
1 setlinewidth
solid
0.667 0.776 0.439 edgecolor
newpath 259 184 moveto
199 180 64 170 34 138 curveto
7 109 9 59 12 31 curveto
stroke
0.667 0.776 0.439 edgecolor
newpath 15.4708 31.4922 moveto
14 21 lineto
8.60673 30.1194 lineto
closepath fill
1 setlinewidth
solid
0.667 0.776 0.439 edgecolor
newpath 15.4708 31.4922 moveto
14 21 lineto
8.60673 30.1194 lineto
closepath stroke
grestore
% Node3
gsave
1 setlinewidth
0.000 0.000 0.749 nodecolor
newpath 315 116 moveto
315 137 lineto
379 137 lineto
379 116 lineto
closepath stroke
0.000 0.000 0.000 nodecolor
10.00 /FreeSans.ttf set_font
347 123 moveto 48 -0.5 (iostream) alignedtext
grestore
% Node1->Node3
gsave
1 setlinewidth
solid
0.667 0.776 0.439 edgecolor
newpath 299 174 moveto
308 165 319 154 329 144 curveto
stroke
0.667 0.776 0.439 edgecolor
newpath 331.779 146.219 moveto
337 137 lineto
327.169 140.951 lineto
closepath fill
1 setlinewidth
solid
0.667 0.776 0.439 edgecolor
newpath 331.779 146.219 moveto
337 137 lineto
327.169 140.951 lineto
closepath stroke
grestore
% Node4
gsave
1 setlinewidth
0.000 0.000 0.749 nodecolor
newpath 397 116 moveto
397 137 lineto
458 137 lineto
458 116 lineto
closepath stroke
0.000 0.000 0.000 nodecolor
10.00 /FreeSans.ttf set_font
427 123 moveto 45 -0.5 (iomanip) alignedtext
grestore
% Node1->Node4
gsave
1 setlinewidth
solid
0.667 0.776 0.439 edgecolor
newpath 314 174 moveto
336 164 369 151 394 141 curveto
stroke
0.667 0.776 0.439 edgecolor
newpath 395.283 144.26 moveto
403 137 lineto
392.44 137.863 lineto
closepath fill
1 setlinewidth
solid
0.667 0.776 0.439 edgecolor
newpath 395.283 144.26 moveto
403 137 lineto
392.44 137.863 lineto
closepath stroke
grestore
% Node5
gsave
1 setlinewidth
0.000 0.000 0.749 nodecolor
newpath 475 116 moveto
475 137 lineto
506 137 lineto
506 116 lineto
closepath stroke
0.000 0.000 0.000 nodecolor
10.00 /FreeSans.ttf set_font
490 123 moveto 15 -0.5 (list) alignedtext
grestore
% Node1->Node5
gsave
1 setlinewidth
solid
0.667 0.776 0.439 edgecolor
newpath 316 179 moveto
350 171 408 158 465 137 curveto
stroke
0.667 0.776 0.439 edgecolor
newpath 466.427 140.226 moveto
475 134 lineto
464.416 133.521 lineto
closepath fill
1 setlinewidth
solid
0.667 0.776 0.439 edgecolor
newpath 466.427 140.226 moveto
475 134 lineto
464.416 133.521 lineto
closepath stroke
grestore
% Node6
gsave
1 setlinewidth
0.000 0.000 0.749 nodecolor
newpath 258 58 moveto
258 79 lineto
308 79 lineto
308 58 lineto
closepath stroke
0.000 0.000 0.000 nodecolor
10.00 /FreeSans.ttf set_font
283 65 moveto 34 -0.5 (vector) alignedtext
grestore
% Node1->Node6
gsave
1 setlinewidth
solid
0.667 0.776 0.439 edgecolor
newpath 287 174 moveto
286 155 285 114 283 89 curveto
stroke
0.667 0.776 0.439 edgecolor
newpath 286.5 89 moveto
283 79 lineto
279.5 89 lineto
closepath fill
1 setlinewidth
solid
0.667 0.776 0.439 edgecolor
newpath 286.5 89 moveto
283 79 lineto
279.5 89 lineto
closepath stroke
grestore
% Node7
gsave
1 setlinewidth
0.000 0.000 0.749 nodecolor
newpath 523 116 moveto
523 137 lineto
581 137 lineto
581 116 lineto
closepath stroke
0.000 0.000 0.000 nodecolor
10.00 /FreeSans.ttf set_font
552 123 moveto 42 -0.5 (fstream) alignedtext
grestore
% Node1->Node7
gsave
1 setlinewidth
solid
0.667 0.776 0.439 edgecolor
newpath 316 180 moveto
357 171 436 156 513 137 curveto
stroke
0.667 0.776 0.439 edgecolor
newpath 513.881 140.393 moveto
523 135 lineto
512.508 133.529 lineto
closepath fill
1 setlinewidth
solid
0.667 0.776 0.439 edgecolor
newpath 513.881 140.393 moveto
523 135 lineto
512.508 133.529 lineto
closepath stroke
grestore
% Node8
gsave
1 setlinewidth
0.000 0.000 0.749 nodecolor
newpath 599 116 moveto
599 137 lineto
656 137 lineto
656 116 lineto
closepath stroke
0.000 0.000 0.000 nodecolor
10.00 /FreeSans.ttf set_font
627 123 moveto 41 -0.5 (istream) alignedtext
grestore
% Node1->Node8
gsave
1 setlinewidth
solid
0.667 0.776 0.439 edgecolor
newpath 316 182 moveto
368 175 484 161 589 138 curveto
stroke
0.667 0.776 0.439 edgecolor
newpath 589.881 141.393 moveto
599 136 lineto
588.508 134.529 lineto
closepath fill
1 setlinewidth
solid
0.667 0.776 0.439 edgecolor
newpath 589.881 141.393 moveto
599 136 lineto
588.508 134.529 lineto
closepath stroke
grestore
% Node9
gsave
1 setlinewidth
0.000 0.000 0.749 nodecolor
newpath 128 0 moveto
128 21 lineto
187 21 lineto
187 0 lineto
closepath stroke
0.000 0.000 0.000 nodecolor
10.00 /FreeSans.ttf set_font
157 7 moveto 43 -0.5 (sstream) alignedtext
grestore
% Node1->Node9
gsave
1 setlinewidth
solid
0.667 0.776 0.439 edgecolor
newpath 259 179 moveto
236 173 204 160 186 138 curveto
161 107 157 58 156 31 curveto
stroke
0.667 0.776 0.439 edgecolor
newpath 159.5 31 moveto
156 21 lineto
152.5 31 lineto
closepath fill
1 setlinewidth
solid
0.667 0.776 0.439 edgecolor
newpath 159.5 31 moveto
156 21 lineto
152.5 31 lineto
closepath stroke
grestore
% Node10
gsave
[ /Rect [ 52 59 130 79 ]
  /Border [ 0 0 0 ]
  /Action << /Subtype /URI /URI ($comun_8hpp.html) >>
  /Subtype /Link
/ANN pdfmark
[ /Rect [ 52 59 130 79 ]
  /Border [ 0 0 0 ]
  /Action << /Subtype /URI /URI ($comun_8hpp.html) >>
  /Subtype /Link
/ANN pdfmark
1 setlinewidth
0.000 0.000 0.000 nodecolor
newpath 52 58 moveto
52 79 lineto
130 79 lineto
130 58 lineto
closepath stroke
0.000 0.000 0.000 nodecolor
10.00 /FreeSans.ttf set_font
91 65 moveto 62 -0.5 (comun.hpp) alignedtext
grestore
% Node1->Node10
gsave
1 setlinewidth
solid
0.667 0.776 0.439 edgecolor
newpath 259 179 moveto
230 173 186 160 153 138 curveto
132 125 115 103 104 87 curveto
stroke
0.667 0.776 0.439 edgecolor
newpath 106.8 84.9 moveto
98 79 lineto
101.2 89.1 lineto
closepath fill
1 setlinewidth
solid
0.667 0.776 0.439 edgecolor
newpath 106.8 84.9 moveto
98 79 lineto
101.2 89.1 lineto
closepath stroke
grestore
% Node13
gsave
[ /Rect [ 43 117 101 137 ]
  /Border [ 0 0 0 ]
  /Action << /Subtype /URI /URI ($Pos_8hpp.html) >>
  /Subtype /Link
/ANN pdfmark
[ /Rect [ 43 117 101 137 ]
  /Border [ 0 0 0 ]
  /Action << /Subtype /URI /URI ($Pos_8hpp.html) >>
  /Subtype /Link
/ANN pdfmark
1 setlinewidth
0.000 0.000 0.000 nodecolor
newpath 43 116 moveto
43 137 lineto
101 137 lineto
101 116 lineto
closepath stroke
0.000 0.000 0.000 nodecolor
10.00 /FreeSans.ttf set_font
72 123 moveto 42 -0.5 (Pos.hpp) alignedtext
grestore
% Node1->Node13
gsave
1 setlinewidth
solid
0.667 0.776 0.439 edgecolor
newpath 259 177 moveto
221 167 154 149 111 138 curveto
stroke
0.667 0.776 0.439 edgecolor
newpath 111.584 134.521 moveto
101 135 lineto
109.573 141.226 lineto
closepath fill
1 setlinewidth
solid
0.667 0.776 0.439 edgecolor
newpath 111.584 134.521 moveto
101 135 lineto
109.573 141.226 lineto
closepath stroke
grestore
% Node14
gsave
[ /Rect [ 195 117 259 137 ]
  /Border [ 0 0 0 ]
  /Action << /Subtype /URI /URI ($Elias_8hpp.html) >>
  /Subtype /Link
/ANN pdfmark
[ /Rect [ 195 117 259 137 ]
  /Border [ 0 0 0 ]
  /Action << /Subtype /URI /URI ($Elias_8hpp.html) >>
  /Subtype /Link
/ANN pdfmark
1 setlinewidth
0.000 0.000 0.000 nodecolor
newpath 195 116 moveto
195 137 lineto
259 137 lineto
259 116 lineto
closepath stroke
0.000 0.000 0.000 nodecolor
10.00 /FreeSans.ttf set_font
227 123 moveto 48 -0.5 (Elias.hpp) alignedtext
grestore
% Node1->Node14
gsave
1 setlinewidth
solid
0.667 0.776 0.439 edgecolor
newpath 275 174 moveto
266 165 255 154 245 144 curveto
stroke
0.667 0.776 0.439 edgecolor
newpath 246.831 140.951 moveto
237 137 lineto
242.221 146.219 lineto
closepath fill
1 setlinewidth
solid
0.667 0.776 0.439 edgecolor
newpath 246.831 140.951 moveto
237 137 lineto
242.221 146.219 lineto
closepath stroke
grestore
% Node10->Node2
gsave
1 setlinewidth
solid
0.667 0.776 0.439 edgecolor
newpath 77 58 moveto
66 49 50 37 37 27 curveto
stroke
0.667 0.776 0.439 edgecolor
newpath 39.1 24.2 moveto
29 21 lineto
34.9 29.8 lineto
closepath fill
1 setlinewidth
solid
0.667 0.776 0.439 edgecolor
newpath 39.1 24.2 moveto
29 21 lineto
34.9 29.8 lineto
closepath stroke
grestore
% Node10->Node9
gsave
1 setlinewidth
solid
0.667 0.776 0.439 edgecolor
newpath 104 58 moveto
114 49 127 37 138 28 curveto
stroke
0.667 0.776 0.439 edgecolor
newpath 140.779 30.2191 moveto
146 21 lineto
136.169 24.9511 lineto
closepath fill
1 setlinewidth
solid
0.667 0.776 0.439 edgecolor
newpath 140.779 30.2191 moveto
146 21 lineto
136.169 24.9511 lineto
closepath stroke
grestore
% Node11
gsave
1 setlinewidth
0.000 0.000 0.749 nodecolor
newpath 204 0 moveto
204 21 lineto
250 21 lineto
250 0 lineto
closepath stroke
0.000 0.000 0.000 nodecolor
10.00 /FreeSans.ttf set_font
227 7 moveto 30 -0.5 (string) alignedtext
grestore
% Node10->Node11
gsave
1 setlinewidth
solid
0.667 0.776 0.439 edgecolor
newpath 117 58 moveto
139 48 171 35 195 25 curveto
stroke
0.667 0.776 0.439 edgecolor
newpath 196.283 28.2598 moveto
204 21 lineto
193.44 21.8631 lineto
closepath fill
1 setlinewidth
solid
0.667 0.776 0.439 edgecolor
newpath 196.283 28.2598 moveto
204 21 lineto
193.44 21.8631 lineto
closepath stroke
grestore
% Node12
gsave
1 setlinewidth
0.000 0.000 0.749 nodecolor
newpath 50 0 moveto
50 21 lineto
111 21 lineto
111 0 lineto
closepath stroke
0.000 0.000 0.000 nodecolor
10.00 /FreeSans.ttf set_font
80 7 moveto 45 -0.5 (ostream) alignedtext
grestore
% Node10->Node12
gsave
1 setlinewidth
solid
0.667 0.776 0.439 edgecolor
newpath 89 58 moveto
88 50 86 40 84 31 curveto
stroke
0.667 0.776 0.439 edgecolor
newpath 87.3933 30.1194 moveto
82 21 lineto
80.5292 31.4922 lineto
closepath fill
1 setlinewidth
solid
0.667 0.776 0.439 edgecolor
newpath 87.3933 30.1194 moveto
82 21 lineto
80.5292 31.4922 lineto
closepath stroke
grestore
% Node13->Node10
gsave
1 setlinewidth
solid
0.667 0.776 0.439 edgecolor
newpath 76 116 moveto
78 108 81 98 84 89 curveto
stroke
0.667 0.776 0.439 edgecolor
newpath 87.5357 89.5847 moveto
88 79 lineto
81.0364 86.9849 lineto
closepath fill
1 setlinewidth
solid
0.667 0.776 0.439 edgecolor
newpath 87.5357 89.5847 moveto
88 79 lineto
81.0364 86.9849 lineto
closepath stroke
grestore
% Node14->Node6
gsave
1 setlinewidth
solid
0.667 0.776 0.439 edgecolor
newpath 238 116 moveto
246 107 257 96 266 86 curveto
stroke
0.667 0.776 0.439 edgecolor
newpath 268.404 88.546 moveto
273 79 lineto
263.454 83.5962 lineto
closepath fill
1 setlinewidth
solid
0.667 0.776 0.439 edgecolor
newpath 268.404 88.546 moveto
273 79 lineto
263.454 83.5962 lineto
closepath stroke
grestore
% Node14->Node11
gsave
1 setlinewidth
solid
0.667 0.776 0.439 edgecolor
newpath 227 116 moveto
227 97 227 56 227 31 curveto
stroke
0.667 0.776 0.439 edgecolor
newpath 230.5 31 moveto
227 21 lineto
223.5 31 lineto
closepath fill
1 setlinewidth
solid
0.667 0.776 0.439 edgecolor
newpath 230.5 31 moveto
227 21 lineto
223.5 31 lineto
closepath stroke
grestore
endpage
showpage
grestore
%%PageTrailer
%%EndPage: 1
%%Trailer
%%Pages: 1
%%BoundingBox: 36 36 699 240
end
restore
%%EOF
