%!PS-Adobe-2.0
%%Creator: Graphviz version 2.12 (Mon Nov 16 18:34:03 UTC 2009)
%%For: (vtamara) Vladimir
%%Title: G
%%Pages: (atend)
%%BoundingBox: (atend)
%%EndComments
save
%%BeginProlog
/DotDict 200 dict def
DotDict begin

/setupLatin1 {
mark
/EncodingVector 256 array def
 EncodingVector 0

ISOLatin1Encoding 0 255 getinterval putinterval
EncodingVector 45 /hyphen put

% Set up ISO Latin 1 character encoding
/starnetISO {
        dup dup findfont dup length dict begin
        { 1 index /FID ne { def }{ pop pop } ifelse
        } forall
        /Encoding EncodingVector def
        currentdict end definefont
} def
/Times-Roman starnetISO def
/Times-Italic starnetISO def
/Times-Bold starnetISO def
/Times-BoldItalic starnetISO def
/Helvetica starnetISO def
/Helvetica-Oblique starnetISO def
/Helvetica-Bold starnetISO def
/Helvetica-BoldOblique starnetISO def
/Courier starnetISO def
/Courier-Oblique starnetISO def
/Courier-Bold starnetISO def
/Courier-BoldOblique starnetISO def
cleartomark
} bind def

%%BeginResource: procset graphviz 0 0
/coord-font-family /Times-Roman def
/default-font-family /Times-Roman def
/coordfont coord-font-family findfont 8 scalefont def

/InvScaleFactor 1.0 def
/set_scale {
       dup 1 exch div /InvScaleFactor exch def
       scale
} bind def

% styles
/solid { [] 0 setdash } bind def
/dashed { [9 InvScaleFactor mul dup ] 0 setdash } bind def
/dotted { [1 InvScaleFactor mul 6 InvScaleFactor mul] 0 setdash } bind def
/invis {/fill {newpath} def /stroke {newpath} def /show {pop newpath} def} bind def
/bold { 2 setlinewidth } bind def
/filled { } bind def
/unfilled { } bind def
/rounded { } bind def
/diagonals { } bind def

% hooks for setting color 
/nodecolor { sethsbcolor } bind def
/edgecolor { sethsbcolor } bind def
/graphcolor { sethsbcolor } bind def
/nopcolor {pop pop pop} bind def

/beginpage {	% i j npages
	/npages exch def
	/j exch def
	/i exch def
	/str 10 string def
	npages 1 gt {
		gsave
			coordfont setfont
			0 0 moveto
			(\() show i str cvs show (,) show j str cvs show (\)) show
		grestore
	} if
} bind def

/set_font {
	findfont exch
	scalefont setfont
} def

% draw aligned label in bounding box aligned to current point
/alignedtext {			% width adj text
	/text exch def
	/adj exch def
	/width exch def
	gsave
		width 0 gt {
			text stringwidth pop adj mul 0 rmoveto
		} if
		[] 0 setdash
		text show
	grestore
} def

/boxprim {				% xcorner ycorner xsize ysize
		4 2 roll
		moveto
		2 copy
		exch 0 rlineto
		0 exch rlineto
		pop neg 0 rlineto
		closepath
} bind def

/ellipse_path {
	/ry exch def
	/rx exch def
	/y exch def
	/x exch def
	matrix currentmatrix
	newpath
	x y translate
	rx ry scale
	0 0 1 0 360 arc
	setmatrix
} bind def

/endpage { showpage } bind def
/showpage { } def

/layercolorseq
	[	% layer color sequence - darkest to lightest
		[0 0 0]
		[.2 .8 .8]
		[.4 .8 .8]
		[.6 .8 .8]
		[.8 .8 .8]
	]
def

/layerlen layercolorseq length def

/setlayer {/maxlayer exch def /curlayer exch def
	layercolorseq curlayer 1 sub layerlen mod get
	aload pop sethsbcolor
	/nodecolor {nopcolor} def
	/edgecolor {nopcolor} def
	/graphcolor {nopcolor} def
} bind def

/onlayer { curlayer ne {invis} if } def

/onlayers {
	/myupper exch def
	/mylower exch def
	curlayer mylower lt
	curlayer myupper gt
	or
	{invis} if
} def

/curlayer 0 def

%%EndResource
%%EndProlog
%%BeginSetup
14 default-font-family set_font
1 setmiterlimit
% /arrowlength 10 def
% /arrowwidth 5 def

% make sure pdfmark is harmless for PS-interpreters other than Distiller
/pdfmark where {pop} {userdict /pdfmark /cleartomark load put} ifelse
% make '<<' and '>>' safe on PS Level 1 devices
/languagelevel where {pop languagelevel}{1} ifelse
2 lt {
    userdict (<<) cvn ([) cvn load put
    userdict (>>) cvn ([) cvn load put
} if

%%EndSetup
setupLatin1
%%Page: 1 1
%%PageBoundingBox: 36 36 630 159
%%PageOrientation: Portrait
gsave
36 36 630 159 boxprim clip newpath
0 0 1 beginpage
1 1 set_scale 0 rotate 40 40 translate
% Node1
gsave
0.000 0.000 0.749 nodecolor
newpath 1 37 moveto
1 58 lineto
50 58 lineto
50 37 lineto
closepath fill
1 setlinewidth
filled
0.000 0.000 0.000 nodecolor
newpath 1 37 moveto
1 58 lineto
50 58 lineto
50 37 lineto
closepath stroke
0.000 0.000 0.000 nodecolor
10.00 /FreeSans.ttf set_font
25 44 moveto 33 -0.5 (numC) alignedtext
grestore
% Node2
gsave
[ /Rect [ 86 38 208 58 ]
  /Border [ 0 0 0 ]
  /Action << /Subtype /URI /URI ($Elias_8cpp.html#d6e0c2eca1e4ac05de2acccdc80e79f4) >>
  /Subtype /Link
/ANN pdfmark
[ /Rect [ 86 38 208 58 ]
  /Border [ 0 0 0 ]
  /Action << /Subtype /URI /URI ($Elias_8cpp.html#d6e0c2eca1e4ac05de2acccdc80e79f4) >>
  /Subtype /Link
/ANN pdfmark
1 setlinewidth
0.000 0.000 0.000 nodecolor
newpath 86 37 moveto
86 58 lineto
208 58 lineto
208 37 lineto
closepath stroke
0.000 0.000 0.000 nodecolor
10.00 /FreeSans.ttf set_font
147 44 moveto 106 -0.5 (escribe_elias_gama) alignedtext
grestore
% Node1->Node2
gsave
1 setlinewidth
solid
0.667 0.776 0.439 edgecolor
newpath 50 48 moveto
58 48 67 48 76 48 curveto
stroke
0.667 0.776 0.439 edgecolor
newpath 76 51.5001 moveto
86 48 lineto
76 44.5001 lineto
closepath fill
1 setlinewidth
solid
0.667 0.776 0.439 edgecolor
newpath 76 51.5001 moveto
86 48 lineto
76 44.5001 lineto
closepath stroke
grestore
% Node3
gsave
[ /Rect [ 244 38 370 58 ]
  /Border [ 0 0 0 ]
  /Action << /Subtype /URI /URI ($Elias_8cpp.html#fca0b551bec0af966adde95d2402901c) >>
  /Subtype /Link
/ANN pdfmark
[ /Rect [ 244 38 370 58 ]
  /Border [ 0 0 0 ]
  /Action << /Subtype /URI /URI ($Elias_8cpp.html#fca0b551bec0af966adde95d2402901c) >>
  /Subtype /Link
/ANN pdfmark
1 setlinewidth
0.000 0.000 0.000 nodecolor
newpath 244 37 moveto
244 58 lineto
370 58 lineto
370 37 lineto
closepath stroke
0.000 0.000 0.000 nodecolor
10.00 /FreeSans.ttf set_font
307 44 moveto 110 -0.5 (codifica_elias_gama) alignedtext
grestore
% Node2->Node3
gsave
1 setlinewidth
solid
0.667 0.776 0.439 edgecolor
newpath 208 48 moveto
217 48 225 48 234 48 curveto
stroke
0.667 0.776 0.439 edgecolor
newpath 234 51.5001 moveto
244 48 lineto
234 44.5001 lineto
closepath fill
1 setlinewidth
solid
0.667 0.776 0.439 edgecolor
newpath 234 51.5001 moveto
244 48 lineto
234 44.5001 lineto
closepath stroke
grestore
% Node4
gsave
[ /Rect [ 409 95 507 115 ]
  /Border [ 0 0 0 ]
  /Action << /Subtype /URI /URI ($Elias_8cpp.html#87b59b9c1b4563ae420c8b155da85aef) >>
  /Subtype /Link
/ANN pdfmark
[ /Rect [ 409 95 507 115 ]
  /Border [ 0 0 0 ]
  /Action << /Subtype /URI /URI ($Elias_8cpp.html#87b59b9c1b4563ae420c8b155da85aef) >>
  /Subtype /Link
/ANN pdfmark
1 setlinewidth
0.000 0.000 0.000 nodecolor
newpath 409 94 moveto
409 115 lineto
508 115 lineto
508 94 lineto
closepath stroke
0.000 0.000 0.000 nodecolor
10.00 /FreeSans.ttf set_font
458 101 moveto 83 -0.5 (codifica_unario) alignedtext
grestore
% Node3->Node4
gsave
1 setlinewidth
solid
0.667 0.776 0.439 edgecolor
newpath 333 58 moveto
353 66 381 77 406 86 curveto
410 88 415 89 419 91 curveto
stroke
0.667 0.776 0.439 edgecolor
newpath 418.416 94.4788 moveto
429 94 lineto
420.427 87.7741 lineto
closepath fill
1 setlinewidth
solid
0.667 0.776 0.439 edgecolor
newpath 418.416 94.4788 moveto
429 94 lineto
420.427 87.7741 lineto
closepath stroke
grestore
% Node5
gsave
[ /Rect [ 422 57 494 77 ]
  /Border [ 0 0 0 ]
  /Action << /Subtype /URI /URI ($Elias_8cpp.html#7127ec8dff13cc2ad873693ca8933d38) >>
  /Subtype /Link
/ANN pdfmark
[ /Rect [ 422 57 494 77 ]
  /Border [ 0 0 0 ]
  /Action << /Subtype /URI /URI ($Elias_8cpp.html#7127ec8dff13cc2ad873693ca8933d38) >>
  /Subtype /Link
/ANN pdfmark
1 setlinewidth
0.000 0.000 0.000 nodecolor
newpath 422 56 moveto
422 77 lineto
495 77 lineto
495 56 lineto
closepath stroke
0.000 0.000 0.000 nodecolor
10.00 /FreeSans.ttf set_font
458 63 moveto 57 -0.5 (piso_logb2) alignedtext
grestore
% Node3->Node5
gsave
1 setlinewidth
solid
0.667 0.776 0.439 edgecolor
newpath 370 56 moveto
384 58 399 59 412 61 curveto
stroke
0.667 0.776 0.439 edgecolor
newpath 411.701 64.4875 moveto
422 62 lineto
412.398 57.5222 lineto
closepath fill
1 setlinewidth
solid
0.667 0.776 0.439 edgecolor
newpath 411.701 64.4875 moveto
422 62 lineto
412.398 57.5222 lineto
closepath stroke
grestore
% Node6
gsave
[ /Rect [ 406 19 510 39 ]
  /Border [ 0 0 0 ]
  /Action << /Subtype /URI /URI ($Elias_8cpp.html#8e0a4534c26e33b9043d237aab0d9f59) >>
  /Subtype /Link
/ANN pdfmark
[ /Rect [ 406 19 510 39 ]
  /Border [ 0 0 0 ]
  /Action << /Subtype /URI /URI ($Elias_8cpp.html#8e0a4534c26e33b9043d237aab0d9f59) >>
  /Subtype /Link
/ANN pdfmark
1 setlinewidth
0.000 0.000 0.000 nodecolor
newpath 406 18 moveto
406 39 lineto
510 39 lineto
510 18 lineto
closepath stroke
0.000 0.000 0.000 nodecolor
10.00 /FreeSans.ttf set_font
458 25 moveto 88 -0.5 (pone_un_entero) alignedtext
grestore
% Node3->Node6
gsave
1 setlinewidth
solid
0.667 0.776 0.439 edgecolor
newpath 370 40 moveto
379 39 387 38 396 37 curveto
stroke
0.667 0.776 0.439 edgecolor
newpath 396.398 40.4778 moveto
406 36 lineto
395.701 33.5125 lineto
closepath fill
1 setlinewidth
solid
0.667 0.776 0.439 edgecolor
newpath 396.398 40.4778 moveto
406 36 lineto
395.701 33.5125 lineto
closepath stroke
grestore
% Node7
gsave
[ /Rect [ 546 0 586 20 ]
  /Border [ 0 0 0 ]
  /Action << /Subtype /URI /URI ($Elias_8cpp.html#c268bba1057c593ac6dcfa6bf1ada057) >>
  /Subtype /Link
/ANN pdfmark
[ /Rect [ 546 0 586 20 ]
  /Border [ 0 0 0 ]
  /Action << /Subtype /URI /URI ($Elias_8cpp.html#c268bba1057c593ac6dcfa6bf1ada057) >>
  /Subtype /Link
/ANN pdfmark
1 setlinewidth
0.000 0.000 0.000 nodecolor
newpath 546 -1 moveto
546 20 lineto
586 20 lineto
586 -1 lineto
closepath stroke
0.000 0.000 0.000 nodecolor
10.00 /FreeSans.ttf set_font
566 6 moveto 24 -0.5 (pot2) alignedtext
grestore
% Node3->Node7
gsave
1 setlinewidth
solid
0.667 0.776 0.439 edgecolor
newpath 329 37 moveto
349 27 379 15 406 10 curveto
451 2 503 4 536 7 curveto
stroke
0.667 0.776 0.439 edgecolor
newpath 535.701 10.4875 moveto
546 8 lineto
536.398 3.52224 lineto
closepath fill
1 setlinewidth
solid
0.667 0.776 0.439 edgecolor
newpath 535.701 10.4875 moveto
546 8 lineto
536.398 3.52224 lineto
closepath stroke
grestore
% Node6->Node7
gsave
1 setlinewidth
solid
0.667 0.776 0.439 edgecolor
newpath 510 20 moveto
519 19 528 17 536 15 curveto
stroke
0.667 0.776 0.439 edgecolor
newpath 536.398 18.4778 moveto
546 14 lineto
535.701 11.5125 lineto
closepath fill
1 setlinewidth
solid
0.667 0.776 0.439 edgecolor
newpath 536.398 18.4778 moveto
546 14 lineto
535.701 11.5125 lineto
closepath stroke
grestore
endpage
showpage
grestore
%%PageTrailer
%%EndPage: 1
%%Trailer
%%Pages: 1
%%BoundingBox: 36 36 630 159
end
restore
%%EOF
