%!PS-Adobe-2.0
%%Creator: Graphviz version 2.12 (Mon Nov 16 18:34:03 UTC 2009)
%%For: (vtamara) Vladimir
%%Title: G
%%Pages: (atend)
%%BoundingBox: (atend)
%%EndComments
save
%%BeginProlog
/DotDict 200 dict def
DotDict begin

/setupLatin1 {
mark
/EncodingVector 256 array def
 EncodingVector 0

ISOLatin1Encoding 0 255 getinterval putinterval
EncodingVector 45 /hyphen put

% Set up ISO Latin 1 character encoding
/starnetISO {
        dup dup findfont dup length dict begin
        { 1 index /FID ne { def }{ pop pop } ifelse
        } forall
        /Encoding EncodingVector def
        currentdict end definefont
} def
/Times-Roman starnetISO def
/Times-Italic starnetISO def
/Times-Bold starnetISO def
/Times-BoldItalic starnetISO def
/Helvetica starnetISO def
/Helvetica-Oblique starnetISO def
/Helvetica-Bold starnetISO def
/Helvetica-BoldOblique starnetISO def
/Courier starnetISO def
/Courier-Oblique starnetISO def
/Courier-Bold starnetISO def
/Courier-BoldOblique starnetISO def
cleartomark
} bind def

%%BeginResource: procset graphviz 0 0
/coord-font-family /Times-Roman def
/default-font-family /Times-Roman def
/coordfont coord-font-family findfont 8 scalefont def

/InvScaleFactor 1.0 def
/set_scale {
       dup 1 exch div /InvScaleFactor exch def
       scale
} bind def

% styles
/solid { [] 0 setdash } bind def
/dashed { [9 InvScaleFactor mul dup ] 0 setdash } bind def
/dotted { [1 InvScaleFactor mul 6 InvScaleFactor mul] 0 setdash } bind def
/invis {/fill {newpath} def /stroke {newpath} def /show {pop newpath} def} bind def
/bold { 2 setlinewidth } bind def
/filled { } bind def
/unfilled { } bind def
/rounded { } bind def
/diagonals { } bind def

% hooks for setting color 
/nodecolor { sethsbcolor } bind def
/edgecolor { sethsbcolor } bind def
/graphcolor { sethsbcolor } bind def
/nopcolor {pop pop pop} bind def

/beginpage {	% i j npages
	/npages exch def
	/j exch def
	/i exch def
	/str 10 string def
	npages 1 gt {
		gsave
			coordfont setfont
			0 0 moveto
			(\() show i str cvs show (,) show j str cvs show (\)) show
		grestore
	} if
} bind def

/set_font {
	findfont exch
	scalefont setfont
} def

% draw aligned label in bounding box aligned to current point
/alignedtext {			% width adj text
	/text exch def
	/adj exch def
	/width exch def
	gsave
		width 0 gt {
			text stringwidth pop adj mul 0 rmoveto
		} if
		[] 0 setdash
		text show
	grestore
} def

/boxprim {				% xcorner ycorner xsize ysize
		4 2 roll
		moveto
		2 copy
		exch 0 rlineto
		0 exch rlineto
		pop neg 0 rlineto
		closepath
} bind def

/ellipse_path {
	/ry exch def
	/rx exch def
	/y exch def
	/x exch def
	matrix currentmatrix
	newpath
	x y translate
	rx ry scale
	0 0 1 0 360 arc
	setmatrix
} bind def

/endpage { showpage } bind def
/showpage { } def

/layercolorseq
	[	% layer color sequence - darkest to lightest
		[0 0 0]
		[.2 .8 .8]
		[.4 .8 .8]
		[.6 .8 .8]
		[.8 .8 .8]
	]
def

/layerlen layercolorseq length def

/setlayer {/maxlayer exch def /curlayer exch def
	layercolorseq curlayer 1 sub layerlen mod get
	aload pop sethsbcolor
	/nodecolor {nopcolor} def
	/edgecolor {nopcolor} def
	/graphcolor {nopcolor} def
} bind def

/onlayer { curlayer ne {invis} if } def

/onlayers {
	/myupper exch def
	/mylower exch def
	curlayer mylower lt
	curlayer myupper gt
	or
	{invis} if
} def

/curlayer 0 def

%%EndResource
%%EndProlog
%%BeginSetup
14 default-font-family set_font
1 setmiterlimit
% /arrowlength 10 def
% /arrowwidth 5 def

% make sure pdfmark is harmless for PS-interpreters other than Distiller
/pdfmark where {pop} {userdict /pdfmark /cleartomark load put} ifelse
% make '<<' and '>>' safe on PS Level 1 devices
/languagelevel where {pop languagelevel}{1} ifelse
2 lt {
    userdict (<<) cvn ([) cvn load put
    userdict (>>) cvn ([) cvn load put
} if

%%EndSetup
setupLatin1
%%Page: 1 1
%%PageBoundingBox: 36 36 557 240
%%PageOrientation: Portrait
gsave
36 36 557 240 boxprim clip newpath
0 0 1 beginpage
1 1 set_scale 0 rotate 40 40 translate
% Node1
gsave
0.000 0.000 0.749 nodecolor
newpath 118 174 moveto
118 195 lineto
240 195 lineto
240 174 lineto
closepath fill
1 setlinewidth
filled
0.000 0.000 0.000 nodecolor
newpath 118 174 moveto
118 195 lineto
240 195 lineto
240 174 lineto
closepath stroke
0.000 0.000 0.000 nodecolor
10.00 /FreeSans.ttf set_font
179 181 moveto 106 -0.5 (PosCasoPrueba.cpp) alignedtext
grestore
% Node2
gsave
1 setlinewidth
0.000 0.000 0.749 nodecolor
newpath 0 0 moveto
0 21 lineto
59 21 lineto
59 0 lineto
closepath stroke
0.000 0.000 0.000 nodecolor
10.00 /FreeSans.ttf set_font
29 7 moveto 43 -0.5 (sstream) alignedtext
grestore
% Node1->Node2
gsave
1 setlinewidth
solid
0.667 0.776 0.439 edgecolor
newpath 154 174 moveto
138 166 117 153 102 138 curveto
71 105 48 57 37 30 curveto
stroke
0.667 0.776 0.439 edgecolor
newpath 40.2598 28.7166 moveto
33 21 lineto
33.8631 31.5596 lineto
closepath fill
1 setlinewidth
solid
0.667 0.776 0.439 edgecolor
newpath 40.2598 28.7166 moveto
33 21 lineto
33.8631 31.5596 lineto
closepath stroke
grestore
% Node3
gsave
[ /Rect [ 306 117 428 137 ]
  /Border [ 0 0 0 ]
  /Action << /Subtype /URI /URI ($PosCasoPrueba_8hpp.html) >>
  /Subtype /Link
/ANN pdfmark
[ /Rect [ 306 117 428 137 ]
  /Border [ 0 0 0 ]
  /Action << /Subtype /URI /URI ($PosCasoPrueba_8hpp.html) >>
  /Subtype /Link
/ANN pdfmark
1 setlinewidth
0.000 0.000 0.000 nodecolor
newpath 306 116 moveto
306 137 lineto
429 137 lineto
429 116 lineto
closepath stroke
0.000 0.000 0.000 nodecolor
10.00 /FreeSans.ttf set_font
367 123 moveto 107 -0.5 (PosCasoPrueba.hpp) alignedtext
grestore
% Node1->Node3
gsave
1 setlinewidth
solid
0.667 0.776 0.439 edgecolor
newpath 215 174 moveto
246 164 291 150 324 140 curveto
stroke
0.667 0.776 0.439 edgecolor
newpath 325.427 143.226 moveto
334 137 lineto
323.416 136.521 lineto
closepath fill
1 setlinewidth
solid
0.667 0.776 0.439 edgecolor
newpath 325.427 143.226 moveto
334 137 lineto
323.416 136.521 lineto
closepath stroke
grestore
% Node5
gsave
[ /Rect [ 187 117 251 137 ]
  /Border [ 0 0 0 ]
  /Action << /Subtype /URI /URI ($Elias_8hpp.html) >>
  /Subtype /Link
/ANN pdfmark
[ /Rect [ 187 117 251 137 ]
  /Border [ 0 0 0 ]
  /Action << /Subtype /URI /URI ($Elias_8hpp.html) >>
  /Subtype /Link
/ANN pdfmark
1 setlinewidth
0.000 0.000 0.000 nodecolor
newpath 187 116 moveto
187 137 lineto
251 137 lineto
251 116 lineto
closepath stroke
0.000 0.000 0.000 nodecolor
10.00 /FreeSans.ttf set_font
219 123 moveto 48 -0.5 (Elias.hpp) alignedtext
grestore
% Node1->Node5
gsave
1 setlinewidth
solid
0.667 0.776 0.439 edgecolor
newpath 187 174 moveto
192 166 200 155 206 145 curveto
stroke
0.667 0.776 0.439 edgecolor
newpath 208.8 147.1 moveto
212 137 lineto
203.2 142.9 lineto
closepath fill
1 setlinewidth
solid
0.667 0.776 0.439 edgecolor
newpath 208.8 147.1 moveto
212 137 lineto
203.2 142.9 lineto
closepath stroke
grestore
% Node8
gsave
[ /Rect [ 111 117 169 137 ]
  /Border [ 0 0 0 ]
  /Action << /Subtype /URI /URI ($Pos_8hpp.html) >>
  /Subtype /Link
/ANN pdfmark
[ /Rect [ 111 117 169 137 ]
  /Border [ 0 0 0 ]
  /Action << /Subtype /URI /URI ($Pos_8hpp.html) >>
  /Subtype /Link
/ANN pdfmark
1 setlinewidth
0.000 0.000 0.000 nodecolor
newpath 111 116 moveto
111 137 lineto
169 137 lineto
169 116 lineto
closepath stroke
0.000 0.000 0.000 nodecolor
10.00 /FreeSans.ttf set_font
140 123 moveto 42 -0.5 (Pos.hpp) alignedtext
grestore
% Node1->Node8
gsave
1 setlinewidth
solid
0.667 0.776 0.439 edgecolor
newpath 171 174 moveto
166 166 158 155 152 146 curveto
stroke
0.667 0.776 0.439 edgecolor
newpath 154.916 144.042 moveto
147 137 lineto
148.797 147.441 lineto
closepath fill
1 setlinewidth
solid
0.667 0.776 0.439 edgecolor
newpath 154.916 144.042 moveto
147 137 lineto
148.797 147.441 lineto
closepath stroke
grestore
% Node4
gsave
1 setlinewidth
0.000 0.000 0.749 nodecolor
newpath 309 58 moveto
309 79 lineto
514 79 lineto
514 58 lineto
closepath stroke
0.000 0.000 0.000 nodecolor
10.00 /FreeSans.ttf set_font
411 65 moveto 189 -0.5 (cppunit/extensions/HelperMacros.h) alignedtext
grestore
% Node3->Node4
gsave
1 setlinewidth
solid
0.667 0.776 0.439 edgecolor
newpath 375 116 moveto
381 108 390 96 397 87 curveto
stroke
0.667 0.776 0.439 edgecolor
newpath 399.8 89.1 moveto
403 79 lineto
394.2 84.9 lineto
closepath fill
1 setlinewidth
solid
0.667 0.776 0.439 edgecolor
newpath 399.8 89.1 moveto
403 79 lineto
394.2 84.9 lineto
closepath stroke
grestore
% Node6
gsave
1 setlinewidth
0.000 0.000 0.749 nodecolor
newpath 241 58 moveto
241 79 lineto
291 79 lineto
291 58 lineto
closepath stroke
0.000 0.000 0.000 nodecolor
10.00 /FreeSans.ttf set_font
266 65 moveto 34 -0.5 (vector) alignedtext
grestore
% Node5->Node6
gsave
1 setlinewidth
solid
0.667 0.776 0.439 edgecolor
newpath 228 116 moveto
235 108 244 96 252 87 curveto
stroke
0.667 0.776 0.439 edgecolor
newpath 254.8 89.1 moveto
258 79 lineto
249.2 84.9 lineto
closepath fill
1 setlinewidth
solid
0.667 0.776 0.439 edgecolor
newpath 254.8 89.1 moveto
258 79 lineto
249.2 84.9 lineto
closepath stroke
grestore
% Node7
gsave
1 setlinewidth
0.000 0.000 0.749 nodecolor
newpath 204 0 moveto
204 21 lineto
250 21 lineto
250 0 lineto
closepath stroke
0.000 0.000 0.000 nodecolor
10.00 /FreeSans.ttf set_font
227 7 moveto 30 -0.5 (string) alignedtext
grestore
% Node5->Node7
gsave
1 setlinewidth
solid
0.667 0.776 0.439 edgecolor
newpath 220 116 moveto
222 97 224 56 226 31 curveto
stroke
0.667 0.776 0.439 edgecolor
newpath 229.5 31 moveto
226 21 lineto
222.5 31 lineto
closepath fill
1 setlinewidth
solid
0.667 0.776 0.439 edgecolor
newpath 229.5 31 moveto
226 21 lineto
222.5 31 lineto
closepath stroke
grestore
% Node9
gsave
[ /Rect [ 101 59 179 79 ]
  /Border [ 0 0 0 ]
  /Action << /Subtype /URI /URI ($comun_8hpp.html) >>
  /Subtype /Link
/ANN pdfmark
[ /Rect [ 101 59 179 79 ]
  /Border [ 0 0 0 ]
  /Action << /Subtype /URI /URI ($comun_8hpp.html) >>
  /Subtype /Link
/ANN pdfmark
1 setlinewidth
0.000 0.000 0.000 nodecolor
newpath 101 58 moveto
101 79 lineto
179 79 lineto
179 58 lineto
closepath stroke
0.000 0.000 0.000 nodecolor
10.00 /FreeSans.ttf set_font
140 65 moveto 62 -0.5 (comun.hpp) alignedtext
grestore
% Node8->Node9
gsave
1 setlinewidth
solid
0.667 0.776 0.439 edgecolor
newpath 140 116 moveto
140 108 140 98 140 89 curveto
stroke
0.667 0.776 0.439 edgecolor
newpath 143.5 89 moveto
140 79 lineto
136.5 89 lineto
closepath fill
1 setlinewidth
solid
0.667 0.776 0.439 edgecolor
newpath 143.5 89 moveto
140 79 lineto
136.5 89 lineto
closepath stroke
grestore
% Node9->Node2
gsave
1 setlinewidth
solid
0.667 0.776 0.439 edgecolor
newpath 119 58 moveto
102 49 77 35 57 26 curveto
stroke
0.667 0.776 0.439 edgecolor
newpath 58.4414 22.7969 moveto
48 21 lineto
55.0418 28.916 lineto
closepath fill
1 setlinewidth
solid
0.667 0.776 0.439 edgecolor
newpath 58.4414 22.7969 moveto
48 21 lineto
55.0418 28.916 lineto
closepath stroke
grestore
% Node9->Node7
gsave
1 setlinewidth
solid
0.667 0.776 0.439 edgecolor
newpath 157 58 moveto
170 49 189 36 204 27 curveto
stroke
0.667 0.776 0.439 edgecolor
newpath 206.1 29.8 moveto
212 21 lineto
201.9 24.2 lineto
closepath fill
1 setlinewidth
solid
0.667 0.776 0.439 edgecolor
newpath 206.1 29.8 moveto
212 21 lineto
201.9 24.2 lineto
closepath stroke
grestore
% Node10
gsave
1 setlinewidth
0.000 0.000 0.749 nodecolor
newpath 76 0 moveto
76 21 lineto
108 21 lineto
108 0 lineto
closepath stroke
0.000 0.000 0.000 nodecolor
10.00 /FreeSans.ttf set_font
92 7 moveto 16 -0.5 (set) alignedtext
grestore
% Node9->Node10
gsave
1 setlinewidth
solid
0.667 0.776 0.439 edgecolor
newpath 131 58 moveto
124 49 115 38 107 29 curveto
stroke
0.667 0.776 0.439 edgecolor
newpath 109.219 26.221 moveto
100 21 lineto
103.951 30.8306 lineto
closepath fill
1 setlinewidth
solid
0.667 0.776 0.439 edgecolor
newpath 109.219 26.221 moveto
100 21 lineto
103.951 30.8306 lineto
closepath stroke
grestore
% Node11
gsave
1 setlinewidth
0.000 0.000 0.749 nodecolor
newpath 126 0 moveto
126 21 lineto
187 21 lineto
187 0 lineto
closepath stroke
0.000 0.000 0.000 nodecolor
10.00 /FreeSans.ttf set_font
156 7 moveto 45 -0.5 (ostream) alignedtext
grestore
% Node9->Node11
gsave
1 setlinewidth
solid
0.667 0.776 0.439 edgecolor
newpath 143 58 moveto
145 50 148 40 151 31 curveto
stroke
0.667 0.776 0.439 edgecolor
newpath 154.471 31.4922 moveto
153 21 lineto
147.607 30.1194 lineto
closepath fill
1 setlinewidth
solid
0.667 0.776 0.439 edgecolor
newpath 154.471 31.4922 moveto
153 21 lineto
147.607 30.1194 lineto
closepath stroke
grestore
endpage
showpage
grestore
%%PageTrailer
%%EndPage: 1
%%Trailer
%%Pages: 1
%%BoundingBox: 36 36 557 240
end
restore
%%EOF
