%!PS-Adobe-2.0
%%Creator: Graphviz version 2.12 (Mon Nov 16 18:34:03 UTC 2009)
%%For: (vtamara) Vladimir
%%Title: G
%%Pages: (atend)
%%BoundingBox: (atend)
%%EndComments
save
%%BeginProlog
/DotDict 200 dict def
DotDict begin

/setupLatin1 {
mark
/EncodingVector 256 array def
 EncodingVector 0

ISOLatin1Encoding 0 255 getinterval putinterval
EncodingVector 45 /hyphen put

% Set up ISO Latin 1 character encoding
/starnetISO {
        dup dup findfont dup length dict begin
        { 1 index /FID ne { def }{ pop pop } ifelse
        } forall
        /Encoding EncodingVector def
        currentdict end definefont
} def
/Times-Roman starnetISO def
/Times-Italic starnetISO def
/Times-Bold starnetISO def
/Times-BoldItalic starnetISO def
/Helvetica starnetISO def
/Helvetica-Oblique starnetISO def
/Helvetica-Bold starnetISO def
/Helvetica-BoldOblique starnetISO def
/Courier starnetISO def
/Courier-Oblique starnetISO def
/Courier-Bold starnetISO def
/Courier-BoldOblique starnetISO def
cleartomark
} bind def

%%BeginResource: procset graphviz 0 0
/coord-font-family /Times-Roman def
/default-font-family /Times-Roman def
/coordfont coord-font-family findfont 8 scalefont def

/InvScaleFactor 1.0 def
/set_scale {
       dup 1 exch div /InvScaleFactor exch def
       scale
} bind def

% styles
/solid { [] 0 setdash } bind def
/dashed { [9 InvScaleFactor mul dup ] 0 setdash } bind def
/dotted { [1 InvScaleFactor mul 6 InvScaleFactor mul] 0 setdash } bind def
/invis {/fill {newpath} def /stroke {newpath} def /show {pop newpath} def} bind def
/bold { 2 setlinewidth } bind def
/filled { } bind def
/unfilled { } bind def
/rounded { } bind def
/diagonals { } bind def

% hooks for setting color 
/nodecolor { sethsbcolor } bind def
/edgecolor { sethsbcolor } bind def
/graphcolor { sethsbcolor } bind def
/nopcolor {pop pop pop} bind def

/beginpage {	% i j npages
	/npages exch def
	/j exch def
	/i exch def
	/str 10 string def
	npages 1 gt {
		gsave
			coordfont setfont
			0 0 moveto
			(\() show i str cvs show (,) show j str cvs show (\)) show
		grestore
	} if
} bind def

/set_font {
	findfont exch
	scalefont setfont
} def

% draw aligned label in bounding box aligned to current point
/alignedtext {			% width adj text
	/text exch def
	/adj exch def
	/width exch def
	gsave
		width 0 gt {
			text stringwidth pop adj mul 0 rmoveto
		} if
		[] 0 setdash
		text show
	grestore
} def

/boxprim {				% xcorner ycorner xsize ysize
		4 2 roll
		moveto
		2 copy
		exch 0 rlineto
		0 exch rlineto
		pop neg 0 rlineto
		closepath
} bind def

/ellipse_path {
	/ry exch def
	/rx exch def
	/y exch def
	/x exch def
	matrix currentmatrix
	newpath
	x y translate
	rx ry scale
	0 0 1 0 360 arc
	setmatrix
} bind def

/endpage { showpage } bind def
/showpage { } def

/layercolorseq
	[	% layer color sequence - darkest to lightest
		[0 0 0]
		[.2 .8 .8]
		[.4 .8 .8]
		[.6 .8 .8]
		[.8 .8 .8]
	]
def

/layerlen layercolorseq length def

/setlayer {/maxlayer exch def /curlayer exch def
	layercolorseq curlayer 1 sub layerlen mod get
	aload pop sethsbcolor
	/nodecolor {nopcolor} def
	/edgecolor {nopcolor} def
	/graphcolor {nopcolor} def
} bind def

/onlayer { curlayer ne {invis} if } def

/onlayers {
	/myupper exch def
	/mylower exch def
	curlayer mylower lt
	curlayer myupper gt
	or
	{invis} if
} def

/curlayer 0 def

%%EndResource
%%EndProlog
%%BeginSetup
14 default-font-family set_font
1 setmiterlimit
% /arrowlength 10 def
% /arrowwidth 5 def

% make sure pdfmark is harmless for PS-interpreters other than Distiller
/pdfmark where {pop} {userdict /pdfmark /cleartomark load put} ifelse
% make '<<' and '>>' safe on PS Level 1 devices
/languagelevel where {pop languagelevel}{1} ifelse
2 lt {
    userdict (<<) cvn ([) cvn load put
    userdict (>>) cvn ([) cvn load put
} if

%%EndSetup
setupLatin1
%%Page: 1 1
%%PageBoundingBox: 36 36 554 140
%%PageOrientation: Portrait
gsave
36 36 554 140 boxprim clip newpath
0 0 1 beginpage
1 1 set_scale 0 rotate 40 40 translate
% Node1
gsave
0.000 0.000 0.749 nodecolor
newpath 0 18 moveto
0 39 lineto
48 39 lineto
48 18 lineto
closepath fill
1 setlinewidth
filled
0.000 0.000 0.000 nodecolor
newpath 0 18 moveto
0 39 lineto
48 39 lineto
48 18 lineto
closepath stroke
0.000 0.000 0.000 nodecolor
10.00 /FreeSans.ttf set_font
24 25 moveto 32 -0.5 (cNum) alignedtext
grestore
% Node2
gsave
[ /Rect [ 84 19 184 39 ]
  /Border [ 0 0 0 ]
  /Action << /Subtype /URI /URI ($Elias_8cpp.html#525b56b1e5661cf29529219ea5e0022d) >>
  /Subtype /Link
/ANN pdfmark
[ /Rect [ 84 19 184 39 ]
  /Border [ 0 0 0 ]
  /Action << /Subtype /URI /URI ($Elias_8cpp.html#525b56b1e5661cf29529219ea5e0022d) >>
  /Subtype /Link
/ANN pdfmark
1 setlinewidth
0.000 0.000 0.000 nodecolor
newpath 84 18 moveto
84 39 lineto
184 39 lineto
184 18 lineto
closepath stroke
0.000 0.000 0.000 nodecolor
10.00 /FreeSans.ttf set_font
134 25 moveto 84 -0.5 (lee_elias_gama) alignedtext
grestore
% Node1->Node2
gsave
1 setlinewidth
solid
0.667 0.776 0.439 edgecolor
newpath 48 29 moveto
56 29 65 29 74 29 curveto
stroke
0.667 0.776 0.439 edgecolor
newpath 74 32.5001 moveto
84 29 lineto
74 25.5001 lineto
closepath fill
1 setlinewidth
solid
0.667 0.776 0.439 edgecolor
newpath 74 32.5001 moveto
84 29 lineto
74 25.5001 lineto
closepath stroke
grestore
% Node3
gsave
[ /Rect [ 220 38 360 58 ]
  /Border [ 0 0 0 ]
  /Action << /Subtype /URI /URI ($Elias_8cpp.html#b4e19a933847b5071a043b3ef34175b9) >>
  /Subtype /Link
/ANN pdfmark
[ /Rect [ 220 38 360 58 ]
  /Border [ 0 0 0 ]
  /Action << /Subtype /URI /URI ($Elias_8cpp.html#b4e19a933847b5071a043b3ef34175b9) >>
  /Subtype /Link
/ANN pdfmark
1 setlinewidth
0.000 0.000 0.000 nodecolor
newpath 220 37 moveto
220 58 lineto
360 58 lineto
360 37 lineto
closepath stroke
0.000 0.000 0.000 nodecolor
10.00 /FreeSans.ttf set_font
290 44 moveto 124 -0.5 (decodifica_elias_gama) alignedtext
grestore
% Node2->Node3
gsave
1 setlinewidth
solid
0.667 0.776 0.439 edgecolor
newpath 184 35 moveto
192 36 201 37 210 39 curveto
stroke
0.667 0.776 0.439 edgecolor
newpath 209.701 42.4875 moveto
220 40 lineto
210.398 35.5222 lineto
closepath fill
1 setlinewidth
solid
0.667 0.776 0.439 edgecolor
newpath 209.701 42.4875 moveto
220 40 lineto
210.398 35.5222 lineto
closepath stroke
grestore
% Node7
gsave
[ /Rect [ 246 0 334 20 ]
  /Border [ 0 0 0 ]
  /Action << /Subtype /URI /URI ($comun_8cpp.html#88ffeb20e447cad877c37bb473033590) >>
  /Subtype /Link
/ANN pdfmark
[ /Rect [ 246 0 334 20 ]
  /Border [ 0 0 0 ]
  /Action << /Subtype /URI /URI ($comun_8cpp.html#88ffeb20e447cad877c37bb473033590) >>
  /Subtype /Link
/ANN pdfmark
1 setlinewidth
0.000 0.000 0.000 nodecolor
newpath 246 -1 moveto
246 20 lineto
334 20 lineto
334 -1 lineto
closepath stroke
0.000 0.000 0.000 nodecolor
10.00 /FreeSans.ttf set_font
290 6 moveto 72 -0.5 (errorFormato) alignedtext
grestore
% Node2->Node7
gsave
1 setlinewidth
solid
0.667 0.776 0.439 edgecolor
newpath 184 23 moveto
201 21 219 19 236 16 curveto
stroke
0.667 0.776 0.439 edgecolor
newpath 236.398 19.4778 moveto
246 15 lineto
235.701 12.5125 lineto
closepath fill
1 setlinewidth
solid
0.667 0.776 0.439 edgecolor
newpath 236.398 19.4778 moveto
246 15 lineto
235.701 12.5125 lineto
closepath stroke
grestore
% Node4
gsave
[ /Rect [ 397 76 509 96 ]
  /Border [ 0 0 0 ]
  /Action << /Subtype /URI /URI ($Elias_8cpp.html#7aaa4a622ed42249f093132ab5f1265e) >>
  /Subtype /Link
/ANN pdfmark
[ /Rect [ 397 76 509 96 ]
  /Border [ 0 0 0 ]
  /Action << /Subtype /URI /URI ($Elias_8cpp.html#7aaa4a622ed42249f093132ab5f1265e) >>
  /Subtype /Link
/ANN pdfmark
1 setlinewidth
0.000 0.000 0.000 nodecolor
newpath 397 75 moveto
397 96 lineto
510 96 lineto
510 75 lineto
closepath stroke
0.000 0.000 0.000 nodecolor
10.00 /FreeSans.ttf set_font
453 82 moveto 97 -0.5 (decodifica_unario) alignedtext
grestore
% Node3->Node4
gsave
1 setlinewidth
solid
0.667 0.776 0.439 edgecolor
newpath 333 58 moveto
353 62 376 68 397 73 curveto
stroke
0.667 0.776 0.439 edgecolor
newpath 396.508 76.4708 moveto
407 75 lineto
397.881 69.6067 lineto
closepath fill
1 setlinewidth
solid
0.667 0.776 0.439 edgecolor
newpath 396.508 76.4708 moveto
407 75 lineto
397.881 69.6067 lineto
closepath stroke
grestore
% Node5
gsave
[ /Rect [ 433 38 473 58 ]
  /Border [ 0 0 0 ]
  /Action << /Subtype /URI /URI ($Elias_8cpp.html#c268bba1057c593ac6dcfa6bf1ada057) >>
  /Subtype /Link
/ANN pdfmark
[ /Rect [ 433 38 473 58 ]
  /Border [ 0 0 0 ]
  /Action << /Subtype /URI /URI ($Elias_8cpp.html#c268bba1057c593ac6dcfa6bf1ada057) >>
  /Subtype /Link
/ANN pdfmark
1 setlinewidth
0.000 0.000 0.000 nodecolor
newpath 433 37 moveto
433 58 lineto
473 58 lineto
473 37 lineto
closepath stroke
0.000 0.000 0.000 nodecolor
10.00 /FreeSans.ttf set_font
453 44 moveto 24 -0.5 (pot2) alignedtext
grestore
% Node3->Node5
gsave
1 setlinewidth
solid
0.667 0.776 0.439 edgecolor
newpath 360 48 moveto
382 48 405 48 423 48 curveto
stroke
0.667 0.776 0.439 edgecolor
newpath 423 51.5001 moveto
433 48 lineto
423 44.5001 lineto
closepath fill
1 setlinewidth
solid
0.667 0.776 0.439 edgecolor
newpath 423 51.5001 moveto
433 48 lineto
423 44.5001 lineto
closepath stroke
grestore
% Node6
gsave
[ /Rect [ 401 0 505 20 ]
  /Border [ 0 0 0 ]
  /Action << /Subtype /URI /URI ($Elias_8cpp.html#9c9164bf1d71c543308a901be9f21d6c) >>
  /Subtype /Link
/ANN pdfmark
[ /Rect [ 401 0 505 20 ]
  /Border [ 0 0 0 ]
  /Action << /Subtype /URI /URI ($Elias_8cpp.html#9c9164bf1d71c543308a901be9f21d6c) >>
  /Subtype /Link
/ANN pdfmark
1 setlinewidth
0.000 0.000 0.000 nodecolor
newpath 401 -1 moveto
401 20 lineto
506 20 lineto
506 -1 lineto
closepath stroke
0.000 0.000 0.000 nodecolor
10.00 /FreeSans.ttf set_font
453 6 moveto 89 -0.5 (toma_un_entero) alignedtext
grestore
% Node3->Node6
gsave
1 setlinewidth
solid
0.667 0.776 0.439 edgecolor
newpath 338 37 moveto
358 33 381 27 401 22 curveto
stroke
0.667 0.776 0.439 edgecolor
newpath 401.881 25.3933 moveto
411 20 lineto
400.508 18.5292 lineto
closepath fill
1 setlinewidth
solid
0.667 0.776 0.439 edgecolor
newpath 401.881 25.3933 moveto
411 20 lineto
400.508 18.5292 lineto
closepath stroke
grestore
endpage
showpage
grestore
%%PageTrailer
%%EndPage: 1
%%Trailer
%%Pages: 1
%%BoundingBox: 36 36 554 140
end
restore
%%EOF
