%!PS-Adobe-2.0
%%Creator: Graphviz version 2.12 (Mon Nov 16 18:34:03 UTC 2009)
%%For: (vtamara) Vladimir
%%Title: G
%%Pages: (atend)
%%BoundingBox: (atend)
%%EndComments
save
%%BeginProlog
/DotDict 200 dict def
DotDict begin

/setupLatin1 {
mark
/EncodingVector 256 array def
 EncodingVector 0

ISOLatin1Encoding 0 255 getinterval putinterval
EncodingVector 45 /hyphen put

% Set up ISO Latin 1 character encoding
/starnetISO {
        dup dup findfont dup length dict begin
        { 1 index /FID ne { def }{ pop pop } ifelse
        } forall
        /Encoding EncodingVector def
        currentdict end definefont
} def
/Times-Roman starnetISO def
/Times-Italic starnetISO def
/Times-Bold starnetISO def
/Times-BoldItalic starnetISO def
/Helvetica starnetISO def
/Helvetica-Oblique starnetISO def
/Helvetica-Bold starnetISO def
/Helvetica-BoldOblique starnetISO def
/Courier starnetISO def
/Courier-Oblique starnetISO def
/Courier-Bold starnetISO def
/Courier-BoldOblique starnetISO def
cleartomark
} bind def

%%BeginResource: procset graphviz 0 0
/coord-font-family /Times-Roman def
/default-font-family /Times-Roman def
/coordfont coord-font-family findfont 8 scalefont def

/InvScaleFactor 1.0 def
/set_scale {
       dup 1 exch div /InvScaleFactor exch def
       scale
} bind def

% styles
/solid { [] 0 setdash } bind def
/dashed { [9 InvScaleFactor mul dup ] 0 setdash } bind def
/dotted { [1 InvScaleFactor mul 6 InvScaleFactor mul] 0 setdash } bind def
/invis {/fill {newpath} def /stroke {newpath} def /show {pop newpath} def} bind def
/bold { 2 setlinewidth } bind def
/filled { } bind def
/unfilled { } bind def
/rounded { } bind def
/diagonals { } bind def

% hooks for setting color 
/nodecolor { sethsbcolor } bind def
/edgecolor { sethsbcolor } bind def
/graphcolor { sethsbcolor } bind def
/nopcolor {pop pop pop} bind def

/beginpage {	% i j npages
	/npages exch def
	/j exch def
	/i exch def
	/str 10 string def
	npages 1 gt {
		gsave
			coordfont setfont
			0 0 moveto
			(\() show i str cvs show (,) show j str cvs show (\)) show
		grestore
	} if
} bind def

/set_font {
	findfont exch
	scalefont setfont
} def

% draw aligned label in bounding box aligned to current point
/alignedtext {			% width adj text
	/text exch def
	/adj exch def
	/width exch def
	gsave
		width 0 gt {
			text stringwidth pop adj mul 0 rmoveto
		} if
		[] 0 setdash
		text show
	grestore
} def

/boxprim {				% xcorner ycorner xsize ysize
		4 2 roll
		moveto
		2 copy
		exch 0 rlineto
		0 exch rlineto
		pop neg 0 rlineto
		closepath
} bind def

/ellipse_path {
	/ry exch def
	/rx exch def
	/y exch def
	/x exch def
	matrix currentmatrix
	newpath
	x y translate
	rx ry scale
	0 0 1 0 360 arc
	setmatrix
} bind def

/endpage { showpage } bind def
/showpage { } def

/layercolorseq
	[	% layer color sequence - darkest to lightest
		[0 0 0]
		[.2 .8 .8]
		[.4 .8 .8]
		[.6 .8 .8]
		[.8 .8 .8]
	]
def

/layerlen layercolorseq length def

/setlayer {/maxlayer exch def /curlayer exch def
	layercolorseq curlayer 1 sub layerlen mod get
	aload pop sethsbcolor
	/nodecolor {nopcolor} def
	/edgecolor {nopcolor} def
	/graphcolor {nopcolor} def
} bind def

/onlayer { curlayer ne {invis} if } def

/onlayers {
	/myupper exch def
	/mylower exch def
	curlayer mylower lt
	curlayer myupper gt
	or
	{invis} if
} def

/curlayer 0 def

%%EndResource
%%EndProlog
%%BeginSetup
14 default-font-family set_font
1 setmiterlimit
% /arrowlength 10 def
% /arrowwidth 5 def

% make sure pdfmark is harmless for PS-interpreters other than Distiller
/pdfmark where {pop} {userdict /pdfmark /cleartomark load put} ifelse
% make '<<' and '>>' safe on PS Level 1 devices
/languagelevel where {pop languagelevel}{1} ifelse
2 lt {
    userdict (<<) cvn ([) cvn load put
    userdict (>>) cvn ([) cvn load put
} if

%%EndSetup
setupLatin1
%%Page: 1 1
%%PageBoundingBox: 36 36 593 356
%%PageOrientation: Portrait
gsave
36 36 593 356 boxprim clip newpath
0 0 1 beginpage
1 1 set_scale 0 rotate 40 40 translate
% Node1
gsave
0.000 0.000 0.749 nodecolor
newpath 149 290 moveto
149 311 lineto
243 311 lineto
243 290 lineto
closepath fill
1 setlinewidth
filled
0.000 0.000 0.000 nodecolor
newpath 149 290 moveto
149 311 lineto
243 311 lineto
243 290 lineto
closepath stroke
0.000 0.000 0.000 nodecolor
10.00 /FreeSans.ttf set_font
196 297 moveto 78 -0.5 (RamDisco.hpp) alignedtext
grestore
% Node2
gsave
1 setlinewidth
0.000 0.000 0.749 nodecolor
newpath 0 116 moveto
0 137 lineto
50 137 lineto
50 116 lineto
closepath stroke
0.000 0.000 0.000 nodecolor
10.00 /FreeSans.ttf set_font
25 123 moveto 34 -0.5 (vector) alignedtext
grestore
% Node1->Node2
gsave
1 setlinewidth
solid
0.667 0.776 0.439 edgecolor
newpath 161 290 moveto
122 275 59 245 29 196 curveto
21 181 21 162 22 147 curveto
stroke
0.667 0.776 0.439 edgecolor
newpath 25.4875 147.299 moveto
23 137 lineto
18.5222 146.602 lineto
closepath fill
1 setlinewidth
solid
0.667 0.776 0.439 edgecolor
newpath 25.4875 147.299 moveto
23 137 lineto
18.5222 146.602 lineto
closepath stroke
grestore
% Node3
gsave
[ /Rect [ 190 59 268 79 ]
  /Border [ 0 0 0 ]
  /Action << /Subtype /URI /URI ($comun_8hpp.html) >>
  /Subtype /Link
/ANN pdfmark
[ /Rect [ 190 59 268 79 ]
  /Border [ 0 0 0 ]
  /Action << /Subtype /URI /URI ($comun_8hpp.html) >>
  /Subtype /Link
/ANN pdfmark
1 setlinewidth
0.000 0.000 0.000 nodecolor
newpath 190 58 moveto
190 79 lineto
268 79 lineto
268 58 lineto
closepath stroke
0.000 0.000 0.000 nodecolor
10.00 /FreeSans.ttf set_font
229 65 moveto 62 -0.5 (comun.hpp) alignedtext
grestore
% Node1->Node3
gsave
1 setlinewidth
solid
0.667 0.776 0.439 edgecolor
newpath 194 290 moveto
188 260 176 179 196 116 curveto
199 106 205 95 212 87 curveto
stroke
0.667 0.776 0.439 edgecolor
newpath 214.8 89.1 moveto
218 79 lineto
209.2 84.9 lineto
closepath fill
1 setlinewidth
solid
0.667 0.776 0.439 edgecolor
newpath 214.8 89.1 moveto
218 79 lineto
209.2 84.9 lineto
closepath stroke
grestore
% Node8
gsave
[ /Rect [ 205 117 263 137 ]
  /Border [ 0 0 0 ]
  /Action << /Subtype /URI /URI ($Pos_8hpp.html) >>
  /Subtype /Link
/ANN pdfmark
[ /Rect [ 205 117 263 137 ]
  /Border [ 0 0 0 ]
  /Action << /Subtype /URI /URI ($Pos_8hpp.html) >>
  /Subtype /Link
/ANN pdfmark
1 setlinewidth
0.000 0.000 0.000 nodecolor
newpath 205 116 moveto
205 137 lineto
263 137 lineto
263 116 lineto
closepath stroke
0.000 0.000 0.000 nodecolor
10.00 /FreeSans.ttf set_font
234 123 moveto 42 -0.5 (Pos.hpp) alignedtext
grestore
% Node1->Node8
gsave
1 setlinewidth
solid
0.667 0.776 0.439 edgecolor
newpath 198 290 moveto
204 261 221 184 230 147 curveto
stroke
0.667 0.776 0.439 edgecolor
newpath 233.471 147.492 moveto
232 137 lineto
226.607 146.119 lineto
closepath fill
1 setlinewidth
solid
0.667 0.776 0.439 edgecolor
newpath 233.471 147.492 moveto
232 137 lineto
226.607 146.119 lineto
closepath stroke
grestore
% Node9
gsave
[ /Rect [ 489 175 549 195 ]
  /Border [ 0 0 0 ]
  /Action << /Subtype /URI /URI ($Doc_8hpp.html) >>
  /Subtype /Link
/ANN pdfmark
[ /Rect [ 489 175 549 195 ]
  /Border [ 0 0 0 ]
  /Action << /Subtype /URI /URI ($Doc_8hpp.html) >>
  /Subtype /Link
/ANN pdfmark
1 setlinewidth
0.000 0.000 0.000 nodecolor
newpath 489 174 moveto
489 195 lineto
550 195 lineto
550 174 lineto
closepath stroke
0.000 0.000 0.000 nodecolor
10.00 /FreeSans.ttf set_font
519 181 moveto 45 -0.5 (Doc.hpp) alignedtext
grestore
% Node1->Node9
gsave
1 setlinewidth
solid
0.667 0.776 0.439 edgecolor
newpath 239 290 moveto
272 281 319 268 359 254 curveto
404 237 456 214 488 199 curveto
stroke
0.667 0.776 0.439 edgecolor
newpath 489.283 202.26 moveto
497 195 lineto
486.44 195.863 lineto
closepath fill
1 setlinewidth
solid
0.667 0.776 0.439 edgecolor
newpath 489.283 202.26 moveto
497 195 lineto
486.44 195.863 lineto
closepath stroke
grestore
% Node10
gsave
[ /Rect [ 53 175 149 195 ]
  /Border [ 0 0 0 ]
  /Action << /Subtype /URI /URI ($NodoTrieS_8hpp.html) >>
  /Subtype /Link
/ANN pdfmark
[ /Rect [ 53 175 149 195 ]
  /Border [ 0 0 0 ]
  /Action << /Subtype /URI /URI ($NodoTrieS_8hpp.html) >>
  /Subtype /Link
/ANN pdfmark
1 setlinewidth
0.000 0.000 0.000 nodecolor
newpath 53 174 moveto
53 195 lineto
149 195 lineto
149 174 lineto
closepath stroke
0.000 0.000 0.000 nodecolor
10.00 /FreeSans.ttf set_font
101 181 moveto 80 -0.5 (NodoTrieS.hpp) alignedtext
grestore
% Node1->Node10
gsave
1 setlinewidth
solid
0.667 0.776 0.439 edgecolor
newpath 187 290 moveto
170 270 135 227 115 203 curveto
stroke
0.667 0.776 0.439 edgecolor
newpath 117.8 200.9 moveto
109 195 lineto
112.2 205.1 lineto
closepath fill
1 setlinewidth
solid
0.667 0.776 0.439 edgecolor
newpath 117.8 200.9 moveto
109 195 lineto
112.2 205.1 lineto
closepath stroke
grestore
% Node11
gsave
[ /Rect [ 254 233 350 253 ]
  /Border [ 0 0 0 ]
  /Action << /Subtype /URI /URI ($TrieSDisco_8hpp.html) >>
  /Subtype /Link
/ANN pdfmark
[ /Rect [ 254 233 350 253 ]
  /Border [ 0 0 0 ]
  /Action << /Subtype /URI /URI ($TrieSDisco_8hpp.html) >>
  /Subtype /Link
/ANN pdfmark
1 setlinewidth
0.000 0.000 0.000 nodecolor
newpath 254 232 moveto
254 253 lineto
350 253 lineto
350 232 lineto
closepath stroke
0.000 0.000 0.000 nodecolor
10.00 /FreeSans.ttf set_font
302 239 moveto 80 -0.5 (TrieSDisco.hpp) alignedtext
grestore
% Node1->Node11
gsave
1 setlinewidth
solid
0.667 0.776 0.439 edgecolor
newpath 216 290 moveto
233 281 257 268 275 258 curveto
stroke
0.667 0.776 0.439 edgecolor
newpath 276.958 260.916 moveto
284 253 lineto
273.559 254.797 lineto
closepath fill
1 setlinewidth
solid
0.667 0.776 0.439 edgecolor
newpath 276.958 260.916 moveto
284 253 lineto
273.559 254.797 lineto
closepath stroke
grestore
% Node4
gsave
1 setlinewidth
0.000 0.000 0.749 nodecolor
newpath 85 0 moveto
85 21 lineto
117 21 lineto
117 0 lineto
closepath stroke
0.000 0.000 0.000 nodecolor
10.00 /FreeSans.ttf set_font
101 7 moveto 16 -0.5 (set) alignedtext
grestore
% Node3->Node4
gsave
1 setlinewidth
solid
0.667 0.776 0.439 edgecolor
newpath 205 58 moveto
182 48 149 33 126 22 curveto
stroke
0.667 0.776 0.439 edgecolor
newpath 127.56 18.8631 moveto
117 18 lineto
124.717 25.2598 lineto
closepath fill
1 setlinewidth
solid
0.667 0.776 0.439 edgecolor
newpath 127.56 18.8631 moveto
117 18 lineto
124.717 25.2598 lineto
closepath stroke
grestore
% Node5
gsave
1 setlinewidth
0.000 0.000 0.749 nodecolor
newpath 135 0 moveto
135 21 lineto
181 21 lineto
181 0 lineto
closepath stroke
0.000 0.000 0.000 nodecolor
10.00 /FreeSans.ttf set_font
158 7 moveto 30 -0.5 (string) alignedtext
grestore
% Node3->Node5
gsave
1 setlinewidth
solid
0.667 0.776 0.439 edgecolor
newpath 215 58 moveto
204 49 190 37 178 27 curveto
stroke
0.667 0.776 0.439 edgecolor
newpath 180.1 24.2 moveto
170 21 lineto
175.9 29.8 lineto
closepath fill
1 setlinewidth
solid
0.667 0.776 0.439 edgecolor
newpath 180.1 24.2 moveto
170 21 lineto
175.9 29.8 lineto
closepath stroke
grestore
% Node6
gsave
1 setlinewidth
0.000 0.000 0.749 nodecolor
newpath 199 0 moveto
199 21 lineto
260 21 lineto
260 0 lineto
closepath stroke
0.000 0.000 0.000 nodecolor
10.00 /FreeSans.ttf set_font
229 7 moveto 45 -0.5 (ostream) alignedtext
grestore
% Node3->Node6
gsave
1 setlinewidth
solid
0.667 0.776 0.439 edgecolor
newpath 229 58 moveto
229 50 229 40 229 31 curveto
stroke
0.667 0.776 0.439 edgecolor
newpath 232.5 31 moveto
229 21 lineto
225.5 31 lineto
closepath fill
1 setlinewidth
solid
0.667 0.776 0.439 edgecolor
newpath 232.5 31 moveto
229 21 lineto
225.5 31 lineto
closepath stroke
grestore
% Node7
gsave
1 setlinewidth
0.000 0.000 0.749 nodecolor
newpath 277 0 moveto
277 21 lineto
336 21 lineto
336 0 lineto
closepath stroke
0.000 0.000 0.000 nodecolor
10.00 /FreeSans.ttf set_font
306 7 moveto 43 -0.5 (sstream) alignedtext
grestore
% Node3->Node7
gsave
1 setlinewidth
solid
0.667 0.776 0.439 edgecolor
newpath 244 58 moveto
255 49 272 37 285 27 curveto
stroke
0.667 0.776 0.439 edgecolor
newpath 287.1 29.8 moveto
293 21 lineto
282.9 24.2 lineto
closepath fill
1 setlinewidth
solid
0.667 0.776 0.439 edgecolor
newpath 287.1 29.8 moveto
293 21 lineto
282.9 24.2 lineto
closepath stroke
grestore
% Node8->Node3
gsave
1 setlinewidth
solid
0.667 0.776 0.439 edgecolor
newpath 233 116 moveto
232 108 232 98 231 89 curveto
stroke
0.667 0.776 0.439 edgecolor
newpath 234.478 88.6021 moveto
230 79 lineto
227.512 89.2987 lineto
closepath fill
1 setlinewidth
solid
0.667 0.776 0.439 edgecolor
newpath 234.478 88.6021 moveto
230 79 lineto
227.512 89.2987 lineto
closepath stroke
grestore
% Node9->Node3
gsave
1 setlinewidth
solid
0.667 0.776 0.439 edgecolor
newpath 491 174 moveto
438 153 322 106 263 83 curveto
stroke
0.667 0.776 0.439 edgecolor
newpath 264.56 79.8631 moveto
254 79 lineto
261.717 86.2598 lineto
closepath fill
1 setlinewidth
solid
0.667 0.776 0.439 edgecolor
newpath 264.56 79.8631 moveto
254 79 lineto
261.717 86.2598 lineto
closepath stroke
grestore
% Node10->Node2
gsave
1 setlinewidth
solid
0.667 0.776 0.439 edgecolor
newpath 86 174 moveto
75 165 59 153 46 143 curveto
stroke
0.667 0.776 0.439 edgecolor
newpath 48.1 140.2 moveto
38 137 lineto
43.9 145.8 lineto
closepath fill
1 setlinewidth
solid
0.667 0.776 0.439 edgecolor
newpath 48.1 140.2 moveto
38 137 lineto
43.9 145.8 lineto
closepath stroke
grestore
% Node10->Node4
gsave
1 setlinewidth
solid
0.667 0.776 0.439 edgecolor
newpath 101 174 moveto
101 145 101 68 101 31 curveto
stroke
0.667 0.776 0.439 edgecolor
newpath 104.5 31 moveto
101 21 lineto
97.5001 31 lineto
closepath fill
1 setlinewidth
solid
0.667 0.776 0.439 edgecolor
newpath 104.5 31 moveto
101 21 lineto
97.5001 31 lineto
closepath stroke
grestore
% Node10->Node5
gsave
1 setlinewidth
solid
0.667 0.776 0.439 edgecolor
newpath 105 174 moveto
114 145 139 68 152 31 curveto
stroke
0.667 0.776 0.439 edgecolor
newpath 155.479 31.584 moveto
155 21 lineto
148.774 29.5725 lineto
closepath fill
1 setlinewidth
solid
0.667 0.776 0.439 edgecolor
newpath 155.479 31.584 moveto
155 21 lineto
148.774 29.5725 lineto
closepath stroke
grestore
% Node10->Node8
gsave
1 setlinewidth
solid
0.667 0.776 0.439 edgecolor
newpath 126 174 moveto
148 164 178 151 201 141 curveto
stroke
0.667 0.776 0.439 edgecolor
newpath 203.015 143.964 moveto
211 137 lineto
200.415 137.464 lineto
closepath fill
1 setlinewidth
solid
0.667 0.776 0.439 edgecolor
newpath 203.015 143.964 moveto
211 137 lineto
200.415 137.464 lineto
closepath stroke
grestore
% Node11->Node2
gsave
1 setlinewidth
solid
0.667 0.776 0.439 edgecolor
newpath 254 240 moveto
188 235 74 223 44 196 curveto
31 183 27 162 25 147 curveto
stroke
0.667 0.776 0.439 edgecolor
newpath 28.5001 147 moveto
25 137 lineto
21.5001 147 lineto
closepath fill
1 setlinewidth
solid
0.667 0.776 0.439 edgecolor
newpath 28.5001 147 moveto
25 137 lineto
21.5001 147 lineto
closepath stroke
grestore
% Node11->Node8
gsave
1 setlinewidth
solid
0.667 0.776 0.439 edgecolor
newpath 294 232 moveto
288 222 279 208 272 196 curveto
262 179 252 160 244 146 curveto
stroke
0.667 0.776 0.439 edgecolor
newpath 246.916 144.042 moveto
239 137 lineto
240.797 147.441 lineto
closepath fill
1 setlinewidth
solid
0.667 0.776 0.439 edgecolor
newpath 246.916 144.042 moveto
239 137 lineto
240.797 147.441 lineto
closepath stroke
grestore
% Node11->Node9
gsave
1 setlinewidth
solid
0.667 0.776 0.439 edgecolor
newpath 344 232 moveto
378 223 428 210 479 196 curveto
stroke
0.667 0.776 0.439 edgecolor
newpath 480.427 199.226 moveto
489 193 lineto
478.416 192.521 lineto
closepath fill
1 setlinewidth
solid
0.667 0.776 0.439 edgecolor
newpath 480.427 199.226 moveto
489 193 lineto
478.416 192.521 lineto
closepath stroke
grestore
% Node11->Node10
gsave
1 setlinewidth
solid
0.667 0.776 0.439 edgecolor
newpath 264 232 moveto
230 222 181 208 146 198 curveto
stroke
0.667 0.776 0.439 edgecolor
newpath 146.584 194.521 moveto
136 195 lineto
144.573 201.226 lineto
closepath fill
1 setlinewidth
solid
0.667 0.776 0.439 edgecolor
newpath 146.584 194.521 moveto
136 195 lineto
144.573 201.226 lineto
closepath stroke
grestore
% Node12
gsave
1 setlinewidth
0.000 0.000 0.749 nodecolor
newpath 281 174 moveto
281 195 lineto
345 195 lineto
345 174 lineto
closepath stroke
0.000 0.000 0.000 nodecolor
10.00 /FreeSans.ttf set_font
313 181 moveto 48 -0.5 (iostream) alignedtext
grestore
% Node11->Node12
gsave
1 setlinewidth
solid
0.667 0.776 0.439 edgecolor
newpath 304 232 moveto
305 224 307 214 309 205 curveto
stroke
0.667 0.776 0.439 edgecolor
newpath 312.471 205.492 moveto
311 195 lineto
305.607 204.119 lineto
closepath fill
1 setlinewidth
solid
0.667 0.776 0.439 edgecolor
newpath 312.471 205.492 moveto
311 195 lineto
305.607 204.119 lineto
closepath stroke
grestore
% Node13
gsave
1 setlinewidth
0.000 0.000 0.749 nodecolor
newpath 363 174 moveto
363 195 lineto
424 195 lineto
424 174 lineto
closepath stroke
0.000 0.000 0.000 nodecolor
10.00 /FreeSans.ttf set_font
393 181 moveto 45 -0.5 (iomanip) alignedtext
grestore
% Node11->Node13
gsave
1 setlinewidth
solid
0.667 0.776 0.439 edgecolor
newpath 320 232 moveto
333 223 353 210 368 200 curveto
stroke
0.667 0.776 0.439 edgecolor
newpath 369.958 202.916 moveto
377 195 lineto
366.559 196.797 lineto
closepath fill
1 setlinewidth
solid
0.667 0.776 0.439 edgecolor
newpath 369.958 202.916 moveto
377 195 lineto
366.559 196.797 lineto
closepath stroke
grestore
% Node14
gsave
1 setlinewidth
0.000 0.000 0.749 nodecolor
newpath 441 174 moveto
441 195 lineto
472 195 lineto
472 174 lineto
closepath stroke
0.000 0.000 0.000 nodecolor
10.00 /FreeSans.ttf set_font
456 181 moveto 15 -0.5 (list) alignedtext
grestore
% Node11->Node14
gsave
1 setlinewidth
solid
0.667 0.776 0.439 edgecolor
newpath 335 232 moveto
359 224 393 211 432 196 curveto
stroke
0.667 0.776 0.439 edgecolor
newpath 433.283 199.26 moveto
441 192 lineto
430.44 192.863 lineto
closepath fill
1 setlinewidth
solid
0.667 0.776 0.439 edgecolor
newpath 433.283 199.26 moveto
441 192 lineto
430.44 192.863 lineto
closepath stroke
grestore
endpage
showpage
grestore
%%PageTrailer
%%EndPage: 1
%%Trailer
%%Pages: 1
%%BoundingBox: 36 36 593 356
end
restore
%%EOF
