%!PS-Adobe-2.0
%%Creator: Graphviz version 2.12 (Mon Nov 16 18:34:03 UTC 2009)
%%For: (vtamara) Vladimir
%%Title: G
%%Pages: (atend)
%%BoundingBox: (atend)
%%EndComments
save
%%BeginProlog
/DotDict 200 dict def
DotDict begin

/setupLatin1 {
mark
/EncodingVector 256 array def
 EncodingVector 0

ISOLatin1Encoding 0 255 getinterval putinterval
EncodingVector 45 /hyphen put

% Set up ISO Latin 1 character encoding
/starnetISO {
        dup dup findfont dup length dict begin
        { 1 index /FID ne { def }{ pop pop } ifelse
        } forall
        /Encoding EncodingVector def
        currentdict end definefont
} def
/Times-Roman starnetISO def
/Times-Italic starnetISO def
/Times-Bold starnetISO def
/Times-BoldItalic starnetISO def
/Helvetica starnetISO def
/Helvetica-Oblique starnetISO def
/Helvetica-Bold starnetISO def
/Helvetica-BoldOblique starnetISO def
/Courier starnetISO def
/Courier-Oblique starnetISO def
/Courier-Bold starnetISO def
/Courier-BoldOblique starnetISO def
cleartomark
} bind def

%%BeginResource: procset graphviz 0 0
/coord-font-family /Times-Roman def
/default-font-family /Times-Roman def
/coordfont coord-font-family findfont 8 scalefont def

/InvScaleFactor 1.0 def
/set_scale {
       dup 1 exch div /InvScaleFactor exch def
       scale
} bind def

% styles
/solid { [] 0 setdash } bind def
/dashed { [9 InvScaleFactor mul dup ] 0 setdash } bind def
/dotted { [1 InvScaleFactor mul 6 InvScaleFactor mul] 0 setdash } bind def
/invis {/fill {newpath} def /stroke {newpath} def /show {pop newpath} def} bind def
/bold { 2 setlinewidth } bind def
/filled { } bind def
/unfilled { } bind def
/rounded { } bind def
/diagonals { } bind def

% hooks for setting color 
/nodecolor { sethsbcolor } bind def
/edgecolor { sethsbcolor } bind def
/graphcolor { sethsbcolor } bind def
/nopcolor {pop pop pop} bind def

/beginpage {	% i j npages
	/npages exch def
	/j exch def
	/i exch def
	/str 10 string def
	npages 1 gt {
		gsave
			coordfont setfont
			0 0 moveto
			(\() show i str cvs show (,) show j str cvs show (\)) show
		grestore
	} if
} bind def

/set_font {
	findfont exch
	scalefont setfont
} def

% draw aligned label in bounding box aligned to current point
/alignedtext {			% width adj text
	/text exch def
	/adj exch def
	/width exch def
	gsave
		width 0 gt {
			text stringwidth pop adj mul 0 rmoveto
		} if
		[] 0 setdash
		text show
	grestore
} def

/boxprim {				% xcorner ycorner xsize ysize
		4 2 roll
		moveto
		2 copy
		exch 0 rlineto
		0 exch rlineto
		pop neg 0 rlineto
		closepath
} bind def

/ellipse_path {
	/ry exch def
	/rx exch def
	/y exch def
	/x exch def
	matrix currentmatrix
	newpath
	x y translate
	rx ry scale
	0 0 1 0 360 arc
	setmatrix
} bind def

/endpage { showpage } bind def
/showpage { } def

/layercolorseq
	[	% layer color sequence - darkest to lightest
		[0 0 0]
		[.2 .8 .8]
		[.4 .8 .8]
		[.6 .8 .8]
		[.8 .8 .8]
	]
def

/layerlen layercolorseq length def

/setlayer {/maxlayer exch def /curlayer exch def
	layercolorseq curlayer 1 sub layerlen mod get
	aload pop sethsbcolor
	/nodecolor {nopcolor} def
	/edgecolor {nopcolor} def
	/graphcolor {nopcolor} def
} bind def

/onlayer { curlayer ne {invis} if } def

/onlayers {
	/myupper exch def
	/mylower exch def
	curlayer mylower lt
	curlayer myupper gt
	or
	{invis} if
} def

/curlayer 0 def

%%EndResource
%%EndProlog
%%BeginSetup
14 default-font-family set_font
1 setmiterlimit
% /arrowlength 10 def
% /arrowwidth 5 def

% make sure pdfmark is harmless for PS-interpreters other than Distiller
/pdfmark where {pop} {userdict /pdfmark /cleartomark load put} ifelse
% make '<<' and '>>' safe on PS Level 1 devices
/languagelevel where {pop languagelevel}{1} ifelse
2 lt {
    userdict (<<) cvn ([) cvn load put
    userdict (>>) cvn ([) cvn load put
} if

%%EndSetup
setupLatin1
%%Page: 1 1
%%PageBoundingBox: 36 36 1008 178
%%PageOrientation: Portrait
gsave
36 36 1008 178 boxprim clip newpath
0 0 1 beginpage
1 1 set_scale 0 rotate 40 40 translate
% Node1
gsave
0.000 0.000 0.749 nodecolor
newpath 1 75 moveto
1 96 lineto
142 96 lineto
142 75 lineto
closepath fill
1 setlinewidth
filled
0.000 0.000 0.000 nodecolor
newpath 1 75 moveto
1 96 lineto
142 96 lineto
142 75 lineto
closepath stroke
0.000 0.000 0.000 nodecolor
10.00 /FreeSans.ttf set_font
71 82 moveto 125 -0.5 (escribeCopiaNodoRam) alignedtext
grestore
% Node2
gsave
[ /Rect [ 247 114 311 134 ]
  /Border [ 0 0 0 ]
  /Action << /Subtype /URI /URI ($Pos_8cpp.html#3c3cc0b0ac5ee434c66362380dda8ce8) >>
  /Subtype /Link
/ANN pdfmark
[ /Rect [ 247 114 311 134 ]
  /Border [ 0 0 0 ]
  /Action << /Subtype /URI /URI ($Pos_8cpp.html#3c3cc0b0ac5ee434c66362380dda8ce8) >>
  /Subtype /Link
/ANN pdfmark
1 setlinewidth
0.000 0.000 0.000 nodecolor
newpath 247 113 moveto
247 134 lineto
311 134 lineto
311 113 lineto
closepath stroke
0.000 0.000 0.000 nodecolor
10.00 /FreeSans.ttf set_font
279 120 moveto 48 -0.5 (copiaPos) alignedtext
grestore
% Node1->Node2
gsave
1 setlinewidth
solid
0.667 0.776 0.439 edgecolor
newpath 126 96 moveto
161 102 205 110 237 116 curveto
stroke
0.667 0.776 0.439 edgecolor
newpath 236.508 119.471 moveto
247 118 lineto
237.881 112.607 lineto
closepath fill
1 setlinewidth
solid
0.667 0.776 0.439 edgecolor
newpath 236.508 119.471 moveto
247 118 lineto
237.881 112.607 lineto
closepath stroke
grestore
% Node3
gsave
[ /Rect [ 237 76 321 96 ]
  /Border [ 0 0 0 ]
  /Action << /Subtype /URI /URI ($TrieSDisco_8cpp.html#95dfc28ebaa02e82d3d1ffce08251628) >>
  /Subtype /Link
/ANN pdfmark
[ /Rect [ 237 76 321 96 ]
  /Border [ 0 0 0 ]
  /Action << /Subtype /URI /URI ($TrieSDisco_8cpp.html#95dfc28ebaa02e82d3d1ffce08251628) >>
  /Subtype /Link
/ANN pdfmark
1 setlinewidth
0.000 0.000 0.000 nodecolor
newpath 237 75 moveto
237 96 lineto
321 96 lineto
321 75 lineto
closepath stroke
0.000 0.000 0.000 nodecolor
10.00 /FreeSans.ttf set_font
279 82 moveto 68 -0.5 (escribeNodo) alignedtext
grestore
% Node1->Node3
gsave
1 setlinewidth
solid
0.667 0.776 0.439 edgecolor
newpath 142 86 moveto
169 86 201 86 227 86 curveto
stroke
0.667 0.776 0.439 edgecolor
newpath 227 89.5001 moveto
237 86 lineto
227 82.5001 lineto
closepath fill
1 setlinewidth
solid
0.667 0.776 0.439 edgecolor
newpath 227 89.5001 moveto
237 86 lineto
227 82.5001 lineto
closepath stroke
grestore
% Node13
gsave
[ /Rect [ 178 38 380 58 ]
  /Border [ 0 0 0 ]
  /Action << /Subtype /URI /URI ($RamDisco_8cpp.html#5b79fc3f073aeb2481fb1d51274a52a6) >>
  /Subtype /Link
/ANN pdfmark
[ /Rect [ 178 38 380 58 ]
  /Border [ 0 0 0 ]
  /Action << /Subtype /URI /URI ($RamDisco_8cpp.html#5b79fc3f073aeb2481fb1d51274a52a6) >>
  /Subtype /Link
/ANN pdfmark
1 setlinewidth
0.000 0.000 0.000 nodecolor
newpath 178 37 moveto
178 58 lineto
380 58 lineto
380 37 lineto
closepath stroke
0.000 0.000 0.000 nodecolor
10.00 /FreeSans.ttf set_font
279 44 moveto 186 -0.5 (precalcula_escribe_con_hermanos) alignedtext
grestore
% Node1->Node13
gsave
1 setlinewidth
solid
0.667 0.776 0.439 edgecolor
newpath 131 75 moveto
158 71 188 65 215 60 curveto
stroke
0.667 0.776 0.439 edgecolor
newpath 215.881 63.3933 moveto
225 58 lineto
214.508 56.5292 lineto
closepath fill
1 setlinewidth
solid
0.667 0.776 0.439 edgecolor
newpath 215.881 63.3933 moveto
225 58 lineto
214.508 56.5292 lineto
closepath stroke
grestore
% Node4
gsave
[ /Rect [ 449 114 539 134 ]
  /Border [ 0 0 0 ]
  /Action << /Subtype /URI /URI ($comun_8hpp.html#96402bda6527bf98dd8e49d62ae182f8) >>
  /Subtype /Link
/ANN pdfmark
[ /Rect [ 449 114 539 134 ]
  /Border [ 0 0 0 ]
  /Action << /Subtype /URI /URI ($comun_8hpp.html#96402bda6527bf98dd8e49d62ae182f8) >>
  /Subtype /Link
/ANN pdfmark
1 setlinewidth
0.000 0.000 0.000 nodecolor
newpath 449 113 moveto
449 134 lineto
539 134 lineto
539 113 lineto
closepath stroke
0.000 0.000 0.000 nodecolor
10.00 /FreeSans.ttf set_font
494 120 moveto 74 -0.5 (escribeNDesp) alignedtext
grestore
% Node3->Node4
gsave
1 setlinewidth
solid
0.667 0.776 0.439 edgecolor
newpath 321 93 moveto
355 99 402 108 439 114 curveto
stroke
0.667 0.776 0.439 edgecolor
newpath 438.508 117.471 moveto
449 116 lineto
439.881 110.607 lineto
closepath fill
1 setlinewidth
solid
0.667 0.776 0.439 edgecolor
newpath 438.508 117.471 moveto
449 116 lineto
439.881 110.607 lineto
closepath stroke
grestore
% Node6
gsave
[ /Rect [ 458 76 530 96 ]
  /Border [ 0 0 0 ]
  /Action << /Subtype /URI /URI ($Pos_8cpp.html#42c2daaa880eeb397c024b6ffa22c8cf) >>
  /Subtype /Link
/ANN pdfmark
[ /Rect [ 458 76 530 96 ]
  /Border [ 0 0 0 ]
  /Action << /Subtype /URI /URI ($Pos_8cpp.html#42c2daaa880eeb397c024b6ffa22c8cf) >>
  /Subtype /Link
/ANN pdfmark
1 setlinewidth
0.000 0.000 0.000 nodecolor
newpath 458 75 moveto
458 96 lineto
531 96 lineto
531 75 lineto
closepath stroke
0.000 0.000 0.000 nodecolor
10.00 /FreeSans.ttf set_font
494 82 moveto 57 -0.5 (escribePos) alignedtext
grestore
% Node3->Node6
gsave
1 setlinewidth
solid
0.667 0.776 0.439 edgecolor
newpath 321 86 moveto
358 86 410 86 448 86 curveto
stroke
0.667 0.776 0.439 edgecolor
newpath 448 89.5001 moveto
458 86 lineto
448 82.5001 lineto
closepath fill
1 setlinewidth
solid
0.667 0.776 0.439 edgecolor
newpath 448 89.5001 moveto
458 86 lineto
448 82.5001 lineto
closepath stroke
grestore
% Node9
gsave
[ /Rect [ 416 38 572 58 ]
  /Border [ 0 0 0 ]
  /Action << /Subtype /URI /URI ($TrieSDisco_8cpp.html#453b277936104f13edb4f8158e015eba) >>
  /Subtype /Link
/ANN pdfmark
[ /Rect [ 416 38 572 58 ]
  /Border [ 0 0 0 ]
  /Action << /Subtype /URI /URI ($TrieSDisco_8cpp.html#453b277936104f13edb4f8158e015eba) >>
  /Subtype /Link
/ANN pdfmark
1 setlinewidth
0.000 0.000 0.000 nodecolor
newpath 416 37 moveto
416 58 lineto
572 58 lineto
572 37 lineto
closepath stroke
0.000 0.000 0.000 nodecolor
10.00 /FreeSans.ttf set_font
494 44 moveto 140 -0.5 (precalcula_escribe_actual) alignedtext
grestore
% Node3->Node9
gsave
1 setlinewidth
solid
0.667 0.776 0.439 edgecolor
newpath 321 79 moveto
351 74 392 66 426 60 curveto
stroke
0.667 0.776 0.439 edgecolor
newpath 426.881 63.3933 moveto
436 58 lineto
425.508 56.5292 lineto
closepath fill
1 setlinewidth
solid
0.667 0.776 0.439 edgecolor
newpath 426.881 63.3933 moveto
436 58 lineto
425.508 56.5292 lineto
closepath stroke
grestore
% Node5
gsave
[ /Rect [ 608 114 690 134 ]
  /Border [ 0 0 0 ]
  /Action << /Subtype /URI /URI ($comun_8cpp.html#b5388a972300b0a3d2e70c16097a3781) >>
  /Subtype /Link
/ANN pdfmark
[ /Rect [ 608 114 690 134 ]
  /Border [ 0 0 0 ]
  /Action << /Subtype /URI /URI ($comun_8cpp.html#b5388a972300b0a3d2e70c16097a3781) >>
  /Subtype /Link
/ANN pdfmark
1 setlinewidth
0.000 0.000 0.000 nodecolor
newpath 608 113 moveto
608 134 lineto
690 134 lineto
690 113 lineto
closepath stroke
0.000 0.000 0.000 nodecolor
10.00 /FreeSans.ttf set_font
649 120 moveto 66 -0.5 (escribe128b) alignedtext
grestore
% Node4->Node5
gsave
1 setlinewidth
solid
0.667 0.776 0.439 edgecolor
newpath 539 124 moveto
558 124 579 124 598 124 curveto
stroke
0.667 0.776 0.439 edgecolor
newpath 598 127.5 moveto
608 124 lineto
598 120.5 lineto
closepath fill
1 setlinewidth
solid
0.667 0.776 0.439 edgecolor
newpath 598 127.5 moveto
608 124 lineto
598 120.5 lineto
closepath stroke
grestore
% Node7
gsave
[ /Rect [ 726 66 854 86 ]
  /Border [ 0 0 0 ]
  /Action << /Subtype /URI /URI ($Elias_8cpp.html#59732ce42a1e75fbbb382a6964ef4620) >>
  /Subtype /Link
/ANN pdfmark
[ /Rect [ 726 66 854 86 ]
  /Border [ 0 0 0 ]
  /Action << /Subtype /URI /URI ($Elias_8cpp.html#59732ce42a1e75fbbb382a6964ef4620) >>
  /Subtype /Link
/ANN pdfmark
1 setlinewidth
0.000 0.000 0.000 nodecolor
newpath 726 65 moveto
726 86 lineto
854 86 lineto
854 65 lineto
closepath stroke
0.000 0.000 0.000 nodecolor
10.00 /FreeSans.ttf set_font
790 72 moveto 112 -0.5 (escribe_elias_gama2) alignedtext
grestore
% Node6->Node7
gsave
1 setlinewidth
solid
0.667 0.776 0.439 edgecolor
newpath 531 85 moveto
577 83 657 80 716 78 curveto
stroke
0.667 0.776 0.439 edgecolor
newpath 716 81.5001 moveto
726 78 lineto
716 74.5001 lineto
closepath fill
1 setlinewidth
solid
0.667 0.776 0.439 edgecolor
newpath 716 81.5001 moveto
726 78 lineto
716 74.5001 lineto
closepath stroke
grestore
% Node8
gsave
[ /Rect [ 891 42 963 62 ]
  /Border [ 0 0 0 ]
  /Action << /Subtype /URI /URI ($Elias_8cpp.html#7127ec8dff13cc2ad873693ca8933d38) >>
  /Subtype /Link
/ANN pdfmark
[ /Rect [ 891 42 963 62 ]
  /Border [ 0 0 0 ]
  /Action << /Subtype /URI /URI ($Elias_8cpp.html#7127ec8dff13cc2ad873693ca8933d38) >>
  /Subtype /Link
/ANN pdfmark
1 setlinewidth
0.000 0.000 0.000 nodecolor
newpath 891 41 moveto
891 62 lineto
964 62 lineto
964 41 lineto
closepath stroke
0.000 0.000 0.000 nodecolor
10.00 /FreeSans.ttf set_font
927 48 moveto 57 -0.5 (piso_logb2) alignedtext
grestore
% Node7->Node8
gsave
1 setlinewidth
solid
0.667 0.776 0.439 edgecolor
newpath 853 65 moveto
862 64 872 62 881 61 curveto
stroke
0.667 0.776 0.439 edgecolor
newpath 881.881 64.3933 moveto
891 59 lineto
880.508 57.5292 lineto
closepath fill
1 setlinewidth
solid
0.667 0.776 0.439 edgecolor
newpath 881.881 64.3933 moveto
891 59 lineto
880.508 57.5292 lineto
closepath stroke
grestore
% Node10
gsave
[ /Rect [ 612 38 686 58 ]
  /Border [ 0 0 0 ]
  /Action << /Subtype /URI /URI ($comun_8hpp.html#3f1f97c70ac3ffba1584b0fc02661cab) >>
  /Subtype /Link
/ANN pdfmark
[ /Rect [ 612 38 686 58 ]
  /Border [ 0 0 0 ]
  /Action << /Subtype /URI /URI ($comun_8hpp.html#3f1f97c70ac3ffba1584b0fc02661cab) >>
  /Subtype /Link
/ANN pdfmark
1 setlinewidth
0.000 0.000 0.000 nodecolor
newpath 612 37 moveto
612 58 lineto
687 58 lineto
687 37 lineto
closepath stroke
0.000 0.000 0.000 nodecolor
10.00 /FreeSans.ttf set_font
649 44 moveto 59 -0.5 (longNDesp) alignedtext
grestore
% Node9->Node10
gsave
1 setlinewidth
solid
0.667 0.776 0.439 edgecolor
newpath 572 48 moveto
582 48 592 48 602 48 curveto
stroke
0.667 0.776 0.439 edgecolor
newpath 602 51.5001 moveto
612 48 lineto
602 44.5001 lineto
closepath fill
1 setlinewidth
solid
0.667 0.776 0.439 edgecolor
newpath 602 51.5001 moveto
612 48 lineto
602 44.5001 lineto
closepath stroke
grestore
% Node11
gsave
[ /Rect [ 620 0 678 20 ]
  /Border [ 0 0 0 ]
  /Action << /Subtype /URI /URI ($Pos_8cpp.html#ad8740377e9e19836d654491a170ac9a) >>
  /Subtype /Link
/ANN pdfmark
[ /Rect [ 620 0 678 20 ]
  /Border [ 0 0 0 ]
  /Action << /Subtype /URI /URI ($Pos_8cpp.html#ad8740377e9e19836d654491a170ac9a) >>
  /Subtype /Link
/ANN pdfmark
1 setlinewidth
0.000 0.000 0.000 nodecolor
newpath 620 -1 moveto
620 20 lineto
678 20 lineto
678 -1 lineto
closepath stroke
0.000 0.000 0.000 nodecolor
10.00 /FreeSans.ttf set_font
649 6 moveto 42 -0.5 (longPos) alignedtext
grestore
% Node9->Node11
gsave
1 setlinewidth
solid
0.667 0.776 0.439 edgecolor
newpath 539 37 moveto
561 32 588 25 610 20 curveto
stroke
0.667 0.776 0.439 edgecolor
newpath 611.427 23.2259 moveto
620 17 lineto
609.416 16.5212 lineto
closepath fill
1 setlinewidth
solid
0.667 0.776 0.439 edgecolor
newpath 611.427 23.2259 moveto
620 17 lineto
609.416 16.5212 lineto
closepath stroke
grestore
% Node12
gsave
[ /Rect [ 737 19 843 39 ]
  /Border [ 0 0 0 ]
  /Action << /Subtype /URI /URI ($Elias_8cpp.html#214c4fd6adcbe1fe7de47c4ba521198a) >>
  /Subtype /Link
/ANN pdfmark
[ /Rect [ 737 19 843 39 ]
  /Border [ 0 0 0 ]
  /Action << /Subtype /URI /URI ($Elias_8cpp.html#214c4fd6adcbe1fe7de47c4ba521198a) >>
  /Subtype /Link
/ANN pdfmark
1 setlinewidth
0.000 0.000 0.000 nodecolor
newpath 737 18 moveto
737 39 lineto
844 39 lineto
844 18 lineto
closepath stroke
0.000 0.000 0.000 nodecolor
10.00 /FreeSans.ttf set_font
790 25 moveto 91 -0.5 (long_elias_gama) alignedtext
grestore
% Node11->Node12
gsave
1 setlinewidth
solid
0.667 0.776 0.439 edgecolor
newpath 678 14 moveto
692 16 710 18 727 21 curveto
stroke
0.667 0.776 0.439 edgecolor
newpath 726.701 24.4875 moveto
737 22 lineto
727.398 17.5222 lineto
closepath fill
1 setlinewidth
solid
0.667 0.776 0.439 edgecolor
newpath 726.701 24.4875 moveto
737 22 lineto
727.398 17.5222 lineto
closepath stroke
grestore
% Node12->Node8
gsave
1 setlinewidth
solid
0.667 0.776 0.439 edgecolor
newpath 844 38 moveto
856 40 869 43 881 45 curveto
stroke
0.667 0.776 0.439 edgecolor
newpath 880.701 48.4875 moveto
891 46 lineto
881.398 41.5222 lineto
closepath fill
1 setlinewidth
solid
0.667 0.776 0.439 edgecolor
newpath 880.701 48.4875 moveto
891 46 lineto
881.398 41.5222 lineto
closepath stroke
grestore
% Node13->Node9
gsave
1 setlinewidth
solid
0.667 0.776 0.439 edgecolor
newpath 380 48 moveto
389 48 397 48 406 48 curveto
stroke
0.667 0.776 0.439 edgecolor
newpath 406 51.5001 moveto
416 48 lineto
406 44.5001 lineto
closepath fill
1 setlinewidth
solid
0.667 0.776 0.439 edgecolor
newpath 406 51.5001 moveto
416 48 lineto
406 44.5001 lineto
closepath stroke
grestore
endpage
showpage
grestore
%%PageTrailer
%%EndPage: 1
%%Trailer
%%Pages: 1
%%BoundingBox: 36 36 1008 178
end
restore
%%EOF
