%!PS-Adobe-2.0
%%Creator: Graphviz version 2.12 (Mon Nov 16 18:34:03 UTC 2009)
%%For: (vtamara) Vladimir
%%Title: G
%%Pages: (atend)
%%BoundingBox: (atend)
%%EndComments
save
%%BeginProlog
/DotDict 200 dict def
DotDict begin

/setupLatin1 {
mark
/EncodingVector 256 array def
 EncodingVector 0

ISOLatin1Encoding 0 255 getinterval putinterval
EncodingVector 45 /hyphen put

% Set up ISO Latin 1 character encoding
/starnetISO {
        dup dup findfont dup length dict begin
        { 1 index /FID ne { def }{ pop pop } ifelse
        } forall
        /Encoding EncodingVector def
        currentdict end definefont
} def
/Times-Roman starnetISO def
/Times-Italic starnetISO def
/Times-Bold starnetISO def
/Times-BoldItalic starnetISO def
/Helvetica starnetISO def
/Helvetica-Oblique starnetISO def
/Helvetica-Bold starnetISO def
/Helvetica-BoldOblique starnetISO def
/Courier starnetISO def
/Courier-Oblique starnetISO def
/Courier-Bold starnetISO def
/Courier-BoldOblique starnetISO def
cleartomark
} bind def

%%BeginResource: procset graphviz 0 0
/coord-font-family /Times-Roman def
/default-font-family /Times-Roman def
/coordfont coord-font-family findfont 8 scalefont def

/InvScaleFactor 1.0 def
/set_scale {
       dup 1 exch div /InvScaleFactor exch def
       scale
} bind def

% styles
/solid { [] 0 setdash } bind def
/dashed { [9 InvScaleFactor mul dup ] 0 setdash } bind def
/dotted { [1 InvScaleFactor mul 6 InvScaleFactor mul] 0 setdash } bind def
/invis {/fill {newpath} def /stroke {newpath} def /show {pop newpath} def} bind def
/bold { 2 setlinewidth } bind def
/filled { } bind def
/unfilled { } bind def
/rounded { } bind def
/diagonals { } bind def

% hooks for setting color 
/nodecolor { sethsbcolor } bind def
/edgecolor { sethsbcolor } bind def
/graphcolor { sethsbcolor } bind def
/nopcolor {pop pop pop} bind def

/beginpage {	% i j npages
	/npages exch def
	/j exch def
	/i exch def
	/str 10 string def
	npages 1 gt {
		gsave
			coordfont setfont
			0 0 moveto
			(\() show i str cvs show (,) show j str cvs show (\)) show
		grestore
	} if
} bind def

/set_font {
	findfont exch
	scalefont setfont
} def

% draw aligned label in bounding box aligned to current point
/alignedtext {			% width adj text
	/text exch def
	/adj exch def
	/width exch def
	gsave
		width 0 gt {
			text stringwidth pop adj mul 0 rmoveto
		} if
		[] 0 setdash
		text show
	grestore
} def

/boxprim {				% xcorner ycorner xsize ysize
		4 2 roll
		moveto
		2 copy
		exch 0 rlineto
		0 exch rlineto
		pop neg 0 rlineto
		closepath
} bind def

/ellipse_path {
	/ry exch def
	/rx exch def
	/y exch def
	/x exch def
	matrix currentmatrix
	newpath
	x y translate
	rx ry scale
	0 0 1 0 360 arc
	setmatrix
} bind def

/endpage { showpage } bind def
/showpage { } def

/layercolorseq
	[	% layer color sequence - darkest to lightest
		[0 0 0]
		[.2 .8 .8]
		[.4 .8 .8]
		[.6 .8 .8]
		[.8 .8 .8]
	]
def

/layerlen layercolorseq length def

/setlayer {/maxlayer exch def /curlayer exch def
	layercolorseq curlayer 1 sub layerlen mod get
	aload pop sethsbcolor
	/nodecolor {nopcolor} def
	/edgecolor {nopcolor} def
	/graphcolor {nopcolor} def
} bind def

/onlayer { curlayer ne {invis} if } def

/onlayers {
	/myupper exch def
	/mylower exch def
	curlayer mylower lt
	curlayer myupper gt
	or
	{invis} if
} def

/curlayer 0 def

%%EndResource
%%EndProlog
%%BeginSetup
14 default-font-family set_font
1 setmiterlimit
% /arrowlength 10 def
% /arrowwidth 5 def

% make sure pdfmark is harmless for PS-interpreters other than Distiller
/pdfmark where {pop} {userdict /pdfmark /cleartomark load put} ifelse
% make '<<' and '>>' safe on PS Level 1 devices
/languagelevel where {pop languagelevel}{1} ifelse
2 lt {
    userdict (<<) cvn ([) cvn load put
    userdict (>>) cvn ([) cvn load put
} if

%%EndSetup
setupLatin1
%%Page: 1 1
%%PageBoundingBox: 36 36 1268 272
%%PageOrientation: Portrait
gsave
36 36 1268 272 boxprim clip newpath
0 0 1 beginpage
1 1 set_scale 0 rotate 40 40 translate
% Node1
gsave
0.000 0.000 0.749 nodecolor
newpath 1 46 moveto
1 67 lineto
86 67 lineto
86 46 lineto
closepath fill
1 setlinewidth
filled
0.000 0.000 0.000 nodecolor
newpath 1 46 moveto
1 67 lineto
86 67 lineto
86 46 lineto
closepath stroke
0.000 0.000 0.000 nodecolor
10.00 /FreeSans.ttf set_font
43 53 moveto 69 -0.5 (escribePlano) alignedtext
grestore
% Node2
gsave
[ /Rect [ 123 76 247 96 ]
  /Border [ 0 0 0 ]
  /Action << /Subtype /URI /URI ($RamDisco_8cpp.html#f0c232886a7851d8db3a647add9ae455) >>
  /Subtype /Link
/ANN pdfmark
[ /Rect [ 123 76 247 96 ]
  /Border [ 0 0 0 ]
  /Action << /Subtype /URI /URI ($RamDisco_8cpp.html#f0c232886a7851d8db3a647add9ae455) >>
  /Subtype /Link
/ANN pdfmark
1 setlinewidth
0.000 0.000 0.000 nodecolor
newpath 123 75 moveto
123 96 lineto
248 96 lineto
248 75 lineto
closepath stroke
0.000 0.000 0.000 nodecolor
10.00 /FreeSans.ttf set_font
185 82 moveto 109 -0.5 (escribePlanoStream) alignedtext
grestore
% Node1->Node2
gsave
1 setlinewidth
solid
0.667 0.776 0.439 edgecolor
newpath 86 66 moveto
97 68 109 71 121 73 curveto
stroke
0.667 0.776 0.439 edgecolor
newpath 120.508 76.4708 moveto
131 75 lineto
121.881 69.6067 lineto
closepath fill
1 setlinewidth
solid
0.667 0.776 0.439 edgecolor
newpath 120.508 76.4708 moveto
131 75 lineto
121.881 69.6067 lineto
closepath stroke
grestore
% Node15
gsave
[ /Rect [ 134 19 236 39 ]
  /Border [ 0 0 0 ]
  /Action << /Subtype /URI /URI ($TrieSDisco_8cpp.html#df0711974693615ed7a5a7d1a2b050a7) >>
  /Subtype /Link
/ANN pdfmark
[ /Rect [ 134 19 236 39 ]
  /Border [ 0 0 0 ]
  /Action << /Subtype /URI /URI ($TrieSDisco_8cpp.html#df0711974693615ed7a5a7d1a2b050a7) >>
  /Subtype /Link
/ANN pdfmark
1 setlinewidth
0.000 0.000 0.000 nodecolor
newpath 134 18 moveto
134 39 lineto
236 39 lineto
236 18 lineto
closepath stroke
0.000 0.000 0.000 nodecolor
10.00 /FreeSans.ttf set_font
185 25 moveto 86 -0.5 (escribeRelacion) alignedtext
grestore
% Node1->Node15
gsave
1 setlinewidth
solid
0.667 0.776 0.439 edgecolor
newpath 86 48 moveto
98 46 111 43 124 41 curveto
stroke
0.667 0.776 0.439 edgecolor
newpath 124.881 44.3933 moveto
134 39 lineto
123.508 37.5292 lineto
closepath fill
1 setlinewidth
solid
0.667 0.776 0.439 edgecolor
newpath 124.881 44.3933 moveto
134 39 lineto
123.508 37.5292 lineto
closepath stroke
grestore
% Node3
gsave
[ /Rect [ 497 170 581 190 ]
  /Border [ 0 0 0 ]
  /Action << /Subtype /URI /URI ($TrieSDisco_8cpp.html#95dfc28ebaa02e82d3d1ffce08251628) >>
  /Subtype /Link
/ANN pdfmark
[ /Rect [ 497 170 581 190 ]
  /Border [ 0 0 0 ]
  /Action << /Subtype /URI /URI ($TrieSDisco_8cpp.html#95dfc28ebaa02e82d3d1ffce08251628) >>
  /Subtype /Link
/ANN pdfmark
1 setlinewidth
0.000 0.000 0.000 nodecolor
newpath 497 169 moveto
497 190 lineto
581 190 lineto
581 169 lineto
closepath stroke
0.000 0.000 0.000 nodecolor
10.00 /FreeSans.ttf set_font
539 176 moveto 68 -0.5 (escribeNodo) alignedtext
grestore
% Node2->Node3
gsave
1 setlinewidth
solid
0.667 0.776 0.439 edgecolor
newpath 196 96 moveto
213 112 248 142 284 156 curveto
351 180 434 184 487 182 curveto
stroke
0.667 0.776 0.439 edgecolor
newpath 487 185.5 moveto
497 182 lineto
487 178.5 lineto
closepath fill
1 setlinewidth
solid
0.667 0.776 0.439 edgecolor
newpath 487 185.5 moveto
497 182 lineto
487 178.5 lineto
closepath stroke
grestore
% Node9
gsave
[ /Rect [ 676 132 832 152 ]
  /Border [ 0 0 0 ]
  /Action << /Subtype /URI /URI ($TrieSDisco_8cpp.html#453b277936104f13edb4f8158e015eba) >>
  /Subtype /Link
/ANN pdfmark
[ /Rect [ 676 132 832 152 ]
  /Border [ 0 0 0 ]
  /Action << /Subtype /URI /URI ($TrieSDisco_8cpp.html#453b277936104f13edb4f8158e015eba) >>
  /Subtype /Link
/ANN pdfmark
1 setlinewidth
0.000 0.000 0.000 nodecolor
newpath 676 131 moveto
676 152 lineto
832 152 lineto
832 131 lineto
closepath stroke
0.000 0.000 0.000 nodecolor
10.00 /FreeSans.ttf set_font
754 138 moveto 140 -0.5 (precalcula_escribe_actual) alignedtext
grestore
% Node2->Node9
gsave
1 setlinewidth
solid
0.667 0.776 0.439 edgecolor
newpath 206 96 moveto
226 105 256 117 284 123 curveto
415 149 571 150 666 146 curveto
stroke
0.667 0.776 0.439 edgecolor
newpath 666 149.5 moveto
676 146 lineto
666 142.5 lineto
closepath fill
1 setlinewidth
solid
0.667 0.776 0.439 edgecolor
newpath 666 149.5 moveto
676 146 lineto
666 142.5 lineto
closepath stroke
grestore
% Node13
gsave
[ /Rect [ 285 76 401 96 ]
  /Border [ 0 0 0 ]
  /Action << /Subtype /URI /URI ($RamDisco_8cpp.html#6b1b44682de6eb9fccd3df71e404154a) >>
  /Subtype /Link
/ANN pdfmark
[ /Rect [ 285 76 401 96 ]
  /Border [ 0 0 0 ]
  /Action << /Subtype /URI /URI ($RamDisco_8cpp.html#6b1b44682de6eb9fccd3df71e404154a) >>
  /Subtype /Link
/ANN pdfmark
1 setlinewidth
0.000 0.000 0.000 nodecolor
newpath 285 75 moveto
285 96 lineto
402 96 lineto
402 75 lineto
closepath stroke
0.000 0.000 0.000 nodecolor
10.00 /FreeSans.ttf set_font
343 82 moveto 101 -0.5 (precalcula_escribe) alignedtext
grestore
% Node2->Node13
gsave
1 setlinewidth
solid
0.667 0.776 0.439 edgecolor
newpath 248 86 moveto
257 86 266 86 275 86 curveto
stroke
0.667 0.776 0.439 edgecolor
newpath 275 89.5001 moveto
285 86 lineto
275 82.5001 lineto
closepath fill
1 setlinewidth
solid
0.667 0.776 0.439 edgecolor
newpath 275 89.5001 moveto
285 86 lineto
275 82.5001 lineto
closepath stroke
grestore
% Node14
gsave
[ /Rect [ 438 76 640 96 ]
  /Border [ 0 0 0 ]
  /Action << /Subtype /URI /URI ($RamDisco_8cpp.html#5b79fc3f073aeb2481fb1d51274a52a6) >>
  /Subtype /Link
/ANN pdfmark
[ /Rect [ 438 76 640 96 ]
  /Border [ 0 0 0 ]
  /Action << /Subtype /URI /URI ($RamDisco_8cpp.html#5b79fc3f073aeb2481fb1d51274a52a6) >>
  /Subtype /Link
/ANN pdfmark
1 setlinewidth
0.000 0.000 0.000 nodecolor
newpath 438 75 moveto
438 96 lineto
640 96 lineto
640 75 lineto
closepath stroke
0.000 0.000 0.000 nodecolor
10.00 /FreeSans.ttf set_font
539 82 moveto 186 -0.5 (precalcula_escribe_con_hermanos) alignedtext
grestore
% Node2->Node14
gsave
1 setlinewidth
solid
0.667 0.776 0.439 edgecolor
newpath 232 75 moveto
249 72 267 69 284 67 curveto
337 62 350 63 402 67 curveto
423 69 444 71 464 74 curveto
stroke
0.667 0.776 0.439 edgecolor
newpath 463.701 77.4875 moveto
474 75 lineto
464.398 70.5222 lineto
closepath fill
1 setlinewidth
solid
0.667 0.776 0.439 edgecolor
newpath 463.701 77.4875 moveto
474 75 lineto
464.398 70.5222 lineto
closepath stroke
grestore
% Node4
gsave
[ /Rect [ 709 208 799 228 ]
  /Border [ 0 0 0 ]
  /Action << /Subtype /URI /URI ($comun_8hpp.html#96402bda6527bf98dd8e49d62ae182f8) >>
  /Subtype /Link
/ANN pdfmark
[ /Rect [ 709 208 799 228 ]
  /Border [ 0 0 0 ]
  /Action << /Subtype /URI /URI ($comun_8hpp.html#96402bda6527bf98dd8e49d62ae182f8) >>
  /Subtype /Link
/ANN pdfmark
1 setlinewidth
0.000 0.000 0.000 nodecolor
newpath 709 207 moveto
709 228 lineto
799 228 lineto
799 207 lineto
closepath stroke
0.000 0.000 0.000 nodecolor
10.00 /FreeSans.ttf set_font
754 214 moveto 74 -0.5 (escribeNDesp) alignedtext
grestore
% Node3->Node4
gsave
1 setlinewidth
solid
0.667 0.776 0.439 edgecolor
newpath 581 187 moveto
615 193 662 202 699 208 curveto
stroke
0.667 0.776 0.439 edgecolor
newpath 698.508 211.471 moveto
709 210 lineto
699.881 204.607 lineto
closepath fill
1 setlinewidth
solid
0.667 0.776 0.439 edgecolor
newpath 698.508 211.471 moveto
709 210 lineto
699.881 204.607 lineto
closepath stroke
grestore
% Node6
gsave
[ /Rect [ 718 170 790 190 ]
  /Border [ 0 0 0 ]
  /Action << /Subtype /URI /URI ($Pos_8cpp.html#42c2daaa880eeb397c024b6ffa22c8cf) >>
  /Subtype /Link
/ANN pdfmark
[ /Rect [ 718 170 790 190 ]
  /Border [ 0 0 0 ]
  /Action << /Subtype /URI /URI ($Pos_8cpp.html#42c2daaa880eeb397c024b6ffa22c8cf) >>
  /Subtype /Link
/ANN pdfmark
1 setlinewidth
0.000 0.000 0.000 nodecolor
newpath 718 169 moveto
718 190 lineto
791 190 lineto
791 169 lineto
closepath stroke
0.000 0.000 0.000 nodecolor
10.00 /FreeSans.ttf set_font
754 176 moveto 57 -0.5 (escribePos) alignedtext
grestore
% Node3->Node6
gsave
1 setlinewidth
solid
0.667 0.776 0.439 edgecolor
newpath 581 180 moveto
618 180 670 180 708 180 curveto
stroke
0.667 0.776 0.439 edgecolor
newpath 708 183.5 moveto
718 180 lineto
708 176.5 lineto
closepath fill
1 setlinewidth
solid
0.667 0.776 0.439 edgecolor
newpath 708 183.5 moveto
718 180 lineto
708 176.5 lineto
closepath stroke
grestore
% Node3->Node9
gsave
1 setlinewidth
solid
0.667 0.776 0.439 edgecolor
newpath 581 173 moveto
611 168 652 160 686 154 curveto
stroke
0.667 0.776 0.439 edgecolor
newpath 686.881 157.393 moveto
696 152 lineto
685.508 150.529 lineto
closepath fill
1 setlinewidth
solid
0.667 0.776 0.439 edgecolor
newpath 686.881 157.393 moveto
696 152 lineto
685.508 150.529 lineto
closepath stroke
grestore
% Node5
gsave
[ /Rect [ 868 208 950 228 ]
  /Border [ 0 0 0 ]
  /Action << /Subtype /URI /URI ($comun_8cpp.html#b5388a972300b0a3d2e70c16097a3781) >>
  /Subtype /Link
/ANN pdfmark
[ /Rect [ 868 208 950 228 ]
  /Border [ 0 0 0 ]
  /Action << /Subtype /URI /URI ($comun_8cpp.html#b5388a972300b0a3d2e70c16097a3781) >>
  /Subtype /Link
/ANN pdfmark
1 setlinewidth
0.000 0.000 0.000 nodecolor
newpath 868 207 moveto
868 228 lineto
950 228 lineto
950 207 lineto
closepath stroke
0.000 0.000 0.000 nodecolor
10.00 /FreeSans.ttf set_font
909 214 moveto 66 -0.5 (escribe128b) alignedtext
grestore
% Node4->Node5
gsave
1 setlinewidth
solid
0.667 0.776 0.439 edgecolor
newpath 799 218 moveto
818 218 839 218 858 218 curveto
stroke
0.667 0.776 0.439 edgecolor
newpath 858 221.5 moveto
868 218 lineto
858 214.5 lineto
closepath fill
1 setlinewidth
solid
0.667 0.776 0.439 edgecolor
newpath 858 221.5 moveto
868 218 lineto
858 214.5 lineto
closepath stroke
grestore
% Node7
gsave
[ /Rect [ 986 160 1114 180 ]
  /Border [ 0 0 0 ]
  /Action << /Subtype /URI /URI ($Elias_8cpp.html#59732ce42a1e75fbbb382a6964ef4620) >>
  /Subtype /Link
/ANN pdfmark
[ /Rect [ 986 160 1114 180 ]
  /Border [ 0 0 0 ]
  /Action << /Subtype /URI /URI ($Elias_8cpp.html#59732ce42a1e75fbbb382a6964ef4620) >>
  /Subtype /Link
/ANN pdfmark
1 setlinewidth
0.000 0.000 0.000 nodecolor
newpath 986 159 moveto
986 180 lineto
1114 180 lineto
1114 159 lineto
closepath stroke
0.000 0.000 0.000 nodecolor
10.00 /FreeSans.ttf set_font
1050 166 moveto 112 -0.5 (escribe_elias_gama2) alignedtext
grestore
% Node6->Node7
gsave
1 setlinewidth
solid
0.667 0.776 0.439 edgecolor
newpath 791 179 moveto
837 177 917 174 976 172 curveto
stroke
0.667 0.776 0.439 edgecolor
newpath 976 175.5 moveto
986 172 lineto
976 168.5 lineto
closepath fill
1 setlinewidth
solid
0.667 0.776 0.439 edgecolor
newpath 976 175.5 moveto
986 172 lineto
976 168.5 lineto
closepath stroke
grestore
% Node8
gsave
[ /Rect [ 1151 136 1223 156 ]
  /Border [ 0 0 0 ]
  /Action << /Subtype /URI /URI ($Elias_8cpp.html#7127ec8dff13cc2ad873693ca8933d38) >>
  /Subtype /Link
/ANN pdfmark
[ /Rect [ 1151 136 1223 156 ]
  /Border [ 0 0 0 ]
  /Action << /Subtype /URI /URI ($Elias_8cpp.html#7127ec8dff13cc2ad873693ca8933d38) >>
  /Subtype /Link
/ANN pdfmark
1 setlinewidth
0.000 0.000 0.000 nodecolor
newpath 1151 135 moveto
1151 156 lineto
1224 156 lineto
1224 135 lineto
closepath stroke
0.000 0.000 0.000 nodecolor
10.00 /FreeSans.ttf set_font
1187 142 moveto 57 -0.5 (piso_logb2) alignedtext
grestore
% Node7->Node8
gsave
1 setlinewidth
solid
0.667 0.776 0.439 edgecolor
newpath 1113 159 moveto
1122 158 1132 156 1141 155 curveto
stroke
0.667 0.776 0.439 edgecolor
newpath 1141.88 158.393 moveto
1151 153 lineto
1140.51 151.529 lineto
closepath fill
1 setlinewidth
solid
0.667 0.776 0.439 edgecolor
newpath 1141.88 158.393 moveto
1151 153 lineto
1140.51 151.529 lineto
closepath stroke
grestore
% Node10
gsave
[ /Rect [ 872 132 946 152 ]
  /Border [ 0 0 0 ]
  /Action << /Subtype /URI /URI ($comun_8hpp.html#3f1f97c70ac3ffba1584b0fc02661cab) >>
  /Subtype /Link
/ANN pdfmark
[ /Rect [ 872 132 946 152 ]
  /Border [ 0 0 0 ]
  /Action << /Subtype /URI /URI ($comun_8hpp.html#3f1f97c70ac3ffba1584b0fc02661cab) >>
  /Subtype /Link
/ANN pdfmark
1 setlinewidth
0.000 0.000 0.000 nodecolor
newpath 872 131 moveto
872 152 lineto
947 152 lineto
947 131 lineto
closepath stroke
0.000 0.000 0.000 nodecolor
10.00 /FreeSans.ttf set_font
909 138 moveto 59 -0.5 (longNDesp) alignedtext
grestore
% Node9->Node10
gsave
1 setlinewidth
solid
0.667 0.776 0.439 edgecolor
newpath 832 142 moveto
842 142 852 142 862 142 curveto
stroke
0.667 0.776 0.439 edgecolor
newpath 862 145.5 moveto
872 142 lineto
862 138.5 lineto
closepath fill
1 setlinewidth
solid
0.667 0.776 0.439 edgecolor
newpath 862 145.5 moveto
872 142 lineto
862 138.5 lineto
closepath stroke
grestore
% Node11
gsave
[ /Rect [ 880 94 938 114 ]
  /Border [ 0 0 0 ]
  /Action << /Subtype /URI /URI ($Pos_8cpp.html#ad8740377e9e19836d654491a170ac9a) >>
  /Subtype /Link
/ANN pdfmark
[ /Rect [ 880 94 938 114 ]
  /Border [ 0 0 0 ]
  /Action << /Subtype /URI /URI ($Pos_8cpp.html#ad8740377e9e19836d654491a170ac9a) >>
  /Subtype /Link
/ANN pdfmark
1 setlinewidth
0.000 0.000 0.000 nodecolor
newpath 880 93 moveto
880 114 lineto
938 114 lineto
938 93 lineto
closepath stroke
0.000 0.000 0.000 nodecolor
10.00 /FreeSans.ttf set_font
909 100 moveto 42 -0.5 (longPos) alignedtext
grestore
% Node9->Node11
gsave
1 setlinewidth
solid
0.667 0.776 0.439 edgecolor
newpath 799 131 moveto
821 126 848 119 870 114 curveto
stroke
0.667 0.776 0.439 edgecolor
newpath 871.427 117.226 moveto
880 111 lineto
869.416 110.521 lineto
closepath fill
1 setlinewidth
solid
0.667 0.776 0.439 edgecolor
newpath 871.427 117.226 moveto
880 111 lineto
869.416 110.521 lineto
closepath stroke
grestore
% Node12
gsave
[ /Rect [ 997 113 1103 133 ]
  /Border [ 0 0 0 ]
  /Action << /Subtype /URI /URI ($Elias_8cpp.html#214c4fd6adcbe1fe7de47c4ba521198a) >>
  /Subtype /Link
/ANN pdfmark
[ /Rect [ 997 113 1103 133 ]
  /Border [ 0 0 0 ]
  /Action << /Subtype /URI /URI ($Elias_8cpp.html#214c4fd6adcbe1fe7de47c4ba521198a) >>
  /Subtype /Link
/ANN pdfmark
1 setlinewidth
0.000 0.000 0.000 nodecolor
newpath 997 112 moveto
997 133 lineto
1104 133 lineto
1104 112 lineto
closepath stroke
0.000 0.000 0.000 nodecolor
10.00 /FreeSans.ttf set_font
1050 119 moveto 91 -0.5 (long_elias_gama) alignedtext
grestore
% Node11->Node12
gsave
1 setlinewidth
solid
0.667 0.776 0.439 edgecolor
newpath 938 108 moveto
952 110 970 112 987 115 curveto
stroke
0.667 0.776 0.439 edgecolor
newpath 986.701 118.488 moveto
997 116 lineto
987.398 111.522 lineto
closepath fill
1 setlinewidth
solid
0.667 0.776 0.439 edgecolor
newpath 986.701 118.488 moveto
997 116 lineto
987.398 111.522 lineto
closepath stroke
grestore
% Node12->Node8
gsave
1 setlinewidth
solid
0.667 0.776 0.439 edgecolor
newpath 1104 132 moveto
1116 134 1129 137 1141 139 curveto
stroke
0.667 0.776 0.439 edgecolor
newpath 1140.7 142.488 moveto
1151 140 lineto
1141.4 135.522 lineto
closepath fill
1 setlinewidth
solid
0.667 0.776 0.439 edgecolor
newpath 1140.7 142.488 moveto
1151 140 lineto
1141.4 135.522 lineto
closepath stroke
grestore
% Node13->Node13
gsave
1 setlinewidth
solid
0.667 0.776 0.439 edgecolor
newpath 293 96 moveto
271 105 288 114 343 114 curveto
387 114 407 108 402 101 curveto
stroke
0.667 0.776 0.439 edgecolor
newpath 403.441 97.7969 moveto
393 96 lineto
400.042 103.916 lineto
closepath fill
1 setlinewidth
solid
0.667 0.776 0.439 edgecolor
newpath 403.441 97.7969 moveto
393 96 lineto
400.042 103.916 lineto
closepath stroke
grestore
% Node13->Node14
gsave
1 setlinewidth
solid
0.667 0.776 0.439 edgecolor
newpath 402 86 moveto
410 86 419 86 428 86 curveto
stroke
0.667 0.776 0.439 edgecolor
newpath 428 89.5001 moveto
438 86 lineto
428 82.5001 lineto
closepath fill
1 setlinewidth
solid
0.667 0.776 0.439 edgecolor
newpath 428 89.5001 moveto
438 86 lineto
428 82.5001 lineto
closepath stroke
grestore
% Node14->Node9
gsave
1 setlinewidth
solid
0.667 0.776 0.439 edgecolor
newpath 577 96 moveto
612 105 664 119 702 128 curveto
stroke
0.667 0.776 0.439 edgecolor
newpath 701.416 131.479 moveto
712 131 lineto
703.427 124.774 lineto
closepath fill
1 setlinewidth
solid
0.667 0.776 0.439 edgecolor
newpath 701.416 131.479 moveto
712 131 lineto
703.427 124.774 lineto
closepath stroke
grestore
% Node16
gsave
[ /Rect [ 303 0 383 20 ]
  /Border [ 0 0 0 ]
  /Action << /Subtype /URI /URI ($Doc_8cpp.html#ccfa223b5e7e9f380b58db51687ff9a5) >>
  /Subtype /Link
/ANN pdfmark
[ /Rect [ 303 0 383 20 ]
  /Border [ 0 0 0 ]
  /Action << /Subtype /URI /URI ($Doc_8cpp.html#ccfa223b5e7e9f380b58db51687ff9a5) >>
  /Subtype /Link
/ANN pdfmark
1 setlinewidth
0.000 0.000 0.000 nodecolor
newpath 303 -1 moveto
303 20 lineto
384 20 lineto
384 -1 lineto
closepath stroke
0.000 0.000 0.000 nodecolor
10.00 /FreeSans.ttf set_font
343 6 moveto 65 -0.5 (escribeDocs) alignedtext
grestore
% Node15->Node16
gsave
1 setlinewidth
solid
0.667 0.776 0.439 edgecolor
newpath 236 23 moveto
255 20 275 18 293 16 curveto
stroke
0.667 0.776 0.439 edgecolor
newpath 293.398 19.4778 moveto
303 15 lineto
292.701 12.5125 lineto
closepath fill
1 setlinewidth
solid
0.667 0.776 0.439 edgecolor
newpath 293.398 19.4778 moveto
303 15 lineto
292.701 12.5125 lineto
closepath stroke
grestore
endpage
showpage
grestore
%%PageTrailer
%%EndPage: 1
%%Trailer
%%Pages: 1
%%BoundingBox: 36 36 1268 272
end
restore
%%EOF
