%!PS-Adobe-2.0
%%Creator: Graphviz version 2.12 (Mon Nov 16 18:34:03 UTC 2009)
%%For: (vtamara) Vladimir
%%Title: G
%%Pages: (atend)
%%BoundingBox: (atend)
%%EndComments
save
%%BeginProlog
/DotDict 200 dict def
DotDict begin

/setupLatin1 {
mark
/EncodingVector 256 array def
 EncodingVector 0

ISOLatin1Encoding 0 255 getinterval putinterval
EncodingVector 45 /hyphen put

% Set up ISO Latin 1 character encoding
/starnetISO {
        dup dup findfont dup length dict begin
        { 1 index /FID ne { def }{ pop pop } ifelse
        } forall
        /Encoding EncodingVector def
        currentdict end definefont
} def
/Times-Roman starnetISO def
/Times-Italic starnetISO def
/Times-Bold starnetISO def
/Times-BoldItalic starnetISO def
/Helvetica starnetISO def
/Helvetica-Oblique starnetISO def
/Helvetica-Bold starnetISO def
/Helvetica-BoldOblique starnetISO def
/Courier starnetISO def
/Courier-Oblique starnetISO def
/Courier-Bold starnetISO def
/Courier-BoldOblique starnetISO def
cleartomark
} bind def

%%BeginResource: procset graphviz 0 0
/coord-font-family /Times-Roman def
/default-font-family /Times-Roman def
/coordfont coord-font-family findfont 8 scalefont def

/InvScaleFactor 1.0 def
/set_scale {
       dup 1 exch div /InvScaleFactor exch def
       scale
} bind def

% styles
/solid { [] 0 setdash } bind def
/dashed { [9 InvScaleFactor mul dup ] 0 setdash } bind def
/dotted { [1 InvScaleFactor mul 6 InvScaleFactor mul] 0 setdash } bind def
/invis {/fill {newpath} def /stroke {newpath} def /show {pop newpath} def} bind def
/bold { 2 setlinewidth } bind def
/filled { } bind def
/unfilled { } bind def
/rounded { } bind def
/diagonals { } bind def

% hooks for setting color 
/nodecolor { sethsbcolor } bind def
/edgecolor { sethsbcolor } bind def
/graphcolor { sethsbcolor } bind def
/nopcolor {pop pop pop} bind def

/beginpage {	% i j npages
	/npages exch def
	/j exch def
	/i exch def
	/str 10 string def
	npages 1 gt {
		gsave
			coordfont setfont
			0 0 moveto
			(\() show i str cvs show (,) show j str cvs show (\)) show
		grestore
	} if
} bind def

/set_font {
	findfont exch
	scalefont setfont
} def

% draw aligned label in bounding box aligned to current point
/alignedtext {			% width adj text
	/text exch def
	/adj exch def
	/width exch def
	gsave
		width 0 gt {
			text stringwidth pop adj mul 0 rmoveto
		} if
		[] 0 setdash
		text show
	grestore
} def

/boxprim {				% xcorner ycorner xsize ysize
		4 2 roll
		moveto
		2 copy
		exch 0 rlineto
		0 exch rlineto
		pop neg 0 rlineto
		closepath
} bind def

/ellipse_path {
	/ry exch def
	/rx exch def
	/y exch def
	/x exch def
	matrix currentmatrix
	newpath
	x y translate
	rx ry scale
	0 0 1 0 360 arc
	setmatrix
} bind def

/endpage { showpage } bind def
/showpage { } def

/layercolorseq
	[	% layer color sequence - darkest to lightest
		[0 0 0]
		[.2 .8 .8]
		[.4 .8 .8]
		[.6 .8 .8]
		[.8 .8 .8]
	]
def

/layerlen layercolorseq length def

/setlayer {/maxlayer exch def /curlayer exch def
	layercolorseq curlayer 1 sub layerlen mod get
	aload pop sethsbcolor
	/nodecolor {nopcolor} def
	/edgecolor {nopcolor} def
	/graphcolor {nopcolor} def
} bind def

/onlayer { curlayer ne {invis} if } def

/onlayers {
	/myupper exch def
	/mylower exch def
	curlayer mylower lt
	curlayer myupper gt
	or
	{invis} if
} def

/curlayer 0 def

%%EndResource
%%EndProlog
%%BeginSetup
14 default-font-family set_font
1 setmiterlimit
% /arrowlength 10 def
% /arrowwidth 5 def

% make sure pdfmark is harmless for PS-interpreters other than Distiller
/pdfmark where {pop} {userdict /pdfmark /cleartomark load put} ifelse
% make '<<' and '>>' safe on PS Level 1 devices
/languagelevel where {pop languagelevel}{1} ifelse
2 lt {
    userdict (<<) cvn ([) cvn load put
    userdict (>>) cvn ([) cvn load put
} if

%%EndSetup
setupLatin1
%%Page: 1 1
%%PageBoundingBox: 36 36 630 316
%%PageOrientation: Portrait
gsave
36 36 630 316 boxprim clip newpath
0 0 1 beginpage
1 1 set_scale 0 rotate 40 40 translate
% Node1
gsave
0.000 0.000 0.749 nodecolor
newpath 1 78 moveto
1 99 lineto
64 99 lineto
64 78 lineto
closepath fill
1 setlinewidth
filled
0.000 0.000 0.000 nodecolor
newpath 1 78 moveto
1 99 lineto
64 99 lineto
64 78 lineto
closepath stroke
0.000 0.000 0.000 nodecolor
10.00 /FreeSans.ttf set_font
32 85 moveto 47 -0.5 (leePlano) alignedtext
grestore
% Node2
gsave
[ /Rect [ 101 183 203 203 ]
  /Border [ 0 0 0 ]
  /Action << /Subtype /URI /URI ($RamDisco_8cpp.html#6629a007f761319a91a329f1071896fa) >>
  /Subtype /Link
/ANN pdfmark
[ /Rect [ 101 183 203 203 ]
  /Border [ 0 0 0 ]
  /Action << /Subtype /URI /URI ($RamDisco_8cpp.html#6629a007f761319a91a329f1071896fa) >>
  /Subtype /Link
/ANN pdfmark
1 setlinewidth
0.000 0.000 0.000 nodecolor
newpath 101 182 moveto
101 203 lineto
204 203 lineto
204 182 lineto
closepath stroke
0.000 0.000 0.000 nodecolor
10.00 /FreeSans.ttf set_font
152 189 moveto 87 -0.5 (leePlanoStream) alignedtext
grestore
% Node1->Node2
gsave
1 setlinewidth
solid
0.667 0.776 0.439 edgecolor
newpath 44 99 moveto
64 117 106 154 131 176 curveto
stroke
0.667 0.776 0.439 edgecolor
newpath 128.9 178.8 moveto
139 182 lineto
133.1 173.2 lineto
closepath fill
1 setlinewidth
solid
0.667 0.776 0.439 edgecolor
newpath 128.9 178.8 moveto
139 182 lineto
133.1 173.2 lineto
closepath stroke
grestore
% Node8
gsave
[ /Rect [ 240 79 320 99 ]
  /Border [ 0 0 0 ]
  /Action << /Subtype /URI /URI ($TrieSDisco_8cpp.html#acdb9639784b2fb341e069b1f54c3455) >>
  /Subtype /Link
/ANN pdfmark
[ /Rect [ 240 79 320 99 ]
  /Border [ 0 0 0 ]
  /Action << /Subtype /URI /URI ($TrieSDisco_8cpp.html#acdb9639784b2fb341e069b1f54c3455) >>
  /Subtype /Link
/ANN pdfmark
1 setlinewidth
0.000 0.000 0.000 nodecolor
newpath 240 78 moveto
240 99 lineto
320 99 lineto
320 78 lineto
closepath stroke
0.000 0.000 0.000 nodecolor
10.00 /FreeSans.ttf set_font
280 85 moveto 64 -0.5 (leeRelacion) alignedtext
grestore
% Node1->Node8
gsave
1 setlinewidth
solid
0.667 0.776 0.439 edgecolor
newpath 64 89 moveto
106 89 180 89 230 89 curveto
stroke
0.667 0.776 0.439 edgecolor
newpath 230 92.5001 moveto
240 89 lineto
230 85.5001 lineto
closepath fill
1 setlinewidth
solid
0.667 0.776 0.439 edgecolor
newpath 230 92.5001 moveto
240 89 lineto
230 85.5001 lineto
closepath stroke
grestore
% Node10
gsave
[ /Rect [ 108 22 196 42 ]
  /Border [ 0 0 0 ]
  /Action << /Subtype /URI /URI ($TrieSDisco_8cpp.html#3b55801abcb3987a49125a0ddc9ff76c) >>
  /Subtype /Link
/ANN pdfmark
[ /Rect [ 108 22 196 42 ]
  /Border [ 0 0 0 ]
  /Action << /Subtype /URI /URI ($TrieSDisco_8cpp.html#3b55801abcb3987a49125a0ddc9ff76c) >>
  /Subtype /Link
/ANN pdfmark
1 setlinewidth
0.000 0.000 0.000 nodecolor
newpath 108 21 moveto
108 42 lineto
197 42 lineto
197 21 lineto
closepath stroke
0.000 0.000 0.000 nodecolor
10.00 /FreeSans.ttf set_font
152 28 moveto 73 -0.5 (verificaIndice) alignedtext
grestore
% Node1->Node10
gsave
1 setlinewidth
solid
0.667 0.776 0.439 edgecolor
newpath 55 78 moveto
74 68 101 56 122 46 curveto
stroke
0.667 0.776 0.439 edgecolor
newpath 123.283 49.2598 moveto
131 42 lineto
120.44 42.8631 lineto
closepath fill
1 setlinewidth
solid
0.667 0.776 0.439 edgecolor
newpath 123.283 49.2598 moveto
131 42 lineto
120.44 42.8631 lineto
closepath stroke
grestore
% Node2->Node2
gsave
1 setlinewidth
solid
0.667 0.776 0.439 edgecolor
newpath 114 203 moveto
97 212 110 221 152 221 curveto
183 221 198 216 197 210 curveto
stroke
0.667 0.776 0.439 edgecolor
newpath 199.546 207.596 moveto
190 203 lineto
194.596 212.546 lineto
closepath fill
1 setlinewidth
solid
0.667 0.776 0.439 edgecolor
newpath 199.546 207.596 moveto
190 203 lineto
194.596 212.546 lineto
closepath stroke
grestore
% Node3
gsave
[ /Rect [ 498 126 586 146 ]
  /Border [ 0 0 0 ]
  /Action << /Subtype /URI /URI ($comun_8cpp.html#88ffeb20e447cad877c37bb473033590) >>
  /Subtype /Link
/ANN pdfmark
[ /Rect [ 498 126 586 146 ]
  /Border [ 0 0 0 ]
  /Action << /Subtype /URI /URI ($comun_8cpp.html#88ffeb20e447cad877c37bb473033590) >>
  /Subtype /Link
/ANN pdfmark
1 setlinewidth
0.000 0.000 0.000 nodecolor
newpath 498 125 moveto
498 146 lineto
586 146 lineto
586 125 lineto
closepath stroke
0.000 0.000 0.000 nodecolor
10.00 /FreeSans.ttf set_font
542 132 moveto 72 -0.5 (errorFormato) alignedtext
grestore
% Node2->Node3
gsave
1 setlinewidth
solid
0.667 0.776 0.439 edgecolor
newpath 170 203 moveto
187 212 215 225 240 231 curveto
337 250 373 272 462 231 curveto
496 215 520 178 533 155 curveto
stroke
0.667 0.776 0.439 edgecolor
newpath 536.137 156.56 moveto
537 146 lineto
529.74 153.717 lineto
closepath fill
1 setlinewidth
solid
0.667 0.776 0.439 edgecolor
newpath 536.137 156.56 moveto
537 146 lineto
529.74 153.717 lineto
closepath stroke
grestore
% Node4
gsave
[ /Rect [ 246 202 314 222 ]
  /Border [ 0 0 0 ]
  /Action << /Subtype /URI /URI ($comun_8hpp.html#9871d7357fc245ec5b7a227a9a62eb36) >>
  /Subtype /Link
/ANN pdfmark
[ /Rect [ 246 202 314 222 ]
  /Border [ 0 0 0 ]
  /Action << /Subtype /URI /URI ($comun_8hpp.html#9871d7357fc245ec5b7a227a9a62eb36) >>
  /Subtype /Link
/ANN pdfmark
1 setlinewidth
0.000 0.000 0.000 nodecolor
newpath 246 201 moveto
246 222 lineto
314 222 lineto
314 201 lineto
closepath stroke
0.000 0.000 0.000 nodecolor
10.00 /FreeSans.ttf set_font
280 208 moveto 52 -0.5 (leeNDesp) alignedtext
grestore
% Node2->Node4
gsave
1 setlinewidth
solid
0.667 0.776 0.439 edgecolor
newpath 204 201 moveto
214 203 226 204 236 206 curveto
stroke
0.667 0.776 0.439 edgecolor
newpath 235.701 209.488 moveto
246 207 lineto
236.398 202.522 lineto
closepath fill
1 setlinewidth
solid
0.667 0.776 0.439 edgecolor
newpath 235.701 209.488 moveto
246 207 lineto
236.398 202.522 lineto
closepath stroke
grestore
% Node6
gsave
[ /Rect [ 255 164 305 184 ]
  /Border [ 0 0 0 ]
  /Action << /Subtype /URI /URI ($Pos_8cpp.html#36b67a50cba6dc1789825a3111bee9d2) >>
  /Subtype /Link
/ANN pdfmark
[ /Rect [ 255 164 305 184 ]
  /Border [ 0 0 0 ]
  /Action << /Subtype /URI /URI ($Pos_8cpp.html#36b67a50cba6dc1789825a3111bee9d2) >>
  /Subtype /Link
/ANN pdfmark
1 setlinewidth
0.000 0.000 0.000 nodecolor
newpath 255 163 moveto
255 184 lineto
306 184 lineto
306 163 lineto
closepath stroke
0.000 0.000 0.000 nodecolor
10.00 /FreeSans.ttf set_font
280 170 moveto 35 -0.5 (leePos) alignedtext
grestore
% Node2->Node6
gsave
1 setlinewidth
solid
0.667 0.776 0.439 edgecolor
newpath 204 185 moveto
217 183 232 181 245 179 curveto
stroke
0.667 0.776 0.439 edgecolor
newpath 245.398 182.478 moveto
255 178 lineto
244.701 175.512 lineto
closepath fill
1 setlinewidth
solid
0.667 0.776 0.439 edgecolor
newpath 245.398 182.478 moveto
255 178 lineto
244.701 175.512 lineto
closepath stroke
grestore
% Node5
gsave
[ /Rect [ 379 202 439 222 ]
  /Border [ 0 0 0 ]
  /Action << /Subtype /URI /URI ($comun_8cpp.html#c7bf9e68bbdccea36ce786b806244ea1) >>
  /Subtype /Link
/ANN pdfmark
[ /Rect [ 379 202 439 222 ]
  /Border [ 0 0 0 ]
  /Action << /Subtype /URI /URI ($comun_8cpp.html#c7bf9e68bbdccea36ce786b806244ea1) >>
  /Subtype /Link
/ANN pdfmark
1 setlinewidth
0.000 0.000 0.000 nodecolor
newpath 379 201 moveto
379 222 lineto
439 222 lineto
439 201 lineto
closepath stroke
0.000 0.000 0.000 nodecolor
10.00 /FreeSans.ttf set_font
409 208 moveto 44 -0.5 (lee128b) alignedtext
grestore
% Node4->Node5
gsave
1 setlinewidth
solid
0.667 0.776 0.439 edgecolor
newpath 314 212 moveto
331 212 351 212 369 212 curveto
stroke
0.667 0.776 0.439 edgecolor
newpath 369 215.5 moveto
379 212 lineto
369 208.5 lineto
closepath fill
1 setlinewidth
solid
0.667 0.776 0.439 edgecolor
newpath 369 215.5 moveto
379 212 lineto
369 208.5 lineto
closepath stroke
grestore
% Node5->Node3
gsave
1 setlinewidth
solid
0.667 0.776 0.439 edgecolor
newpath 435 201 moveto
444 197 454 193 462 188 curveto
482 177 504 163 519 152 curveto
stroke
0.667 0.776 0.439 edgecolor
newpath 521.621 154.459 moveto
528 146 lineto
517.738 148.635 lineto
closepath fill
1 setlinewidth
solid
0.667 0.776 0.439 edgecolor
newpath 521.621 154.459 moveto
528 146 lineto
517.738 148.635 lineto
closepath stroke
grestore
% Node6->Node3
gsave
1 setlinewidth
solid
0.667 0.776 0.439 edgecolor
newpath 306 172 moveto
342 170 407 164 462 155 curveto
472 153 483 151 493 148 curveto
stroke
0.667 0.776 0.439 edgecolor
newpath 493.881 151.393 moveto
503 146 lineto
492.508 144.529 lineto
closepath fill
1 setlinewidth
solid
0.667 0.776 0.439 edgecolor
newpath 493.881 151.393 moveto
503 146 lineto
492.508 144.529 lineto
closepath stroke
grestore
% Node7
gsave
[ /Rect [ 356 126 462 146 ]
  /Border [ 0 0 0 ]
  /Action << /Subtype /URI /URI ($Elias_8cpp.html#95ee5a0ffb91f203612d2ce9d063ec36) >>
  /Subtype /Link
/ANN pdfmark
[ /Rect [ 356 126 462 146 ]
  /Border [ 0 0 0 ]
  /Action << /Subtype /URI /URI ($Elias_8cpp.html#95ee5a0ffb91f203612d2ce9d063ec36) >>
  /Subtype /Link
/ANN pdfmark
1 setlinewidth
0.000 0.000 0.000 nodecolor
newpath 356 125 moveto
356 146 lineto
462 146 lineto
462 125 lineto
closepath stroke
0.000 0.000 0.000 nodecolor
10.00 /FreeSans.ttf set_font
409 132 moveto 90 -0.5 (lee_elias_gama2) alignedtext
grestore
% Node6->Node7
gsave
1 setlinewidth
solid
0.667 0.776 0.439 edgecolor
newpath 306 166 moveto
323 161 345 154 365 149 curveto
stroke
0.667 0.776 0.439 edgecolor
newpath 366.427 152.226 moveto
375 146 lineto
364.416 145.521 lineto
closepath fill
1 setlinewidth
solid
0.667 0.776 0.439 edgecolor
newpath 366.427 152.226 moveto
375 146 lineto
364.416 145.521 lineto
closepath stroke
grestore
% Node7->Node3
gsave
1 setlinewidth
solid
0.667 0.776 0.439 edgecolor
newpath 462 136 moveto
471 136 479 136 488 136 curveto
stroke
0.667 0.776 0.439 edgecolor
newpath 488 139.5 moveto
498 136 lineto
488 132.5 lineto
closepath fill
1 setlinewidth
solid
0.667 0.776 0.439 edgecolor
newpath 488 139.5 moveto
498 136 lineto
488 132.5 lineto
closepath stroke
grestore
% Node8->Node3
gsave
1 setlinewidth
solid
0.667 0.776 0.439 edgecolor
newpath 320 94 moveto
357 99 414 107 462 117 curveto
471 118 479 120 488 123 curveto
stroke
0.667 0.776 0.439 edgecolor
newpath 487.508 126.471 moveto
498 125 lineto
488.881 119.607 lineto
closepath fill
1 setlinewidth
solid
0.667 0.776 0.439 edgecolor
newpath 487.508 126.471 moveto
498 125 lineto
488.881 119.607 lineto
closepath stroke
grestore
% Node9
gsave
[ /Rect [ 380 50 438 70 ]
  /Border [ 0 0 0 ]
  /Action << /Subtype /URI /URI ($Doc_8cpp.html#e4bfd9bdedc0dd4fe00bf5f17f8f9e23) >>
  /Subtype /Link
/ANN pdfmark
[ /Rect [ 380 50 438 70 ]
  /Border [ 0 0 0 ]
  /Action << /Subtype /URI /URI ($Doc_8cpp.html#e4bfd9bdedc0dd4fe00bf5f17f8f9e23) >>
  /Subtype /Link
/ANN pdfmark
1 setlinewidth
0.000 0.000 0.000 nodecolor
newpath 380 49 moveto
380 70 lineto
439 70 lineto
439 49 lineto
closepath stroke
0.000 0.000 0.000 nodecolor
10.00 /FreeSans.ttf set_font
409 56 moveto 43 -0.5 (leeDocs) alignedtext
grestore
% Node8->Node9
gsave
1 setlinewidth
solid
0.667 0.776 0.439 edgecolor
newpath 320 80 moveto
336 76 354 72 370 68 curveto
stroke
0.667 0.776 0.439 edgecolor
newpath 370.881 71.3933 moveto
380 66 lineto
369.508 64.5292 lineto
closepath fill
1 setlinewidth
solid
0.667 0.776 0.439 edgecolor
newpath 370.881 71.3933 moveto
380 66 lineto
369.508 64.5292 lineto
closepath stroke
grestore
% Node9->Node3
gsave
1 setlinewidth
solid
0.667 0.776 0.439 edgecolor
newpath 434 70 moveto
443 74 453 79 462 84 curveto
482 95 503 109 518 119 curveto
stroke
0.667 0.776 0.439 edgecolor
newpath 516.738 122.365 moveto
527 125 lineto
520.621 116.541 lineto
closepath fill
1 setlinewidth
solid
0.667 0.776 0.439 edgecolor
newpath 516.738 122.365 moveto
527 125 lineto
520.621 116.541 lineto
closepath stroke
grestore
% Node10->Node3
gsave
1 setlinewidth
solid
0.667 0.776 0.439 edgecolor
newpath 197 23 moveto
260 12 376 0 462 41 curveto
495 57 519 93 532 116 curveto
stroke
0.667 0.776 0.439 edgecolor
newpath 529.084 117.958 moveto
537 125 lineto
535.203 114.559 lineto
closepath fill
1 setlinewidth
solid
0.667 0.776 0.439 edgecolor
newpath 529.084 117.958 moveto
537 125 lineto
535.203 114.559 lineto
closepath stroke
grestore
endpage
showpage
grestore
%%PageTrailer
%%EndPage: 1
%%Trailer
%%Pages: 1
%%BoundingBox: 36 36 630 316
end
restore
%%EOF
