%!PS-Adobe-2.0
%%Creator: Graphviz version 2.12 (Mon Nov 16 18:34:03 UTC 2009)
%%For: (vtamara) Vladimir
%%Title: G
%%Pages: (atend)
%%BoundingBox: (atend)
%%EndComments
save
%%BeginProlog
/DotDict 200 dict def
DotDict begin

/setupLatin1 {
mark
/EncodingVector 256 array def
 EncodingVector 0

ISOLatin1Encoding 0 255 getinterval putinterval
EncodingVector 45 /hyphen put

% Set up ISO Latin 1 character encoding
/starnetISO {
        dup dup findfont dup length dict begin
        { 1 index /FID ne { def }{ pop pop } ifelse
        } forall
        /Encoding EncodingVector def
        currentdict end definefont
} def
/Times-Roman starnetISO def
/Times-Italic starnetISO def
/Times-Bold starnetISO def
/Times-BoldItalic starnetISO def
/Helvetica starnetISO def
/Helvetica-Oblique starnetISO def
/Helvetica-Bold starnetISO def
/Helvetica-BoldOblique starnetISO def
/Courier starnetISO def
/Courier-Oblique starnetISO def
/Courier-Bold starnetISO def
/Courier-BoldOblique starnetISO def
cleartomark
} bind def

%%BeginResource: procset graphviz 0 0
/coord-font-family /Times-Roman def
/default-font-family /Times-Roman def
/coordfont coord-font-family findfont 8 scalefont def

/InvScaleFactor 1.0 def
/set_scale {
       dup 1 exch div /InvScaleFactor exch def
       scale
} bind def

% styles
/solid { [] 0 setdash } bind def
/dashed { [9 InvScaleFactor mul dup ] 0 setdash } bind def
/dotted { [1 InvScaleFactor mul 6 InvScaleFactor mul] 0 setdash } bind def
/invis {/fill {newpath} def /stroke {newpath} def /show {pop newpath} def} bind def
/bold { 2 setlinewidth } bind def
/filled { } bind def
/unfilled { } bind def
/rounded { } bind def
/diagonals { } bind def

% hooks for setting color 
/nodecolor { sethsbcolor } bind def
/edgecolor { sethsbcolor } bind def
/graphcolor { sethsbcolor } bind def
/nopcolor {pop pop pop} bind def

/beginpage {	% i j npages
	/npages exch def
	/j exch def
	/i exch def
	/str 10 string def
	npages 1 gt {
		gsave
			coordfont setfont
			0 0 moveto
			(\() show i str cvs show (,) show j str cvs show (\)) show
		grestore
	} if
} bind def

/set_font {
	findfont exch
	scalefont setfont
} def

% draw aligned label in bounding box aligned to current point
/alignedtext {			% width adj text
	/text exch def
	/adj exch def
	/width exch def
	gsave
		width 0 gt {
			text stringwidth pop adj mul 0 rmoveto
		} if
		[] 0 setdash
		text show
	grestore
} def

/boxprim {				% xcorner ycorner xsize ysize
		4 2 roll
		moveto
		2 copy
		exch 0 rlineto
		0 exch rlineto
		pop neg 0 rlineto
		closepath
} bind def

/ellipse_path {
	/ry exch def
	/rx exch def
	/y exch def
	/x exch def
	matrix currentmatrix
	newpath
	x y translate
	rx ry scale
	0 0 1 0 360 arc
	setmatrix
} bind def

/endpage { showpage } bind def
/showpage { } def

/layercolorseq
	[	% layer color sequence - darkest to lightest
		[0 0 0]
		[.2 .8 .8]
		[.4 .8 .8]
		[.6 .8 .8]
		[.8 .8 .8]
	]
def

/layerlen layercolorseq length def

/setlayer {/maxlayer exch def /curlayer exch def
	layercolorseq curlayer 1 sub layerlen mod get
	aload pop sethsbcolor
	/nodecolor {nopcolor} def
	/edgecolor {nopcolor} def
	/graphcolor {nopcolor} def
} bind def

/onlayer { curlayer ne {invis} if } def

/onlayers {
	/myupper exch def
	/mylower exch def
	curlayer mylower lt
	curlayer myupper gt
	or
	{invis} if
} def

/curlayer 0 def

%%EndResource
%%EndProlog
%%BeginSetup
14 default-font-family set_font
1 setmiterlimit
% /arrowlength 10 def
% /arrowwidth 5 def

% make sure pdfmark is harmless for PS-interpreters other than Distiller
/pdfmark where {pop} {userdict /pdfmark /cleartomark load put} ifelse
% make '<<' and '>>' safe on PS Level 1 devices
/languagelevel where {pop languagelevel}{1} ifelse
2 lt {
    userdict (<<) cvn ([) cvn load put
    userdict (>>) cvn ([) cvn load put
} if

%%EndSetup
setupLatin1
%%Page: 1 1
%%PageBoundingBox: 36 36 1203 518
%%PageOrientation: Portrait
gsave
36 36 1203 518 boxprim clip newpath
0 0 1 beginpage
1 1 set_scale 0 rotate 40 40 translate
% Node1
gsave
0.000 0.000 0.749 nodecolor
newpath 23 207 moveto
23 228 lineto
133 228 lineto
133 207 lineto
closepath fill
1 setlinewidth
filled
0.000 0.000 0.000 nodecolor
newpath 23 207 moveto
23 228 lineto
133 228 lineto
133 207 lineto
closepath stroke
0.000 0.000 0.000 nodecolor
10.00 /FreeSans.ttf set_font
78 214 moveto 94 -0.5 (mezclaDiscoRam) alignedtext
grestore
% Node1->Node1
gsave
1 setlinewidth
solid
0.667 0.776 0.439 edgecolor
newpath 24 228 moveto
0 237 18 246 78 246 curveto
127 246 148 240 141 233 curveto
stroke
0.667 0.776 0.439 edgecolor
newpath 142.441 229.797 moveto
132 228 lineto
139.042 235.916 lineto
closepath fill
1 setlinewidth
solid
0.667 0.776 0.439 edgecolor
newpath 142.441 229.797 moveto
132 228 lineto
139.042 235.916 lineto
closepath stroke
grestore
% Node2
gsave
[ /Rect [ 436 360 500 380 ]
  /Border [ 0 0 0 ]
  /Action << /Subtype /URI /URI ($Pos_8cpp.html#3c3cc0b0ac5ee434c66362380dda8ce8) >>
  /Subtype /Link
/ANN pdfmark
[ /Rect [ 436 360 500 380 ]
  /Border [ 0 0 0 ]
  /Action << /Subtype /URI /URI ($Pos_8cpp.html#3c3cc0b0ac5ee434c66362380dda8ce8) >>
  /Subtype /Link
/ANN pdfmark
1 setlinewidth
0.000 0.000 0.000 nodecolor
newpath 436 359 moveto
436 380 lineto
500 380 lineto
500 359 lineto
closepath stroke
0.000 0.000 0.000 nodecolor
10.00 /FreeSans.ttf set_font
468 366 moveto 48 -0.5 (copiaPos) alignedtext
grestore
% Node1->Node2
gsave
1 setlinewidth
solid
0.667 0.776 0.439 edgecolor
newpath 81 228 moveto
91 254 119 322 169 351 curveto
250 396 365 387 426 378 curveto
stroke
0.667 0.776 0.439 edgecolor
newpath 426.881 381.393 moveto
436 376 lineto
425.508 374.529 lineto
closepath fill
1 setlinewidth
solid
0.667 0.776 0.439 edgecolor
newpath 426.881 381.393 moveto
436 376 lineto
425.508 374.529 lineto
closepath stroke
grestore
% Node3
gsave
[ /Rect [ 192 114 308 134 ]
  /Border [ 0 0 0 ]
  /Action << /Subtype /URI /URI ($TrieSDisco_8cpp.html#4cc0e861f2e192242a40d6337c70fc5f) >>
  /Subtype /Link
/ANN pdfmark
[ /Rect [ 192 114 308 134 ]
  /Border [ 0 0 0 ]
  /Action << /Subtype /URI /URI ($TrieSDisco_8cpp.html#4cc0e861f2e192242a40d6337c70fc5f) >>
  /Subtype /Link
/ANN pdfmark
1 setlinewidth
0.000 0.000 0.000 nodecolor
newpath 192 113 moveto
192 134 lineto
308 134 lineto
308 113 lineto
closepath stroke
0.000 0.000 0.000 nodecolor
10.00 /FreeSans.ttf set_font
250 120 moveto 100 -0.5 (escribeCopiaNodo) alignedtext
grestore
% Node1->Node3
gsave
1 setlinewidth
solid
0.667 0.776 0.439 edgecolor
newpath 88 207 moveto
104 190 136 159 169 143 curveto
174 141 178 139 183 137 curveto
stroke
0.667 0.776 0.439 edgecolor
newpath 184.427 140.226 moveto
193 134 lineto
182.416 133.521 lineto
closepath fill
1 setlinewidth
solid
0.667 0.776 0.439 edgecolor
newpath 184.427 140.226 moveto
193 134 lineto
182.416 133.521 lineto
closepath stroke
grestore
% Node4
gsave
[ /Rect [ 426 208 510 228 ]
  /Border [ 0 0 0 ]
  /Action << /Subtype /URI /URI ($TrieSDisco_8cpp.html#95dfc28ebaa02e82d3d1ffce08251628) >>
  /Subtype /Link
/ANN pdfmark
[ /Rect [ 426 208 510 228 ]
  /Border [ 0 0 0 ]
  /Action << /Subtype /URI /URI ($TrieSDisco_8cpp.html#95dfc28ebaa02e82d3d1ffce08251628) >>
  /Subtype /Link
/ANN pdfmark
1 setlinewidth
0.000 0.000 0.000 nodecolor
newpath 426 207 moveto
426 228 lineto
510 228 lineto
510 207 lineto
closepath stroke
0.000 0.000 0.000 nodecolor
10.00 /FreeSans.ttf set_font
468 214 moveto 68 -0.5 (escribeNodo) alignedtext
grestore
% Node1->Node4
gsave
1 setlinewidth
solid
0.667 0.776 0.439 edgecolor
newpath 133 227 moveto
145 229 157 231 169 232 curveto
241 237 260 235 331 232 curveto
359 230 390 227 416 224 curveto
stroke
0.667 0.776 0.439 edgecolor
newpath 416.398 227.478 moveto
426 223 lineto
415.701 220.512 lineto
closepath fill
1 setlinewidth
solid
0.667 0.776 0.439 edgecolor
newpath 416.398 227.478 moveto
426 223 lineto
415.701 220.512 lineto
closepath stroke
grestore
% Node5
gsave
[ /Rect [ 638 322 728 342 ]
  /Border [ 0 0 0 ]
  /Action << /Subtype /URI /URI ($comun_8hpp.html#96402bda6527bf98dd8e49d62ae182f8) >>
  /Subtype /Link
/ANN pdfmark
[ /Rect [ 638 322 728 342 ]
  /Border [ 0 0 0 ]
  /Action << /Subtype /URI /URI ($comun_8hpp.html#96402bda6527bf98dd8e49d62ae182f8) >>
  /Subtype /Link
/ANN pdfmark
1 setlinewidth
0.000 0.000 0.000 nodecolor
newpath 638 321 moveto
638 342 lineto
728 342 lineto
728 321 lineto
closepath stroke
0.000 0.000 0.000 nodecolor
10.00 /FreeSans.ttf set_font
683 328 moveto 74 -0.5 (escribeNDesp) alignedtext
grestore
% Node1->Node5
gsave
1 setlinewidth
solid
0.667 0.776 0.439 edgecolor
newpath 80 228 moveto
87 258 110 346 169 382 curveto
321 474 396 429 569 389 curveto
603 380 637 362 659 348 curveto
stroke
0.667 0.776 0.439 edgecolor
newpath 661.621 350.459 moveto
668 342 lineto
657.738 344.635 lineto
closepath fill
1 setlinewidth
solid
0.667 0.776 0.439 edgecolor
newpath 661.621 350.459 moveto
668 342 lineto
657.738 344.635 lineto
closepath stroke
grestore
% Node14
gsave
[ /Rect [ 441 62 495 82 ]
  /Border [ 0 0 0 ]
  /Action << /Subtype /URI /URI ($comun_8cpp.html#4a359aa93f2dd4e34badd70c0e1f7082) >>
  /Subtype /Link
/ANN pdfmark
[ /Rect [ 441 62 495 82 ]
  /Border [ 0 0 0 ]
  /Action << /Subtype /URI /URI ($comun_8cpp.html#4a359aa93f2dd4e34badd70c0e1f7082) >>
  /Subtype /Link
/ANN pdfmark
1 setlinewidth
0.000 0.000 0.000 nodecolor
newpath 441 61 moveto
441 82 lineto
496 82 lineto
496 61 lineto
closepath stroke
0.000 0.000 0.000 nodecolor
10.00 /FreeSans.ttf set_font
468 68 moveto 39 -0.5 (leeCad) alignedtext
grestore
% Node1->Node14
gsave
1 setlinewidth
solid
0.667 0.776 0.439 edgecolor
newpath 82 207 moveto
91 180 119 110 169 81 curveto
253 35 372 51 431 63 curveto
stroke
0.667 0.776 0.439 edgecolor
newpath 430.508 66.4708 moveto
441 65 lineto
431.881 59.6067 lineto
closepath fill
1 setlinewidth
solid
0.667 0.776 0.439 edgecolor
newpath 430.508 66.4708 moveto
441 65 lineto
431.881 59.6067 lineto
closepath stroke
grestore
% Node16
gsave
[ /Rect [ 434 156 502 176 ]
  /Border [ 0 0 0 ]
  /Action << /Subtype /URI /URI ($comun_8hpp.html#9871d7357fc245ec5b7a227a9a62eb36) >>
  /Subtype /Link
/ANN pdfmark
[ /Rect [ 434 156 502 176 ]
  /Border [ 0 0 0 ]
  /Action << /Subtype /URI /URI ($comun_8hpp.html#9871d7357fc245ec5b7a227a9a62eb36) >>
  /Subtype /Link
/ANN pdfmark
1 setlinewidth
0.000 0.000 0.000 nodecolor
newpath 434 155 moveto
434 176 lineto
502 176 lineto
502 155 lineto
closepath stroke
0.000 0.000 0.000 nodecolor
10.00 /FreeSans.ttf set_font
468 162 moveto 52 -0.5 (leeNDesp) alignedtext
grestore
% Node1->Node16
gsave
1 setlinewidth
solid
0.667 0.776 0.439 edgecolor
newpath 133 216 moveto
185 214 264 209 331 199 curveto
362 194 397 185 424 178 curveto
stroke
0.667 0.776 0.439 edgecolor
newpath 424.881 181.393 moveto
434 176 lineto
423.508 174.529 lineto
closepath fill
1 setlinewidth
solid
0.667 0.776 0.439 edgecolor
newpath 424.881 181.393 moveto
434 176 lineto
423.508 174.529 lineto
closepath stroke
grestore
% Node18
gsave
[ /Rect [ 443 114 493 134 ]
  /Border [ 0 0 0 ]
  /Action << /Subtype /URI /URI ($Pos_8cpp.html#36b67a50cba6dc1789825a3111bee9d2) >>
  /Subtype /Link
/ANN pdfmark
[ /Rect [ 443 114 493 134 ]
  /Border [ 0 0 0 ]
  /Action << /Subtype /URI /URI ($Pos_8cpp.html#36b67a50cba6dc1789825a3111bee9d2) >>
  /Subtype /Link
/ANN pdfmark
1 setlinewidth
0.000 0.000 0.000 nodecolor
newpath 443 113 moveto
443 134 lineto
494 134 lineto
494 113 lineto
closepath stroke
0.000 0.000 0.000 nodecolor
10.00 /FreeSans.ttf set_font
468 120 moveto 35 -0.5 (leePos) alignedtext
grestore
% Node1->Node18
gsave
1 setlinewidth
solid
0.667 0.776 0.439 edgecolor
newpath 83 207 moveto
94 183 124 127 169 105 curveto
257 63 376 92 433 112 curveto
stroke
0.667 0.776 0.439 edgecolor
newpath 432.416 115.479 moveto
443 115 lineto
434.427 108.774 lineto
closepath fill
1 setlinewidth
solid
0.667 0.776 0.439 edgecolor
newpath 432.416 115.479 moveto
443 115 lineto
434.427 108.774 lineto
closepath stroke
grestore
% Node20
gsave
[ /Rect [ 180 284 320 304 ]
  /Border [ 0 0 0 ]
  /Action << /Subtype /URI /URI ($RamDisco_8cpp.html#2cef55a7d5a3eb177f0d3b5a067f9e17) >>
  /Subtype /Link
/ANN pdfmark
[ /Rect [ 180 284 320 304 ]
  /Border [ 0 0 0 ]
  /Action << /Subtype /URI /URI ($RamDisco_8cpp.html#2cef55a7d5a3eb177f0d3b5a067f9e17) >>
  /Subtype /Link
/ANN pdfmark
1 setlinewidth
0.000 0.000 0.000 nodecolor
newpath 180 283 moveto
180 304 lineto
321 304 lineto
321 283 lineto
closepath stroke
0.000 0.000 0.000 nodecolor
10.00 /FreeSans.ttf set_font
250 290 moveto 125 -0.5 (escribeCopiaNodoRam) alignedtext
grestore
% Node1->Node20
gsave
1 setlinewidth
solid
0.667 0.776 0.439 edgecolor
newpath 94 228 moveto
112 239 142 258 169 270 curveto
178 274 188 277 197 280 curveto
stroke
0.667 0.776 0.439 edgecolor
newpath 196.416 283.479 moveto
207 283 lineto
198.427 276.774 lineto
closepath fill
1 setlinewidth
solid
0.667 0.776 0.439 edgecolor
newpath 196.416 283.479 moveto
207 283 lineto
198.427 276.774 lineto
closepath stroke
grestore
% Node22
gsave
[ /Rect [ 182 152 318 172 ]
  /Border [ 0 0 0 ]
  /Action << /Subtype /URI /URI ($TrieSDisco_8cpp.html#485d02d9d7ec4ae0114122861420c1d1) >>
  /Subtype /Link
/ANN pdfmark
[ /Rect [ 182 152 318 172 ]
  /Border [ 0 0 0 ]
  /Action << /Subtype /URI /URI ($TrieSDisco_8cpp.html#485d02d9d7ec4ae0114122861420c1d1) >>
  /Subtype /Link
/ANN pdfmark
1 setlinewidth
0.000 0.000 0.000 nodecolor
newpath 182 151 moveto
182 172 lineto
318 172 lineto
318 151 lineto
closepath stroke
0.000 0.000 0.000 nodecolor
10.00 /FreeSans.ttf set_font
250 158 moveto 120 -0.5 (escribeCopiaSubarbol) alignedtext
grestore
% Node1->Node22
gsave
1 setlinewidth
solid
0.667 0.776 0.439 edgecolor
newpath 112 207 moveto
140 198 180 185 210 175 curveto
stroke
0.667 0.776 0.439 edgecolor
newpath 211.427 178.226 moveto
220 172 lineto
209.416 171.521 lineto
closepath fill
1 setlinewidth
solid
0.667 0.776 0.439 edgecolor
newpath 211.427 178.226 moveto
220 172 lineto
209.416 171.521 lineto
closepath stroke
grestore
% Node23
gsave
[ /Rect [ 170 322 330 342 ]
  /Border [ 0 0 0 ]
  /Action << /Subtype /URI /URI ($RamDisco_8cpp.html#1d654f71e19a8010c6fec648e8cf9899) >>
  /Subtype /Link
/ANN pdfmark
[ /Rect [ 170 322 330 342 ]
  /Border [ 0 0 0 ]
  /Action << /Subtype /URI /URI ($RamDisco_8cpp.html#1d654f71e19a8010c6fec648e8cf9899) >>
  /Subtype /Link
/ANN pdfmark
1 setlinewidth
0.000 0.000 0.000 nodecolor
newpath 170 321 moveto
170 342 lineto
331 342 lineto
331 321 lineto
closepath stroke
0.000 0.000 0.000 nodecolor
10.00 /FreeSans.ttf set_font
250 328 moveto 145 -0.5 (escribeCopiaSubarbolRam) alignedtext
grestore
% Node1->Node23
gsave
1 setlinewidth
solid
0.667 0.776 0.439 edgecolor
newpath 85 228 moveto
98 248 131 291 169 313 curveto
172 314 175 316 178 317 curveto
stroke
0.667 0.776 0.439 edgecolor
newpath 176.44 320.137 moveto
187 321 lineto
179.283 313.74 lineto
closepath fill
1 setlinewidth
solid
0.667 0.776 0.439 edgecolor
newpath 176.44 320.137 moveto
187 321 lineto
179.283 313.74 lineto
closepath stroke
grestore
% Node24
gsave
[ /Rect [ 173 0 327 20 ]
  /Border [ 0 0 0 ]
  /Action << /Subtype /URI /URI ($comun_8cpp.html#c74356d5b37d454e0ddce0de8fac34f8) >>
  /Subtype /Link
/ANN pdfmark
[ /Rect [ 173 0 327 20 ]
  /Border [ 0 0 0 ]
  /Action << /Subtype /URI /URI ($comun_8cpp.html#c74356d5b37d454e0ddce0de8fac34f8) >>
  /Subtype /Link
/ANN pdfmark
1 setlinewidth
0.000 0.000 0.000 nodecolor
newpath 173 -1 moveto
173 20 lineto
328 20 lineto
328 -1 lineto
closepath stroke
0.000 0.000 0.000 nodecolor
10.00 /FreeSans.ttf set_font
250 6 moveto 139 -0.5 (prefijo_comun_mas_largo) alignedtext
grestore
% Node1->Node24
gsave
1 setlinewidth
solid
0.667 0.776 0.439 edgecolor
newpath 80 207 moveto
88 174 113 82 169 34 curveto
173 30 179 27 184 24 curveto
stroke
0.667 0.776 0.439 edgecolor
newpath 186.015 26.9636 moveto
194 20 lineto
183.415 20.4643 lineto
closepath fill
1 setlinewidth
solid
0.667 0.776 0.439 edgecolor
newpath 186.015 26.9636 moveto
194 20 lineto
183.415 20.4643 lineto
closepath stroke
grestore
% Node3->Node4
gsave
1 setlinewidth
solid
0.667 0.776 0.439 edgecolor
newpath 308 133 moveto
316 135 324 139 331 143 curveto
353 155 347 171 367 185 curveto
382 195 400 201 416 206 curveto
stroke
0.667 0.776 0.439 edgecolor
newpath 415.416 209.479 moveto
426 209 lineto
417.427 202.774 lineto
closepath fill
1 setlinewidth
solid
0.667 0.776 0.439 edgecolor
newpath 415.416 209.479 moveto
426 209 lineto
417.427 202.774 lineto
closepath stroke
grestore
% Node3->Node14
gsave
1 setlinewidth
solid
0.667 0.776 0.439 edgecolor
newpath 296 113 moveto
336 104 394 90 431 80 curveto
stroke
0.667 0.776 0.439 edgecolor
newpath 431.881 83.3933 moveto
441 78 lineto
430.508 76.5292 lineto
closepath fill
1 setlinewidth
solid
0.667 0.776 0.439 edgecolor
newpath 431.881 83.3933 moveto
441 78 lineto
430.508 76.5292 lineto
closepath stroke
grestore
% Node3->Node16
gsave
1 setlinewidth
solid
0.667 0.776 0.439 edgecolor
newpath 302 134 moveto
338 141 388 150 424 157 curveto
stroke
0.667 0.776 0.439 edgecolor
newpath 423.508 160.471 moveto
434 159 lineto
424.881 153.607 lineto
closepath fill
1 setlinewidth
solid
0.667 0.776 0.439 edgecolor
newpath 423.508 160.471 moveto
434 159 lineto
424.881 153.607 lineto
closepath stroke
grestore
% Node3->Node18
gsave
1 setlinewidth
solid
0.667 0.776 0.439 edgecolor
newpath 308 124 moveto
348 124 399 124 433 124 curveto
stroke
0.667 0.776 0.439 edgecolor
newpath 433 127.5 moveto
443 124 lineto
433 120.5 lineto
closepath fill
1 setlinewidth
solid
0.667 0.776 0.439 edgecolor
newpath 433 127.5 moveto
443 124 lineto
433 120.5 lineto
closepath stroke
grestore
% Node4->Node5
gsave
1 setlinewidth
solid
0.667 0.776 0.439 edgecolor
newpath 510 221 moveto
529 224 552 230 569 242 curveto
593 257 584 275 605 294 curveto
616 304 630 311 643 317 curveto
stroke
0.667 0.776 0.439 edgecolor
newpath 641.44 320.137 moveto
652 321 lineto
644.283 313.74 lineto
closepath fill
1 setlinewidth
solid
0.667 0.776 0.439 edgecolor
newpath 641.44 320.137 moveto
652 321 lineto
644.283 313.74 lineto
closepath stroke
grestore
% Node7
gsave
[ /Rect [ 647 208 719 228 ]
  /Border [ 0 0 0 ]
  /Action << /Subtype /URI /URI ($Pos_8cpp.html#42c2daaa880eeb397c024b6ffa22c8cf) >>
  /Subtype /Link
/ANN pdfmark
[ /Rect [ 647 208 719 228 ]
  /Border [ 0 0 0 ]
  /Action << /Subtype /URI /URI ($Pos_8cpp.html#42c2daaa880eeb397c024b6ffa22c8cf) >>
  /Subtype /Link
/ANN pdfmark
1 setlinewidth
0.000 0.000 0.000 nodecolor
newpath 647 207 moveto
647 228 lineto
720 228 lineto
720 207 lineto
closepath stroke
0.000 0.000 0.000 nodecolor
10.00 /FreeSans.ttf set_font
683 214 moveto 57 -0.5 (escribePos) alignedtext
grestore
% Node4->Node7
gsave
1 setlinewidth
solid
0.667 0.776 0.439 edgecolor
newpath 510 218 moveto
547 218 599 218 637 218 curveto
stroke
0.667 0.776 0.439 edgecolor
newpath 637 221.5 moveto
647 218 lineto
637 214.5 lineto
closepath fill
1 setlinewidth
solid
0.667 0.776 0.439 edgecolor
newpath 637 221.5 moveto
647 218 lineto
637 214.5 lineto
closepath stroke
grestore
% Node10
gsave
[ /Rect [ 605 265 761 285 ]
  /Border [ 0 0 0 ]
  /Action << /Subtype /URI /URI ($TrieSDisco_8cpp.html#453b277936104f13edb4f8158e015eba) >>
  /Subtype /Link
/ANN pdfmark
[ /Rect [ 605 265 761 285 ]
  /Border [ 0 0 0 ]
  /Action << /Subtype /URI /URI ($TrieSDisco_8cpp.html#453b277936104f13edb4f8158e015eba) >>
  /Subtype /Link
/ANN pdfmark
1 setlinewidth
0.000 0.000 0.000 nodecolor
newpath 605 264 moveto
605 285 lineto
761 285 lineto
761 264 lineto
closepath stroke
0.000 0.000 0.000 nodecolor
10.00 /FreeSans.ttf set_font
683 271 moveto 140 -0.5 (precalcula_escribe_actual) alignedtext
grestore
% Node4->Node10
gsave
1 setlinewidth
solid
0.667 0.776 0.439 edgecolor
newpath 510 227 moveto
528 232 550 237 569 242 curveto
592 248 617 255 638 261 curveto
stroke
0.667 0.776 0.439 edgecolor
newpath 637.416 264.479 moveto
648 264 lineto
639.427 257.774 lineto
closepath fill
1 setlinewidth
solid
0.667 0.776 0.439 edgecolor
newpath 637.416 264.479 moveto
648 264 lineto
639.427 257.774 lineto
closepath stroke
grestore
% Node6
gsave
[ /Rect [ 800 322 882 342 ]
  /Border [ 0 0 0 ]
  /Action << /Subtype /URI /URI ($comun_8cpp.html#b5388a972300b0a3d2e70c16097a3781) >>
  /Subtype /Link
/ANN pdfmark
[ /Rect [ 800 322 882 342 ]
  /Border [ 0 0 0 ]
  /Action << /Subtype /URI /URI ($comun_8cpp.html#b5388a972300b0a3d2e70c16097a3781) >>
  /Subtype /Link
/ANN pdfmark
1 setlinewidth
0.000 0.000 0.000 nodecolor
newpath 800 321 moveto
800 342 lineto
882 342 lineto
882 321 lineto
closepath stroke
0.000 0.000 0.000 nodecolor
10.00 /FreeSans.ttf set_font
841 328 moveto 66 -0.5 (escribe128b) alignedtext
grestore
% Node5->Node6
gsave
1 setlinewidth
solid
0.667 0.776 0.439 edgecolor
newpath 728 332 moveto
748 332 770 332 790 332 curveto
stroke
0.667 0.776 0.439 edgecolor
newpath 790 335.5 moveto
800 332 lineto
790 328.5 lineto
closepath fill
1 setlinewidth
solid
0.667 0.776 0.439 edgecolor
newpath 790 335.5 moveto
800 332 lineto
790 328.5 lineto
closepath stroke
grestore
% Node8
gsave
[ /Rect [ 921 208 1049 228 ]
  /Border [ 0 0 0 ]
  /Action << /Subtype /URI /URI ($Elias_8cpp.html#59732ce42a1e75fbbb382a6964ef4620) >>
  /Subtype /Link
/ANN pdfmark
[ /Rect [ 921 208 1049 228 ]
  /Border [ 0 0 0 ]
  /Action << /Subtype /URI /URI ($Elias_8cpp.html#59732ce42a1e75fbbb382a6964ef4620) >>
  /Subtype /Link
/ANN pdfmark
1 setlinewidth
0.000 0.000 0.000 nodecolor
newpath 921 207 moveto
921 228 lineto
1049 228 lineto
1049 207 lineto
closepath stroke
0.000 0.000 0.000 nodecolor
10.00 /FreeSans.ttf set_font
985 214 moveto 112 -0.5 (escribe_elias_gama2) alignedtext
grestore
% Node7->Node8
gsave
1 setlinewidth
solid
0.667 0.776 0.439 edgecolor
newpath 720 218 moveto
767 218 850 218 911 218 curveto
stroke
0.667 0.776 0.439 edgecolor
newpath 911 221.5 moveto
921 218 lineto
911 214.5 lineto
closepath fill
1 setlinewidth
solid
0.667 0.776 0.439 edgecolor
newpath 911 221.5 moveto
921 218 lineto
911 214.5 lineto
closepath stroke
grestore
% Node9
gsave
[ /Rect [ 1086 227 1158 247 ]
  /Border [ 0 0 0 ]
  /Action << /Subtype /URI /URI ($Elias_8cpp.html#7127ec8dff13cc2ad873693ca8933d38) >>
  /Subtype /Link
/ANN pdfmark
[ /Rect [ 1086 227 1158 247 ]
  /Border [ 0 0 0 ]
  /Action << /Subtype /URI /URI ($Elias_8cpp.html#7127ec8dff13cc2ad873693ca8933d38) >>
  /Subtype /Link
/ANN pdfmark
1 setlinewidth
0.000 0.000 0.000 nodecolor
newpath 1086 226 moveto
1086 247 lineto
1159 247 lineto
1159 226 lineto
closepath stroke
0.000 0.000 0.000 nodecolor
10.00 /FreeSans.ttf set_font
1122 233 moveto 57 -0.5 (piso_logb2) alignedtext
grestore
% Node8->Node9
gsave
1 setlinewidth
solid
0.667 0.776 0.439 edgecolor
newpath 1049 227 moveto
1058 228 1067 230 1076 231 curveto
stroke
0.667 0.776 0.439 edgecolor
newpath 1075.7 234.488 moveto
1086 232 lineto
1076.4 227.522 lineto
closepath fill
1 setlinewidth
solid
0.667 0.776 0.439 edgecolor
newpath 1075.7 234.488 moveto
1086 232 lineto
1076.4 227.522 lineto
closepath stroke
grestore
% Node11
gsave
[ /Rect [ 804 284 878 304 ]
  /Border [ 0 0 0 ]
  /Action << /Subtype /URI /URI ($comun_8hpp.html#3f1f97c70ac3ffba1584b0fc02661cab) >>
  /Subtype /Link
/ANN pdfmark
[ /Rect [ 804 284 878 304 ]
  /Border [ 0 0 0 ]
  /Action << /Subtype /URI /URI ($comun_8hpp.html#3f1f97c70ac3ffba1584b0fc02661cab) >>
  /Subtype /Link
/ANN pdfmark
1 setlinewidth
0.000 0.000 0.000 nodecolor
newpath 804 283 moveto
804 304 lineto
879 304 lineto
879 283 lineto
closepath stroke
0.000 0.000 0.000 nodecolor
10.00 /FreeSans.ttf set_font
841 290 moveto 59 -0.5 (longNDesp) alignedtext
grestore
% Node10->Node11
gsave
1 setlinewidth
solid
0.667 0.776 0.439 edgecolor
newpath 761 284 moveto
772 286 783 287 794 288 curveto
stroke
0.667 0.776 0.439 edgecolor
newpath 793.701 291.488 moveto
804 289 lineto
794.398 284.522 lineto
closepath fill
1 setlinewidth
solid
0.667 0.776 0.439 edgecolor
newpath 793.701 291.488 moveto
804 289 lineto
794.398 284.522 lineto
closepath stroke
grestore
% Node12
gsave
[ /Rect [ 812 246 870 266 ]
  /Border [ 0 0 0 ]
  /Action << /Subtype /URI /URI ($Pos_8cpp.html#ad8740377e9e19836d654491a170ac9a) >>
  /Subtype /Link
/ANN pdfmark
[ /Rect [ 812 246 870 266 ]
  /Border [ 0 0 0 ]
  /Action << /Subtype /URI /URI ($Pos_8cpp.html#ad8740377e9e19836d654491a170ac9a) >>
  /Subtype /Link
/ANN pdfmark
1 setlinewidth
0.000 0.000 0.000 nodecolor
newpath 812 245 moveto
812 266 lineto
870 266 lineto
870 245 lineto
closepath stroke
0.000 0.000 0.000 nodecolor
10.00 /FreeSans.ttf set_font
841 252 moveto 42 -0.5 (longPos) alignedtext
grestore
% Node10->Node12
gsave
1 setlinewidth
solid
0.667 0.776 0.439 edgecolor
newpath 761 266 moveto
775 264 789 262 802 261 curveto
stroke
0.667 0.776 0.439 edgecolor
newpath 802.398 264.478 moveto
812 260 lineto
801.701 257.512 lineto
closepath fill
1 setlinewidth
solid
0.667 0.776 0.439 edgecolor
newpath 802.398 264.478 moveto
812 260 lineto
801.701 257.512 lineto
closepath stroke
grestore
% Node13
gsave
[ /Rect [ 932 246 1038 266 ]
  /Border [ 0 0 0 ]
  /Action << /Subtype /URI /URI ($Elias_8cpp.html#214c4fd6adcbe1fe7de47c4ba521198a) >>
  /Subtype /Link
/ANN pdfmark
[ /Rect [ 932 246 1038 266 ]
  /Border [ 0 0 0 ]
  /Action << /Subtype /URI /URI ($Elias_8cpp.html#214c4fd6adcbe1fe7de47c4ba521198a) >>
  /Subtype /Link
/ANN pdfmark
1 setlinewidth
0.000 0.000 0.000 nodecolor
newpath 932 245 moveto
932 266 lineto
1039 266 lineto
1039 245 lineto
closepath stroke
0.000 0.000 0.000 nodecolor
10.00 /FreeSans.ttf set_font
985 252 moveto 91 -0.5 (long_elias_gama) alignedtext
grestore
% Node12->Node13
gsave
1 setlinewidth
solid
0.667 0.776 0.439 edgecolor
newpath 870 256 moveto
885 256 904 256 922 256 curveto
stroke
0.667 0.776 0.439 edgecolor
newpath 922 259.5 moveto
932 256 lineto
922 252.5 lineto
closepath fill
1 setlinewidth
solid
0.667 0.776 0.439 edgecolor
newpath 922 259.5 moveto
932 256 lineto
922 252.5 lineto
closepath stroke
grestore
% Node13->Node9
gsave
1 setlinewidth
solid
0.667 0.776 0.439 edgecolor
newpath 1039 248 moveto
1051 246 1064 245 1076 243 curveto
stroke
0.667 0.776 0.439 edgecolor
newpath 1076.4 246.478 moveto
1086 242 lineto
1075.7 239.512 lineto
closepath fill
1 setlinewidth
solid
0.667 0.776 0.439 edgecolor
newpath 1076.4 246.478 moveto
1086 242 lineto
1075.7 239.512 lineto
closepath stroke
grestore
% Node15
gsave
[ /Rect [ 797 104 885 124 ]
  /Border [ 0 0 0 ]
  /Action << /Subtype /URI /URI ($comun_8cpp.html#88ffeb20e447cad877c37bb473033590) >>
  /Subtype /Link
/ANN pdfmark
[ /Rect [ 797 104 885 124 ]
  /Border [ 0 0 0 ]
  /Action << /Subtype /URI /URI ($comun_8cpp.html#88ffeb20e447cad877c37bb473033590) >>
  /Subtype /Link
/ANN pdfmark
1 setlinewidth
0.000 0.000 0.000 nodecolor
newpath 797 103 moveto
797 124 lineto
885 124 lineto
885 103 lineto
closepath stroke
0.000 0.000 0.000 nodecolor
10.00 /FreeSans.ttf set_font
841 110 moveto 72 -0.5 (errorFormato) alignedtext
grestore
% Node14->Node15
gsave
1 setlinewidth
solid
0.667 0.776 0.439 edgecolor
newpath 496 75 moveto
558 82 706 99 787 108 curveto
stroke
0.667 0.776 0.439 edgecolor
newpath 786.701 111.488 moveto
797 109 lineto
787.398 104.522 lineto
closepath fill
1 setlinewidth
solid
0.667 0.776 0.439 edgecolor
newpath 786.701 111.488 moveto
797 109 lineto
787.398 104.522 lineto
closepath stroke
grestore
% Node17
gsave
[ /Rect [ 653 161 713 181 ]
  /Border [ 0 0 0 ]
  /Action << /Subtype /URI /URI ($comun_8cpp.html#c7bf9e68bbdccea36ce786b806244ea1) >>
  /Subtype /Link
/ANN pdfmark
[ /Rect [ 653 161 713 181 ]
  /Border [ 0 0 0 ]
  /Action << /Subtype /URI /URI ($comun_8cpp.html#c7bf9e68bbdccea36ce786b806244ea1) >>
  /Subtype /Link
/ANN pdfmark
1 setlinewidth
0.000 0.000 0.000 nodecolor
newpath 653 160 moveto
653 181 lineto
713 181 lineto
713 160 lineto
closepath stroke
0.000 0.000 0.000 nodecolor
10.00 /FreeSans.ttf set_font
683 167 moveto 44 -0.5 (lee128b) alignedtext
grestore
% Node16->Node17
gsave
1 setlinewidth
solid
0.667 0.776 0.439 edgecolor
newpath 502 167 moveto
541 168 602 169 643 170 curveto
stroke
0.667 0.776 0.439 edgecolor
newpath 643 173.5 moveto
653 170 lineto
643 166.5 lineto
closepath fill
1 setlinewidth
solid
0.667 0.776 0.439 edgecolor
newpath 643 173.5 moveto
653 170 lineto
643 166.5 lineto
closepath stroke
grestore
% Node17->Node15
gsave
1 setlinewidth
solid
0.667 0.776 0.439 edgecolor
newpath 713 165 moveto
728 162 746 157 761 152 curveto
779 145 798 136 814 129 curveto
stroke
0.667 0.776 0.439 edgecolor
newpath 815.958 131.916 moveto
823 124 lineto
812.559 125.797 lineto
closepath fill
1 setlinewidth
solid
0.667 0.776 0.439 edgecolor
newpath 815.958 131.916 moveto
823 124 lineto
812.559 125.797 lineto
closepath stroke
grestore
% Node18->Node15
gsave
1 setlinewidth
solid
0.667 0.776 0.439 edgecolor
newpath 494 122 moveto
522 119 566 116 605 114 curveto
667 112 739 113 787 113 curveto
stroke
0.667 0.776 0.439 edgecolor
newpath 787 116.5 moveto
797 113 lineto
787 109.5 lineto
closepath fill
1 setlinewidth
solid
0.667 0.776 0.439 edgecolor
newpath 787 116.5 moveto
797 113 lineto
787 109.5 lineto
closepath stroke
grestore
% Node19
gsave
[ /Rect [ 630 123 736 143 ]
  /Border [ 0 0 0 ]
  /Action << /Subtype /URI /URI ($Elias_8cpp.html#95ee5a0ffb91f203612d2ce9d063ec36) >>
  /Subtype /Link
/ANN pdfmark
[ /Rect [ 630 123 736 143 ]
  /Border [ 0 0 0 ]
  /Action << /Subtype /URI /URI ($Elias_8cpp.html#95ee5a0ffb91f203612d2ce9d063ec36) >>
  /Subtype /Link
/ANN pdfmark
1 setlinewidth
0.000 0.000 0.000 nodecolor
newpath 630 122 moveto
630 143 lineto
736 143 lineto
736 122 lineto
closepath stroke
0.000 0.000 0.000 nodecolor
10.00 /FreeSans.ttf set_font
683 129 moveto 90 -0.5 (lee_elias_gama2) alignedtext
grestore
% Node18->Node19
gsave
1 setlinewidth
solid
0.667 0.776 0.439 edgecolor
newpath 494 125 moveto
525 127 578 129 620 131 curveto
stroke
0.667 0.776 0.439 edgecolor
newpath 620 134.5 moveto
630 131 lineto
620 127.5 lineto
closepath fill
1 setlinewidth
solid
0.667 0.776 0.439 edgecolor
newpath 620 134.5 moveto
630 131 lineto
620 127.5 lineto
closepath stroke
grestore
% Node19->Node15
gsave
1 setlinewidth
solid
0.667 0.776 0.439 edgecolor
newpath 736 127 moveto
753 125 770 123 787 120 curveto
stroke
0.667 0.776 0.439 edgecolor
newpath 787.398 123.478 moveto
797 119 lineto
786.701 116.512 lineto
closepath fill
1 setlinewidth
solid
0.667 0.776 0.439 edgecolor
newpath 787.398 123.478 moveto
797 119 lineto
786.701 116.512 lineto
closepath stroke
grestore
% Node20->Node2
gsave
1 setlinewidth
solid
0.667 0.776 0.439 edgecolor
newpath 300 304 moveto
310 307 321 310 331 313 curveto
368 325 408 342 436 355 curveto
stroke
0.667 0.776 0.439 edgecolor
newpath 434.44 358.137 moveto
445 359 lineto
437.283 351.74 lineto
closepath fill
1 setlinewidth
solid
0.667 0.776 0.439 edgecolor
newpath 434.44 358.137 moveto
445 359 lineto
437.283 351.74 lineto
closepath stroke
grestore
% Node20->Node4
gsave
1 setlinewidth
solid
0.667 0.776 0.439 edgecolor
newpath 290 283 moveto
303 279 318 275 331 270 curveto
367 258 406 243 434 232 curveto
stroke
0.667 0.776 0.439 edgecolor
newpath 435.283 235.26 moveto
443 228 lineto
432.44 228.863 lineto
closepath fill
1 setlinewidth
solid
0.667 0.776 0.439 edgecolor
newpath 435.283 235.26 moveto
443 228 lineto
432.44 228.863 lineto
closepath stroke
grestore
% Node21
gsave
[ /Rect [ 367 284 569 304 ]
  /Border [ 0 0 0 ]
  /Action << /Subtype /URI /URI ($RamDisco_8cpp.html#5b79fc3f073aeb2481fb1d51274a52a6) >>
  /Subtype /Link
/ANN pdfmark
[ /Rect [ 367 284 569 304 ]
  /Border [ 0 0 0 ]
  /Action << /Subtype /URI /URI ($RamDisco_8cpp.html#5b79fc3f073aeb2481fb1d51274a52a6) >>
  /Subtype /Link
/ANN pdfmark
1 setlinewidth
0.000 0.000 0.000 nodecolor
newpath 367 283 moveto
367 304 lineto
569 304 lineto
569 283 lineto
closepath stroke
0.000 0.000 0.000 nodecolor
10.00 /FreeSans.ttf set_font
468 290 moveto 186 -0.5 (precalcula_escribe_con_hermanos) alignedtext
grestore
% Node20->Node21
gsave
1 setlinewidth
solid
0.667 0.776 0.439 edgecolor
newpath 321 294 moveto
333 294 345 294 357 294 curveto
stroke
0.667 0.776 0.439 edgecolor
newpath 357 297.5 moveto
367 294 lineto
357 290.5 lineto
closepath fill
1 setlinewidth
solid
0.667 0.776 0.439 edgecolor
newpath 357 297.5 moveto
367 294 lineto
357 290.5 lineto
closepath stroke
grestore
% Node21->Node10
gsave
1 setlinewidth
solid
0.667 0.776 0.439 edgecolor
newpath 569 285 moveto
578 284 586 284 595 283 curveto
stroke
0.667 0.776 0.439 edgecolor
newpath 595.398 286.478 moveto
605 282 lineto
594.701 279.512 lineto
closepath fill
1 setlinewidth
solid
0.667 0.776 0.439 edgecolor
newpath 595.398 286.478 moveto
605 282 lineto
594.701 279.512 lineto
closepath stroke
grestore
% Node22->Node4
gsave
1 setlinewidth
solid
0.667 0.776 0.439 edgecolor
newpath 289 172 moveto
325 181 377 195 416 205 curveto
stroke
0.667 0.776 0.439 edgecolor
newpath 415.508 208.471 moveto
426 207 lineto
416.881 201.607 lineto
closepath fill
1 setlinewidth
solid
0.667 0.776 0.439 edgecolor
newpath 415.508 208.471 moveto
426 207 lineto
416.881 201.607 lineto
closepath stroke
grestore
% Node22->Node5
gsave
1 setlinewidth
solid
0.667 0.776 0.439 edgecolor
newpath 262 172 moveto
283 188 326 220 367 237 curveto
452 270 483 244 569 275 curveto
587 280 589 285 605 294 curveto
620 301 637 309 651 316 curveto
stroke
0.667 0.776 0.439 edgecolor
newpath 649.559 319.203 moveto
660 321 lineto
652.958 313.084 lineto
closepath fill
1 setlinewidth
solid
0.667 0.776 0.439 edgecolor
newpath 649.559 319.203 moveto
660 321 lineto
652.958 313.084 lineto
closepath stroke
grestore
% Node22->Node14
gsave
1 setlinewidth
solid
0.667 0.776 0.439 edgecolor
newpath 313 151 moveto
319 149 325 146 331 143 curveto
352 132 348 118 367 105 curveto
387 93 411 85 431 79 curveto
stroke
0.667 0.776 0.439 edgecolor
newpath 431.881 82.3933 moveto
441 77 lineto
430.508 75.5292 lineto
closepath fill
1 setlinewidth
solid
0.667 0.776 0.439 edgecolor
newpath 431.881 82.3933 moveto
441 77 lineto
430.508 75.5292 lineto
closepath stroke
grestore
% Node22->Node16
gsave
1 setlinewidth
solid
0.667 0.776 0.439 edgecolor
newpath 318 163 moveto
352 164 393 165 424 165 curveto
stroke
0.667 0.776 0.439 edgecolor
newpath 424 168.5 moveto
434 165 lineto
424 161.5 lineto
closepath fill
1 setlinewidth
solid
0.667 0.776 0.439 edgecolor
newpath 424 168.5 moveto
434 165 lineto
424 161.5 lineto
closepath stroke
grestore
% Node22->Node18
gsave
1 setlinewidth
solid
0.667 0.776 0.439 edgecolor
newpath 313 151 moveto
353 145 401 136 433 130 curveto
stroke
0.667 0.776 0.439 edgecolor
newpath 433.881 133.393 moveto
443 128 lineto
432.508 126.529 lineto
closepath fill
1 setlinewidth
solid
0.667 0.776 0.439 edgecolor
newpath 433.881 133.393 moveto
443 128 lineto
432.508 126.529 lineto
closepath stroke
grestore
% Node22->Node22
gsave
1 setlinewidth
solid
0.667 0.776 0.439 edgecolor
newpath 196 172 moveto
172 181 190 190 250 190 curveto
299 190 320 184 313 177 curveto
stroke
0.667 0.776 0.439 edgecolor
newpath 314.441 173.797 moveto
304 172 lineto
311.042 179.916 lineto
closepath fill
1 setlinewidth
solid
0.667 0.776 0.439 edgecolor
newpath 314.441 173.797 moveto
304 172 lineto
311.042 179.916 lineto
closepath stroke
grestore
% Node23->Node2
gsave
1 setlinewidth
solid
0.667 0.776 0.439 edgecolor
newpath 308 342 moveto
345 348 392 356 426 362 curveto
stroke
0.667 0.776 0.439 edgecolor
newpath 425.508 365.471 moveto
436 364 lineto
426.881 358.607 lineto
closepath fill
1 setlinewidth
solid
0.667 0.776 0.439 edgecolor
newpath 425.508 365.471 moveto
436 364 lineto
426.881 358.607 lineto
closepath stroke
grestore
% Node23->Node4
gsave
1 setlinewidth
solid
0.667 0.776 0.439 edgecolor
newpath 313 321 moveto
319 319 325 316 331 313 curveto
352 301 349 289 367 275 curveto
389 258 416 243 437 232 curveto
stroke
0.667 0.776 0.439 edgecolor
newpath 438.283 235.26 moveto
446 228 lineto
435.44 228.863 lineto
closepath fill
1 setlinewidth
solid
0.667 0.776 0.439 edgecolor
newpath 438.283 235.26 moveto
446 228 lineto
435.44 228.863 lineto
closepath stroke
grestore
% Node23->Node5
gsave
1 setlinewidth
solid
0.667 0.776 0.439 edgecolor
newpath 331 332 moveto
418 332 552 332 628 332 curveto
stroke
0.667 0.776 0.439 edgecolor
newpath 628 335.5 moveto
638 332 lineto
628 328.5 lineto
closepath fill
1 setlinewidth
solid
0.667 0.776 0.439 edgecolor
newpath 628 335.5 moveto
638 332 lineto
628 328.5 lineto
closepath stroke
grestore
endpage
showpage
grestore
%%PageTrailer
%%EndPage: 1
%%Trailer
%%Pages: 1
%%BoundingBox: 36 36 1203 518
end
restore
%%EOF
