%!PS-Adobe-2.0
%%Creator: Graphviz version 2.12 (Mon Nov 16 18:34:03 UTC 2009)
%%For: (vtamara) Vladimir
%%Title: G
%%Pages: (atend)
%%BoundingBox: (atend)
%%EndComments
save
%%BeginProlog
/DotDict 200 dict def
DotDict begin

/setupLatin1 {
mark
/EncodingVector 256 array def
 EncodingVector 0

ISOLatin1Encoding 0 255 getinterval putinterval
EncodingVector 45 /hyphen put

% Set up ISO Latin 1 character encoding
/starnetISO {
        dup dup findfont dup length dict begin
        { 1 index /FID ne { def }{ pop pop } ifelse
        } forall
        /Encoding EncodingVector def
        currentdict end definefont
} def
/Times-Roman starnetISO def
/Times-Italic starnetISO def
/Times-Bold starnetISO def
/Times-BoldItalic starnetISO def
/Helvetica starnetISO def
/Helvetica-Oblique starnetISO def
/Helvetica-Bold starnetISO def
/Helvetica-BoldOblique starnetISO def
/Courier starnetISO def
/Courier-Oblique starnetISO def
/Courier-Bold starnetISO def
/Courier-BoldOblique starnetISO def
cleartomark
} bind def

%%BeginResource: procset graphviz 0 0
/coord-font-family /Times-Roman def
/default-font-family /Times-Roman def
/coordfont coord-font-family findfont 8 scalefont def

/InvScaleFactor 1.0 def
/set_scale {
       dup 1 exch div /InvScaleFactor exch def
       scale
} bind def

% styles
/solid { [] 0 setdash } bind def
/dashed { [9 InvScaleFactor mul dup ] 0 setdash } bind def
/dotted { [1 InvScaleFactor mul 6 InvScaleFactor mul] 0 setdash } bind def
/invis {/fill {newpath} def /stroke {newpath} def /show {pop newpath} def} bind def
/bold { 2 setlinewidth } bind def
/filled { } bind def
/unfilled { } bind def
/rounded { } bind def
/diagonals { } bind def

% hooks for setting color 
/nodecolor { sethsbcolor } bind def
/edgecolor { sethsbcolor } bind def
/graphcolor { sethsbcolor } bind def
/nopcolor {pop pop pop} bind def

/beginpage {	% i j npages
	/npages exch def
	/j exch def
	/i exch def
	/str 10 string def
	npages 1 gt {
		gsave
			coordfont setfont
			0 0 moveto
			(\() show i str cvs show (,) show j str cvs show (\)) show
		grestore
	} if
} bind def

/set_font {
	findfont exch
	scalefont setfont
} def

% draw aligned label in bounding box aligned to current point
/alignedtext {			% width adj text
	/text exch def
	/adj exch def
	/width exch def
	gsave
		width 0 gt {
			text stringwidth pop adj mul 0 rmoveto
		} if
		[] 0 setdash
		text show
	grestore
} def

/boxprim {				% xcorner ycorner xsize ysize
		4 2 roll
		moveto
		2 copy
		exch 0 rlineto
		0 exch rlineto
		pop neg 0 rlineto
		closepath
} bind def

/ellipse_path {
	/ry exch def
	/rx exch def
	/y exch def
	/x exch def
	matrix currentmatrix
	newpath
	x y translate
	rx ry scale
	0 0 1 0 360 arc
	setmatrix
} bind def

/endpage { showpage } bind def
/showpage { } def

/layercolorseq
	[	% layer color sequence - darkest to lightest
		[0 0 0]
		[.2 .8 .8]
		[.4 .8 .8]
		[.6 .8 .8]
		[.8 .8 .8]
	]
def

/layerlen layercolorseq length def

/setlayer {/maxlayer exch def /curlayer exch def
	layercolorseq curlayer 1 sub layerlen mod get
	aload pop sethsbcolor
	/nodecolor {nopcolor} def
	/edgecolor {nopcolor} def
	/graphcolor {nopcolor} def
} bind def

/onlayer { curlayer ne {invis} if } def

/onlayers {
	/myupper exch def
	/mylower exch def
	curlayer mylower lt
	curlayer myupper gt
	or
	{invis} if
} def

/curlayer 0 def

%%EndResource
%%EndProlog
%%BeginSetup
14 default-font-family set_font
1 setmiterlimit
% /arrowlength 10 def
% /arrowwidth 5 def

% make sure pdfmark is harmless for PS-interpreters other than Distiller
/pdfmark where {pop} {userdict /pdfmark /cleartomark load put} ifelse
% make '<<' and '>>' safe on PS Level 1 devices
/languagelevel where {pop languagelevel}{1} ifelse
2 lt {
    userdict (<<) cvn ([) cvn load put
    userdict (>>) cvn ([) cvn load put
} if

%%EndSetup
setupLatin1
%%Page: 1 1
%%PageBoundingBox: 36 36 871 414
%%PageOrientation: Portrait
gsave
36 36 871 414 boxprim clip newpath
0 0 1 beginpage
1 1 set_scale 0 rotate 40 40 translate
% Node1
gsave
0.000 0.000 0.749 nodecolor
newpath 196 348 moveto
196 369 lineto
289 369 lineto
289 348 lineto
closepath fill
1 setlinewidth
filled
0.000 0.000 0.000 nodecolor
newpath 196 348 moveto
196 369 lineto
289 369 lineto
289 348 lineto
closepath stroke
0.000 0.000 0.000 nodecolor
10.00 /FreeSans.ttf set_font
242 355 moveto 77 -0.5 (RamDisco.cpp) alignedtext
grestore
% Node2
gsave
1 setlinewidth
0.000 0.000 0.749 nodecolor
newpath 67 174 moveto
67 195 lineto
131 195 lineto
131 174 lineto
closepath stroke
0.000 0.000 0.000 nodecolor
10.00 /FreeSans.ttf set_font
99 181 moveto 48 -0.5 (iostream) alignedtext
grestore
% Node1->Node2
gsave
1 setlinewidth
solid
0.667 0.776 0.439 edgecolor
newpath 233 348 moveto
209 318 144 239 114 203 curveto
stroke
0.667 0.776 0.439 edgecolor
newpath 116.8 200.9 moveto
108 195 lineto
111.2 205.1 lineto
closepath fill
1 setlinewidth
solid
0.667 0.776 0.439 edgecolor
newpath 116.8 200.9 moveto
108 195 lineto
111.2 205.1 lineto
closepath stroke
grestore
% Node3
gsave
1 setlinewidth
0.000 0.000 0.749 nodecolor
newpath 149 174 moveto
149 195 lineto
210 195 lineto
210 174 lineto
closepath stroke
0.000 0.000 0.000 nodecolor
10.00 /FreeSans.ttf set_font
179 181 moveto 45 -0.5 (iomanip) alignedtext
grestore
% Node1->Node3
gsave
1 setlinewidth
solid
0.667 0.776 0.439 edgecolor
newpath 238 348 moveto
227 319 200 242 186 205 curveto
stroke
0.667 0.776 0.439 edgecolor
newpath 189.226 203.573 moveto
183 195 lineto
182.521 205.584 lineto
closepath fill
1 setlinewidth
solid
0.667 0.776 0.439 edgecolor
newpath 189.226 203.573 moveto
183 195 lineto
182.521 205.584 lineto
closepath stroke
grestore
% Node4
gsave
1 setlinewidth
0.000 0.000 0.749 nodecolor
newpath 227 174 moveto
227 195 lineto
258 195 lineto
258 174 lineto
closepath stroke
0.000 0.000 0.000 nodecolor
10.00 /FreeSans.ttf set_font
242 181 moveto 15 -0.5 (list) alignedtext
grestore
% Node1->Node4
gsave
1 setlinewidth
solid
0.667 0.776 0.439 edgecolor
newpath 242 348 moveto
242 319 242 242 242 205 curveto
stroke
0.667 0.776 0.439 edgecolor
newpath 245.5 205 moveto
242 195 lineto
238.5 205 lineto
closepath fill
1 setlinewidth
solid
0.667 0.776 0.439 edgecolor
newpath 245.5 205 moveto
242 195 lineto
238.5 205 lineto
closepath stroke
grestore
% Node5
gsave
1 setlinewidth
0.000 0.000 0.749 nodecolor
newpath 279 116 moveto
279 137 lineto
329 137 lineto
329 116 lineto
closepath stroke
0.000 0.000 0.000 nodecolor
10.00 /FreeSans.ttf set_font
304 123 moveto 34 -0.5 (vector) alignedtext
grestore
% Node1->Node5
gsave
1 setlinewidth
solid
0.667 0.776 0.439 edgecolor
newpath 215 348 moveto
151 320 0 245 58 174 curveto
84 142 207 132 269 129 curveto
stroke
0.667 0.776 0.439 edgecolor
newpath 269.398 132.478 moveto
279 128 lineto
268.701 125.512 lineto
closepath fill
1 setlinewidth
solid
0.667 0.776 0.439 edgecolor
newpath 269.398 132.478 moveto
279 128 lineto
268.701 125.512 lineto
closepath stroke
grestore
% Node6
gsave
1 setlinewidth
0.000 0.000 0.749 nodecolor
newpath 383 0 moveto
383 21 lineto
415 21 lineto
415 0 lineto
closepath stroke
0.000 0.000 0.000 nodecolor
10.00 /FreeSans.ttf set_font
399 7 moveto 16 -0.5 (set) alignedtext
grestore
% Node1->Node6
gsave
1 setlinewidth
solid
0.667 0.776 0.439 edgecolor
newpath 200 348 moveto
131 329 1 286 1 243 curveto
1 243 1 243 1 127 curveto
1 48 284 20 373 13 curveto
stroke
0.667 0.776 0.439 edgecolor
newpath 373.398 16.4778 moveto
383 12 lineto
372.701 9.5125 lineto
closepath fill
1 setlinewidth
solid
0.667 0.776 0.439 edgecolor
newpath 373.398 16.4778 moveto
383 12 lineto
372.701 9.5125 lineto
closepath stroke
grestore
% Node7
gsave
1 setlinewidth
0.000 0.000 0.749 nodecolor
newpath 695 290 moveto
695 311 lineto
753 311 lineto
753 290 lineto
closepath stroke
0.000 0.000 0.000 nodecolor
10.00 /FreeSans.ttf set_font
724 297 moveto 42 -0.5 (fstream) alignedtext
grestore
% Node1->Node7
gsave
1 setlinewidth
solid
0.667 0.776 0.439 edgecolor
newpath 289 356 moveto
370 351 539 337 681 312 curveto
682 312 684 311 685 311 curveto
stroke
0.667 0.776 0.439 edgecolor
newpath 685.881 314.393 moveto
695 309 lineto
684.508 307.529 lineto
closepath fill
1 setlinewidth
solid
0.667 0.776 0.439 edgecolor
newpath 685.881 314.393 moveto
695 309 lineto
684.508 307.529 lineto
closepath stroke
grestore
% Node8
gsave
1 setlinewidth
0.000 0.000 0.749 nodecolor
newpath 771 290 moveto
771 311 lineto
828 311 lineto
828 290 lineto
closepath stroke
0.000 0.000 0.000 nodecolor
10.00 /FreeSans.ttf set_font
799 297 moveto 41 -0.5 (istream) alignedtext
grestore
% Node1->Node8
gsave
1 setlinewidth
solid
0.667 0.776 0.439 edgecolor
newpath 289 358 moveto
379 355 582 345 761 312 curveto
stroke
0.667 0.776 0.439 edgecolor
newpath 761.881 315.393 moveto
771 310 lineto
760.508 308.529 lineto
closepath fill
1 setlinewidth
solid
0.667 0.776 0.439 edgecolor
newpath 761.881 315.393 moveto
771 310 lineto
760.508 308.529 lineto
closepath stroke
grestore
% Node9
gsave
1 setlinewidth
0.000 0.000 0.749 nodecolor
newpath 617 0 moveto
617 21 lineto
676 21 lineto
676 0 lineto
closepath stroke
0.000 0.000 0.000 nodecolor
10.00 /FreeSans.ttf set_font
646 7 moveto 43 -0.5 (sstream) alignedtext
grestore
% Node1->Node9
gsave
1 setlinewidth
solid
0.667 0.776 0.439 edgecolor
newpath 289 356 moveto
400 348 667 320 667 243 curveto
667 243 667 243 667 127 curveto
667 93 658 54 652 31 curveto
stroke
0.667 0.776 0.439 edgecolor
newpath 655.226 29.5725 moveto
649 21 lineto
648.521 31.584 lineto
closepath fill
1 setlinewidth
solid
0.667 0.776 0.439 edgecolor
newpath 655.226 29.5725 moveto
649 21 lineto
648.521 31.584 lineto
closepath stroke
grestore
% Node10
gsave
[ /Rect [ 390 291 484 311 ]
  /Border [ 0 0 0 ]
  /Action << /Subtype /URI /URI ($RamDisco_8hpp.html) >>
  /Subtype /Link
/ANN pdfmark
[ /Rect [ 390 291 484 311 ]
  /Border [ 0 0 0 ]
  /Action << /Subtype /URI /URI ($RamDisco_8hpp.html) >>
  /Subtype /Link
/ANN pdfmark
1 setlinewidth
0.000 0.000 0.000 nodecolor
newpath 390 290 moveto
390 311 lineto
484 311 lineto
484 290 lineto
closepath stroke
0.000 0.000 0.000 nodecolor
10.00 /FreeSans.ttf set_font
437 297 moveto 78 -0.5 (RamDisco.hpp) alignedtext
grestore
% Node1->Node10
gsave
1 setlinewidth
solid
0.667 0.776 0.439 edgecolor
newpath 279 348 moveto
312 338 359 324 393 314 curveto
stroke
0.667 0.776 0.439 edgecolor
newpath 394.427 317.226 moveto
403 311 lineto
392.416 310.521 lineto
closepath fill
1 setlinewidth
solid
0.667 0.776 0.439 edgecolor
newpath 394.427 317.226 moveto
403 311 lineto
392.416 310.521 lineto
closepath stroke
grestore
% Node10->Node5
gsave
1 setlinewidth
solid
0.667 0.776 0.439 edgecolor
newpath 390 290 moveto
356 281 314 268 304 254 curveto
281 221 290 174 297 147 curveto
stroke
0.667 0.776 0.439 edgecolor
newpath 300.479 147.584 moveto
300 137 lineto
293.774 145.573 lineto
closepath fill
1 setlinewidth
solid
0.667 0.776 0.439 edgecolor
newpath 300.479 147.584 moveto
300 137 lineto
293.774 145.573 lineto
closepath stroke
grestore
% Node11
gsave
[ /Rect [ 510 59 588 79 ]
  /Border [ 0 0 0 ]
  /Action << /Subtype /URI /URI ($comun_8hpp.html) >>
  /Subtype /Link
/ANN pdfmark
[ /Rect [ 510 59 588 79 ]
  /Border [ 0 0 0 ]
  /Action << /Subtype /URI /URI ($comun_8hpp.html) >>
  /Subtype /Link
/ANN pdfmark
1 setlinewidth
0.000 0.000 0.000 nodecolor
newpath 510 58 moveto
510 79 lineto
588 79 lineto
588 58 lineto
closepath stroke
0.000 0.000 0.000 nodecolor
10.00 /FreeSans.ttf set_font
549 65 moveto 62 -0.5 (comun.hpp) alignedtext
grestore
% Node10->Node11
gsave
1 setlinewidth
solid
0.667 0.776 0.439 edgecolor
newpath 480 290 moveto
524 276 587 248 610 196 curveto
627 155 591 110 567 86 curveto
stroke
0.667 0.776 0.439 edgecolor
newpath 569.546 83.5962 moveto
560 79 lineto
564.596 88.546 lineto
closepath fill
1 setlinewidth
solid
0.667 0.776 0.439 edgecolor
newpath 569.546 83.5962 moveto
560 79 lineto
564.596 88.546 lineto
closepath stroke
grestore
% Node14
gsave
[ /Rect [ 484 117 542 137 ]
  /Border [ 0 0 0 ]
  /Action << /Subtype /URI /URI ($Pos_8hpp.html) >>
  /Subtype /Link
/ANN pdfmark
[ /Rect [ 484 117 542 137 ]
  /Border [ 0 0 0 ]
  /Action << /Subtype /URI /URI ($Pos_8hpp.html) >>
  /Subtype /Link
/ANN pdfmark
1 setlinewidth
0.000 0.000 0.000 nodecolor
newpath 484 116 moveto
484 137 lineto
542 137 lineto
542 116 lineto
closepath stroke
0.000 0.000 0.000 nodecolor
10.00 /FreeSans.ttf set_font
513 123 moveto 42 -0.5 (Pos.hpp) alignedtext
grestore
% Node10->Node14
gsave
1 setlinewidth
solid
0.667 0.776 0.439 edgecolor
newpath 442 290 moveto
455 261 488 183 504 146 curveto
stroke
0.667 0.776 0.439 edgecolor
newpath 507.137 147.56 moveto
508 137 lineto
500.74 144.717 lineto
closepath fill
1 setlinewidth
solid
0.667 0.776 0.439 edgecolor
newpath 507.137 147.56 moveto
508 137 lineto
500.74 144.717 lineto
closepath stroke
grestore
% Node15
gsave
[ /Rect [ 541 175 601 195 ]
  /Border [ 0 0 0 ]
  /Action << /Subtype /URI /URI ($Doc_8hpp.html) >>
  /Subtype /Link
/ANN pdfmark
[ /Rect [ 541 175 601 195 ]
  /Border [ 0 0 0 ]
  /Action << /Subtype /URI /URI ($Doc_8hpp.html) >>
  /Subtype /Link
/ANN pdfmark
1 setlinewidth
0.000 0.000 0.000 nodecolor
newpath 541 174 moveto
541 195 lineto
602 195 lineto
602 174 lineto
closepath stroke
0.000 0.000 0.000 nodecolor
10.00 /FreeSans.ttf set_font
571 181 moveto 45 -0.5 (Doc.hpp) alignedtext
grestore
% Node10->Node15
gsave
1 setlinewidth
solid
0.667 0.776 0.439 edgecolor
newpath 467 290 moveto
485 282 509 270 527 254 curveto
542 240 554 219 562 204 curveto
stroke
0.667 0.776 0.439 edgecolor
newpath 565.137 205.56 moveto
566 195 lineto
558.74 202.717 lineto
closepath fill
1 setlinewidth
solid
0.667 0.776 0.439 edgecolor
newpath 565.137 205.56 moveto
566 195 lineto
558.74 202.717 lineto
closepath stroke
grestore
% Node16
gsave
[ /Rect [ 351 175 447 195 ]
  /Border [ 0 0 0 ]
  /Action << /Subtype /URI /URI ($NodoTrieS_8hpp.html) >>
  /Subtype /Link
/ANN pdfmark
[ /Rect [ 351 175 447 195 ]
  /Border [ 0 0 0 ]
  /Action << /Subtype /URI /URI ($NodoTrieS_8hpp.html) >>
  /Subtype /Link
/ANN pdfmark
1 setlinewidth
0.000 0.000 0.000 nodecolor
newpath 351 174 moveto
351 195 lineto
447 195 lineto
447 174 lineto
closepath stroke
0.000 0.000 0.000 nodecolor
10.00 /FreeSans.ttf set_font
399 181 moveto 80 -0.5 (NodoTrieS.hpp) alignedtext
grestore
% Node10->Node16
gsave
1 setlinewidth
solid
0.667 0.776 0.439 edgecolor
newpath 434 290 moveto
431 276 425 252 418 232 curveto
414 223 410 213 407 204 curveto
stroke
0.667 0.776 0.439 edgecolor
newpath 410.26 202.717 moveto
403 195 lineto
403.863 205.56 lineto
closepath fill
1 setlinewidth
solid
0.667 0.776 0.439 edgecolor
newpath 410.26 202.717 moveto
403 195 lineto
403.863 205.56 lineto
closepath stroke
grestore
% Node17
gsave
[ /Rect [ 313 233 409 253 ]
  /Border [ 0 0 0 ]
  /Action << /Subtype /URI /URI ($TrieSDisco_8hpp.html) >>
  /Subtype /Link
/ANN pdfmark
[ /Rect [ 313 233 409 253 ]
  /Border [ 0 0 0 ]
  /Action << /Subtype /URI /URI ($TrieSDisco_8hpp.html) >>
  /Subtype /Link
/ANN pdfmark
1 setlinewidth
0.000 0.000 0.000 nodecolor
newpath 313 232 moveto
313 253 lineto
409 253 lineto
409 232 lineto
closepath stroke
0.000 0.000 0.000 nodecolor
10.00 /FreeSans.ttf set_font
361 239 moveto 80 -0.5 (TrieSDisco.hpp) alignedtext
grestore
% Node10->Node17
gsave
1 setlinewidth
solid
0.667 0.776 0.439 edgecolor
newpath 422 290 moveto
411 281 395 269 382 259 curveto
stroke
0.667 0.776 0.439 edgecolor
newpath 384.1 256.2 moveto
374 253 lineto
379.9 261.8 lineto
closepath fill
1 setlinewidth
solid
0.667 0.776 0.439 edgecolor
newpath 384.1 256.2 moveto
374 253 lineto
379.9 261.8 lineto
closepath stroke
grestore
% Node11->Node6
gsave
1 setlinewidth
solid
0.667 0.776 0.439 edgecolor
newpath 518 58 moveto
495 50 461 37 424 22 curveto
stroke
0.667 0.776 0.439 edgecolor
newpath 425.56 18.8631 moveto
415 18 lineto
422.717 25.2598 lineto
closepath fill
1 setlinewidth
solid
0.667 0.776 0.439 edgecolor
newpath 425.56 18.8631 moveto
415 18 lineto
422.717 25.2598 lineto
closepath stroke
grestore
% Node11->Node9
gsave
1 setlinewidth
solid
0.667 0.776 0.439 edgecolor
newpath 568 58 moveto
583 49 604 36 620 26 curveto
stroke
0.667 0.776 0.439 edgecolor
newpath 621.958 28.916 moveto
629 21 lineto
618.559 22.7969 lineto
closepath fill
1 setlinewidth
solid
0.667 0.776 0.439 edgecolor
newpath 621.958 28.916 moveto
629 21 lineto
618.559 22.7969 lineto
closepath stroke
grestore
% Node12
gsave
1 setlinewidth
0.000 0.000 0.749 nodecolor
newpath 433 0 moveto
433 21 lineto
479 21 lineto
479 0 lineto
closepath stroke
0.000 0.000 0.000 nodecolor
10.00 /FreeSans.ttf set_font
456 7 moveto 30 -0.5 (string) alignedtext
grestore
% Node11->Node12
gsave
1 setlinewidth
solid
0.667 0.776 0.439 edgecolor
newpath 531 58 moveto
517 49 496 36 481 26 curveto
stroke
0.667 0.776 0.439 edgecolor
newpath 482.441 22.7969 moveto
472 21 lineto
479.042 28.916 lineto
closepath fill
1 setlinewidth
solid
0.667 0.776 0.439 edgecolor
newpath 482.441 22.7969 moveto
472 21 lineto
479.042 28.916 lineto
closepath stroke
grestore
% Node13
gsave
1 setlinewidth
0.000 0.000 0.749 nodecolor
newpath 519 0 moveto
519 21 lineto
580 21 lineto
580 0 lineto
closepath stroke
0.000 0.000 0.000 nodecolor
10.00 /FreeSans.ttf set_font
549 7 moveto 45 -0.5 (ostream) alignedtext
grestore
% Node11->Node13
gsave
1 setlinewidth
solid
0.667 0.776 0.439 edgecolor
newpath 549 58 moveto
549 50 549 40 549 31 curveto
stroke
0.667 0.776 0.439 edgecolor
newpath 552.5 31 moveto
549 21 lineto
545.5 31 lineto
closepath fill
1 setlinewidth
solid
0.667 0.776 0.439 edgecolor
newpath 552.5 31 moveto
549 21 lineto
545.5 31 lineto
closepath stroke
grestore
% Node14->Node11
gsave
1 setlinewidth
solid
0.667 0.776 0.439 edgecolor
newpath 520 116 moveto
525 108 531 97 537 87 curveto
stroke
0.667 0.776 0.439 edgecolor
newpath 539.8 89.1 moveto
543 79 lineto
534.2 84.9 lineto
closepath fill
1 setlinewidth
solid
0.667 0.776 0.439 edgecolor
newpath 539.8 89.1 moveto
543 79 lineto
534.2 84.9 lineto
closepath stroke
grestore
% Node15->Node11
gsave
1 setlinewidth
solid
0.667 0.776 0.439 edgecolor
newpath 569 174 moveto
565 155 557 114 553 89 curveto
stroke
0.667 0.776 0.439 edgecolor
newpath 556.393 88.1194 moveto
551 79 lineto
549.529 89.4922 lineto
closepath fill
1 setlinewidth
solid
0.667 0.776 0.439 edgecolor
newpath 556.393 88.1194 moveto
551 79 lineto
549.529 89.4922 lineto
closepath stroke
grestore
% Node16->Node5
gsave
1 setlinewidth
solid
0.667 0.776 0.439 edgecolor
newpath 381 174 moveto
366 165 345 152 329 142 curveto
stroke
0.667 0.776 0.439 edgecolor
newpath 330.441 138.797 moveto
320 137 lineto
327.042 144.916 lineto
closepath fill
1 setlinewidth
solid
0.667 0.776 0.439 edgecolor
newpath 330.441 138.797 moveto
320 137 lineto
327.042 144.916 lineto
closepath stroke
grestore
% Node16->Node6
gsave
1 setlinewidth
solid
0.667 0.776 0.439 edgecolor
newpath 399 174 moveto
399 145 399 68 399 31 curveto
stroke
0.667 0.776 0.439 edgecolor
newpath 402.5 31 moveto
399 21 lineto
395.5 31 lineto
closepath fill
1 setlinewidth
solid
0.667 0.776 0.439 edgecolor
newpath 402.5 31 moveto
399 21 lineto
395.5 31 lineto
closepath stroke
grestore
% Node16->Node12
gsave
1 setlinewidth
solid
0.667 0.776 0.439 edgecolor
newpath 403 174 moveto
412 145 437 68 450 31 curveto
stroke
0.667 0.776 0.439 edgecolor
newpath 453.479 31.584 moveto
453 21 lineto
446.774 29.5725 lineto
closepath fill
1 setlinewidth
solid
0.667 0.776 0.439 edgecolor
newpath 453.479 31.584 moveto
453 21 lineto
446.774 29.5725 lineto
closepath stroke
grestore
% Node16->Node14
gsave
1 setlinewidth
solid
0.667 0.776 0.439 edgecolor
newpath 421 174 moveto
439 165 464 151 484 142 curveto
stroke
0.667 0.776 0.439 edgecolor
newpath 485.958 144.916 moveto
493 137 lineto
482.559 138.797 lineto
closepath fill
1 setlinewidth
solid
0.667 0.776 0.439 edgecolor
newpath 485.958 144.916 moveto
493 137 lineto
482.559 138.797 lineto
closepath stroke
grestore
% Node17->Node2
gsave
1 setlinewidth
solid
0.667 0.776 0.439 edgecolor
newpath 313 233 moveto
270 224 206 211 141 196 curveto
stroke
0.667 0.776 0.439 edgecolor
newpath 141.492 192.529 moveto
131 194 lineto
140.119 199.393 lineto
closepath fill
1 setlinewidth
solid
0.667 0.776 0.439 edgecolor
newpath 141.492 192.529 moveto
131 194 lineto
140.119 199.393 lineto
closepath stroke
grestore
% Node17->Node3
gsave
1 setlinewidth
solid
0.667 0.776 0.439 edgecolor
newpath 326 232 moveto
296 222 252 208 220 198 curveto
stroke
0.667 0.776 0.439 edgecolor
newpath 220.584 194.521 moveto
210 195 lineto
218.573 201.226 lineto
closepath fill
1 setlinewidth
solid
0.667 0.776 0.439 edgecolor
newpath 220.584 194.521 moveto
210 195 lineto
218.573 201.226 lineto
closepath stroke
grestore
% Node17->Node4
gsave
1 setlinewidth
solid
0.667 0.776 0.439 edgecolor
newpath 338 232 moveto
318 222 288 207 267 197 curveto
stroke
0.667 0.776 0.439 edgecolor
newpath 268.56 193.863 moveto
258 193 lineto
265.717 200.26 lineto
closepath fill
1 setlinewidth
solid
0.667 0.776 0.439 edgecolor
newpath 268.56 193.863 moveto
258 193 lineto
265.717 200.26 lineto
closepath stroke
grestore
% Node17->Node5
gsave
1 setlinewidth
solid
0.667 0.776 0.439 edgecolor
newpath 356 232 moveto
345 213 326 171 314 146 curveto
stroke
0.667 0.776 0.439 edgecolor
newpath 316.916 144.042 moveto
309 137 lineto
310.797 147.441 lineto
closepath fill
1 setlinewidth
solid
0.667 0.776 0.439 edgecolor
newpath 316.916 144.042 moveto
309 137 lineto
310.797 147.441 lineto
closepath stroke
grestore
% Node17->Node14
gsave
1 setlinewidth
solid
0.667 0.776 0.439 edgecolor
newpath 391 232 moveto
411 224 436 211 456 196 curveto
474 182 490 161 501 146 curveto
stroke
0.667 0.776 0.439 edgecolor
newpath 504.203 147.441 moveto
506 137 lineto
498.084 144.042 lineto
closepath fill
1 setlinewidth
solid
0.667 0.776 0.439 edgecolor
newpath 504.203 147.441 moveto
506 137 lineto
498.084 144.042 lineto
closepath stroke
grestore
% Node17->Node15
gsave
1 setlinewidth
solid
0.667 0.776 0.439 edgecolor
newpath 401 232 moveto
438 222 493 206 531 196 curveto
stroke
0.667 0.776 0.439 edgecolor
newpath 532.427 199.226 moveto
541 193 lineto
530.416 192.521 lineto
closepath fill
1 setlinewidth
solid
0.667 0.776 0.439 edgecolor
newpath 532.427 199.226 moveto
541 193 lineto
530.416 192.521 lineto
closepath stroke
grestore
% Node17->Node16
gsave
1 setlinewidth
solid
0.667 0.776 0.439 edgecolor
newpath 368 232 moveto
373 224 381 213 387 204 curveto
stroke
0.667 0.776 0.439 edgecolor
newpath 390.203 205.441 moveto
392 195 lineto
384.084 202.042 lineto
closepath fill
1 setlinewidth
solid
0.667 0.776 0.439 edgecolor
newpath 390.203 205.441 moveto
392 195 lineto
384.084 202.042 lineto
closepath stroke
grestore
endpage
showpage
grestore
%%PageTrailer
%%EndPage: 1
%%Trailer
%%Pages: 1
%%BoundingBox: 36 36 871 414
end
restore
%%EOF
