%!PS-Adobe-2.0
%%Creator: Graphviz version 2.12 (Mon Nov 16 18:34:03 UTC 2009)
%%For: (vtamara) Vladimir
%%Title: G
%%Pages: (atend)
%%BoundingBox: (atend)
%%EndComments
save
%%BeginProlog
/DotDict 200 dict def
DotDict begin

/setupLatin1 {
mark
/EncodingVector 256 array def
 EncodingVector 0

ISOLatin1Encoding 0 255 getinterval putinterval
EncodingVector 45 /hyphen put

% Set up ISO Latin 1 character encoding
/starnetISO {
        dup dup findfont dup length dict begin
        { 1 index /FID ne { def }{ pop pop } ifelse
        } forall
        /Encoding EncodingVector def
        currentdict end definefont
} def
/Times-Roman starnetISO def
/Times-Italic starnetISO def
/Times-Bold starnetISO def
/Times-BoldItalic starnetISO def
/Helvetica starnetISO def
/Helvetica-Oblique starnetISO def
/Helvetica-Bold starnetISO def
/Helvetica-BoldOblique starnetISO def
/Courier starnetISO def
/Courier-Oblique starnetISO def
/Courier-Bold starnetISO def
/Courier-BoldOblique starnetISO def
cleartomark
} bind def

%%BeginResource: procset graphviz 0 0
/coord-font-family /Times-Roman def
/default-font-family /Times-Roman def
/coordfont coord-font-family findfont 8 scalefont def

/InvScaleFactor 1.0 def
/set_scale {
       dup 1 exch div /InvScaleFactor exch def
       scale
} bind def

% styles
/solid { [] 0 setdash } bind def
/dashed { [9 InvScaleFactor mul dup ] 0 setdash } bind def
/dotted { [1 InvScaleFactor mul 6 InvScaleFactor mul] 0 setdash } bind def
/invis {/fill {newpath} def /stroke {newpath} def /show {pop newpath} def} bind def
/bold { 2 setlinewidth } bind def
/filled { } bind def
/unfilled { } bind def
/rounded { } bind def
/diagonals { } bind def

% hooks for setting color 
/nodecolor { sethsbcolor } bind def
/edgecolor { sethsbcolor } bind def
/graphcolor { sethsbcolor } bind def
/nopcolor {pop pop pop} bind def

/beginpage {	% i j npages
	/npages exch def
	/j exch def
	/i exch def
	/str 10 string def
	npages 1 gt {
		gsave
			coordfont setfont
			0 0 moveto
			(\() show i str cvs show (,) show j str cvs show (\)) show
		grestore
	} if
} bind def

/set_font {
	findfont exch
	scalefont setfont
} def

% draw aligned label in bounding box aligned to current point
/alignedtext {			% width adj text
	/text exch def
	/adj exch def
	/width exch def
	gsave
		width 0 gt {
			text stringwidth pop adj mul 0 rmoveto
		} if
		[] 0 setdash
		text show
	grestore
} def

/boxprim {				% xcorner ycorner xsize ysize
		4 2 roll
		moveto
		2 copy
		exch 0 rlineto
		0 exch rlineto
		pop neg 0 rlineto
		closepath
} bind def

/ellipse_path {
	/ry exch def
	/rx exch def
	/y exch def
	/x exch def
	matrix currentmatrix
	newpath
	x y translate
	rx ry scale
	0 0 1 0 360 arc
	setmatrix
} bind def

/endpage { showpage } bind def
/showpage { } def

/layercolorseq
	[	% layer color sequence - darkest to lightest
		[0 0 0]
		[.2 .8 .8]
		[.4 .8 .8]
		[.6 .8 .8]
		[.8 .8 .8]
	]
def

/layerlen layercolorseq length def

/setlayer {/maxlayer exch def /curlayer exch def
	layercolorseq curlayer 1 sub layerlen mod get
	aload pop sethsbcolor
	/nodecolor {nopcolor} def
	/edgecolor {nopcolor} def
	/graphcolor {nopcolor} def
} bind def

/onlayer { curlayer ne {invis} if } def

/onlayers {
	/myupper exch def
	/mylower exch def
	curlayer mylower lt
	curlayer myupper gt
	or
	{invis} if
} def

/curlayer 0 def

%%EndResource
%%EndProlog
%%BeginSetup
14 default-font-family set_font
1 setmiterlimit
% /arrowlength 10 def
% /arrowwidth 5 def

% make sure pdfmark is harmless for PS-interpreters other than Distiller
/pdfmark where {pop} {userdict /pdfmark /cleartomark load put} ifelse
% make '<<' and '>>' safe on PS Level 1 devices
/languagelevel where {pop languagelevel}{1} ifelse
2 lt {
    userdict (<<) cvn ([) cvn load put
    userdict (>>) cvn ([) cvn load put
} if

%%EndSetup
setupLatin1
%%Page: 1 1
%%PageBoundingBox: 36 36 658 234
%%PageOrientation: Portrait
gsave
36 36 658 234 boxprim clip newpath
0 0 1 beginpage
1 1 set_scale 0 rotate 40 40 translate
% Node1
gsave
0.000 0.000 0.749 nodecolor
newpath 1 85 moveto
1 106 lineto
104 106 lineto
104 85 lineto
closepath fill
1 setlinewidth
filled
0.000 0.000 0.000 nodecolor
newpath 1 85 moveto
1 106 lineto
104 106 lineto
104 85 lineto
closepath stroke
0.000 0.000 0.000 nodecolor
10.00 /FreeSans.ttf set_font
52 92 moveto 87 -0.5 (leePlanoStream) alignedtext
grestore
% Node2
gsave
[ /Rect [ 526 76 614 96 ]
  /Border [ 0 0 0 ]
  /Action << /Subtype /URI /URI ($comun_8cpp.html#88ffeb20e447cad877c37bb473033590) >>
  /Subtype /Link
/ANN pdfmark
[ /Rect [ 526 76 614 96 ]
  /Border [ 0 0 0 ]
  /Action << /Subtype /URI /URI ($comun_8cpp.html#88ffeb20e447cad877c37bb473033590) >>
  /Subtype /Link
/ANN pdfmark
1 setlinewidth
0.000 0.000 0.000 nodecolor
newpath 526 75 moveto
526 96 lineto
614 96 lineto
614 75 lineto
closepath stroke
0.000 0.000 0.000 nodecolor
10.00 /FreeSans.ttf set_font
570 82 moveto 72 -0.5 (errorFormato) alignedtext
grestore
% Node1->Node2
gsave
1 setlinewidth
solid
0.667 0.776 0.439 edgecolor
newpath 78 106 moveto
148 131 340 190 490 143 curveto
514 135 538 117 553 103 curveto
stroke
0.667 0.776 0.439 edgecolor
newpath 555.404 105.546 moveto
560 96 lineto
550.454 100.596 lineto
closepath fill
1 setlinewidth
solid
0.667 0.776 0.439 edgecolor
newpath 555.404 105.546 moveto
560 96 lineto
550.454 100.596 lineto
closepath stroke
grestore
% Node3
gsave
[ /Rect [ 280 114 348 134 ]
  /Border [ 0 0 0 ]
  /Action << /Subtype /URI /URI ($comun_8hpp.html#9871d7357fc245ec5b7a227a9a62eb36) >>
  /Subtype /Link
/ANN pdfmark
[ /Rect [ 280 114 348 134 ]
  /Border [ 0 0 0 ]
  /Action << /Subtype /URI /URI ($comun_8hpp.html#9871d7357fc245ec5b7a227a9a62eb36) >>
  /Subtype /Link
/ANN pdfmark
1 setlinewidth
0.000 0.000 0.000 nodecolor
newpath 280 113 moveto
280 134 lineto
348 134 lineto
348 113 lineto
closepath stroke
0.000 0.000 0.000 nodecolor
10.00 /FreeSans.ttf set_font
314 120 moveto 52 -0.5 (leeNDesp) alignedtext
grestore
% Node1->Node3
gsave
1 setlinewidth
solid
0.667 0.776 0.439 edgecolor
newpath 104 102 moveto
152 107 224 115 270 119 curveto
stroke
0.667 0.776 0.439 edgecolor
newpath 269.701 122.488 moveto
280 120 lineto
270.398 115.522 lineto
closepath fill
1 setlinewidth
solid
0.667 0.776 0.439 edgecolor
newpath 269.701 122.488 moveto
280 120 lineto
270.398 115.522 lineto
closepath stroke
grestore
% Node5
gsave
[ /Rect [ 141 58 243 78 ]
  /Border [ 0 0 0 ]
  /Action << /Subtype /URI /URI ($RamDisco_8cpp.html#6629a007f761319a91a329f1071896fa) >>
  /Subtype /Link
/ANN pdfmark
[ /Rect [ 141 58 243 78 ]
  /Border [ 0 0 0 ]
  /Action << /Subtype /URI /URI ($RamDisco_8cpp.html#6629a007f761319a91a329f1071896fa) >>
  /Subtype /Link
/ANN pdfmark
1 setlinewidth
0.000 0.000 0.000 nodecolor
newpath 141 57 moveto
141 78 lineto
244 78 lineto
244 57 lineto
closepath stroke
0.000 0.000 0.000 nodecolor
10.00 /FreeSans.ttf set_font
192 64 moveto 87 -0.5 (leePlanoStream) alignedtext
grestore
% Node1->Node5
gsave
1 setlinewidth
solid
0.667 0.776 0.439 edgecolor
newpath 104 86 moveto
114 84 123 82 133 80 curveto
stroke
0.667 0.776 0.439 edgecolor
newpath 133.881 83.3933 moveto
143 78 lineto
132.508 76.5292 lineto
closepath fill
1 setlinewidth
solid
0.667 0.776 0.439 edgecolor
newpath 133.881 83.3933 moveto
143 78 lineto
132.508 76.5292 lineto
closepath stroke
grestore
% Node6
gsave
[ /Rect [ 289 29 339 49 ]
  /Border [ 0 0 0 ]
  /Action << /Subtype /URI /URI ($Pos_8cpp.html#36b67a50cba6dc1789825a3111bee9d2) >>
  /Subtype /Link
/ANN pdfmark
[ /Rect [ 289 29 339 49 ]
  /Border [ 0 0 0 ]
  /Action << /Subtype /URI /URI ($Pos_8cpp.html#36b67a50cba6dc1789825a3111bee9d2) >>
  /Subtype /Link
/ANN pdfmark
1 setlinewidth
0.000 0.000 0.000 nodecolor
newpath 289 28 moveto
289 49 lineto
340 49 lineto
340 28 lineto
closepath stroke
0.000 0.000 0.000 nodecolor
10.00 /FreeSans.ttf set_font
314 35 moveto 35 -0.5 (leePos) alignedtext
grestore
% Node1->Node6
gsave
1 setlinewidth
solid
0.667 0.776 0.439 edgecolor
newpath 68 85 moveto
85 73 113 56 140 49 curveto
187 36 243 36 279 37 curveto
stroke
0.667 0.776 0.439 edgecolor
newpath 279 40.5001 moveto
289 37 lineto
279 33.5001 lineto
closepath fill
1 setlinewidth
solid
0.667 0.776 0.439 edgecolor
newpath 279 40.5001 moveto
289 37 lineto
279 33.5001 lineto
closepath stroke
grestore
% Node4
gsave
[ /Rect [ 407 114 467 134 ]
  /Border [ 0 0 0 ]
  /Action << /Subtype /URI /URI ($comun_8cpp.html#c7bf9e68bbdccea36ce786b806244ea1) >>
  /Subtype /Link
/ANN pdfmark
[ /Rect [ 407 114 467 134 ]
  /Border [ 0 0 0 ]
  /Action << /Subtype /URI /URI ($comun_8cpp.html#c7bf9e68bbdccea36ce786b806244ea1) >>
  /Subtype /Link
/ANN pdfmark
1 setlinewidth
0.000 0.000 0.000 nodecolor
newpath 407 113 moveto
407 134 lineto
467 134 lineto
467 113 lineto
closepath stroke
0.000 0.000 0.000 nodecolor
10.00 /FreeSans.ttf set_font
437 120 moveto 44 -0.5 (lee128b) alignedtext
grestore
% Node3->Node4
gsave
1 setlinewidth
solid
0.667 0.776 0.439 edgecolor
newpath 348 124 moveto
364 124 381 124 397 124 curveto
stroke
0.667 0.776 0.439 edgecolor
newpath 397 127.5 moveto
407 124 lineto
397 120.5 lineto
closepath fill
1 setlinewidth
solid
0.667 0.776 0.439 edgecolor
newpath 397 127.5 moveto
407 124 lineto
397 120.5 lineto
closepath stroke
grestore
% Node4->Node2
gsave
1 setlinewidth
solid
0.667 0.776 0.439 edgecolor
newpath 467 115 moveto
484 110 505 104 524 99 curveto
stroke
0.667 0.776 0.439 edgecolor
newpath 525.427 102.226 moveto
534 96 lineto
523.416 95.5212 lineto
closepath fill
1 setlinewidth
solid
0.667 0.776 0.439 edgecolor
newpath 525.427 102.226 moveto
534 96 lineto
523.416 95.5212 lineto
closepath stroke
grestore
% Node5->Node2
gsave
1 setlinewidth
solid
0.667 0.776 0.439 edgecolor
newpath 244 70 moveto
315 74 443 79 516 83 curveto
stroke
0.667 0.776 0.439 edgecolor
newpath 515.701 86.4875 moveto
526 84 lineto
516.398 79.5222 lineto
closepath fill
1 setlinewidth
solid
0.667 0.776 0.439 edgecolor
newpath 515.701 86.4875 moveto
526 84 lineto
516.398 79.5222 lineto
closepath stroke
grestore
% Node5->Node3
gsave
1 setlinewidth
solid
0.667 0.776 0.439 edgecolor
newpath 214 78 moveto
232 87 259 99 281 109 curveto
stroke
0.667 0.776 0.439 edgecolor
newpath 279.44 112.137 moveto
290 113 lineto
282.283 105.74 lineto
closepath fill
1 setlinewidth
solid
0.667 0.776 0.439 edgecolor
newpath 279.44 112.137 moveto
290 113 lineto
282.283 105.74 lineto
closepath stroke
grestore
% Node5->Node5
gsave
1 setlinewidth
solid
0.667 0.776 0.439 edgecolor
newpath 154 78 moveto
137 87 149 96 192 96 curveto
224 96 238 91 237 85 curveto
stroke
0.667 0.776 0.439 edgecolor
newpath 239.546 82.5962 moveto
230 78 lineto
234.596 87.546 lineto
closepath fill
1 setlinewidth
solid
0.667 0.776 0.439 edgecolor
newpath 239.546 82.5962 moveto
230 78 lineto
234.596 87.546 lineto
closepath stroke
grestore
% Node5->Node6
gsave
1 setlinewidth
solid
0.667 0.776 0.439 edgecolor
newpath 238 57 moveto
251 54 266 51 279 48 curveto
stroke
0.667 0.776 0.439 edgecolor
newpath 280.427 51.2259 moveto
289 45 lineto
278.416 44.5212 lineto
closepath fill
1 setlinewidth
solid
0.667 0.776 0.439 edgecolor
newpath 280.427 51.2259 moveto
289 45 lineto
278.416 44.5212 lineto
closepath stroke
grestore
% Node6->Node2
gsave
1 setlinewidth
solid
0.667 0.776 0.439 edgecolor
newpath 340 44 moveto
381 52 462 66 516 76 curveto
stroke
0.667 0.776 0.439 edgecolor
newpath 515.508 79.4708 moveto
526 78 lineto
516.881 72.6067 lineto
closepath fill
1 setlinewidth
solid
0.667 0.776 0.439 edgecolor
newpath 515.508 79.4708 moveto
526 78 lineto
516.881 72.6067 lineto
closepath stroke
grestore
% Node7
gsave
[ /Rect [ 384 0 490 20 ]
  /Border [ 0 0 0 ]
  /Action << /Subtype /URI /URI ($Elias_8cpp.html#95ee5a0ffb91f203612d2ce9d063ec36) >>
  /Subtype /Link
/ANN pdfmark
[ /Rect [ 384 0 490 20 ]
  /Border [ 0 0 0 ]
  /Action << /Subtype /URI /URI ($Elias_8cpp.html#95ee5a0ffb91f203612d2ce9d063ec36) >>
  /Subtype /Link
/ANN pdfmark
1 setlinewidth
0.000 0.000 0.000 nodecolor
newpath 384 -1 moveto
384 20 lineto
490 20 lineto
490 -1 lineto
closepath stroke
0.000 0.000 0.000 nodecolor
10.00 /FreeSans.ttf set_font
437 6 moveto 90 -0.5 (lee_elias_gama2) alignedtext
grestore
% Node6->Node7
gsave
1 setlinewidth
solid
0.667 0.776 0.439 edgecolor
newpath 340 33 moveto
353 30 369 26 384 22 curveto
stroke
0.667 0.776 0.439 edgecolor
newpath 384.881 25.3933 moveto
394 20 lineto
383.508 18.5292 lineto
closepath fill
1 setlinewidth
solid
0.667 0.776 0.439 edgecolor
newpath 384.881 25.3933 moveto
394 20 lineto
383.508 18.5292 lineto
closepath stroke
grestore
% Node7->Node2
gsave
1 setlinewidth
solid
0.667 0.776 0.439 edgecolor
newpath 461 20 moveto
470 24 481 29 490 34 curveto
510 45 531 59 546 69 curveto
stroke
0.667 0.776 0.439 edgecolor
newpath 544.738 72.3651 moveto
555 75 lineto
548.621 66.5408 lineto
closepath fill
1 setlinewidth
solid
0.667 0.776 0.439 edgecolor
newpath 544.738 72.3651 moveto
555 75 lineto
548.621 66.5408 lineto
closepath stroke
grestore
endpage
showpage
grestore
%%PageTrailer
%%EndPage: 1
%%Trailer
%%Pages: 1
%%BoundingBox: 36 36 658 234
end
restore
%%EOF
