%!PS-Adobe-2.0
%%Creator: Graphviz version 2.12 (Mon Nov 16 18:34:03 UTC 2009)
%%For: (vtamara) Vladimir
%%Title: G
%%Pages: (atend)
%%BoundingBox: (atend)
%%EndComments
save
%%BeginProlog
/DotDict 200 dict def
DotDict begin

/setupLatin1 {
mark
/EncodingVector 256 array def
 EncodingVector 0

ISOLatin1Encoding 0 255 getinterval putinterval
EncodingVector 45 /hyphen put

% Set up ISO Latin 1 character encoding
/starnetISO {
        dup dup findfont dup length dict begin
        { 1 index /FID ne { def }{ pop pop } ifelse
        } forall
        /Encoding EncodingVector def
        currentdict end definefont
} def
/Times-Roman starnetISO def
/Times-Italic starnetISO def
/Times-Bold starnetISO def
/Times-BoldItalic starnetISO def
/Helvetica starnetISO def
/Helvetica-Oblique starnetISO def
/Helvetica-Bold starnetISO def
/Helvetica-BoldOblique starnetISO def
/Courier starnetISO def
/Courier-Oblique starnetISO def
/Courier-Bold starnetISO def
/Courier-BoldOblique starnetISO def
cleartomark
} bind def

%%BeginResource: procset graphviz 0 0
/coord-font-family /Times-Roman def
/default-font-family /Times-Roman def
/coordfont coord-font-family findfont 8 scalefont def

/InvScaleFactor 1.0 def
/set_scale {
       dup 1 exch div /InvScaleFactor exch def
       scale
} bind def

% styles
/solid { [] 0 setdash } bind def
/dashed { [9 InvScaleFactor mul dup ] 0 setdash } bind def
/dotted { [1 InvScaleFactor mul 6 InvScaleFactor mul] 0 setdash } bind def
/invis {/fill {newpath} def /stroke {newpath} def /show {pop newpath} def} bind def
/bold { 2 setlinewidth } bind def
/filled { } bind def
/unfilled { } bind def
/rounded { } bind def
/diagonals { } bind def

% hooks for setting color 
/nodecolor { sethsbcolor } bind def
/edgecolor { sethsbcolor } bind def
/graphcolor { sethsbcolor } bind def
/nopcolor {pop pop pop} bind def

/beginpage {	% i j npages
	/npages exch def
	/j exch def
	/i exch def
	/str 10 string def
	npages 1 gt {
		gsave
			coordfont setfont
			0 0 moveto
			(\() show i str cvs show (,) show j str cvs show (\)) show
		grestore
	} if
} bind def

/set_font {
	findfont exch
	scalefont setfont
} def

% draw aligned label in bounding box aligned to current point
/alignedtext {			% width adj text
	/text exch def
	/adj exch def
	/width exch def
	gsave
		width 0 gt {
			text stringwidth pop adj mul 0 rmoveto
		} if
		[] 0 setdash
		text show
	grestore
} def

/boxprim {				% xcorner ycorner xsize ysize
		4 2 roll
		moveto
		2 copy
		exch 0 rlineto
		0 exch rlineto
		pop neg 0 rlineto
		closepath
} bind def

/ellipse_path {
	/ry exch def
	/rx exch def
	/y exch def
	/x exch def
	matrix currentmatrix
	newpath
	x y translate
	rx ry scale
	0 0 1 0 360 arc
	setmatrix
} bind def

/endpage { showpage } bind def
/showpage { } def

/layercolorseq
	[	% layer color sequence - darkest to lightest
		[0 0 0]
		[.2 .8 .8]
		[.4 .8 .8]
		[.6 .8 .8]
		[.8 .8 .8]
	]
def

/layerlen layercolorseq length def

/setlayer {/maxlayer exch def /curlayer exch def
	layercolorseq curlayer 1 sub layerlen mod get
	aload pop sethsbcolor
	/nodecolor {nopcolor} def
	/edgecolor {nopcolor} def
	/graphcolor {nopcolor} def
} bind def

/onlayer { curlayer ne {invis} if } def

/onlayers {
	/myupper exch def
	/mylower exch def
	curlayer mylower lt
	curlayer myupper gt
	or
	{invis} if
} def

/curlayer 0 def

%%EndResource
%%EndProlog
%%BeginSetup
14 default-font-family set_font
1 setmiterlimit
% /arrowlength 10 def
% /arrowwidth 5 def

% make sure pdfmark is harmless for PS-interpreters other than Distiller
/pdfmark where {pop} {userdict /pdfmark /cleartomark load put} ifelse
% make '<<' and '>>' safe on PS Level 1 devices
/languagelevel where {pop languagelevel}{1} ifelse
2 lt {
    userdict (<<) cvn ([) cvn load put
    userdict (>>) cvn ([) cvn load put
} if

%%EndSetup
setupLatin1
%%Page: 1 1
%%PageBoundingBox: 36 36 773 182
%%PageOrientation: Portrait
gsave
36 36 773 182 boxprim clip newpath
0 0 1 beginpage
1 1 set_scale 0 rotate 40 40 translate
% Node1
gsave
0.000 0.000 0.749 nodecolor
newpath 245 116 moveto
245 137 lineto
339 137 lineto
339 116 lineto
closepath fill
1 setlinewidth
filled
0.000 0.000 0.000 nodecolor
newpath 245 116 moveto
245 137 lineto
339 137 lineto
339 116 lineto
closepath stroke
0.000 0.000 0.000 nodecolor
10.00 /FreeSans.ttf set_font
292 123 moveto 78 -0.5 (RamDisco.hpp) alignedtext
grestore
% Node2
gsave
[ /Rect [ 119 59 227 79 ]
  /Border [ 0 0 0 ]
  /Action << /Subtype /URI /URI ($Operaciones_8hpp.html) >>
  /Subtype /Link
/ANN pdfmark
[ /Rect [ 119 59 227 79 ]
  /Border [ 0 0 0 ]
  /Action << /Subtype /URI /URI ($Operaciones_8hpp.html) >>
  /Subtype /Link
/ANN pdfmark
1 setlinewidth
0.000 0.000 0.000 nodecolor
newpath 119 58 moveto
119 79 lineto
228 79 lineto
228 58 lineto
closepath stroke
0.000 0.000 0.000 nodecolor
10.00 /FreeSans.ttf set_font
173 65 moveto 93 -0.5 (Operaciones.hpp) alignedtext
grestore
% Node1->Node2
gsave
1 setlinewidth
solid
0.667 0.776 0.439 edgecolor
newpath 260 112 moveto
239 101 212 88 194 79 curveto
stroke
0.667 0.776 0.439 edgecolor
newpath 258.44 115.137 moveto
269 116 lineto
261.283 108.74 lineto
closepath fill
1 setlinewidth
solid
0.667 0.776 0.439 edgecolor
newpath 258.44 115.137 moveto
269 116 lineto
261.283 108.74 lineto
closepath stroke
grestore
% Node4
gsave
[ /Rect [ 0 1 108 21 ]
  /Border [ 0 0 0 ]
  /Action << /Subtype /URI /URI ($Operaciones_8cpp.html) >>
  /Subtype /Link
/ANN pdfmark
[ /Rect [ 0 1 108 21 ]
  /Border [ 0 0 0 ]
  /Action << /Subtype /URI /URI ($Operaciones_8cpp.html) >>
  /Subtype /Link
/ANN pdfmark
1 setlinewidth
0.000 0.000 0.000 nodecolor
newpath 0 0 moveto
0 21 lineto
108 21 lineto
108 0 lineto
closepath stroke
0.000 0.000 0.000 nodecolor
10.00 /FreeSans.ttf set_font
54 7 moveto 92 -0.5 (Operaciones.cpp) alignedtext
grestore
% Node1->Node4
gsave
1 setlinewidth
solid
0.667 0.776 0.439 edgecolor
newpath 235 122 moveto
197 116 147 104 110 80 curveto
87 64 68 36 59 21 curveto
stroke
0.667 0.776 0.439 edgecolor
newpath 234.701 125.488 moveto
245 123 lineto
235.398 118.522 lineto
closepath fill
1 setlinewidth
solid
0.667 0.776 0.439 edgecolor
newpath 234.701 125.488 moveto
245 123 lineto
235.398 118.522 lineto
closepath stroke
grestore
% Node5
gsave
[ /Rect [ 238 1 342 21 ]
  /Border [ 0 0 0 ]
  /Action << /Subtype /URI /URI ($operaindice_8cpp.html) >>
  /Subtype /Link
/ANN pdfmark
[ /Rect [ 238 1 342 21 ]
  /Border [ 0 0 0 ]
  /Action << /Subtype /URI /URI ($operaindice_8cpp.html) >>
  /Subtype /Link
/ANN pdfmark
1 setlinewidth
0.000 0.000 0.000 nodecolor
newpath 238 0 moveto
238 21 lineto
342 21 lineto
342 0 lineto
closepath stroke
0.000 0.000 0.000 nodecolor
10.00 /FreeSans.ttf set_font
290 7 moveto 88 -0.5 (operaindice.cpp) alignedtext
grestore
% Node1->Node5
gsave
1 setlinewidth
solid
0.667 0.776 0.439 edgecolor
newpath 283 107 moveto
279 98 275 89 274 80 curveto
270 59 279 35 285 21 curveto
stroke
0.667 0.776 0.439 edgecolor
newpath 279.74 108.283 moveto
287 116 lineto
286.137 105.44 lineto
closepath fill
1 setlinewidth
solid
0.667 0.776 0.439 edgecolor
newpath 279.74 108.283 moveto
287 116 lineto
286.137 105.44 lineto
closepath stroke
grestore
% Node6
gsave
[ /Rect [ 283 59 375 79 ]
  /Border [ 0 0 0 ]
  /Action << /Subtype /URI /URI ($RamDisco_8cpp.html) >>
  /Subtype /Link
/ANN pdfmark
[ /Rect [ 283 59 375 79 ]
  /Border [ 0 0 0 ]
  /Action << /Subtype /URI /URI ($RamDisco_8cpp.html) >>
  /Subtype /Link
/ANN pdfmark
1 setlinewidth
0.000 0.000 0.000 nodecolor
newpath 283 58 moveto
283 79 lineto
376 79 lineto
376 58 lineto
closepath stroke
0.000 0.000 0.000 nodecolor
10.00 /FreeSans.ttf set_font
329 65 moveto 77 -0.5 (RamDisco.cpp) alignedtext
grestore
% Node1->Node6
gsave
1 setlinewidth
solid
0.667 0.776 0.439 edgecolor
newpath 305 107 moveto
311 98 318 87 323 79 curveto
stroke
0.667 0.776 0.439 edgecolor
newpath 301.635 105.738 moveto
299 116 lineto
307.459 109.621 lineto
closepath fill
1 setlinewidth
solid
0.667 0.776 0.439 edgecolor
newpath 301.635 105.738 moveto
299 116 lineto
307.459 109.621 lineto
closepath stroke
grestore
% Node7
gsave
[ /Rect [ 393 59 551 79 ]
  /Border [ 0 0 0 ]
  /Action << /Subtype /URI /URI ($RamDiscoCasoPrueba_8cpp.html) >>
  /Subtype /Link
/ANN pdfmark
[ /Rect [ 393 59 551 79 ]
  /Border [ 0 0 0 ]
  /Action << /Subtype /URI /URI ($RamDiscoCasoPrueba_8cpp.html) >>
  /Subtype /Link
/ANN pdfmark
1 setlinewidth
0.000 0.000 0.000 nodecolor
newpath 393 58 moveto
393 79 lineto
551 79 lineto
551 58 lineto
closepath stroke
0.000 0.000 0.000 nodecolor
10.00 /FreeSans.ttf set_font
472 65 moveto 142 -0.5 (RamDiscoCasoPrueba.cpp) alignedtext
grestore
% Node1->Node7
gsave
1 setlinewidth
solid
0.667 0.776 0.439 edgecolor
newpath 336 113 moveto
369 102 412 88 441 79 curveto
stroke
0.667 0.776 0.439 edgecolor
newpath 334.573 109.774 moveto
326 116 lineto
336.584 116.479 lineto
closepath fill
1 setlinewidth
solid
0.667 0.776 0.439 edgecolor
newpath 334.573 109.774 moveto
326 116 lineto
336.584 116.479 lineto
closepath stroke
grestore
% Node8
gsave
[ /Rect [ 569 59 729 79 ]
  /Border [ 0 0 0 ]
  /Action << /Subtype /URI /URI ($TrieSDiscoCasoPrueba_8cpp.html) >>
  /Subtype /Link
/ANN pdfmark
[ /Rect [ 569 59 729 79 ]
  /Border [ 0 0 0 ]
  /Action << /Subtype /URI /URI ($TrieSDiscoCasoPrueba_8cpp.html) >>
  /Subtype /Link
/ANN pdfmark
1 setlinewidth
0.000 0.000 0.000 nodecolor
newpath 569 58 moveto
569 79 lineto
729 79 lineto
729 58 lineto
closepath stroke
0.000 0.000 0.000 nodecolor
10.00 /FreeSans.ttf set_font
649 65 moveto 144 -0.5 (TrieSDiscoCasoPrueba.cpp) alignedtext
grestore
% Node1->Node8
gsave
1 setlinewidth
solid
0.667 0.776 0.439 edgecolor
newpath 349 117 moveto
414 107 521 90 588 79 curveto
stroke
0.667 0.776 0.439 edgecolor
newpath 348.119 113.607 moveto
339 119 lineto
349.492 120.471 lineto
closepath fill
1 setlinewidth
solid
0.667 0.776 0.439 edgecolor
newpath 348.119 113.607 moveto
339 119 lineto
349.492 120.471 lineto
closepath stroke
grestore
% Node3
gsave
[ /Rect [ 126 1 220 21 ]
  /Border [ 0 0 0 ]
  /Action << /Subtype /URI /URI ($indexador_8cpp.html) >>
  /Subtype /Link
/ANN pdfmark
[ /Rect [ 126 1 220 21 ]
  /Border [ 0 0 0 ]
  /Action << /Subtype /URI /URI ($indexador_8cpp.html) >>
  /Subtype /Link
/ANN pdfmark
1 setlinewidth
0.000 0.000 0.000 nodecolor
newpath 126 0 moveto
126 21 lineto
220 21 lineto
220 0 lineto
closepath stroke
0.000 0.000 0.000 nodecolor
10.00 /FreeSans.ttf set_font
173 7 moveto 78 -0.5 (indexador.cpp) alignedtext
grestore
% Node2->Node3
gsave
1 setlinewidth
solid
0.667 0.776 0.439 edgecolor
newpath 173 48 moveto
173 38 173 28 173 21 curveto
stroke
0.667 0.776 0.439 edgecolor
newpath 169.5 48 moveto
173 58 lineto
176.5 48 lineto
closepath fill
1 setlinewidth
solid
0.667 0.776 0.439 edgecolor
newpath 169.5 48 moveto
173 58 lineto
176.5 48 lineto
closepath stroke
grestore
% Node2->Node4
gsave
1 setlinewidth
solid
0.667 0.776 0.439 edgecolor
newpath 141 54 moveto
120 43 93 30 75 21 curveto
stroke
0.667 0.776 0.439 edgecolor
newpath 139.44 57.1369 moveto
150 58 lineto
142.283 50.7402 lineto
closepath fill
1 setlinewidth
solid
0.667 0.776 0.439 edgecolor
newpath 139.44 57.1369 moveto
150 58 lineto
142.283 50.7402 lineto
closepath stroke
grestore
% Node2->Node5
gsave
1 setlinewidth
solid
0.667 0.776 0.439 edgecolor
newpath 204 54 moveto
225 43 252 30 270 21 curveto
stroke
0.667 0.776 0.439 edgecolor
newpath 202.717 50.7402 moveto
195 58 lineto
205.56 57.1369 lineto
closepath fill
1 setlinewidth
solid
0.667 0.776 0.439 edgecolor
newpath 202.717 50.7402 moveto
195 58 lineto
205.56 57.1369 lineto
closepath stroke
grestore
endpage
showpage
grestore
%%PageTrailer
%%EndPage: 1
%%Trailer
%%Pages: 1
%%BoundingBox: 36 36 773 182
end
restore
%%EOF
