%!PS-Adobe-2.0
%%Creator: Graphviz version 2.12 (Mon Nov 16 18:34:03 UTC 2009)
%%For: (vtamara) Vladimir
%%Title: G
%%Pages: (atend)
%%BoundingBox: (atend)
%%EndComments
save
%%BeginProlog
/DotDict 200 dict def
DotDict begin

/setupLatin1 {
mark
/EncodingVector 256 array def
 EncodingVector 0

ISOLatin1Encoding 0 255 getinterval putinterval
EncodingVector 45 /hyphen put

% Set up ISO Latin 1 character encoding
/starnetISO {
        dup dup findfont dup length dict begin
        { 1 index /FID ne { def }{ pop pop } ifelse
        } forall
        /Encoding EncodingVector def
        currentdict end definefont
} def
/Times-Roman starnetISO def
/Times-Italic starnetISO def
/Times-Bold starnetISO def
/Times-BoldItalic starnetISO def
/Helvetica starnetISO def
/Helvetica-Oblique starnetISO def
/Helvetica-Bold starnetISO def
/Helvetica-BoldOblique starnetISO def
/Courier starnetISO def
/Courier-Oblique starnetISO def
/Courier-Bold starnetISO def
/Courier-BoldOblique starnetISO def
cleartomark
} bind def

%%BeginResource: procset graphviz 0 0
/coord-font-family /Times-Roman def
/default-font-family /Times-Roman def
/coordfont coord-font-family findfont 8 scalefont def

/InvScaleFactor 1.0 def
/set_scale {
       dup 1 exch div /InvScaleFactor exch def
       scale
} bind def

% styles
/solid { [] 0 setdash } bind def
/dashed { [9 InvScaleFactor mul dup ] 0 setdash } bind def
/dotted { [1 InvScaleFactor mul 6 InvScaleFactor mul] 0 setdash } bind def
/invis {/fill {newpath} def /stroke {newpath} def /show {pop newpath} def} bind def
/bold { 2 setlinewidth } bind def
/filled { } bind def
/unfilled { } bind def
/rounded { } bind def
/diagonals { } bind def

% hooks for setting color 
/nodecolor { sethsbcolor } bind def
/edgecolor { sethsbcolor } bind def
/graphcolor { sethsbcolor } bind def
/nopcolor {pop pop pop} bind def

/beginpage {	% i j npages
	/npages exch def
	/j exch def
	/i exch def
	/str 10 string def
	npages 1 gt {
		gsave
			coordfont setfont
			0 0 moveto
			(\() show i str cvs show (,) show j str cvs show (\)) show
		grestore
	} if
} bind def

/set_font {
	findfont exch
	scalefont setfont
} def

% draw aligned label in bounding box aligned to current point
/alignedtext {			% width adj text
	/text exch def
	/adj exch def
	/width exch def
	gsave
		width 0 gt {
			text stringwidth pop adj mul 0 rmoveto
		} if
		[] 0 setdash
		text show
	grestore
} def

/boxprim {				% xcorner ycorner xsize ysize
		4 2 roll
		moveto
		2 copy
		exch 0 rlineto
		0 exch rlineto
		pop neg 0 rlineto
		closepath
} bind def

/ellipse_path {
	/ry exch def
	/rx exch def
	/y exch def
	/x exch def
	matrix currentmatrix
	newpath
	x y translate
	rx ry scale
	0 0 1 0 360 arc
	setmatrix
} bind def

/endpage { showpage } bind def
/showpage { } def

/layercolorseq
	[	% layer color sequence - darkest to lightest
		[0 0 0]
		[.2 .8 .8]
		[.4 .8 .8]
		[.6 .8 .8]
		[.8 .8 .8]
	]
def

/layerlen layercolorseq length def

/setlayer {/maxlayer exch def /curlayer exch def
	layercolorseq curlayer 1 sub layerlen mod get
	aload pop sethsbcolor
	/nodecolor {nopcolor} def
	/edgecolor {nopcolor} def
	/graphcolor {nopcolor} def
} bind def

/onlayer { curlayer ne {invis} if } def

/onlayers {
	/myupper exch def
	/mylower exch def
	curlayer mylower lt
	curlayer myupper gt
	or
	{invis} if
} def

/curlayer 0 def

%%EndResource
%%EndProlog
%%BeginSetup
14 default-font-family set_font
1 setmiterlimit
% /arrowlength 10 def
% /arrowwidth 5 def

% make sure pdfmark is harmless for PS-interpreters other than Distiller
/pdfmark where {pop} {userdict /pdfmark /cleartomark load put} ifelse
% make '<<' and '>>' safe on PS Level 1 devices
/languagelevel where {pop languagelevel}{1} ifelse
2 lt {
    userdict (<<) cvn ([) cvn load put
    userdict (>>) cvn ([) cvn load put
} if

%%EndSetup
setupLatin1
%%Page: 1 1
%%PageBoundingBox: 36 36 1326 745
%%PageOrientation: Portrait
gsave
36 36 1326 745 boxprim clip newpath
0 0 1 beginpage
1 1 set_scale 0 rotate 40 40 translate
% Node1
gsave
0.000 0.000 0.749 nodecolor
newpath 0 309 moveto
0 330 lineto
110 330 lineto
110 309 lineto
closepath fill
1 setlinewidth
filled
0.000 0.000 0.000 nodecolor
newpath 0 309 moveto
0 330 lineto
110 330 lineto
110 309 lineto
closepath stroke
0.000 0.000 0.000 nodecolor
10.00 /FreeSans.ttf set_font
55 316 moveto 94 -0.5 (mezclaDiscoRam) alignedtext
grestore
% Node2
gsave
[ /Rect [ 559 548 623 568 ]
  /Border [ 0 0 0 ]
  /Action << /Subtype /URI /URI ($Pos_8cpp.html#3c3cc0b0ac5ee434c66362380dda8ce8) >>
  /Subtype /Link
/ANN pdfmark
[ /Rect [ 559 548 623 568 ]
  /Border [ 0 0 0 ]
  /Action << /Subtype /URI /URI ($Pos_8cpp.html#3c3cc0b0ac5ee434c66362380dda8ce8) >>
  /Subtype /Link
/ANN pdfmark
1 setlinewidth
0.000 0.000 0.000 nodecolor
newpath 559 547 moveto
559 568 lineto
623 568 lineto
623 547 lineto
closepath stroke
0.000 0.000 0.000 nodecolor
10.00 /FreeSans.ttf set_font
591 554 moveto 48 -0.5 (copiaPos) alignedtext
grestore
% Node1->Node2
gsave
1 setlinewidth
solid
0.667 0.776 0.439 edgecolor
newpath 56 330 moveto
61 365 80 482 146 545 curveto
259 652 469 599 553 571 curveto
stroke
0.667 0.776 0.439 edgecolor
newpath 554.427 574.226 moveto
563 568 lineto
552.416 567.521 lineto
closepath fill
1 setlinewidth
solid
0.667 0.776 0.439 edgecolor
newpath 554.427 574.226 moveto
563 568 lineto
552.416 567.521 lineto
closepath stroke
grestore
% Node3
gsave
[ /Rect [ 315 169 431 189 ]
  /Border [ 0 0 0 ]
  /Action << /Subtype /URI /URI ($TrieSDisco_8cpp.html#4cc0e861f2e192242a40d6337c70fc5f) >>
  /Subtype /Link
/ANN pdfmark
[ /Rect [ 315 169 431 189 ]
  /Border [ 0 0 0 ]
  /Action << /Subtype /URI /URI ($TrieSDisco_8cpp.html#4cc0e861f2e192242a40d6337c70fc5f) >>
  /Subtype /Link
/ANN pdfmark
1 setlinewidth
0.000 0.000 0.000 nodecolor
newpath 315 168 moveto
315 189 lineto
431 189 lineto
431 168 lineto
closepath stroke
0.000 0.000 0.000 nodecolor
10.00 /FreeSans.ttf set_font
373 175 moveto 100 -0.5 (escribeCopiaNodo) alignedtext
grestore
% Node1->Node3
gsave
1 setlinewidth
solid
0.667 0.776 0.439 edgecolor
newpath 65 309 moveto
80 292 112 259 146 241 curveto
196 215 258 198 305 190 curveto
stroke
0.667 0.776 0.439 edgecolor
newpath 305.881 193.393 moveto
315 188 lineto
304.508 186.529 lineto
closepath fill
1 setlinewidth
solid
0.667 0.776 0.439 edgecolor
newpath 305.881 193.393 moveto
315 188 lineto
304.508 186.529 lineto
closepath stroke
grestore
% Node4
gsave
[ /Rect [ 549 453 633 473 ]
  /Border [ 0 0 0 ]
  /Action << /Subtype /URI /URI ($TrieSDisco_8cpp.html#95dfc28ebaa02e82d3d1ffce08251628) >>
  /Subtype /Link
/ANN pdfmark
[ /Rect [ 549 453 633 473 ]
  /Border [ 0 0 0 ]
  /Action << /Subtype /URI /URI ($TrieSDisco_8cpp.html#95dfc28ebaa02e82d3d1ffce08251628) >>
  /Subtype /Link
/ANN pdfmark
1 setlinewidth
0.000 0.000 0.000 nodecolor
newpath 549 452 moveto
549 473 lineto
633 473 lineto
633 452 lineto
closepath stroke
0.000 0.000 0.000 nodecolor
10.00 /FreeSans.ttf set_font
591 459 moveto 68 -0.5 (escribeNodo) alignedtext
grestore
% Node1->Node4
gsave
1 setlinewidth
solid
0.667 0.776 0.439 edgecolor
newpath 68 330 moveto
86 343 117 365 146 381 curveto
208 412 225 418 292 434 curveto
377 453 478 459 539 462 curveto
stroke
0.667 0.776 0.439 edgecolor
newpath 539 465.5 moveto
549 462 lineto
539 458.5 lineto
closepath fill
1 setlinewidth
solid
0.667 0.776 0.439 edgecolor
newpath 539 465.5 moveto
549 462 lineto
539 458.5 lineto
closepath stroke
grestore
% Node5
gsave
[ /Rect [ 761 472 851 492 ]
  /Border [ 0 0 0 ]
  /Action << /Subtype /URI /URI ($comun_8hpp.html#96402bda6527bf98dd8e49d62ae182f8) >>
  /Subtype /Link
/ANN pdfmark
[ /Rect [ 761 472 851 492 ]
  /Border [ 0 0 0 ]
  /Action << /Subtype /URI /URI ($comun_8hpp.html#96402bda6527bf98dd8e49d62ae182f8) >>
  /Subtype /Link
/ANN pdfmark
1 setlinewidth
0.000 0.000 0.000 nodecolor
newpath 761 471 moveto
761 492 lineto
851 492 lineto
851 471 lineto
closepath stroke
0.000 0.000 0.000 nodecolor
10.00 /FreeSans.ttf set_font
806 478 moveto 74 -0.5 (escribeNDesp) alignedtext
grestore
% Node1->Node5
gsave
1 setlinewidth
solid
0.667 0.776 0.439 edgecolor
newpath 57 330 moveto
67 374 106 548 146 585 curveto
237 665 591 644 692 577 curveto
717 560 706 539 728 520 curveto
739 510 753 502 766 496 curveto
stroke
0.667 0.776 0.439 edgecolor
newpath 768.015 498.964 moveto
776 492 lineto
765.415 492.464 lineto
closepath fill
1 setlinewidth
solid
0.667 0.776 0.439 edgecolor
newpath 768.015 498.964 moveto
776 492 lineto
765.415 492.464 lineto
closepath stroke
grestore
% Node14
gsave
[ /Rect [ 564 207 618 227 ]
  /Border [ 0 0 0 ]
  /Action << /Subtype /URI /URI ($comun_8cpp.html#4a359aa93f2dd4e34badd70c0e1f7082) >>
  /Subtype /Link
/ANN pdfmark
[ /Rect [ 564 207 618 227 ]
  /Border [ 0 0 0 ]
  /Action << /Subtype /URI /URI ($comun_8cpp.html#4a359aa93f2dd4e34badd70c0e1f7082) >>
  /Subtype /Link
/ANN pdfmark
1 setlinewidth
0.000 0.000 0.000 nodecolor
newpath 564 206 moveto
564 227 lineto
619 227 lineto
619 206 lineto
closepath stroke
0.000 0.000 0.000 nodecolor
10.00 /FreeSans.ttf set_font
591 213 moveto 39 -0.5 (leeCad) alignedtext
grestore
% Node1->Node14
gsave
1 setlinewidth
solid
0.667 0.776 0.439 edgecolor
newpath 58 309 moveto
65 278 91 188 146 138 curveto
198 92 224 97 292 84 curveto
363 72 396 42 454 84 curveto
497 116 451 163 490 198 curveto
508 213 533 219 554 219 curveto
stroke
0.667 0.776 0.439 edgecolor
newpath 554 222.5 moveto
564 219 lineto
554 215.5 lineto
closepath fill
1 setlinewidth
solid
0.667 0.776 0.439 edgecolor
newpath 554 222.5 moveto
564 219 lineto
554 215.5 lineto
closepath stroke
grestore
% Node16
gsave
[ /Rect [ 557 169 625 189 ]
  /Border [ 0 0 0 ]
  /Action << /Subtype /URI /URI ($comun_8hpp.html#9871d7357fc245ec5b7a227a9a62eb36) >>
  /Subtype /Link
/ANN pdfmark
[ /Rect [ 557 169 625 189 ]
  /Border [ 0 0 0 ]
  /Action << /Subtype /URI /URI ($comun_8hpp.html#9871d7357fc245ec5b7a227a9a62eb36) >>
  /Subtype /Link
/ANN pdfmark
1 setlinewidth
0.000 0.000 0.000 nodecolor
newpath 557 168 moveto
557 189 lineto
625 189 lineto
625 168 lineto
closepath stroke
0.000 0.000 0.000 nodecolor
10.00 /FreeSans.ttf set_font
591 175 moveto 52 -0.5 (leeNDesp) alignedtext
grestore
% Node1->Node16
gsave
1 setlinewidth
solid
0.667 0.776 0.439 edgecolor
newpath 56 309 moveto
59 271 74 148 146 87 curveto
252 0 326 11 454 59 curveto
508 80 555 132 577 160 curveto
stroke
0.667 0.776 0.439 edgecolor
newpath 574.2 162.1 moveto
583 168 lineto
579.8 157.9 lineto
closepath fill
1 setlinewidth
solid
0.667 0.776 0.439 edgecolor
newpath 574.2 162.1 moveto
583 168 lineto
579.8 157.9 lineto
closepath stroke
grestore
% Node18
gsave
[ /Rect [ 566 264 616 284 ]
  /Border [ 0 0 0 ]
  /Action << /Subtype /URI /URI ($Pos_8cpp.html#36b67a50cba6dc1789825a3111bee9d2) >>
  /Subtype /Link
/ANN pdfmark
[ /Rect [ 566 264 616 284 ]
  /Border [ 0 0 0 ]
  /Action << /Subtype /URI /URI ($Pos_8cpp.html#36b67a50cba6dc1789825a3111bee9d2) >>
  /Subtype /Link
/ANN pdfmark
1 setlinewidth
0.000 0.000 0.000 nodecolor
newpath 566 263 moveto
566 284 lineto
617 284 lineto
617 263 lineto
closepath stroke
0.000 0.000 0.000 nodecolor
10.00 /FreeSans.ttf set_font
591 270 moveto 35 -0.5 (leePos) alignedtext
grestore
% Node1->Node18
gsave
1 setlinewidth
solid
0.667 0.776 0.439 edgecolor
newpath 98 309 moveto
113 305 130 301 146 298 curveto
211 284 227 279 292 274 curveto
388 266 500 270 556 272 curveto
stroke
0.667 0.776 0.439 edgecolor
newpath 555.701 275.488 moveto
566 273 lineto
556.398 268.522 lineto
closepath fill
1 setlinewidth
solid
0.667 0.776 0.439 edgecolor
newpath 555.701 275.488 moveto
566 273 lineto
556.398 268.522 lineto
closepath stroke
grestore
% Node20
gsave
[ /Rect [ 303 567 443 587 ]
  /Border [ 0 0 0 ]
  /Action << /Subtype /URI /URI ($RamDisco_8cpp.html#2cef55a7d5a3eb177f0d3b5a067f9e17) >>
  /Subtype /Link
/ANN pdfmark
[ /Rect [ 303 567 443 587 ]
  /Border [ 0 0 0 ]
  /Action << /Subtype /URI /URI ($RamDisco_8cpp.html#2cef55a7d5a3eb177f0d3b5a067f9e17) >>
  /Subtype /Link
/ANN pdfmark
1 setlinewidth
0.000 0.000 0.000 nodecolor
newpath 303 566 moveto
303 587 lineto
444 587 lineto
444 566 lineto
closepath stroke
0.000 0.000 0.000 nodecolor
10.00 /FreeSans.ttf set_font
373 573 moveto 125 -0.5 (escribeCopiaNodoRam) alignedtext
grestore
% Node1->Node20
gsave
1 setlinewidth
solid
0.667 0.776 0.439 edgecolor
newpath 57 330 moveto
64 361 89 456 146 506 curveto
187 541 246 559 293 567 curveto
stroke
0.667 0.776 0.439 edgecolor
newpath 292.508 570.471 moveto
303 569 lineto
293.881 563.607 lineto
closepath fill
1 setlinewidth
solid
0.667 0.776 0.439 edgecolor
newpath 292.508 570.471 moveto
303 569 lineto
293.881 563.607 lineto
closepath stroke
grestore
% Node22
gsave
[ /Rect [ 305 283 441 303 ]
  /Border [ 0 0 0 ]
  /Action << /Subtype /URI /URI ($TrieSDisco_8cpp.html#485d02d9d7ec4ae0114122861420c1d1) >>
  /Subtype /Link
/ANN pdfmark
[ /Rect [ 305 283 441 303 ]
  /Border [ 0 0 0 ]
  /Action << /Subtype /URI /URI ($TrieSDisco_8cpp.html#485d02d9d7ec4ae0114122861420c1d1) >>
  /Subtype /Link
/ANN pdfmark
1 setlinewidth
0.000 0.000 0.000 nodecolor
newpath 305 282 moveto
305 303 lineto
441 303 lineto
441 282 lineto
closepath stroke
0.000 0.000 0.000 nodecolor
10.00 /FreeSans.ttf set_font
373 289 moveto 120 -0.5 (escribeCopiaSubarbol) alignedtext
grestore
% Node1->Node22
gsave
1 setlinewidth
solid
0.667 0.776 0.439 edgecolor
newpath 110 315 moveto
161 311 238 305 295 300 curveto
stroke
0.667 0.776 0.439 edgecolor
newpath 295.398 303.478 moveto
305 299 lineto
294.701 296.512 lineto
closepath fill
1 setlinewidth
solid
0.667 0.776 0.439 edgecolor
newpath 295.398 303.478 moveto
305 299 lineto
294.701 296.512 lineto
closepath stroke
grestore
% Node23
gsave
[ /Rect [ 293 491 453 511 ]
  /Border [ 0 0 0 ]
  /Action << /Subtype /URI /URI ($RamDisco_8cpp.html#1d654f71e19a8010c6fec648e8cf9899) >>
  /Subtype /Link
/ANN pdfmark
[ /Rect [ 293 491 453 511 ]
  /Border [ 0 0 0 ]
  /Action << /Subtype /URI /URI ($RamDisco_8cpp.html#1d654f71e19a8010c6fec648e8cf9899) >>
  /Subtype /Link
/ANN pdfmark
1 setlinewidth
0.000 0.000 0.000 nodecolor
newpath 293 490 moveto
293 511 lineto
454 511 lineto
454 490 lineto
closepath stroke
0.000 0.000 0.000 nodecolor
10.00 /FreeSans.ttf set_font
373 497 moveto 145 -0.5 (escribeCopiaSubarbolRam) alignedtext
grestore
% Node1->Node23
gsave
1 setlinewidth
solid
0.667 0.776 0.439 edgecolor
newpath 58 330 moveto
65 359 91 441 146 477 curveto
186 503 239 510 283 510 curveto
stroke
0.667 0.776 0.439 edgecolor
newpath 283 513.5 moveto
293 510 lineto
283 506.5 lineto
closepath fill
1 setlinewidth
solid
0.667 0.776 0.439 edgecolor
newpath 283 513.5 moveto
293 510 lineto
283 506.5 lineto
closepath stroke
grestore
% Node24
gsave
[ /Rect [ 146 334 256 354 ]
  /Border [ 0 0 0 ]
  /Action << /Subtype /URI /URI ($RamDisco_8cpp.html#9889da3dbb12ee73c109e4998e1269f4) >>
  /Subtype /Link
/ANN pdfmark
[ /Rect [ 146 334 256 354 ]
  /Border [ 0 0 0 ]
  /Action << /Subtype /URI /URI ($RamDisco_8cpp.html#9889da3dbb12ee73c109e4998e1269f4) >>
  /Subtype /Link
/ANN pdfmark
1 setlinewidth
0.000 0.000 0.000 nodecolor
newpath 146 333 moveto
146 354 lineto
256 354 lineto
256 333 lineto
closepath stroke
0.000 0.000 0.000 nodecolor
10.00 /FreeSans.ttf set_font
201 340 moveto 94 -0.5 (mezclaDiscoRam) alignedtext
grestore
% Node1->Node24
gsave
1 setlinewidth
solid
0.667 0.776 0.439 edgecolor
newpath 110 329 moveto
119 330 127 332 136 333 curveto
stroke
0.667 0.776 0.439 edgecolor
newpath 135.508 336.471 moveto
146 335 lineto
136.881 329.607 lineto
closepath fill
1 setlinewidth
solid
0.667 0.776 0.439 edgecolor
newpath 135.508 336.471 moveto
146 335 lineto
136.881 329.607 lineto
closepath stroke
grestore
% Node25
gsave
[ /Rect [ 296 93 450 113 ]
  /Border [ 0 0 0 ]
  /Action << /Subtype /URI /URI ($comun_8cpp.html#c74356d5b37d454e0ddce0de8fac34f8) >>
  /Subtype /Link
/ANN pdfmark
[ /Rect [ 296 93 450 113 ]
  /Border [ 0 0 0 ]
  /Action << /Subtype /URI /URI ($comun_8cpp.html#c74356d5b37d454e0ddce0de8fac34f8) >>
  /Subtype /Link
/ANN pdfmark
1 setlinewidth
0.000 0.000 0.000 nodecolor
newpath 296 92 moveto
296 113 lineto
451 113 lineto
451 92 lineto
closepath stroke
0.000 0.000 0.000 nodecolor
10.00 /FreeSans.ttf set_font
373 99 moveto 139 -0.5 (prefijo_comun_mas_largo) alignedtext
grestore
% Node1->Node25
gsave
1 setlinewidth
solid
0.667 0.776 0.439 edgecolor
newpath 61 309 moveto
74 286 106 231 146 199 curveto
198 157 273 130 321 116 curveto
stroke
0.667 0.776 0.439 edgecolor
newpath 322.427 119.226 moveto
331 113 lineto
320.416 112.521 lineto
closepath fill
1 setlinewidth
solid
0.667 0.776 0.439 edgecolor
newpath 322.427 119.226 moveto
331 113 lineto
320.416 112.521 lineto
closepath stroke
grestore
% Node3->Node4
gsave
1 setlinewidth
solid
0.667 0.776 0.439 edgecolor
newpath 382 189 moveto
397 206 429 243 454 274 curveto
502 334 554 409 577 444 curveto
stroke
0.667 0.776 0.439 edgecolor
newpath 574.2 446.1 moveto
583 452 lineto
579.8 441.9 lineto
closepath fill
1 setlinewidth
solid
0.667 0.776 0.439 edgecolor
newpath 574.2 446.1 moveto
583 452 lineto
579.8 441.9 lineto
closepath stroke
grestore
% Node3->Node14
gsave
1 setlinewidth
solid
0.667 0.776 0.439 edgecolor
newpath 431 189 moveto
470 195 520 204 554 210 curveto
stroke
0.667 0.776 0.439 edgecolor
newpath 553.508 213.471 moveto
564 212 lineto
554.881 206.607 lineto
closepath fill
1 setlinewidth
solid
0.667 0.776 0.439 edgecolor
newpath 553.508 213.471 moveto
564 212 lineto
554.881 206.607 lineto
closepath stroke
grestore
% Node3->Node16
gsave
1 setlinewidth
solid
0.667 0.776 0.439 edgecolor
newpath 431 179 moveto
467 179 513 179 547 179 curveto
stroke
0.667 0.776 0.439 edgecolor
newpath 547 182.5 moveto
557 179 lineto
547 175.5 lineto
closepath fill
1 setlinewidth
solid
0.667 0.776 0.439 edgecolor
newpath 547 182.5 moveto
557 179 lineto
547 175.5 lineto
closepath stroke
grestore
% Node3->Node18
gsave
1 setlinewidth
solid
0.667 0.776 0.439 edgecolor
newpath 392 189 moveto
415 201 455 221 490 236 curveto
512 245 537 254 556 261 curveto
stroke
0.667 0.776 0.439 edgecolor
newpath 555.415 264.536 moveto
566 265 lineto
558.015 258.036 lineto
closepath fill
1 setlinewidth
solid
0.667 0.776 0.439 edgecolor
newpath 555.415 264.536 moveto
566 265 lineto
558.015 258.036 lineto
closepath stroke
grestore
% Node4->Node5
gsave
1 setlinewidth
solid
0.667 0.776 0.439 edgecolor
newpath 633 467 moveto
667 470 714 474 751 477 curveto
stroke
0.667 0.776 0.439 edgecolor
newpath 750.701 480.488 moveto
761 478 lineto
751.398 473.522 lineto
closepath fill
1 setlinewidth
solid
0.667 0.776 0.439 edgecolor
newpath 750.701 480.488 moveto
761 478 lineto
751.398 473.522 lineto
closepath stroke
grestore
% Node7
gsave
[ /Rect [ 770 434 842 454 ]
  /Border [ 0 0 0 ]
  /Action << /Subtype /URI /URI ($Pos_8cpp.html#42c2daaa880eeb397c024b6ffa22c8cf) >>
  /Subtype /Link
/ANN pdfmark
[ /Rect [ 770 434 842 454 ]
  /Border [ 0 0 0 ]
  /Action << /Subtype /URI /URI ($Pos_8cpp.html#42c2daaa880eeb397c024b6ffa22c8cf) >>
  /Subtype /Link
/ANN pdfmark
1 setlinewidth
0.000 0.000 0.000 nodecolor
newpath 770 433 moveto
770 454 lineto
843 454 lineto
843 433 lineto
closepath stroke
0.000 0.000 0.000 nodecolor
10.00 /FreeSans.ttf set_font
806 440 moveto 57 -0.5 (escribePos) alignedtext
grestore
% Node4->Node7
gsave
1 setlinewidth
solid
0.667 0.776 0.439 edgecolor
newpath 633 459 moveto
670 456 722 452 760 448 curveto
stroke
0.667 0.776 0.439 edgecolor
newpath 760.398 451.478 moveto
770 447 lineto
759.701 444.512 lineto
closepath fill
1 setlinewidth
solid
0.667 0.776 0.439 edgecolor
newpath 760.398 451.478 moveto
770 447 lineto
759.701 444.512 lineto
closepath stroke
grestore
% Node10
gsave
[ /Rect [ 728 529 884 549 ]
  /Border [ 0 0 0 ]
  /Action << /Subtype /URI /URI ($TrieSDisco_8cpp.html#453b277936104f13edb4f8158e015eba) >>
  /Subtype /Link
/ANN pdfmark
[ /Rect [ 728 529 884 549 ]
  /Border [ 0 0 0 ]
  /Action << /Subtype /URI /URI ($TrieSDisco_8cpp.html#453b277936104f13edb4f8158e015eba) >>
  /Subtype /Link
/ANN pdfmark
1 setlinewidth
0.000 0.000 0.000 nodecolor
newpath 728 528 moveto
728 549 lineto
884 549 lineto
884 528 lineto
closepath stroke
0.000 0.000 0.000 nodecolor
10.00 /FreeSans.ttf set_font
806 535 moveto 140 -0.5 (precalcula_escribe_actual) alignedtext
grestore
% Node4->Node10
gsave
1 setlinewidth
solid
0.667 0.776 0.439 edgecolor
newpath 620 473 moveto
657 486 723 509 765 525 curveto
stroke
0.667 0.776 0.439 edgecolor
newpath 764.416 528.479 moveto
775 528 lineto
766.427 521.774 lineto
closepath fill
1 setlinewidth
solid
0.667 0.776 0.439 edgecolor
newpath 764.416 528.479 moveto
775 528 lineto
766.427 521.774 lineto
closepath stroke
grestore
% Node6
gsave
[ /Rect [ 923 472 1005 492 ]
  /Border [ 0 0 0 ]
  /Action << /Subtype /URI /URI ($comun_8cpp.html#b5388a972300b0a3d2e70c16097a3781) >>
  /Subtype /Link
/ANN pdfmark
[ /Rect [ 923 472 1005 492 ]
  /Border [ 0 0 0 ]
  /Action << /Subtype /URI /URI ($comun_8cpp.html#b5388a972300b0a3d2e70c16097a3781) >>
  /Subtype /Link
/ANN pdfmark
1 setlinewidth
0.000 0.000 0.000 nodecolor
newpath 923 471 moveto
923 492 lineto
1005 492 lineto
1005 471 lineto
closepath stroke
0.000 0.000 0.000 nodecolor
10.00 /FreeSans.ttf set_font
964 478 moveto 66 -0.5 (escribe128b) alignedtext
grestore
% Node5->Node6
gsave
1 setlinewidth
solid
0.667 0.776 0.439 edgecolor
newpath 851 482 moveto
871 482 893 482 913 482 curveto
stroke
0.667 0.776 0.439 edgecolor
newpath 913 485.5 moveto
923 482 lineto
913 478.5 lineto
closepath fill
1 setlinewidth
solid
0.667 0.776 0.439 edgecolor
newpath 913 485.5 moveto
923 482 lineto
913 478.5 lineto
closepath stroke
grestore
% Node8
gsave
[ /Rect [ 1044 472 1172 492 ]
  /Border [ 0 0 0 ]
  /Action << /Subtype /URI /URI ($Elias_8cpp.html#59732ce42a1e75fbbb382a6964ef4620) >>
  /Subtype /Link
/ANN pdfmark
[ /Rect [ 1044 472 1172 492 ]
  /Border [ 0 0 0 ]
  /Action << /Subtype /URI /URI ($Elias_8cpp.html#59732ce42a1e75fbbb382a6964ef4620) >>
  /Subtype /Link
/ANN pdfmark
1 setlinewidth
0.000 0.000 0.000 nodecolor
newpath 1044 471 moveto
1044 492 lineto
1172 492 lineto
1172 471 lineto
closepath stroke
0.000 0.000 0.000 nodecolor
10.00 /FreeSans.ttf set_font
1108 478 moveto 112 -0.5 (escribe_elias_gama2) alignedtext
grestore
% Node7->Node8
gsave
1 setlinewidth
solid
0.667 0.776 0.439 edgecolor
newpath 843 446 moveto
884 449 951 455 1008 463 curveto
1021 465 1033 467 1046 469 curveto
stroke
0.667 0.776 0.439 edgecolor
newpath 1045.51 472.471 moveto
1056 471 lineto
1046.88 465.607 lineto
closepath fill
1 setlinewidth
solid
0.667 0.776 0.439 edgecolor
newpath 1045.51 472.471 moveto
1056 471 lineto
1046.88 465.607 lineto
closepath stroke
grestore
% Node9
gsave
[ /Rect [ 1209 500 1281 520 ]
  /Border [ 0 0 0 ]
  /Action << /Subtype /URI /URI ($Elias_8cpp.html#7127ec8dff13cc2ad873693ca8933d38) >>
  /Subtype /Link
/ANN pdfmark
[ /Rect [ 1209 500 1281 520 ]
  /Border [ 0 0 0 ]
  /Action << /Subtype /URI /URI ($Elias_8cpp.html#7127ec8dff13cc2ad873693ca8933d38) >>
  /Subtype /Link
/ANN pdfmark
1 setlinewidth
0.000 0.000 0.000 nodecolor
newpath 1209 499 moveto
1209 520 lineto
1282 520 lineto
1282 499 lineto
closepath stroke
0.000 0.000 0.000 nodecolor
10.00 /FreeSans.ttf set_font
1245 506 moveto 57 -0.5 (piso_logb2) alignedtext
grestore
% Node8->Node9
gsave
1 setlinewidth
solid
0.667 0.776 0.439 edgecolor
newpath 1157 492 moveto
1171 495 1185 498 1199 501 curveto
stroke
0.667 0.776 0.439 edgecolor
newpath 1198.51 504.471 moveto
1209 503 lineto
1199.88 497.607 lineto
closepath fill
1 setlinewidth
solid
0.667 0.776 0.439 edgecolor
newpath 1198.51 504.471 moveto
1209 503 lineto
1199.88 497.607 lineto
closepath stroke
grestore
% Node11
gsave
[ /Rect [ 927 510 1001 530 ]
  /Border [ 0 0 0 ]
  /Action << /Subtype /URI /URI ($comun_8hpp.html#3f1f97c70ac3ffba1584b0fc02661cab) >>
  /Subtype /Link
/ANN pdfmark
[ /Rect [ 927 510 1001 530 ]
  /Border [ 0 0 0 ]
  /Action << /Subtype /URI /URI ($comun_8hpp.html#3f1f97c70ac3ffba1584b0fc02661cab) >>
  /Subtype /Link
/ANN pdfmark
1 setlinewidth
0.000 0.000 0.000 nodecolor
newpath 927 509 moveto
927 530 lineto
1002 530 lineto
1002 509 lineto
closepath stroke
0.000 0.000 0.000 nodecolor
10.00 /FreeSans.ttf set_font
964 516 moveto 59 -0.5 (longNDesp) alignedtext
grestore
% Node10->Node11
gsave
1 setlinewidth
solid
0.667 0.776 0.439 edgecolor
newpath 884 530 moveto
895 529 906 527 917 526 curveto
stroke
0.667 0.776 0.439 edgecolor
newpath 917.398 529.478 moveto
927 525 lineto
916.701 522.512 lineto
closepath fill
1 setlinewidth
solid
0.667 0.776 0.439 edgecolor
newpath 917.398 529.478 moveto
927 525 lineto
916.701 522.512 lineto
closepath stroke
grestore
% Node12
gsave
[ /Rect [ 935 548 993 568 ]
  /Border [ 0 0 0 ]
  /Action << /Subtype /URI /URI ($Pos_8cpp.html#ad8740377e9e19836d654491a170ac9a) >>
  /Subtype /Link
/ANN pdfmark
[ /Rect [ 935 548 993 568 ]
  /Border [ 0 0 0 ]
  /Action << /Subtype /URI /URI ($Pos_8cpp.html#ad8740377e9e19836d654491a170ac9a) >>
  /Subtype /Link
/ANN pdfmark
1 setlinewidth
0.000 0.000 0.000 nodecolor
newpath 935 547 moveto
935 568 lineto
993 568 lineto
993 547 lineto
closepath stroke
0.000 0.000 0.000 nodecolor
10.00 /FreeSans.ttf set_font
964 554 moveto 42 -0.5 (longPos) alignedtext
grestore
% Node10->Node12
gsave
1 setlinewidth
solid
0.667 0.776 0.439 edgecolor
newpath 884 548 moveto
898 550 912 552 925 553 curveto
stroke
0.667 0.776 0.439 edgecolor
newpath 924.701 556.488 moveto
935 554 lineto
925.398 549.522 lineto
closepath fill
1 setlinewidth
solid
0.667 0.776 0.439 edgecolor
newpath 924.701 556.488 moveto
935 554 lineto
925.398 549.522 lineto
closepath stroke
grestore
% Node13
gsave
[ /Rect [ 1055 529 1161 549 ]
  /Border [ 0 0 0 ]
  /Action << /Subtype /URI /URI ($Elias_8cpp.html#214c4fd6adcbe1fe7de47c4ba521198a) >>
  /Subtype /Link
/ANN pdfmark
[ /Rect [ 1055 529 1161 549 ]
  /Border [ 0 0 0 ]
  /Action << /Subtype /URI /URI ($Elias_8cpp.html#214c4fd6adcbe1fe7de47c4ba521198a) >>
  /Subtype /Link
/ANN pdfmark
1 setlinewidth
0.000 0.000 0.000 nodecolor
newpath 1055 528 moveto
1055 549 lineto
1162 549 lineto
1162 528 lineto
closepath stroke
0.000 0.000 0.000 nodecolor
10.00 /FreeSans.ttf set_font
1108 535 moveto 91 -0.5 (long_elias_gama) alignedtext
grestore
% Node12->Node13
gsave
1 setlinewidth
solid
0.667 0.776 0.439 edgecolor
newpath 993 554 moveto
1008 552 1027 550 1045 547 curveto
stroke
0.667 0.776 0.439 edgecolor
newpath 1045.4 550.478 moveto
1055 546 lineto
1044.7 543.512 lineto
closepath fill
1 setlinewidth
solid
0.667 0.776 0.439 edgecolor
newpath 1045.4 550.478 moveto
1055 546 lineto
1044.7 543.512 lineto
closepath stroke
grestore
% Node13->Node9
gsave
1 setlinewidth
solid
0.667 0.776 0.439 edgecolor
newpath 1160 528 moveto
1173 526 1186 523 1199 520 curveto
stroke
0.667 0.776 0.439 edgecolor
newpath 1199.88 523.393 moveto
1209 518 lineto
1198.51 516.529 lineto
closepath fill
1 setlinewidth
solid
0.667 0.776 0.439 edgecolor
newpath 1199.88 523.393 moveto
1209 518 lineto
1198.51 516.529 lineto
closepath stroke
grestore
% Node15
gsave
[ /Rect [ 920 226 1008 246 ]
  /Border [ 0 0 0 ]
  /Action << /Subtype /URI /URI ($comun_8cpp.html#88ffeb20e447cad877c37bb473033590) >>
  /Subtype /Link
/ANN pdfmark
[ /Rect [ 920 226 1008 246 ]
  /Border [ 0 0 0 ]
  /Action << /Subtype /URI /URI ($comun_8cpp.html#88ffeb20e447cad877c37bb473033590) >>
  /Subtype /Link
/ANN pdfmark
1 setlinewidth
0.000 0.000 0.000 nodecolor
newpath 920 225 moveto
920 246 lineto
1008 246 lineto
1008 225 lineto
closepath stroke
0.000 0.000 0.000 nodecolor
10.00 /FreeSans.ttf set_font
964 232 moveto 72 -0.5 (errorFormato) alignedtext
grestore
% Node14->Node15
gsave
1 setlinewidth
solid
0.667 0.776 0.439 edgecolor
newpath 619 218 moveto
681 222 829 229 910 233 curveto
stroke
0.667 0.776 0.439 edgecolor
newpath 909.701 236.488 moveto
920 234 lineto
910.398 229.522 lineto
closepath fill
1 setlinewidth
solid
0.667 0.776 0.439 edgecolor
newpath 909.701 236.488 moveto
920 234 lineto
910.398 229.522 lineto
closepath stroke
grestore
% Node17
gsave
[ /Rect [ 776 169 836 189 ]
  /Border [ 0 0 0 ]
  /Action << /Subtype /URI /URI ($comun_8cpp.html#c7bf9e68bbdccea36ce786b806244ea1) >>
  /Subtype /Link
/ANN pdfmark
[ /Rect [ 776 169 836 189 ]
  /Border [ 0 0 0 ]
  /Action << /Subtype /URI /URI ($comun_8cpp.html#c7bf9e68bbdccea36ce786b806244ea1) >>
  /Subtype /Link
/ANN pdfmark
1 setlinewidth
0.000 0.000 0.000 nodecolor
newpath 776 168 moveto
776 189 lineto
836 189 lineto
836 168 lineto
closepath stroke
0.000 0.000 0.000 nodecolor
10.00 /FreeSans.ttf set_font
806 175 moveto 44 -0.5 (lee128b) alignedtext
grestore
% Node16->Node17
gsave
1 setlinewidth
solid
0.667 0.776 0.439 edgecolor
newpath 625 179 moveto
664 179 725 179 766 179 curveto
stroke
0.667 0.776 0.439 edgecolor
newpath 766 182.5 moveto
776 179 lineto
766 175.5 lineto
closepath fill
1 setlinewidth
solid
0.667 0.776 0.439 edgecolor
newpath 766 182.5 moveto
776 179 lineto
766 175.5 lineto
closepath stroke
grestore
% Node17->Node15
gsave
1 setlinewidth
solid
0.667 0.776 0.439 edgecolor
newpath 836 188 moveto
851 192 868 198 884 203 curveto
899 209 915 215 929 221 curveto
stroke
0.667 0.776 0.439 edgecolor
newpath 927.44 224.137 moveto
938 225 lineto
930.283 217.74 lineto
closepath fill
1 setlinewidth
solid
0.667 0.776 0.439 edgecolor
newpath 927.44 224.137 moveto
938 225 lineto
930.283 217.74 lineto
closepath stroke
grestore
% Node18->Node15
gsave
1 setlinewidth
solid
0.667 0.776 0.439 edgecolor
newpath 617 271 moveto
677 265 829 250 910 242 curveto
stroke
0.667 0.776 0.439 edgecolor
newpath 910.398 245.478 moveto
920 241 lineto
909.701 238.512 lineto
closepath fill
1 setlinewidth
solid
0.667 0.776 0.439 edgecolor
newpath 910.398 245.478 moveto
920 241 lineto
909.701 238.512 lineto
closepath stroke
grestore
% Node19
gsave
[ /Rect [ 753 283 859 303 ]
  /Border [ 0 0 0 ]
  /Action << /Subtype /URI /URI ($Elias_8cpp.html#95ee5a0ffb91f203612d2ce9d063ec36) >>
  /Subtype /Link
/ANN pdfmark
[ /Rect [ 753 283 859 303 ]
  /Border [ 0 0 0 ]
  /Action << /Subtype /URI /URI ($Elias_8cpp.html#95ee5a0ffb91f203612d2ce9d063ec36) >>
  /Subtype /Link
/ANN pdfmark
1 setlinewidth
0.000 0.000 0.000 nodecolor
newpath 753 282 moveto
753 303 lineto
859 303 lineto
859 282 lineto
closepath stroke
0.000 0.000 0.000 nodecolor
10.00 /FreeSans.ttf set_font
806 289 moveto 90 -0.5 (lee_elias_gama2) alignedtext
grestore
% Node18->Node19
gsave
1 setlinewidth
solid
0.667 0.776 0.439 edgecolor
newpath 617 276 moveto
648 279 701 283 743 287 curveto
stroke
0.667 0.776 0.439 edgecolor
newpath 742.701 290.488 moveto
753 288 lineto
743.398 283.522 lineto
closepath fill
1 setlinewidth
solid
0.667 0.776 0.439 edgecolor
newpath 742.701 290.488 moveto
753 288 lineto
743.398 283.522 lineto
closepath stroke
grestore
% Node19->Node15
gsave
1 setlinewidth
solid
0.667 0.776 0.439 edgecolor
newpath 844 282 moveto
857 278 871 274 884 269 curveto
900 263 917 256 932 250 curveto
stroke
0.667 0.776 0.439 edgecolor
newpath 933.283 253.26 moveto
941 246 lineto
930.44 246.863 lineto
closepath fill
1 setlinewidth
solid
0.667 0.776 0.439 edgecolor
newpath 933.283 253.26 moveto
941 246 lineto
930.44 246.863 lineto
closepath stroke
grestore
% Node20->Node2
gsave
1 setlinewidth
solid
0.667 0.776 0.439 edgecolor
newpath 444 571 moveto
479 567 519 564 549 562 curveto
stroke
0.667 0.776 0.439 edgecolor
newpath 549.398 565.478 moveto
559 561 lineto
548.701 558.512 lineto
closepath fill
1 setlinewidth
solid
0.667 0.776 0.439 edgecolor
newpath 549.398 565.478 moveto
559 561 lineto
548.701 558.512 lineto
closepath stroke
grestore
% Node20->Node4
gsave
1 setlinewidth
solid
0.667 0.776 0.439 edgecolor
newpath 394 566 moveto
434 546 518 501 563 478 curveto
stroke
0.667 0.776 0.439 edgecolor
newpath 564.958 480.916 moveto
572 473 lineto
561.559 474.797 lineto
closepath fill
1 setlinewidth
solid
0.667 0.776 0.439 edgecolor
newpath 564.958 480.916 moveto
572 473 lineto
561.559 474.797 lineto
closepath stroke
grestore
% Node21
gsave
[ /Rect [ 490 681 692 701 ]
  /Border [ 0 0 0 ]
  /Action << /Subtype /URI /URI ($RamDisco_8cpp.html#5b79fc3f073aeb2481fb1d51274a52a6) >>
  /Subtype /Link
/ANN pdfmark
[ /Rect [ 490 681 692 701 ]
  /Border [ 0 0 0 ]
  /Action << /Subtype /URI /URI ($RamDisco_8cpp.html#5b79fc3f073aeb2481fb1d51274a52a6) >>
  /Subtype /Link
/ANN pdfmark
1 setlinewidth
0.000 0.000 0.000 nodecolor
newpath 490 680 moveto
490 701 lineto
692 701 lineto
692 680 lineto
closepath stroke
0.000 0.000 0.000 nodecolor
10.00 /FreeSans.ttf set_font
591 687 moveto 186 -0.5 (precalcula_escribe_con_hermanos) alignedtext
grestore
% Node20->Node21
gsave
1 setlinewidth
solid
0.667 0.776 0.439 edgecolor
newpath 392 587 moveto
430 607 516 651 561 675 curveto
stroke
0.667 0.776 0.439 edgecolor
newpath 559.559 678.203 moveto
570 680 lineto
562.958 672.084 lineto
closepath fill
1 setlinewidth
solid
0.667 0.776 0.439 edgecolor
newpath 559.559 678.203 moveto
570 680 lineto
562.958 672.084 lineto
closepath stroke
grestore
% Node21->Node10
gsave
1 setlinewidth
solid
0.667 0.776 0.439 edgecolor
newpath 661 680 moveto
672 677 683 672 692 667 curveto
739 638 776 586 794 558 curveto
stroke
0.667 0.776 0.439 edgecolor
newpath 797.365 559.262 moveto
800 549 lineto
791.541 555.379 lineto
closepath fill
1 setlinewidth
solid
0.667 0.776 0.439 edgecolor
newpath 797.365 559.262 moveto
800 549 lineto
791.541 555.379 lineto
closepath stroke
grestore
% Node22->Node4
gsave
1 setlinewidth
solid
0.667 0.776 0.439 edgecolor
newpath 386 303 moveto
422 331 524 411 569 446 curveto
stroke
0.667 0.776 0.439 edgecolor
newpath 566.9 448.8 moveto
577 452 lineto
571.1 443.2 lineto
closepath fill
1 setlinewidth
solid
0.667 0.776 0.439 edgecolor
newpath 566.9 448.8 moveto
577 452 lineto
571.1 443.2 lineto
closepath stroke
grestore
% Node22->Node5
gsave
1 setlinewidth
solid
0.667 0.776 0.439 edgecolor
newpath 441 293 moveto
512 296 622 311 692 373 curveto
725 401 696 434 728 463 curveto
735 469 743 473 751 476 curveto
stroke
0.667 0.776 0.439 edgecolor
newpath 750.508 479.471 moveto
761 478 lineto
751.881 472.607 lineto
closepath fill
1 setlinewidth
solid
0.667 0.776 0.439 edgecolor
newpath 750.508 479.471 moveto
761 478 lineto
751.881 472.607 lineto
closepath stroke
grestore
% Node22->Node14
gsave
1 setlinewidth
solid
0.667 0.776 0.439 edgecolor
newpath 405 282 moveto
445 268 512 245 554 230 curveto
stroke
0.667 0.776 0.439 edgecolor
newpath 555.427 233.226 moveto
564 227 lineto
553.416 226.521 lineto
closepath fill
1 setlinewidth
solid
0.667 0.776 0.439 edgecolor
newpath 555.427 233.226 moveto
564 227 lineto
553.416 226.521 lineto
closepath stroke
grestore
% Node22->Node16
gsave
1 setlinewidth
solid
0.667 0.776 0.439 edgecolor
newpath 383 282 moveto
402 262 445 220 490 198 curveto
508 190 529 185 547 183 curveto
stroke
0.667 0.776 0.439 edgecolor
newpath 547.881 186.393 moveto
557 181 lineto
546.508 179.529 lineto
closepath fill
1 setlinewidth
solid
0.667 0.776 0.439 edgecolor
newpath 547.881 186.393 moveto
557 181 lineto
546.508 179.529 lineto
closepath stroke
grestore
% Node22->Node18
gsave
1 setlinewidth
solid
0.667 0.776 0.439 edgecolor
newpath 441 287 moveto
479 283 525 280 556 277 curveto
stroke
0.667 0.776 0.439 edgecolor
newpath 556.398 280.478 moveto
566 276 lineto
555.701 273.512 lineto
closepath fill
1 setlinewidth
solid
0.667 0.776 0.439 edgecolor
newpath 556.398 280.478 moveto
566 276 lineto
555.701 273.512 lineto
closepath stroke
grestore
% Node22->Node22
gsave
1 setlinewidth
solid
0.667 0.776 0.439 edgecolor
newpath 319 303 moveto
295 312 313 321 373 321 curveto
422 321 443 315 436 308 curveto
stroke
0.667 0.776 0.439 edgecolor
newpath 437.441 304.797 moveto
427 303 lineto
434.042 310.916 lineto
closepath fill
1 setlinewidth
solid
0.667 0.776 0.439 edgecolor
newpath 437.441 304.797 moveto
427 303 lineto
434.042 310.916 lineto
closepath stroke
grestore
% Node23->Node2
gsave
1 setlinewidth
solid
0.667 0.776 0.439 edgecolor
newpath 411 511 moveto
450 521 509 536 549 547 curveto
stroke
0.667 0.776 0.439 edgecolor
newpath 548.416 550.479 moveto
559 550 lineto
550.427 543.774 lineto
closepath fill
1 setlinewidth
solid
0.667 0.776 0.439 edgecolor
newpath 548.416 550.479 moveto
559 550 lineto
550.427 543.774 lineto
closepath stroke
grestore
% Node23->Node4
gsave
1 setlinewidth
solid
0.667 0.776 0.439 edgecolor
newpath 436 490 moveto
469 485 508 478 539 472 curveto
stroke
0.667 0.776 0.439 edgecolor
newpath 539.881 475.393 moveto
549 470 lineto
538.508 468.529 lineto
closepath fill
1 setlinewidth
solid
0.667 0.776 0.439 edgecolor
newpath 539.881 475.393 moveto
549 470 lineto
538.508 468.529 lineto
closepath stroke
grestore
% Node23->Node5
gsave
1 setlinewidth
solid
0.667 0.776 0.439 edgecolor
newpath 454 497 moveto
541 493 675 488 751 484 curveto
stroke
0.667 0.776 0.439 edgecolor
newpath 751 487.5 moveto
761 484 lineto
751 480.5 lineto
closepath fill
1 setlinewidth
solid
0.667 0.776 0.439 edgecolor
newpath 751 487.5 moveto
761 484 lineto
751 480.5 lineto
closepath stroke
grestore
% Node24->Node2
gsave
1 setlinewidth
solid
0.667 0.776 0.439 edgecolor
newpath 203 354 moveto
209 385 232 478 292 520 curveto
333 548 477 555 549 558 curveto
stroke
0.667 0.776 0.439 edgecolor
newpath 549 561.5 moveto
559 558 lineto
549 554.5 lineto
closepath fill
1 setlinewidth
solid
0.667 0.776 0.439 edgecolor
newpath 549 561.5 moveto
559 558 lineto
549 554.5 lineto
closepath stroke
grestore
% Node24->Node3
gsave
1 setlinewidth
solid
0.667 0.776 0.439 edgecolor
newpath 205 333 moveto
215 306 245 238 292 203 curveto
297 199 304 195 310 193 curveto
stroke
0.667 0.776 0.439 edgecolor
newpath 312.015 195.964 moveto
320 189 lineto
309.415 189.464 lineto
closepath fill
1 setlinewidth
solid
0.667 0.776 0.439 edgecolor
newpath 312.015 195.964 moveto
320 189 lineto
309.415 189.464 lineto
closepath stroke
grestore
% Node24->Node4
gsave
1 setlinewidth
solid
0.667 0.776 0.439 edgecolor
newpath 214 354 moveto
231 367 262 389 292 401 curveto
374 434 478 450 539 458 curveto
stroke
0.667 0.776 0.439 edgecolor
newpath 538.701 461.488 moveto
549 459 lineto
539.398 454.522 lineto
closepath fill
1 setlinewidth
solid
0.667 0.776 0.439 edgecolor
newpath 538.701 461.488 moveto
549 459 lineto
539.398 454.522 lineto
closepath stroke
grestore
% Node24->Node5
gsave
1 setlinewidth
solid
0.667 0.776 0.439 edgecolor
newpath 256 350 moveto
349 361 540 389 692 444 curveto
710 450 712 456 728 463 curveto
735 466 743 468 751 470 curveto
stroke
0.667 0.776 0.439 edgecolor
newpath 750.416 473.479 moveto
761 473 lineto
752.427 466.774 lineto
closepath fill
1 setlinewidth
solid
0.667 0.776 0.439 edgecolor
newpath 750.416 473.479 moveto
761 473 lineto
752.427 466.774 lineto
closepath stroke
grestore
% Node24->Node14
gsave
1 setlinewidth
solid
0.667 0.776 0.439 edgecolor
newpath 212 333 moveto
228 317 260 288 292 274 curveto
380 234 496 222 554 219 curveto
stroke
0.667 0.776 0.439 edgecolor
newpath 554.398 222.478 moveto
564 218 lineto
553.701 215.512 lineto
closepath fill
1 setlinewidth
solid
0.667 0.776 0.439 edgecolor
newpath 554.398 222.478 moveto
564 218 lineto
553.701 215.512 lineto
closepath stroke
grestore
% Node24->Node16
gsave
1 setlinewidth
solid
0.667 0.776 0.439 edgecolor
newpath 203 333 moveto
208 299 229 200 292 160 curveto
375 109 496 142 556 164 curveto
stroke
0.667 0.776 0.439 edgecolor
newpath 554.44 167.137 moveto
565 168 lineto
557.283 160.74 lineto
closepath fill
1 setlinewidth
solid
0.667 0.776 0.439 edgecolor
newpath 554.44 167.137 moveto
565 168 lineto
557.283 160.74 lineto
closepath stroke
grestore
% Node24->Node18
gsave
1 setlinewidth
solid
0.667 0.776 0.439 edgecolor
newpath 256 346 moveto
308 347 388 345 454 330 curveto
493 321 536 302 563 289 curveto
stroke
0.667 0.776 0.439 edgecolor
newpath 564.958 291.916 moveto
572 284 lineto
561.559 285.797 lineto
closepath fill
1 setlinewidth
solid
0.667 0.776 0.439 edgecolor
newpath 564.958 291.916 moveto
572 284 lineto
561.559 285.797 lineto
closepath stroke
grestore
% Node24->Node20
gsave
1 setlinewidth
solid
0.667 0.776 0.439 edgecolor
newpath 202 354 moveto
208 388 229 496 292 553 curveto
296 556 300 559 305 561 curveto
stroke
0.667 0.776 0.439 edgecolor
newpath 303.559 564.203 moveto
314 566 lineto
306.958 558.084 lineto
closepath fill
1 setlinewidth
solid
0.667 0.776 0.439 edgecolor
newpath 303.559 564.203 moveto
314 566 lineto
306.958 558.084 lineto
closepath stroke
grestore
% Node24->Node22
gsave
1 setlinewidth
solid
0.667 0.776 0.439 edgecolor
newpath 238 333 moveto
265 325 301 314 329 306 curveto
stroke
0.667 0.776 0.439 edgecolor
newpath 330.427 309.226 moveto
339 303 lineto
328.416 302.521 lineto
closepath fill
1 setlinewidth
solid
0.667 0.776 0.439 edgecolor
newpath 330.427 309.226 moveto
339 303 lineto
328.416 302.521 lineto
closepath stroke
grestore
% Node24->Node23
gsave
1 setlinewidth
solid
0.667 0.776 0.439 edgecolor
newpath 210 354 moveto
226 372 260 410 292 439 curveto
311 455 333 472 349 484 curveto
stroke
0.667 0.776 0.439 edgecolor
newpath 346.9 486.8 moveto
357 490 lineto
351.1 481.2 lineto
closepath fill
1 setlinewidth
solid
0.667 0.776 0.439 edgecolor
newpath 346.9 486.8 moveto
357 490 lineto
351.1 481.2 lineto
closepath stroke
grestore
% Node24->Node24
gsave
1 setlinewidth
solid
0.667 0.776 0.439 edgecolor
newpath 155 354 moveto
135 363 150 372 201 372 curveto
240 372 258 367 255 360 curveto
stroke
0.667 0.776 0.439 edgecolor
newpath 257.1 357.2 moveto
247 354 lineto
252.9 362.8 lineto
closepath fill
1 setlinewidth
solid
0.667 0.776 0.439 edgecolor
newpath 257.1 357.2 moveto
247 354 lineto
252.9 362.8 lineto
closepath stroke
grestore
% Node24->Node25
gsave
1 setlinewidth
solid
0.667 0.776 0.439 edgecolor
newpath 202 333 moveto
207 297 228 185 292 127 curveto
296 123 301 120 307 117 curveto
stroke
0.667 0.776 0.439 edgecolor
newpath 308.283 120.26 moveto
316 113 lineto
305.44 113.863 lineto
closepath fill
1 setlinewidth
solid
0.667 0.776 0.439 edgecolor
newpath 308.283 120.26 moveto
316 113 lineto
305.44 113.863 lineto
closepath stroke
grestore
endpage
showpage
grestore
%%PageTrailer
%%EndPage: 1
%%Trailer
%%Pages: 1
%%BoundingBox: 36 36 1326 745
end
restore
%%EOF
