%!PS-Adobe-2.0
%%Creator: Graphviz version 2.12 (Mon Nov 16 18:34:03 UTC 2009)
%%For: (vtamara) Vladimir
%%Title: G
%%Pages: (atend)
%%BoundingBox: (atend)
%%EndComments
save
%%BeginProlog
/DotDict 200 dict def
DotDict begin

/setupLatin1 {
mark
/EncodingVector 256 array def
 EncodingVector 0

ISOLatin1Encoding 0 255 getinterval putinterval
EncodingVector 45 /hyphen put

% Set up ISO Latin 1 character encoding
/starnetISO {
        dup dup findfont dup length dict begin
        { 1 index /FID ne { def }{ pop pop } ifelse
        } forall
        /Encoding EncodingVector def
        currentdict end definefont
} def
/Times-Roman starnetISO def
/Times-Italic starnetISO def
/Times-Bold starnetISO def
/Times-BoldItalic starnetISO def
/Helvetica starnetISO def
/Helvetica-Oblique starnetISO def
/Helvetica-Bold starnetISO def
/Helvetica-BoldOblique starnetISO def
/Courier starnetISO def
/Courier-Oblique starnetISO def
/Courier-Bold starnetISO def
/Courier-BoldOblique starnetISO def
cleartomark
} bind def

%%BeginResource: procset graphviz 0 0
/coord-font-family /Times-Roman def
/default-font-family /Times-Roman def
/coordfont coord-font-family findfont 8 scalefont def

/InvScaleFactor 1.0 def
/set_scale {
       dup 1 exch div /InvScaleFactor exch def
       scale
} bind def

% styles
/solid { [] 0 setdash } bind def
/dashed { [9 InvScaleFactor mul dup ] 0 setdash } bind def
/dotted { [1 InvScaleFactor mul 6 InvScaleFactor mul] 0 setdash } bind def
/invis {/fill {newpath} def /stroke {newpath} def /show {pop newpath} def} bind def
/bold { 2 setlinewidth } bind def
/filled { } bind def
/unfilled { } bind def
/rounded { } bind def
/diagonals { } bind def

% hooks for setting color 
/nodecolor { sethsbcolor } bind def
/edgecolor { sethsbcolor } bind def
/graphcolor { sethsbcolor } bind def
/nopcolor {pop pop pop} bind def

/beginpage {	% i j npages
	/npages exch def
	/j exch def
	/i exch def
	/str 10 string def
	npages 1 gt {
		gsave
			coordfont setfont
			0 0 moveto
			(\() show i str cvs show (,) show j str cvs show (\)) show
		grestore
	} if
} bind def

/set_font {
	findfont exch
	scalefont setfont
} def

% draw aligned label in bounding box aligned to current point
/alignedtext {			% width adj text
	/text exch def
	/adj exch def
	/width exch def
	gsave
		width 0 gt {
			text stringwidth pop adj mul 0 rmoveto
		} if
		[] 0 setdash
		text show
	grestore
} def

/boxprim {				% xcorner ycorner xsize ysize
		4 2 roll
		moveto
		2 copy
		exch 0 rlineto
		0 exch rlineto
		pop neg 0 rlineto
		closepath
} bind def

/ellipse_path {
	/ry exch def
	/rx exch def
	/y exch def
	/x exch def
	matrix currentmatrix
	newpath
	x y translate
	rx ry scale
	0 0 1 0 360 arc
	setmatrix
} bind def

/endpage { showpage } bind def
/showpage { } def

/layercolorseq
	[	% layer color sequence - darkest to lightest
		[0 0 0]
		[.2 .8 .8]
		[.4 .8 .8]
		[.6 .8 .8]
		[.8 .8 .8]
	]
def

/layerlen layercolorseq length def

/setlayer {/maxlayer exch def /curlayer exch def
	layercolorseq curlayer 1 sub layerlen mod get
	aload pop sethsbcolor
	/nodecolor {nopcolor} def
	/edgecolor {nopcolor} def
	/graphcolor {nopcolor} def
} bind def

/onlayer { curlayer ne {invis} if } def

/onlayers {
	/myupper exch def
	/mylower exch def
	curlayer mylower lt
	curlayer myupper gt
	or
	{invis} if
} def

/curlayer 0 def

%%EndResource
%%EndProlog
%%BeginSetup
14 default-font-family set_font
1 setmiterlimit
% /arrowlength 10 def
% /arrowwidth 5 def

% make sure pdfmark is harmless for PS-interpreters other than Distiller
/pdfmark where {pop} {userdict /pdfmark /cleartomark load put} ifelse
% make '<<' and '>>' safe on PS Level 1 devices
/languagelevel where {pop languagelevel}{1} ifelse
2 lt {
    userdict (<<) cvn ([) cvn load put
    userdict (>>) cvn ([) cvn load put
} if

%%EndSetup
setupLatin1
%%Page: 1 1
%%PageBoundingBox: 36 36 1001 414
%%PageOrientation: Portrait
gsave
36 36 1001 414 boxprim clip newpath
0 0 1 beginpage
1 1 set_scale 0 rotate 40 40 translate
% Node1
gsave
0.000 0.000 0.749 nodecolor
newpath 376 348 moveto
376 369 lineto
534 369 lineto
534 348 lineto
closepath fill
1 setlinewidth
filled
0.000 0.000 0.000 nodecolor
newpath 376 348 moveto
376 369 lineto
534 369 lineto
534 348 lineto
closepath stroke
0.000 0.000 0.000 nodecolor
10.00 /FreeSans.ttf set_font
455 355 moveto 142 -0.5 (RamDiscoCasoPrueba.cpp) alignedtext
grestore
% Node2
gsave
1 setlinewidth
0.000 0.000 0.749 nodecolor
newpath 15 174 moveto
15 195 lineto
79 195 lineto
79 174 lineto
closepath stroke
0.000 0.000 0.000 nodecolor
10.00 /FreeSans.ttf set_font
47 181 moveto 48 -0.5 (iostream) alignedtext
grestore
% Node1->Node2
gsave
1 setlinewidth
solid
0.667 0.776 0.439 edgecolor
newpath 389 348 moveto
351 340 302 329 261 312 curveto
187 281 107 228 69 201 curveto
stroke
0.667 0.776 0.439 edgecolor
newpath 71.1 198.2 moveto
61 195 lineto
66.9 203.8 lineto
closepath fill
1 setlinewidth
solid
0.667 0.776 0.439 edgecolor
newpath 71.1 198.2 moveto
61 195 lineto
66.9 203.8 lineto
closepath stroke
grestore
% Node3
gsave
1 setlinewidth
0.000 0.000 0.749 nodecolor
newpath 97 174 moveto
97 195 lineto
158 195 lineto
158 174 lineto
closepath stroke
0.000 0.000 0.000 nodecolor
10.00 /FreeSans.ttf set_font
127 181 moveto 45 -0.5 (iomanip) alignedtext
grestore
% Node1->Node3
gsave
1 setlinewidth
solid
0.667 0.776 0.439 edgecolor
newpath 405 348 moveto
374 340 334 328 301 312 curveto
240 281 176 229 146 202 curveto
stroke
0.667 0.776 0.439 edgecolor
newpath 147.831 198.951 moveto
138 195 lineto
143.221 204.219 lineto
closepath fill
1 setlinewidth
solid
0.667 0.776 0.439 edgecolor
newpath 147.831 198.951 moveto
138 195 lineto
143.221 204.219 lineto
closepath stroke
grestore
% Node4
gsave
1 setlinewidth
0.000 0.000 0.749 nodecolor
newpath 175 174 moveto
175 195 lineto
206 195 lineto
206 174 lineto
closepath stroke
0.000 0.000 0.000 nodecolor
10.00 /FreeSans.ttf set_font
190 181 moveto 15 -0.5 (list) alignedtext
grestore
% Node1->Node4
gsave
1 setlinewidth
solid
0.667 0.776 0.439 edgecolor
newpath 425 348 moveto
382 331 305 298 249 254 curveto
231 239 214 219 203 204 curveto
stroke
0.667 0.776 0.439 edgecolor
newpath 205.459 201.379 moveto
197 195 lineto
199.635 205.262 lineto
closepath fill
1 setlinewidth
solid
0.667 0.776 0.439 edgecolor
newpath 205.459 201.379 moveto
197 195 lineto
199.635 205.262 lineto
closepath stroke
grestore
% Node5
gsave
1 setlinewidth
0.000 0.000 0.749 nodecolor
newpath 227 116 moveto
227 137 lineto
277 137 lineto
277 116 lineto
closepath stroke
0.000 0.000 0.000 nodecolor
10.00 /FreeSans.ttf set_font
252 123 moveto 34 -0.5 (vector) alignedtext
grestore
% Node1->Node5
gsave
1 setlinewidth
solid
0.667 0.776 0.439 edgecolor
newpath 376 350 moveto
328 343 267 331 215 312 curveto
116 275 60 287 6 196 curveto
2 187 0 181 6 174 curveto
32 142 155 132 217 129 curveto
stroke
0.667 0.776 0.439 edgecolor
newpath 217.398 132.478 moveto
227 128 lineto
216.701 125.512 lineto
closepath fill
1 setlinewidth
solid
0.667 0.776 0.439 edgecolor
newpath 217.398 132.478 moveto
227 128 lineto
216.701 125.512 lineto
closepath stroke
grestore
% Node6
gsave
1 setlinewidth
0.000 0.000 0.749 nodecolor
newpath 521 290 moveto
521 311 lineto
579 311 lineto
579 290 lineto
closepath stroke
0.000 0.000 0.000 nodecolor
10.00 /FreeSans.ttf set_font
550 297 moveto 42 -0.5 (fstream) alignedtext
grestore
% Node1->Node6
gsave
1 setlinewidth
solid
0.667 0.776 0.439 edgecolor
newpath 473 348 moveto
488 339 509 326 525 316 curveto
stroke
0.667 0.776 0.439 edgecolor
newpath 526.958 318.916 moveto
534 311 lineto
523.559 312.797 lineto
closepath fill
1 setlinewidth
solid
0.667 0.776 0.439 edgecolor
newpath 526.958 318.916 moveto
534 311 lineto
523.559 312.797 lineto
closepath stroke
grestore
% Node7
gsave
1 setlinewidth
0.000 0.000 0.749 nodecolor
newpath 597 290 moveto
597 311 lineto
654 311 lineto
654 290 lineto
closepath stroke
0.000 0.000 0.000 nodecolor
10.00 /FreeSans.ttf set_font
625 297 moveto 41 -0.5 (istream) alignedtext
grestore
% Node1->Node7
gsave
1 setlinewidth
solid
0.667 0.776 0.439 edgecolor
newpath 487 348 moveto
516 338 557 324 587 314 curveto
stroke
0.667 0.776 0.439 edgecolor
newpath 588.427 317.226 moveto
597 311 lineto
586.416 310.521 lineto
closepath fill
1 setlinewidth
solid
0.667 0.776 0.439 edgecolor
newpath 588.427 317.226 moveto
597 311 lineto
586.416 310.521 lineto
closepath stroke
grestore
% Node8
gsave
1 setlinewidth
0.000 0.000 0.749 nodecolor
newpath 575 0 moveto
575 21 lineto
634 21 lineto
634 0 lineto
closepath stroke
0.000 0.000 0.000 nodecolor
10.00 /FreeSans.ttf set_font
604 7 moveto 43 -0.5 (sstream) alignedtext
grestore
% Node1->Node8
gsave
1 setlinewidth
solid
0.667 0.776 0.439 edgecolor
newpath 464 348 moveto
474 334 494 309 512 290 curveto
555 241 615 250 615 185 curveto
615 185 615 185 615 127 curveto
615 93 611 54 607 31 curveto
stroke
0.667 0.776 0.439 edgecolor
newpath 610.478 30.6021 moveto
606 21 lineto
603.512 31.2987 lineto
closepath fill
1 setlinewidth
solid
0.667 0.776 0.439 edgecolor
newpath 610.478 30.6021 moveto
606 21 lineto
603.512 31.2987 lineto
closepath stroke
grestore
% Node9
gsave
[ /Rect [ 671 291 829 311 ]
  /Border [ 0 0 0 ]
  /Action << /Subtype /URI /URI ($RamDiscoCasoPrueba_8hpp.html) >>
  /Subtype /Link
/ANN pdfmark
[ /Rect [ 671 291 829 311 ]
  /Border [ 0 0 0 ]
  /Action << /Subtype /URI /URI ($RamDiscoCasoPrueba_8hpp.html) >>
  /Subtype /Link
/ANN pdfmark
1 setlinewidth
0.000 0.000 0.000 nodecolor
newpath 671 290 moveto
671 311 lineto
830 311 lineto
830 290 lineto
closepath stroke
0.000 0.000 0.000 nodecolor
10.00 /FreeSans.ttf set_font
750 297 moveto 143 -0.5 (RamDiscoCasoPrueba.hpp) alignedtext
grestore
% Node1->Node9
gsave
1 setlinewidth
solid
0.667 0.776 0.439 edgecolor
newpath 511 348 moveto
562 338 637 323 689 313 curveto
stroke
0.667 0.776 0.439 edgecolor
newpath 689.881 316.393 moveto
699 311 lineto
688.508 309.529 lineto
closepath fill
1 setlinewidth
solid
0.667 0.776 0.439 edgecolor
newpath 689.881 316.393 moveto
699 311 lineto
688.508 309.529 lineto
closepath stroke
grestore
% Node11
gsave
[ /Rect [ 371 291 465 311 ]
  /Border [ 0 0 0 ]
  /Action << /Subtype /URI /URI ($RamDisco_8hpp.html) >>
  /Subtype /Link
/ANN pdfmark
[ /Rect [ 371 291 465 311 ]
  /Border [ 0 0 0 ]
  /Action << /Subtype /URI /URI ($RamDisco_8hpp.html) >>
  /Subtype /Link
/ANN pdfmark
1 setlinewidth
0.000 0.000 0.000 nodecolor
newpath 371 290 moveto
371 311 lineto
465 311 lineto
465 290 lineto
closepath stroke
0.000 0.000 0.000 nodecolor
10.00 /FreeSans.ttf set_font
418 297 moveto 78 -0.5 (RamDisco.hpp) alignedtext
grestore
% Node1->Node11
gsave
1 setlinewidth
solid
0.667 0.776 0.439 edgecolor
newpath 448 348 moveto
443 340 436 329 430 319 curveto
stroke
0.667 0.776 0.439 edgecolor
newpath 432.8 316.9 moveto
424 311 lineto
427.2 321.1 lineto
closepath fill
1 setlinewidth
solid
0.667 0.776 0.439 edgecolor
newpath 432.8 316.9 moveto
424 311 lineto
427.2 321.1 lineto
closepath stroke
grestore
% Node20
gsave
[ /Rect [ 847 291 957 311 ]
  /Border [ 0 0 0 ]
  /Action << /Subtype /URI /URI ($CasosPrueba_8hpp.html) >>
  /Subtype /Link
/ANN pdfmark
[ /Rect [ 847 291 957 311 ]
  /Border [ 0 0 0 ]
  /Action << /Subtype /URI /URI ($CasosPrueba_8hpp.html) >>
  /Subtype /Link
/ANN pdfmark
1 setlinewidth
0.000 0.000 0.000 nodecolor
newpath 847 290 moveto
847 311 lineto
957 311 lineto
957 290 lineto
closepath stroke
0.000 0.000 0.000 nodecolor
10.00 /FreeSans.ttf set_font
902 297 moveto 94 -0.5 (CasosPrueba.hpp) alignedtext
grestore
% Node1->Node20
gsave
1 setlinewidth
solid
0.667 0.776 0.439 edgecolor
newpath 534 350 moveto
610 341 726 328 837 311 curveto
stroke
0.667 0.776 0.439 edgecolor
newpath 837.398 314.478 moveto
847 310 lineto
836.701 307.512 lineto
closepath fill
1 setlinewidth
solid
0.667 0.776 0.439 edgecolor
newpath 837.398 314.478 moveto
847 310 lineto
836.701 307.512 lineto
closepath stroke
grestore
% Node10
gsave
1 setlinewidth
0.000 0.000 0.749 nodecolor
newpath 648 232 moveto
648 253 lineto
853 253 lineto
853 232 lineto
closepath stroke
0.000 0.000 0.000 nodecolor
10.00 /FreeSans.ttf set_font
750 239 moveto 189 -0.5 (cppunit/extensions/HelperMacros.h) alignedtext
grestore
% Node9->Node10
gsave
1 setlinewidth
solid
0.667 0.776 0.439 edgecolor
newpath 750 290 moveto
750 282 750 272 750 263 curveto
stroke
0.667 0.776 0.439 edgecolor
newpath 753.5 263 moveto
750 253 lineto
746.5 263 lineto
closepath fill
1 setlinewidth
solid
0.667 0.776 0.439 edgecolor
newpath 753.5 263 moveto
750 253 lineto
746.5 263 lineto
closepath stroke
grestore
% Node11->Node5
gsave
1 setlinewidth
solid
0.667 0.776 0.439 edgecolor
newpath 371 293 moveto
330 285 275 271 262 254 curveto
238 223 242 175 247 147 curveto
stroke
0.667 0.776 0.439 edgecolor
newpath 250.471 147.492 moveto
249 137 lineto
243.607 146.119 lineto
closepath fill
1 setlinewidth
solid
0.667 0.776 0.439 edgecolor
newpath 250.471 147.492 moveto
249 137 lineto
243.607 146.119 lineto
closepath stroke
grestore
% Node12
gsave
[ /Rect [ 475 59 553 79 ]
  /Border [ 0 0 0 ]
  /Action << /Subtype /URI /URI ($comun_8hpp.html) >>
  /Subtype /Link
/ANN pdfmark
[ /Rect [ 475 59 553 79 ]
  /Border [ 0 0 0 ]
  /Action << /Subtype /URI /URI ($comun_8hpp.html) >>
  /Subtype /Link
/ANN pdfmark
1 setlinewidth
0.000 0.000 0.000 nodecolor
newpath 475 58 moveto
475 79 lineto
553 79 lineto
553 58 lineto
closepath stroke
0.000 0.000 0.000 nodecolor
10.00 /FreeSans.ttf set_font
514 65 moveto 62 -0.5 (comun.hpp) alignedtext
grestore
% Node11->Node12
gsave
1 setlinewidth
solid
0.667 0.776 0.439 edgecolor
newpath 446 290 moveto
481 275 537 244 558 196 curveto
575 158 547 112 529 87 curveto
stroke
0.667 0.776 0.439 edgecolor
newpath 531.8 84.9 moveto
523 79 lineto
526.2 89.1 lineto
closepath fill
1 setlinewidth
solid
0.667 0.776 0.439 edgecolor
newpath 531.8 84.9 moveto
523 79 lineto
526.2 89.1 lineto
closepath stroke
grestore
% Node16
gsave
[ /Rect [ 427 117 485 137 ]
  /Border [ 0 0 0 ]
  /Action << /Subtype /URI /URI ($Pos_8hpp.html) >>
  /Subtype /Link
/ANN pdfmark
[ /Rect [ 427 117 485 137 ]
  /Border [ 0 0 0 ]
  /Action << /Subtype /URI /URI ($Pos_8hpp.html) >>
  /Subtype /Link
/ANN pdfmark
1 setlinewidth
0.000 0.000 0.000 nodecolor
newpath 427 116 moveto
427 137 lineto
485 137 lineto
485 116 lineto
closepath stroke
0.000 0.000 0.000 nodecolor
10.00 /FreeSans.ttf set_font
456 123 moveto 42 -0.5 (Pos.hpp) alignedtext
grestore
% Node11->Node16
gsave
1 setlinewidth
solid
0.667 0.776 0.439 edgecolor
newpath 420 290 moveto
426 261 443 184 452 147 curveto
stroke
0.667 0.776 0.439 edgecolor
newpath 455.471 147.492 moveto
454 137 lineto
448.607 146.119 lineto
closepath fill
1 setlinewidth
solid
0.667 0.776 0.439 edgecolor
newpath 455.471 147.492 moveto
454 137 lineto
448.607 146.119 lineto
closepath stroke
grestore
% Node17
gsave
[ /Rect [ 489 175 549 195 ]
  /Border [ 0 0 0 ]
  /Action << /Subtype /URI /URI ($Doc_8hpp.html) >>
  /Subtype /Link
/ANN pdfmark
[ /Rect [ 489 175 549 195 ]
  /Border [ 0 0 0 ]
  /Action << /Subtype /URI /URI ($Doc_8hpp.html) >>
  /Subtype /Link
/ANN pdfmark
1 setlinewidth
0.000 0.000 0.000 nodecolor
newpath 489 174 moveto
489 195 lineto
550 195 lineto
550 174 lineto
closepath stroke
0.000 0.000 0.000 nodecolor
10.00 /FreeSans.ttf set_font
519 181 moveto 45 -0.5 (Doc.hpp) alignedtext
grestore
% Node11->Node17
gsave
1 setlinewidth
solid
0.667 0.776 0.439 edgecolor
newpath 434 290 moveto
446 281 463 268 475 254 curveto
489 239 501 219 509 204 curveto
stroke
0.667 0.776 0.439 edgecolor
newpath 512.203 205.441 moveto
514 195 lineto
506.084 202.042 lineto
closepath fill
1 setlinewidth
solid
0.667 0.776 0.439 edgecolor
newpath 512.203 205.441 moveto
514 195 lineto
506.084 202.042 lineto
closepath stroke
grestore
% Node18
gsave
[ /Rect [ 299 175 395 195 ]
  /Border [ 0 0 0 ]
  /Action << /Subtype /URI /URI ($NodoTrieS_8hpp.html) >>
  /Subtype /Link
/ANN pdfmark
[ /Rect [ 299 175 395 195 ]
  /Border [ 0 0 0 ]
  /Action << /Subtype /URI /URI ($NodoTrieS_8hpp.html) >>
  /Subtype /Link
/ANN pdfmark
1 setlinewidth
0.000 0.000 0.000 nodecolor
newpath 299 174 moveto
299 195 lineto
395 195 lineto
395 174 lineto
closepath stroke
0.000 0.000 0.000 nodecolor
10.00 /FreeSans.ttf set_font
347 181 moveto 80 -0.5 (NodoTrieS.hpp) alignedtext
grestore
% Node11->Node18
gsave
1 setlinewidth
solid
0.667 0.776 0.439 edgecolor
newpath 411 290 moveto
403 276 388 252 376 232 curveto
370 222 364 212 358 204 curveto
stroke
0.667 0.776 0.439 edgecolor
newpath 360.916 202.042 moveto
353 195 lineto
354.797 205.441 lineto
closepath fill
1 setlinewidth
solid
0.667 0.776 0.439 edgecolor
newpath 360.916 202.042 moveto
353 195 lineto
354.797 205.441 lineto
closepath stroke
grestore
% Node19
gsave
[ /Rect [ 271 233 367 253 ]
  /Border [ 0 0 0 ]
  /Action << /Subtype /URI /URI ($TrieSDisco_8hpp.html) >>
  /Subtype /Link
/ANN pdfmark
[ /Rect [ 271 233 367 253 ]
  /Border [ 0 0 0 ]
  /Action << /Subtype /URI /URI ($TrieSDisco_8hpp.html) >>
  /Subtype /Link
/ANN pdfmark
1 setlinewidth
0.000 0.000 0.000 nodecolor
newpath 271 232 moveto
271 253 lineto
367 253 lineto
367 232 lineto
closepath stroke
0.000 0.000 0.000 nodecolor
10.00 /FreeSans.ttf set_font
319 239 moveto 80 -0.5 (TrieSDisco.hpp) alignedtext
grestore
% Node11->Node19
gsave
1 setlinewidth
solid
0.667 0.776 0.439 edgecolor
newpath 399 290 moveto
384 281 362 268 345 258 curveto
stroke
0.667 0.776 0.439 edgecolor
newpath 346.441 254.797 moveto
336 253 lineto
343.042 260.916 lineto
closepath fill
1 setlinewidth
solid
0.667 0.776 0.439 edgecolor
newpath 346.441 254.797 moveto
336 253 lineto
343.042 260.916 lineto
closepath stroke
grestore
% Node12->Node8
gsave
1 setlinewidth
solid
0.667 0.776 0.439 edgecolor
newpath 531 58 moveto
545 49 565 36 580 26 curveto
stroke
0.667 0.776 0.439 edgecolor
newpath 581.958 28.916 moveto
589 21 lineto
578.559 22.7969 lineto
closepath fill
1 setlinewidth
solid
0.667 0.776 0.439 edgecolor
newpath 581.958 28.916 moveto
589 21 lineto
578.559 22.7969 lineto
closepath stroke
grestore
% Node13
gsave
1 setlinewidth
0.000 0.000 0.749 nodecolor
newpath 428 0 moveto
428 21 lineto
460 21 lineto
460 0 lineto
closepath stroke
0.000 0.000 0.000 nodecolor
10.00 /FreeSans.ttf set_font
444 7 moveto 16 -0.5 (set) alignedtext
grestore
% Node12->Node13
gsave
1 setlinewidth
solid
0.667 0.776 0.439 edgecolor
newpath 501 58 moveto
491 49 476 37 464 27 curveto
stroke
0.667 0.776 0.439 edgecolor
newpath 466.1 24.2 moveto
456 21 lineto
461.9 29.8 lineto
closepath fill
1 setlinewidth
solid
0.667 0.776 0.439 edgecolor
newpath 466.1 24.2 moveto
456 21 lineto
461.9 29.8 lineto
closepath stroke
grestore
% Node14
gsave
1 setlinewidth
0.000 0.000 0.749 nodecolor
newpath 351 0 moveto
351 21 lineto
397 21 lineto
397 0 lineto
closepath stroke
0.000 0.000 0.000 nodecolor
10.00 /FreeSans.ttf set_font
374 7 moveto 30 -0.5 (string) alignedtext
grestore
% Node12->Node14
gsave
1 setlinewidth
solid
0.667 0.776 0.439 edgecolor
newpath 487 58 moveto
464 48 431 35 406 25 curveto
stroke
0.667 0.776 0.439 edgecolor
newpath 407.56 21.8631 moveto
397 21 lineto
404.717 28.2598 lineto
closepath fill
1 setlinewidth
solid
0.667 0.776 0.439 edgecolor
newpath 407.56 21.8631 moveto
397 21 lineto
404.717 28.2598 lineto
closepath stroke
grestore
% Node15
gsave
1 setlinewidth
0.000 0.000 0.749 nodecolor
newpath 484 0 moveto
484 21 lineto
545 21 lineto
545 0 lineto
closepath stroke
0.000 0.000 0.000 nodecolor
10.00 /FreeSans.ttf set_font
514 7 moveto 45 -0.5 (ostream) alignedtext
grestore
% Node12->Node15
gsave
1 setlinewidth
solid
0.667 0.776 0.439 edgecolor
newpath 514 58 moveto
514 50 514 40 514 31 curveto
stroke
0.667 0.776 0.439 edgecolor
newpath 517.5 31 moveto
514 21 lineto
510.5 31 lineto
closepath fill
1 setlinewidth
solid
0.667 0.776 0.439 edgecolor
newpath 517.5 31 moveto
514 21 lineto
510.5 31 lineto
closepath stroke
grestore
% Node16->Node12
gsave
1 setlinewidth
solid
0.667 0.776 0.439 edgecolor
newpath 467 116 moveto
476 107 487 96 497 86 curveto
stroke
0.667 0.776 0.439 edgecolor
newpath 499.404 88.546 moveto
504 79 lineto
494.454 83.5962 lineto
closepath fill
1 setlinewidth
solid
0.667 0.776 0.439 edgecolor
newpath 499.404 88.546 moveto
504 79 lineto
494.454 83.5962 lineto
closepath stroke
grestore
% Node17->Node12
gsave
1 setlinewidth
solid
0.667 0.776 0.439 edgecolor
newpath 519 174 moveto
517 155 516 114 514 89 curveto
stroke
0.667 0.776 0.439 edgecolor
newpath 517.5 89 moveto
514 79 lineto
510.5 89 lineto
closepath fill
1 setlinewidth
solid
0.667 0.776 0.439 edgecolor
newpath 517.5 89 moveto
514 79 lineto
510.5 89 lineto
closepath stroke
grestore
% Node18->Node5
gsave
1 setlinewidth
solid
0.667 0.776 0.439 edgecolor
newpath 329 174 moveto
314 165 293 152 277 142 curveto
stroke
0.667 0.776 0.439 edgecolor
newpath 278.441 138.797 moveto
268 137 lineto
275.042 144.916 lineto
closepath fill
1 setlinewidth
solid
0.667 0.776 0.439 edgecolor
newpath 278.441 138.797 moveto
268 137 lineto
275.042 144.916 lineto
closepath stroke
grestore
% Node18->Node13
gsave
1 setlinewidth
solid
0.667 0.776 0.439 edgecolor
newpath 353 174 moveto
369 145 413 67 433 30 curveto
stroke
0.667 0.776 0.439 edgecolor
newpath 436.203 31.4414 moveto
438 21 lineto
430.084 28.0418 lineto
closepath fill
1 setlinewidth
solid
0.667 0.776 0.439 edgecolor
newpath 436.203 31.4414 moveto
438 21 lineto
430.084 28.0418 lineto
closepath stroke
grestore
% Node18->Node14
gsave
1 setlinewidth
solid
0.667 0.776 0.439 edgecolor
newpath 349 174 moveto
354 145 365 68 371 31 curveto
stroke
0.667 0.776 0.439 edgecolor
newpath 374.488 31.2987 moveto
372 21 lineto
367.522 30.6021 lineto
closepath fill
1 setlinewidth
solid
0.667 0.776 0.439 edgecolor
newpath 374.488 31.2987 moveto
372 21 lineto
367.522 30.6021 lineto
closepath stroke
grestore
% Node18->Node16
gsave
1 setlinewidth
solid
0.667 0.776 0.439 edgecolor
newpath 368 174 moveto
385 165 410 152 428 142 curveto
stroke
0.667 0.776 0.439 edgecolor
newpath 429.958 144.916 moveto
437 137 lineto
426.559 138.797 lineto
closepath fill
1 setlinewidth
solid
0.667 0.776 0.439 edgecolor
newpath 429.958 144.916 moveto
437 137 lineto
426.559 138.797 lineto
closepath stroke
grestore
% Node19->Node2
gsave
1 setlinewidth
solid
0.667 0.776 0.439 edgecolor
newpath 271 234 moveto
226 225 158 212 89 196 curveto
stroke
0.667 0.776 0.439 edgecolor
newpath 89.4922 192.529 moveto
79 194 lineto
88.1194 199.393 lineto
closepath fill
1 setlinewidth
solid
0.667 0.776 0.439 edgecolor
newpath 89.4922 192.529 moveto
79 194 lineto
88.1194 199.393 lineto
closepath stroke
grestore
% Node19->Node3
gsave
1 setlinewidth
solid
0.667 0.776 0.439 edgecolor
newpath 282 232 moveto
249 222 202 208 168 197 curveto
stroke
0.667 0.776 0.439 edgecolor
newpath 168.584 193.521 moveto
158 194 lineto
166.573 200.226 lineto
closepath fill
1 setlinewidth
solid
0.667 0.776 0.439 edgecolor
newpath 168.584 193.521 moveto
158 194 lineto
166.573 200.226 lineto
closepath stroke
grestore
% Node19->Node4
gsave
1 setlinewidth
solid
0.667 0.776 0.439 edgecolor
newpath 294 232 moveto
271 222 238 207 215 196 curveto
stroke
0.667 0.776 0.439 edgecolor
newpath 216.56 192.863 moveto
206 192 lineto
213.717 199.26 lineto
closepath fill
1 setlinewidth
solid
0.667 0.776 0.439 edgecolor
newpath 216.56 192.863 moveto
206 192 lineto
213.717 199.26 lineto
closepath stroke
grestore
% Node19->Node5
gsave
1 setlinewidth
solid
0.667 0.776 0.439 edgecolor
newpath 312 232 moveto
306 222 297 208 290 196 curveto
280 179 270 160 262 146 curveto
stroke
0.667 0.776 0.439 edgecolor
newpath 264.916 144.042 moveto
257 137 lineto
258.797 147.441 lineto
closepath fill
1 setlinewidth
solid
0.667 0.776 0.439 edgecolor
newpath 264.916 144.042 moveto
257 137 lineto
258.797 147.441 lineto
closepath stroke
grestore
% Node19->Node16
gsave
1 setlinewidth
solid
0.667 0.776 0.439 edgecolor
newpath 345 232 moveto
363 224 386 211 404 196 curveto
420 181 435 161 445 146 curveto
stroke
0.667 0.776 0.439 edgecolor
newpath 448.203 147.441 moveto
450 137 lineto
442.084 144.042 lineto
closepath fill
1 setlinewidth
solid
0.667 0.776 0.439 edgecolor
newpath 448.203 147.441 moveto
450 137 lineto
442.084 144.042 lineto
closepath stroke
grestore
% Node19->Node17
gsave
1 setlinewidth
solid
0.667 0.776 0.439 edgecolor
newpath 357 232 moveto
392 222 444 207 479 197 curveto
stroke
0.667 0.776 0.439 edgecolor
newpath 480.427 200.226 moveto
489 194 lineto
478.416 193.521 lineto
closepath fill
1 setlinewidth
solid
0.667 0.776 0.439 edgecolor
newpath 480.427 200.226 moveto
489 194 lineto
478.416 193.521 lineto
closepath stroke
grestore
% Node19->Node18
gsave
1 setlinewidth
solid
0.667 0.776 0.439 edgecolor
newpath 324 232 moveto
328 224 333 213 338 204 curveto
stroke
0.667 0.776 0.439 edgecolor
newpath 341.137 205.56 moveto
342 195 lineto
334.74 202.717 lineto
closepath fill
1 setlinewidth
solid
0.667 0.776 0.439 edgecolor
newpath 341.137 205.56 moveto
342 195 lineto
334.74 202.717 lineto
closepath stroke
grestore
endpage
showpage
grestore
%%PageTrailer
%%EndPage: 1
%%Trailer
%%Pages: 1
%%BoundingBox: 36 36 1001 414
end
restore
%%EOF
