%!PS-Adobe-2.0
%%Creator: Graphviz version 2.12 (Mon Nov 16 18:34:03 UTC 2009)
%%For: (vtamara) Vladimir
%%Title: G
%%Pages: (atend)
%%BoundingBox: (atend)
%%EndComments
save
%%BeginProlog
/DotDict 200 dict def
DotDict begin

/setupLatin1 {
mark
/EncodingVector 256 array def
 EncodingVector 0

ISOLatin1Encoding 0 255 getinterval putinterval
EncodingVector 45 /hyphen put

% Set up ISO Latin 1 character encoding
/starnetISO {
        dup dup findfont dup length dict begin
        { 1 index /FID ne { def }{ pop pop } ifelse
        } forall
        /Encoding EncodingVector def
        currentdict end definefont
} def
/Times-Roman starnetISO def
/Times-Italic starnetISO def
/Times-Bold starnetISO def
/Times-BoldItalic starnetISO def
/Helvetica starnetISO def
/Helvetica-Oblique starnetISO def
/Helvetica-Bold starnetISO def
/Helvetica-BoldOblique starnetISO def
/Courier starnetISO def
/Courier-Oblique starnetISO def
/Courier-Bold starnetISO def
/Courier-BoldOblique starnetISO def
cleartomark
} bind def

%%BeginResource: procset graphviz 0 0
/coord-font-family /Times-Roman def
/default-font-family /Times-Roman def
/coordfont coord-font-family findfont 8 scalefont def

/InvScaleFactor 1.0 def
/set_scale {
       dup 1 exch div /InvScaleFactor exch def
       scale
} bind def

% styles
/solid { [] 0 setdash } bind def
/dashed { [9 InvScaleFactor mul dup ] 0 setdash } bind def
/dotted { [1 InvScaleFactor mul 6 InvScaleFactor mul] 0 setdash } bind def
/invis {/fill {newpath} def /stroke {newpath} def /show {pop newpath} def} bind def
/bold { 2 setlinewidth } bind def
/filled { } bind def
/unfilled { } bind def
/rounded { } bind def
/diagonals { } bind def

% hooks for setting color 
/nodecolor { sethsbcolor } bind def
/edgecolor { sethsbcolor } bind def
/graphcolor { sethsbcolor } bind def
/nopcolor {pop pop pop} bind def

/beginpage {	% i j npages
	/npages exch def
	/j exch def
	/i exch def
	/str 10 string def
	npages 1 gt {
		gsave
			coordfont setfont
			0 0 moveto
			(\() show i str cvs show (,) show j str cvs show (\)) show
		grestore
	} if
} bind def

/set_font {
	findfont exch
	scalefont setfont
} def

% draw aligned label in bounding box aligned to current point
/alignedtext {			% width adj text
	/text exch def
	/adj exch def
	/width exch def
	gsave
		width 0 gt {
			text stringwidth pop adj mul 0 rmoveto
		} if
		[] 0 setdash
		text show
	grestore
} def

/boxprim {				% xcorner ycorner xsize ysize
		4 2 roll
		moveto
		2 copy
		exch 0 rlineto
		0 exch rlineto
		pop neg 0 rlineto
		closepath
} bind def

/ellipse_path {
	/ry exch def
	/rx exch def
	/y exch def
	/x exch def
	matrix currentmatrix
	newpath
	x y translate
	rx ry scale
	0 0 1 0 360 arc
	setmatrix
} bind def

/endpage { showpage } bind def
/showpage { } def

/layercolorseq
	[	% layer color sequence - darkest to lightest
		[0 0 0]
		[.2 .8 .8]
		[.4 .8 .8]
		[.6 .8 .8]
		[.8 .8 .8]
	]
def

/layerlen layercolorseq length def

/setlayer {/maxlayer exch def /curlayer exch def
	layercolorseq curlayer 1 sub layerlen mod get
	aload pop sethsbcolor
	/nodecolor {nopcolor} def
	/edgecolor {nopcolor} def
	/graphcolor {nopcolor} def
} bind def

/onlayer { curlayer ne {invis} if } def

/onlayers {
	/myupper exch def
	/mylower exch def
	curlayer mylower lt
	curlayer myupper gt
	or
	{invis} if
} def

/curlayer 0 def

%%EndResource
%%EndProlog
%%BeginSetup
14 default-font-family set_font
1 setmiterlimit
% /arrowlength 10 def
% /arrowwidth 5 def

% make sure pdfmark is harmless for PS-interpreters other than Distiller
/pdfmark where {pop} {userdict /pdfmark /cleartomark load put} ifelse
% make '<<' and '>>' safe on PS Level 1 devices
/languagelevel where {pop languagelevel}{1} ifelse
2 lt {
    userdict (<<) cvn ([) cvn load put
    userdict (>>) cvn ([) cvn load put
} if

%%EndSetup
setupLatin1
%%Page: 1 1
%%PageBoundingBox: 36 36 1146 220
%%PageOrientation: Portrait
gsave
36 36 1146 220 boxprim clip newpath
0 0 1 beginpage
1 1 set_scale 0 rotate 40 40 translate
% Node1
gsave
0.000 0.000 0.749 nodecolor
newpath 1 51 moveto
1 72 lineto
126 72 lineto
126 51 lineto
closepath fill
1 setlinewidth
filled
0.000 0.000 0.000 nodecolor
newpath 1 51 moveto
1 72 lineto
126 72 lineto
126 51 lineto
closepath stroke
0.000 0.000 0.000 nodecolor
10.00 /FreeSans.ttf set_font
63 58 moveto 109 -0.5 (escribePlanoStream) alignedtext
grestore
% Node2
gsave
[ /Rect [ 375 118 459 138 ]
  /Border [ 0 0 0 ]
  /Action << /Subtype /URI /URI ($TrieSDisco_8cpp.html#95dfc28ebaa02e82d3d1ffce08251628) >>
  /Subtype /Link
/ANN pdfmark
[ /Rect [ 375 118 459 138 ]
  /Border [ 0 0 0 ]
  /Action << /Subtype /URI /URI ($TrieSDisco_8cpp.html#95dfc28ebaa02e82d3d1ffce08251628) >>
  /Subtype /Link
/ANN pdfmark
1 setlinewidth
0.000 0.000 0.000 nodecolor
newpath 375 117 moveto
375 138 lineto
459 138 lineto
459 117 lineto
closepath stroke
0.000 0.000 0.000 nodecolor
10.00 /FreeSans.ttf set_font
417 124 moveto 68 -0.5 (escribeNodo) alignedtext
grestore
% Node1->Node2
gsave
1 setlinewidth
solid
0.667 0.776 0.439 edgecolor
newpath 82 72 moveto
102 82 133 97 162 104 curveto
231 121 313 126 365 128 curveto
stroke
0.667 0.776 0.439 edgecolor
newpath 365 131.5 moveto
375 128 lineto
365 124.5 lineto
closepath fill
1 setlinewidth
solid
0.667 0.776 0.439 edgecolor
newpath 365 131.5 moveto
375 128 lineto
365 124.5 lineto
closepath stroke
grestore
% Node8
gsave
[ /Rect [ 554 80 710 100 ]
  /Border [ 0 0 0 ]
  /Action << /Subtype /URI /URI ($TrieSDisco_8cpp.html#453b277936104f13edb4f8158e015eba) >>
  /Subtype /Link
/ANN pdfmark
[ /Rect [ 554 80 710 100 ]
  /Border [ 0 0 0 ]
  /Action << /Subtype /URI /URI ($TrieSDisco_8cpp.html#453b277936104f13edb4f8158e015eba) >>
  /Subtype /Link
/ANN pdfmark
1 setlinewidth
0.000 0.000 0.000 nodecolor
newpath 554 79 moveto
554 100 lineto
710 100 lineto
710 79 lineto
closepath stroke
0.000 0.000 0.000 nodecolor
10.00 /FreeSans.ttf set_font
632 86 moveto 140 -0.5 (precalcula_escribe_actual) alignedtext
grestore
% Node1->Node8
gsave
1 setlinewidth
solid
0.667 0.776 0.439 edgecolor
newpath 126 68 moveto
138 69 150 70 162 71 curveto
295 80 450 85 544 88 curveto
stroke
0.667 0.776 0.439 edgecolor
newpath 544 91.5001 moveto
554 88 lineto
544 84.5001 lineto
closepath fill
1 setlinewidth
solid
0.667 0.776 0.439 edgecolor
newpath 544 91.5001 moveto
554 88 lineto
544 84.5001 lineto
closepath stroke
grestore
% Node12
gsave
[ /Rect [ 163 24 279 44 ]
  /Border [ 0 0 0 ]
  /Action << /Subtype /URI /URI ($RamDisco_8cpp.html#6b1b44682de6eb9fccd3df71e404154a) >>
  /Subtype /Link
/ANN pdfmark
[ /Rect [ 163 24 279 44 ]
  /Border [ 0 0 0 ]
  /Action << /Subtype /URI /URI ($RamDisco_8cpp.html#6b1b44682de6eb9fccd3df71e404154a) >>
  /Subtype /Link
/ANN pdfmark
1 setlinewidth
0.000 0.000 0.000 nodecolor
newpath 163 23 moveto
163 44 lineto
280 44 lineto
280 23 lineto
closepath stroke
0.000 0.000 0.000 nodecolor
10.00 /FreeSans.ttf set_font
221 30 moveto 101 -0.5 (precalcula_escribe) alignedtext
grestore
% Node1->Node12
gsave
1 setlinewidth
solid
0.667 0.776 0.439 edgecolor
newpath 125 51 moveto
135 50 145 48 154 46 curveto
stroke
0.667 0.776 0.439 edgecolor
newpath 154.881 49.3933 moveto
164 44 lineto
153.508 42.5292 lineto
closepath fill
1 setlinewidth
solid
0.667 0.776 0.439 edgecolor
newpath 154.881 49.3933 moveto
164 44 lineto
153.508 42.5292 lineto
closepath stroke
grestore
% Node13
gsave
[ /Rect [ 316 24 518 44 ]
  /Border [ 0 0 0 ]
  /Action << /Subtype /URI /URI ($RamDisco_8cpp.html#5b79fc3f073aeb2481fb1d51274a52a6) >>
  /Subtype /Link
/ANN pdfmark
[ /Rect [ 316 24 518 44 ]
  /Border [ 0 0 0 ]
  /Action << /Subtype /URI /URI ($RamDisco_8cpp.html#5b79fc3f073aeb2481fb1d51274a52a6) >>
  /Subtype /Link
/ANN pdfmark
1 setlinewidth
0.000 0.000 0.000 nodecolor
newpath 316 23 moveto
316 44 lineto
518 44 lineto
518 23 lineto
closepath stroke
0.000 0.000 0.000 nodecolor
10.00 /FreeSans.ttf set_font
417 30 moveto 186 -0.5 (precalcula_escribe_con_hermanos) alignedtext
grestore
% Node1->Node13
gsave
1 setlinewidth
solid
0.667 0.776 0.439 edgecolor
newpath 81 51 moveto
100 39 132 22 162 15 curveto
230 0 310 11 362 21 curveto
stroke
0.667 0.776 0.439 edgecolor
newpath 361.508 24.4708 moveto
372 23 lineto
362.881 17.6067 lineto
closepath fill
1 setlinewidth
solid
0.667 0.776 0.439 edgecolor
newpath 361.508 24.4708 moveto
372 23 lineto
362.881 17.6067 lineto
closepath stroke
grestore
% Node3
gsave
[ /Rect [ 587 156 677 176 ]
  /Border [ 0 0 0 ]
  /Action << /Subtype /URI /URI ($comun_8hpp.html#96402bda6527bf98dd8e49d62ae182f8) >>
  /Subtype /Link
/ANN pdfmark
[ /Rect [ 587 156 677 176 ]
  /Border [ 0 0 0 ]
  /Action << /Subtype /URI /URI ($comun_8hpp.html#96402bda6527bf98dd8e49d62ae182f8) >>
  /Subtype /Link
/ANN pdfmark
1 setlinewidth
0.000 0.000 0.000 nodecolor
newpath 587 155 moveto
587 176 lineto
677 176 lineto
677 155 lineto
closepath stroke
0.000 0.000 0.000 nodecolor
10.00 /FreeSans.ttf set_font
632 162 moveto 74 -0.5 (escribeNDesp) alignedtext
grestore
% Node2->Node3
gsave
1 setlinewidth
solid
0.667 0.776 0.439 edgecolor
newpath 459 135 moveto
493 141 540 150 577 156 curveto
stroke
0.667 0.776 0.439 edgecolor
newpath 576.508 159.471 moveto
587 158 lineto
577.881 152.607 lineto
closepath fill
1 setlinewidth
solid
0.667 0.776 0.439 edgecolor
newpath 576.508 159.471 moveto
587 158 lineto
577.881 152.607 lineto
closepath stroke
grestore
% Node5
gsave
[ /Rect [ 596 118 668 138 ]
  /Border [ 0 0 0 ]
  /Action << /Subtype /URI /URI ($Pos_8cpp.html#42c2daaa880eeb397c024b6ffa22c8cf) >>
  /Subtype /Link
/ANN pdfmark
[ /Rect [ 596 118 668 138 ]
  /Border [ 0 0 0 ]
  /Action << /Subtype /URI /URI ($Pos_8cpp.html#42c2daaa880eeb397c024b6ffa22c8cf) >>
  /Subtype /Link
/ANN pdfmark
1 setlinewidth
0.000 0.000 0.000 nodecolor
newpath 596 117 moveto
596 138 lineto
669 138 lineto
669 117 lineto
closepath stroke
0.000 0.000 0.000 nodecolor
10.00 /FreeSans.ttf set_font
632 124 moveto 57 -0.5 (escribePos) alignedtext
grestore
% Node2->Node5
gsave
1 setlinewidth
solid
0.667 0.776 0.439 edgecolor
newpath 459 128 moveto
496 128 548 128 586 128 curveto
stroke
0.667 0.776 0.439 edgecolor
newpath 586 131.5 moveto
596 128 lineto
586 124.5 lineto
closepath fill
1 setlinewidth
solid
0.667 0.776 0.439 edgecolor
newpath 586 131.5 moveto
596 128 lineto
586 124.5 lineto
closepath stroke
grestore
% Node2->Node8
gsave
1 setlinewidth
solid
0.667 0.776 0.439 edgecolor
newpath 459 121 moveto
489 116 530 108 564 102 curveto
stroke
0.667 0.776 0.439 edgecolor
newpath 564.881 105.393 moveto
574 100 lineto
563.508 98.5292 lineto
closepath fill
1 setlinewidth
solid
0.667 0.776 0.439 edgecolor
newpath 564.881 105.393 moveto
574 100 lineto
563.508 98.5292 lineto
closepath stroke
grestore
% Node4
gsave
[ /Rect [ 746 156 828 176 ]
  /Border [ 0 0 0 ]
  /Action << /Subtype /URI /URI ($comun_8cpp.html#b5388a972300b0a3d2e70c16097a3781) >>
  /Subtype /Link
/ANN pdfmark
[ /Rect [ 746 156 828 176 ]
  /Border [ 0 0 0 ]
  /Action << /Subtype /URI /URI ($comun_8cpp.html#b5388a972300b0a3d2e70c16097a3781) >>
  /Subtype /Link
/ANN pdfmark
1 setlinewidth
0.000 0.000 0.000 nodecolor
newpath 746 155 moveto
746 176 lineto
828 176 lineto
828 155 lineto
closepath stroke
0.000 0.000 0.000 nodecolor
10.00 /FreeSans.ttf set_font
787 162 moveto 66 -0.5 (escribe128b) alignedtext
grestore
% Node3->Node4
gsave
1 setlinewidth
solid
0.667 0.776 0.439 edgecolor
newpath 677 166 moveto
696 166 717 166 736 166 curveto
stroke
0.667 0.776 0.439 edgecolor
newpath 736 169.5 moveto
746 166 lineto
736 162.5 lineto
closepath fill
1 setlinewidth
solid
0.667 0.776 0.439 edgecolor
newpath 736 169.5 moveto
746 166 lineto
736 162.5 lineto
closepath stroke
grestore
% Node6
gsave
[ /Rect [ 864 108 992 128 ]
  /Border [ 0 0 0 ]
  /Action << /Subtype /URI /URI ($Elias_8cpp.html#59732ce42a1e75fbbb382a6964ef4620) >>
  /Subtype /Link
/ANN pdfmark
[ /Rect [ 864 108 992 128 ]
  /Border [ 0 0 0 ]
  /Action << /Subtype /URI /URI ($Elias_8cpp.html#59732ce42a1e75fbbb382a6964ef4620) >>
  /Subtype /Link
/ANN pdfmark
1 setlinewidth
0.000 0.000 0.000 nodecolor
newpath 864 107 moveto
864 128 lineto
992 128 lineto
992 107 lineto
closepath stroke
0.000 0.000 0.000 nodecolor
10.00 /FreeSans.ttf set_font
928 114 moveto 112 -0.5 (escribe_elias_gama2) alignedtext
grestore
% Node5->Node6
gsave
1 setlinewidth
solid
0.667 0.776 0.439 edgecolor
newpath 669 127 moveto
715 125 795 122 854 120 curveto
stroke
0.667 0.776 0.439 edgecolor
newpath 854 123.5 moveto
864 120 lineto
854 116.5 lineto
closepath fill
1 setlinewidth
solid
0.667 0.776 0.439 edgecolor
newpath 854 123.5 moveto
864 120 lineto
854 116.5 lineto
closepath stroke
grestore
% Node7
gsave
[ /Rect [ 1029 84 1101 104 ]
  /Border [ 0 0 0 ]
  /Action << /Subtype /URI /URI ($Elias_8cpp.html#7127ec8dff13cc2ad873693ca8933d38) >>
  /Subtype /Link
/ANN pdfmark
[ /Rect [ 1029 84 1101 104 ]
  /Border [ 0 0 0 ]
  /Action << /Subtype /URI /URI ($Elias_8cpp.html#7127ec8dff13cc2ad873693ca8933d38) >>
  /Subtype /Link
/ANN pdfmark
1 setlinewidth
0.000 0.000 0.000 nodecolor
newpath 1029 83 moveto
1029 104 lineto
1102 104 lineto
1102 83 lineto
closepath stroke
0.000 0.000 0.000 nodecolor
10.00 /FreeSans.ttf set_font
1065 90 moveto 57 -0.5 (piso_logb2) alignedtext
grestore
% Node6->Node7
gsave
1 setlinewidth
solid
0.667 0.776 0.439 edgecolor
newpath 991 107 moveto
1000 106 1010 104 1019 103 curveto
stroke
0.667 0.776 0.439 edgecolor
newpath 1019.88 106.393 moveto
1029 101 lineto
1018.51 99.5292 lineto
closepath fill
1 setlinewidth
solid
0.667 0.776 0.439 edgecolor
newpath 1019.88 106.393 moveto
1029 101 lineto
1018.51 99.5292 lineto
closepath stroke
grestore
% Node9
gsave
[ /Rect [ 750 80 824 100 ]
  /Border [ 0 0 0 ]
  /Action << /Subtype /URI /URI ($comun_8hpp.html#3f1f97c70ac3ffba1584b0fc02661cab) >>
  /Subtype /Link
/ANN pdfmark
[ /Rect [ 750 80 824 100 ]
  /Border [ 0 0 0 ]
  /Action << /Subtype /URI /URI ($comun_8hpp.html#3f1f97c70ac3ffba1584b0fc02661cab) >>
  /Subtype /Link
/ANN pdfmark
1 setlinewidth
0.000 0.000 0.000 nodecolor
newpath 750 79 moveto
750 100 lineto
825 100 lineto
825 79 lineto
closepath stroke
0.000 0.000 0.000 nodecolor
10.00 /FreeSans.ttf set_font
787 86 moveto 59 -0.5 (longNDesp) alignedtext
grestore
% Node8->Node9
gsave
1 setlinewidth
solid
0.667 0.776 0.439 edgecolor
newpath 710 90 moveto
720 90 730 90 740 90 curveto
stroke
0.667 0.776 0.439 edgecolor
newpath 740 93.5001 moveto
750 90 lineto
740 86.5001 lineto
closepath fill
1 setlinewidth
solid
0.667 0.776 0.439 edgecolor
newpath 740 93.5001 moveto
750 90 lineto
740 86.5001 lineto
closepath stroke
grestore
% Node10
gsave
[ /Rect [ 758 42 816 62 ]
  /Border [ 0 0 0 ]
  /Action << /Subtype /URI /URI ($Pos_8cpp.html#ad8740377e9e19836d654491a170ac9a) >>
  /Subtype /Link
/ANN pdfmark
[ /Rect [ 758 42 816 62 ]
  /Border [ 0 0 0 ]
  /Action << /Subtype /URI /URI ($Pos_8cpp.html#ad8740377e9e19836d654491a170ac9a) >>
  /Subtype /Link
/ANN pdfmark
1 setlinewidth
0.000 0.000 0.000 nodecolor
newpath 758 41 moveto
758 62 lineto
816 62 lineto
816 41 lineto
closepath stroke
0.000 0.000 0.000 nodecolor
10.00 /FreeSans.ttf set_font
787 48 moveto 42 -0.5 (longPos) alignedtext
grestore
% Node8->Node10
gsave
1 setlinewidth
solid
0.667 0.776 0.439 edgecolor
newpath 677 79 moveto
699 74 726 67 748 62 curveto
stroke
0.667 0.776 0.439 edgecolor
newpath 749.427 65.2259 moveto
758 59 lineto
747.416 58.5212 lineto
closepath fill
1 setlinewidth
solid
0.667 0.776 0.439 edgecolor
newpath 749.427 65.2259 moveto
758 59 lineto
747.416 58.5212 lineto
closepath stroke
grestore
% Node11
gsave
[ /Rect [ 875 61 981 81 ]
  /Border [ 0 0 0 ]
  /Action << /Subtype /URI /URI ($Elias_8cpp.html#214c4fd6adcbe1fe7de47c4ba521198a) >>
  /Subtype /Link
/ANN pdfmark
[ /Rect [ 875 61 981 81 ]
  /Border [ 0 0 0 ]
  /Action << /Subtype /URI /URI ($Elias_8cpp.html#214c4fd6adcbe1fe7de47c4ba521198a) >>
  /Subtype /Link
/ANN pdfmark
1 setlinewidth
0.000 0.000 0.000 nodecolor
newpath 875 60 moveto
875 81 lineto
982 81 lineto
982 60 lineto
closepath stroke
0.000 0.000 0.000 nodecolor
10.00 /FreeSans.ttf set_font
928 67 moveto 91 -0.5 (long_elias_gama) alignedtext
grestore
% Node10->Node11
gsave
1 setlinewidth
solid
0.667 0.776 0.439 edgecolor
newpath 816 56 moveto
830 58 848 60 865 63 curveto
stroke
0.667 0.776 0.439 edgecolor
newpath 864.701 66.4875 moveto
875 64 lineto
865.398 59.5222 lineto
closepath fill
1 setlinewidth
solid
0.667 0.776 0.439 edgecolor
newpath 864.701 66.4875 moveto
875 64 lineto
865.398 59.5222 lineto
closepath stroke
grestore
% Node11->Node7
gsave
1 setlinewidth
solid
0.667 0.776 0.439 edgecolor
newpath 982 80 moveto
994 82 1007 85 1019 87 curveto
stroke
0.667 0.776 0.439 edgecolor
newpath 1018.7 90.4875 moveto
1029 88 lineto
1019.4 83.5222 lineto
closepath fill
1 setlinewidth
solid
0.667 0.776 0.439 edgecolor
newpath 1018.7 90.4875 moveto
1029 88 lineto
1019.4 83.5222 lineto
closepath stroke
grestore
% Node12->Node12
gsave
1 setlinewidth
solid
0.667 0.776 0.439 edgecolor
newpath 171 44 moveto
149 53 166 62 221 62 curveto
265 62 285 56 280 49 curveto
stroke
0.667 0.776 0.439 edgecolor
newpath 281.441 45.7969 moveto
271 44 lineto
278.042 51.916 lineto
closepath fill
1 setlinewidth
solid
0.667 0.776 0.439 edgecolor
newpath 281.441 45.7969 moveto
271 44 lineto
278.042 51.916 lineto
closepath stroke
grestore
% Node12->Node13
gsave
1 setlinewidth
solid
0.667 0.776 0.439 edgecolor
newpath 280 34 moveto
288 34 297 34 306 34 curveto
stroke
0.667 0.776 0.439 edgecolor
newpath 306 37.5001 moveto
316 34 lineto
306 30.5001 lineto
closepath fill
1 setlinewidth
solid
0.667 0.776 0.439 edgecolor
newpath 306 37.5001 moveto
316 34 lineto
306 30.5001 lineto
closepath stroke
grestore
% Node13->Node8
gsave
1 setlinewidth
solid
0.667 0.776 0.439 edgecolor
newpath 455 44 moveto
490 53 542 67 580 76 curveto
stroke
0.667 0.776 0.439 edgecolor
newpath 579.416 79.4788 moveto
590 79 lineto
581.427 72.7741 lineto
closepath fill
1 setlinewidth
solid
0.667 0.776 0.439 edgecolor
newpath 579.416 79.4788 moveto
590 79 lineto
581.427 72.7741 lineto
closepath stroke
grestore
endpage
showpage
grestore
%%PageTrailer
%%EndPage: 1
%%Trailer
%%Pages: 1
%%BoundingBox: 36 36 1146 220
end
restore
%%EOF
