%!PS-Adobe-2.0
%%Creator: Graphviz version 2.12 (Mon Nov 16 18:34:03 UTC 2009)
%%For: (vtamara) Vladimir
%%Title: G
%%Pages: (atend)
%%BoundingBox: (atend)
%%EndComments
save
%%BeginProlog
/DotDict 200 dict def
DotDict begin

/setupLatin1 {
mark
/EncodingVector 256 array def
 EncodingVector 0

ISOLatin1Encoding 0 255 getinterval putinterval
EncodingVector 45 /hyphen put

% Set up ISO Latin 1 character encoding
/starnetISO {
        dup dup findfont dup length dict begin
        { 1 index /FID ne { def }{ pop pop } ifelse
        } forall
        /Encoding EncodingVector def
        currentdict end definefont
} def
/Times-Roman starnetISO def
/Times-Italic starnetISO def
/Times-Bold starnetISO def
/Times-BoldItalic starnetISO def
/Helvetica starnetISO def
/Helvetica-Oblique starnetISO def
/Helvetica-Bold starnetISO def
/Helvetica-BoldOblique starnetISO def
/Courier starnetISO def
/Courier-Oblique starnetISO def
/Courier-Bold starnetISO def
/Courier-BoldOblique starnetISO def
cleartomark
} bind def

%%BeginResource: procset graphviz 0 0
/coord-font-family /Times-Roman def
/default-font-family /Times-Roman def
/coordfont coord-font-family findfont 8 scalefont def

/InvScaleFactor 1.0 def
/set_scale {
       dup 1 exch div /InvScaleFactor exch def
       scale
} bind def

% styles
/solid { [] 0 setdash } bind def
/dashed { [9 InvScaleFactor mul dup ] 0 setdash } bind def
/dotted { [1 InvScaleFactor mul 6 InvScaleFactor mul] 0 setdash } bind def
/invis {/fill {newpath} def /stroke {newpath} def /show {pop newpath} def} bind def
/bold { 2 setlinewidth } bind def
/filled { } bind def
/unfilled { } bind def
/rounded { } bind def
/diagonals { } bind def

% hooks for setting color 
/nodecolor { sethsbcolor } bind def
/edgecolor { sethsbcolor } bind def
/graphcolor { sethsbcolor } bind def
/nopcolor {pop pop pop} bind def

/beginpage {	% i j npages
	/npages exch def
	/j exch def
	/i exch def
	/str 10 string def
	npages 1 gt {
		gsave
			coordfont setfont
			0 0 moveto
			(\() show i str cvs show (,) show j str cvs show (\)) show
		grestore
	} if
} bind def

/set_font {
	findfont exch
	scalefont setfont
} def

% draw aligned label in bounding box aligned to current point
/alignedtext {			% width adj text
	/text exch def
	/adj exch def
	/width exch def
	gsave
		width 0 gt {
			text stringwidth pop adj mul 0 rmoveto
		} if
		[] 0 setdash
		text show
	grestore
} def

/boxprim {				% xcorner ycorner xsize ysize
		4 2 roll
		moveto
		2 copy
		exch 0 rlineto
		0 exch rlineto
		pop neg 0 rlineto
		closepath
} bind def

/ellipse_path {
	/ry exch def
	/rx exch def
	/y exch def
	/x exch def
	matrix currentmatrix
	newpath
	x y translate
	rx ry scale
	0 0 1 0 360 arc
	setmatrix
} bind def

/endpage { showpage } bind def
/showpage { } def

/layercolorseq
	[	% layer color sequence - darkest to lightest
		[0 0 0]
		[.2 .8 .8]
		[.4 .8 .8]
		[.6 .8 .8]
		[.8 .8 .8]
	]
def

/layerlen layercolorseq length def

/setlayer {/maxlayer exch def /curlayer exch def
	layercolorseq curlayer 1 sub layerlen mod get
	aload pop sethsbcolor
	/nodecolor {nopcolor} def
	/edgecolor {nopcolor} def
	/graphcolor {nopcolor} def
} bind def

/onlayer { curlayer ne {invis} if } def

/onlayers {
	/myupper exch def
	/mylower exch def
	curlayer mylower lt
	curlayer myupper gt
	or
	{invis} if
} def

/curlayer 0 def

%%EndResource
%%EndProlog
%%BeginSetup
14 default-font-family set_font
1 setmiterlimit
% /arrowlength 10 def
% /arrowwidth 5 def

% make sure pdfmark is harmless for PS-interpreters other than Distiller
/pdfmark where {pop} {userdict /pdfmark /cleartomark load put} ifelse
% make '<<' and '>>' safe on PS Level 1 devices
/languagelevel where {pop languagelevel}{1} ifelse
2 lt {
    userdict (<<) cvn ([) cvn load put
    userdict (>>) cvn ([) cvn load put
} if

%%EndSetup
setupLatin1
%%Page: 1 1
%%PageBoundingBox: 36 36 577 182
%%PageOrientation: Portrait
gsave
36 36 577 182 boxprim clip newpath
0 0 1 beginpage
1 1 set_scale 0 rotate 40 40 translate
% Node1
gsave
0.000 0.000 0.749 nodecolor
newpath 198 116 moveto
198 137 lineto
275 137 lineto
275 116 lineto
closepath fill
1 setlinewidth
filled
0.000 0.000 0.000 nodecolor
newpath 198 116 moveto
198 137 lineto
275 137 lineto
275 116 lineto
closepath stroke
0.000 0.000 0.000 nodecolor
10.00 /FreeSans.ttf set_font
236 123 moveto 61 -0.5 (sha256.cpp) alignedtext
grestore
% Node2
gsave
[ /Rect [ 41 59 119 79 ]
  /Border [ 0 0 0 ]
  /Action << /Subtype /URI /URI ($sha256_8hpp.html) >>
  /Subtype /Link
/ANN pdfmark
[ /Rect [ 41 59 119 79 ]
  /Border [ 0 0 0 ]
  /Action << /Subtype /URI /URI ($sha256_8hpp.html) >>
  /Subtype /Link
/ANN pdfmark
1 setlinewidth
0.000 0.000 0.000 nodecolor
newpath 41 58 moveto
41 79 lineto
119 79 lineto
119 58 lineto
closepath stroke
0.000 0.000 0.000 nodecolor
10.00 /FreeSans.ttf set_font
80 65 moveto 62 -0.5 (sha256.hpp) alignedtext
grestore
% Node1->Node2
gsave
1 setlinewidth
solid
0.667 0.776 0.439 edgecolor
newpath 206 116 moveto
181 106 144 92 117 82 curveto
stroke
0.667 0.776 0.439 edgecolor
newpath 117.584 78.5212 moveto
107 79 lineto
115.573 85.2259 lineto
closepath fill
1 setlinewidth
solid
0.667 0.776 0.439 edgecolor
newpath 117.584 78.5212 moveto
107 79 lineto
115.573 85.2259 lineto
closepath stroke
grestore
% Node3
gsave
1 setlinewidth
0.000 0.000 0.749 nodecolor
newpath 0 0 moveto
0 21 lineto
58 21 lineto
58 0 lineto
closepath stroke
0.000 0.000 0.000 nodecolor
10.00 /FreeSans.ttf set_font
29 7 moveto 42 -0.5 (signal.h) alignedtext
grestore
% Node1->Node3
gsave
1 setlinewidth
solid
0.667 0.776 0.439 edgecolor
newpath 198 123 moveto
144 118 52 105 32 80 curveto
22 66 22 46 24 31 curveto
stroke
0.667 0.776 0.439 edgecolor
newpath 27.4708 31.4922 moveto
26 21 lineto
20.6067 30.1194 lineto
closepath fill
1 setlinewidth
solid
0.667 0.776 0.439 edgecolor
newpath 27.4708 31.4922 moveto
26 21 lineto
20.6067 30.1194 lineto
closepath stroke
grestore
% Node4
gsave
1 setlinewidth
0.000 0.000 0.749 nodecolor
newpath 108 0 moveto
108 21 lineto
154 21 lineto
154 0 lineto
closepath stroke
0.000 0.000 0.000 nodecolor
10.00 /FreeSans.ttf set_font
131 7 moveto 30 -0.5 (string) alignedtext
grestore
% Node1->Node4
gsave
1 setlinewidth
solid
0.667 0.776 0.439 edgecolor
newpath 213 116 moveto
198 108 179 95 166 80 curveto
153 65 143 45 137 30 curveto
stroke
0.667 0.776 0.439 edgecolor
newpath 140.483 29.38 moveto
134 21 lineto
133.842 31.5937 lineto
closepath fill
1 setlinewidth
solid
0.667 0.776 0.439 edgecolor
newpath 140.483 29.38 moveto
134 21 lineto
133.842 31.5937 lineto
closepath stroke
grestore
% Node5
gsave
1 setlinewidth
0.000 0.000 0.749 nodecolor
newpath 175 58 moveto
175 79 lineto
227 79 lineto
227 58 lineto
closepath stroke
0.000 0.000 0.000 nodecolor
10.00 /FreeSans.ttf set_font
201 65 moveto 36 -0.5 (stdio.h) alignedtext
grestore
% Node1->Node5
gsave
1 setlinewidth
solid
0.667 0.776 0.439 edgecolor
newpath 229 116 moveto
225 108 218 97 212 88 curveto
stroke
0.667 0.776 0.439 edgecolor
newpath 214.916 86.0418 moveto
207 79 lineto
208.797 89.4414 lineto
closepath fill
1 setlinewidth
solid
0.667 0.776 0.439 edgecolor
newpath 214.916 86.0418 moveto
207 79 lineto
208.797 89.4414 lineto
closepath stroke
grestore
% Node6
gsave
1 setlinewidth
0.000 0.000 0.749 nodecolor
newpath 245 58 moveto
245 79 lineto
297 79 lineto
297 58 lineto
closepath stroke
0.000 0.000 0.000 nodecolor
10.00 /FreeSans.ttf set_font
271 65 moveto 36 -0.5 (cstring) alignedtext
grestore
% Node1->Node6
gsave
1 setlinewidth
solid
0.667 0.776 0.439 edgecolor
newpath 243 116 moveto
247 108 254 97 260 88 curveto
stroke
0.667 0.776 0.439 edgecolor
newpath 263.203 89.4414 moveto
265 79 lineto
257.084 86.0418 lineto
closepath fill
1 setlinewidth
solid
0.667 0.776 0.439 edgecolor
newpath 263.203 89.4414 moveto
265 79 lineto
257.084 86.0418 lineto
closepath stroke
grestore
% Node7
gsave
1 setlinewidth
0.000 0.000 0.749 nodecolor
newpath 315 58 moveto
315 79 lineto
374 79 lineto
374 58 lineto
closepath stroke
0.000 0.000 0.000 nodecolor
10.00 /FreeSans.ttf set_font
344 65 moveto 43 -0.5 (sstream) alignedtext
grestore
% Node1->Node7
gsave
1 setlinewidth
solid
0.667 0.776 0.439 edgecolor
newpath 257 116 moveto
274 107 298 94 316 84 curveto
stroke
0.667 0.776 0.439 edgecolor
newpath 317.958 86.916 moveto
325 79 lineto
314.559 80.7969 lineto
closepath fill
1 setlinewidth
solid
0.667 0.776 0.439 edgecolor
newpath 317.958 86.916 moveto
325 79 lineto
314.559 80.7969 lineto
closepath stroke
grestore
% Node8
gsave
1 setlinewidth
0.000 0.000 0.749 nodecolor
newpath 391 58 moveto
391 79 lineto
452 79 lineto
452 58 lineto
closepath stroke
0.000 0.000 0.000 nodecolor
10.00 /FreeSans.ttf set_font
421 65 moveto 45 -0.5 (iomanip) alignedtext
grestore
% Node1->Node8
gsave
1 setlinewidth
solid
0.667 0.776 0.439 edgecolor
newpath 271 116 moveto
303 106 348 92 381 81 curveto
stroke
0.667 0.776 0.439 edgecolor
newpath 382.427 84.2259 moveto
391 78 lineto
380.416 77.5212 lineto
closepath fill
1 setlinewidth
solid
0.667 0.776 0.439 edgecolor
newpath 382.427 84.2259 moveto
391 78 lineto
380.416 77.5212 lineto
closepath stroke
grestore
% Node9
gsave
1 setlinewidth
0.000 0.000 0.749 nodecolor
newpath 469 58 moveto
469 79 lineto
533 79 lineto
533 58 lineto
closepath stroke
0.000 0.000 0.000 nodecolor
10.00 /FreeSans.ttf set_font
501 65 moveto 48 -0.5 (iostream) alignedtext
grestore
% Node1->Node9
gsave
1 setlinewidth
solid
0.667 0.776 0.439 edgecolor
newpath 275 119 moveto
318 110 389 96 459 80 curveto
stroke
0.667 0.776 0.439 edgecolor
newpath 459.881 83.3933 moveto
469 78 lineto
458.508 76.5292 lineto
closepath fill
1 setlinewidth
solid
0.667 0.776 0.439 edgecolor
newpath 459.881 83.3933 moveto
469 78 lineto
458.508 76.5292 lineto
closepath stroke
grestore
% Node2->Node3
gsave
1 setlinewidth
solid
0.667 0.776 0.439 edgecolor
newpath 70 58 moveto
63 49 53 38 45 29 curveto
stroke
0.667 0.776 0.439 edgecolor
newpath 47.2191 26.221 moveto
38 21 lineto
41.9511 30.8306 lineto
closepath fill
1 setlinewidth
solid
0.667 0.776 0.439 edgecolor
newpath 47.2191 26.221 moveto
38 21 lineto
41.9511 30.8306 lineto
closepath stroke
grestore
% Node2->Node4
gsave
1 setlinewidth
solid
0.667 0.776 0.439 edgecolor
newpath 90 58 moveto
97 49 107 38 115 29 curveto
stroke
0.667 0.776 0.439 edgecolor
newpath 118.049 30.8306 moveto
122 21 lineto
112.781 26.221 lineto
closepath fill
1 setlinewidth
solid
0.667 0.776 0.439 edgecolor
newpath 118.049 30.8306 moveto
122 21 lineto
112.781 26.221 lineto
closepath stroke
grestore
endpage
showpage
grestore
%%PageTrailer
%%EndPage: 1
%%Trailer
%%Pages: 1
%%BoundingBox: 36 36 577 182
end
restore
%%EOF
