%!PS-Adobe-2.0
%%Creator: Graphviz version 2.12 (Mon Nov 16 18:34:03 UTC 2009)
%%For: (vtamara) Vladimir
%%Title: G
%%Pages: (atend)
%%BoundingBox: (atend)
%%EndComments
save
%%BeginProlog
/DotDict 200 dict def
DotDict begin

/setupLatin1 {
mark
/EncodingVector 256 array def
 EncodingVector 0

ISOLatin1Encoding 0 255 getinterval putinterval
EncodingVector 45 /hyphen put

% Set up ISO Latin 1 character encoding
/starnetISO {
        dup dup findfont dup length dict begin
        { 1 index /FID ne { def }{ pop pop } ifelse
        } forall
        /Encoding EncodingVector def
        currentdict end definefont
} def
/Times-Roman starnetISO def
/Times-Italic starnetISO def
/Times-Bold starnetISO def
/Times-BoldItalic starnetISO def
/Helvetica starnetISO def
/Helvetica-Oblique starnetISO def
/Helvetica-Bold starnetISO def
/Helvetica-BoldOblique starnetISO def
/Courier starnetISO def
/Courier-Oblique starnetISO def
/Courier-Bold starnetISO def
/Courier-BoldOblique starnetISO def
cleartomark
} bind def

%%BeginResource: procset graphviz 0 0
/coord-font-family /Times-Roman def
/default-font-family /Times-Roman def
/coordfont coord-font-family findfont 8 scalefont def

/InvScaleFactor 1.0 def
/set_scale {
       dup 1 exch div /InvScaleFactor exch def
       scale
} bind def

% styles
/solid { [] 0 setdash } bind def
/dashed { [9 InvScaleFactor mul dup ] 0 setdash } bind def
/dotted { [1 InvScaleFactor mul 6 InvScaleFactor mul] 0 setdash } bind def
/invis {/fill {newpath} def /stroke {newpath} def /show {pop newpath} def} bind def
/bold { 2 setlinewidth } bind def
/filled { } bind def
/unfilled { } bind def
/rounded { } bind def
/diagonals { } bind def

% hooks for setting color 
/nodecolor { sethsbcolor } bind def
/edgecolor { sethsbcolor } bind def
/graphcolor { sethsbcolor } bind def
/nopcolor {pop pop pop} bind def

/beginpage {	% i j npages
	/npages exch def
	/j exch def
	/i exch def
	/str 10 string def
	npages 1 gt {
		gsave
			coordfont setfont
			0 0 moveto
			(\() show i str cvs show (,) show j str cvs show (\)) show
		grestore
	} if
} bind def

/set_font {
	findfont exch
	scalefont setfont
} def

% draw aligned label in bounding box aligned to current point
/alignedtext {			% width adj text
	/text exch def
	/adj exch def
	/width exch def
	gsave
		width 0 gt {
			text stringwidth pop adj mul 0 rmoveto
		} if
		[] 0 setdash
		text show
	grestore
} def

/boxprim {				% xcorner ycorner xsize ysize
		4 2 roll
		moveto
		2 copy
		exch 0 rlineto
		0 exch rlineto
		pop neg 0 rlineto
		closepath
} bind def

/ellipse_path {
	/ry exch def
	/rx exch def
	/y exch def
	/x exch def
	matrix currentmatrix
	newpath
	x y translate
	rx ry scale
	0 0 1 0 360 arc
	setmatrix
} bind def

/endpage { showpage } bind def
/showpage { } def

/layercolorseq
	[	% layer color sequence - darkest to lightest
		[0 0 0]
		[.2 .8 .8]
		[.4 .8 .8]
		[.6 .8 .8]
		[.8 .8 .8]
	]
def

/layerlen layercolorseq length def

/setlayer {/maxlayer exch def /curlayer exch def
	layercolorseq curlayer 1 sub layerlen mod get
	aload pop sethsbcolor
	/nodecolor {nopcolor} def
	/edgecolor {nopcolor} def
	/graphcolor {nopcolor} def
} bind def

/onlayer { curlayer ne {invis} if } def

/onlayers {
	/myupper exch def
	/mylower exch def
	curlayer mylower lt
	curlayer myupper gt
	or
	{invis} if
} def

/curlayer 0 def

%%EndResource
%%EndProlog
%%BeginSetup
14 default-font-family set_font
1 setmiterlimit
% /arrowlength 10 def
% /arrowwidth 5 def

% make sure pdfmark is harmless for PS-interpreters other than Distiller
/pdfmark where {pop} {userdict /pdfmark /cleartomark load put} ifelse
% make '<<' and '>>' safe on PS Level 1 devices
/languagelevel where {pop languagelevel}{1} ifelse
2 lt {
    userdict (<<) cvn ([) cvn load put
    userdict (>>) cvn ([) cvn load put
} if

%%EndSetup
setupLatin1
%%Page: 1 1
%%PageBoundingBox: 36 36 354 178
%%PageOrientation: Portrait
gsave
36 36 354 178 boxprim clip newpath
0 0 1 beginpage
1 1 set_scale 0 rotate 40 40 translate
% Node1
gsave
0.000 0.000 0.749 nodecolor
newpath 0 56 moveto
0 77 lineto
44 77 lineto
44 56 lineto
closepath fill
1 setlinewidth
filled
0.000 0.000 0.000 nodecolor
newpath 0 56 moveto
0 77 lineto
44 77 lineto
44 56 lineto
closepath stroke
0.000 0.000 0.000 nodecolor
10.00 /FreeSans.ttf set_font
22 63 moveto 28 -0.5 (main) alignedtext
grestore
% Node2
gsave
[ /Rect [ 80 57 174 77 ]
  /Border [ 0 0 0 ]
  /Action << /Subtype /URI /URI ($sha256_8cpp.html#23c461a74498c51def2406c5ab6aae67) >>
  /Subtype /Link
/ANN pdfmark
[ /Rect [ 80 57 174 77 ]
  /Border [ 0 0 0 ]
  /Action << /Subtype /URI /URI ($sha256_8cpp.html#23c461a74498c51def2406c5ab6aae67) >>
  /Subtype /Link
/ANN pdfmark
1 setlinewidth
0.000 0.000 0.000 nodecolor
newpath 80 56 moveto
80 77 lineto
174 77 lineto
174 56 lineto
closepath stroke
0.000 0.000 0.000 nodecolor
10.00 /FreeSans.ttf set_font
127 63 moveto 78 -0.5 (sha256archivo) alignedtext
grestore
% Node1->Node2
gsave
1 setlinewidth
solid
0.667 0.776 0.439 edgecolor
newpath 44 67 moveto
51 67 60 67 70 67 curveto
stroke
0.667 0.776 0.439 edgecolor
newpath 70 70.5001 moveto
80 67 lineto
70 63.5001 lineto
closepath fill
1 setlinewidth
solid
0.667 0.776 0.439 edgecolor
newpath 70 70.5001 moveto
80 67 lineto
70 63.5001 lineto
closepath stroke
grestore
% Node3
gsave
[ /Rect [ 218 114 302 134 ]
  /Border [ 0 0 0 ]
  /Action << /Subtype /URI /URI ($sha256_8cpp.html#342ef15f8c70a70f56bfbe5e0d785646) >>
  /Subtype /Link
/ANN pdfmark
[ /Rect [ 218 114 302 134 ]
  /Border [ 0 0 0 ]
  /Action << /Subtype /URI /URI ($sha256_8cpp.html#342ef15f8c70a70f56bfbe5e0d785646) >>
  /Subtype /Link
/ANN pdfmark
1 setlinewidth
0.000 0.000 0.000 nodecolor
newpath 218 113 moveto
218 134 lineto
303 134 lineto
303 113 lineto
closepath stroke
0.000 0.000 0.000 nodecolor
10.00 /FreeSans.ttf set_font
260 120 moveto 69 -0.5 (hexaDeHash) alignedtext
grestore
% Node2->Node3
gsave
1 setlinewidth
solid
0.667 0.776 0.439 edgecolor
newpath 148 77 moveto
165 85 189 96 210 105 curveto
214 107 217 108 221 109 curveto
stroke
0.667 0.776 0.439 edgecolor
newpath 219.44 112.137 moveto
230 113 lineto
222.283 105.74 lineto
closepath fill
1 setlinewidth
solid
0.667 0.776 0.439 edgecolor
newpath 219.44 112.137 moveto
230 113 lineto
222.283 105.74 lineto
closepath stroke
grestore
% Node4
gsave
[ /Rect [ 217 76 303 96 ]
  /Border [ 0 0 0 ]
  /Action << /Subtype /URI /URI ($sha256_8cpp.html#53db56f3eb9f35c59b134533be31c301) >>
  /Subtype /Link
/ANN pdfmark
[ /Rect [ 217 76 303 96 ]
  /Border [ 0 0 0 ]
  /Action << /Subtype /URI /URI ($sha256_8cpp.html#53db56f3eb9f35c59b134533be31c301) >>
  /Subtype /Link
/ANN pdfmark
1 setlinewidth
0.000 0.000 0.000 nodecolor
newpath 217 75 moveto
217 96 lineto
304 96 lineto
304 75 lineto
closepath stroke
0.000 0.000 0.000 nodecolor
10.00 /FreeSans.ttf set_font
260 82 moveto 71 -0.5 (sha256_done) alignedtext
grestore
% Node2->Node4
gsave
1 setlinewidth
solid
0.667 0.776 0.439 edgecolor
newpath 174 74 moveto
185 76 196 77 207 79 curveto
stroke
0.667 0.776 0.439 edgecolor
newpath 206.701 82.4875 moveto
217 80 lineto
207.398 75.5222 lineto
closepath fill
1 setlinewidth
solid
0.667 0.776 0.439 edgecolor
newpath 206.701 82.4875 moveto
217 80 lineto
207.398 75.5222 lineto
closepath stroke
grestore
% Node5
gsave
[ /Rect [ 222 38 298 58 ]
  /Border [ 0 0 0 ]
  /Action << /Subtype /URI /URI ($sha256_8cpp.html#6290ad544b02c822c2ca6c30b8d1ee07) >>
  /Subtype /Link
/ANN pdfmark
[ /Rect [ 222 38 298 58 ]
  /Border [ 0 0 0 ]
  /Action << /Subtype /URI /URI ($sha256_8cpp.html#6290ad544b02c822c2ca6c30b8d1ee07) >>
  /Subtype /Link
/ANN pdfmark
1 setlinewidth
0.000 0.000 0.000 nodecolor
newpath 222 37 moveto
222 58 lineto
298 58 lineto
298 37 lineto
closepath stroke
0.000 0.000 0.000 nodecolor
10.00 /FreeSans.ttf set_font
260 44 moveto 60 -0.5 (sha256_init) alignedtext
grestore
% Node2->Node5
gsave
1 setlinewidth
solid
0.667 0.776 0.439 edgecolor
newpath 174 60 moveto
186 58 200 57 212 55 curveto
stroke
0.667 0.776 0.439 edgecolor
newpath 212.881 58.3933 moveto
222 53 lineto
211.508 51.5292 lineto
closepath fill
1 setlinewidth
solid
0.667 0.776 0.439 edgecolor
newpath 212.881 58.3933 moveto
222 53 lineto
211.508 51.5292 lineto
closepath stroke
grestore
% Node6
gsave
[ /Rect [ 210 0 310 20 ]
  /Border [ 0 0 0 ]
  /Action << /Subtype /URI /URI ($sha256_8hpp.html#8b983a80c9edd5d997a3937963ae7856) >>
  /Subtype /Link
/ANN pdfmark
[ /Rect [ 210 0 310 20 ]
  /Border [ 0 0 0 ]
  /Action << /Subtype /URI /URI ($sha256_8hpp.html#8b983a80c9edd5d997a3937963ae7856) >>
  /Subtype /Link
/ANN pdfmark
1 setlinewidth
0.000 0.000 0.000 nodecolor
newpath 210 -1 moveto
210 20 lineto
310 20 lineto
310 -1 lineto
closepath stroke
0.000 0.000 0.000 nodecolor
10.00 /FreeSans.ttf set_font
260 6 moveto 84 -0.5 (sha256_process) alignedtext
grestore
% Node2->Node6
gsave
1 setlinewidth
solid
0.667 0.776 0.439 edgecolor
newpath 150 56 moveto
167 48 190 37 210 29 curveto
214 27 218 26 222 24 curveto
stroke
0.667 0.776 0.439 edgecolor
newpath 224.015 26.9636 moveto
232 20 lineto
221.415 20.4643 lineto
closepath fill
1 setlinewidth
solid
0.667 0.776 0.439 edgecolor
newpath 224.015 26.9636 moveto
232 20 lineto
221.415 20.4643 lineto
closepath stroke
grestore
endpage
showpage
grestore
%%PageTrailer
%%EndPage: 1
%%Trailer
%%Pages: 1
%%BoundingBox: 36 36 354 178
end
restore
%%EOF
