%!PS-Adobe-2.0
%%Creator: Graphviz version 2.12 (Mon Nov 16 18:34:03 UTC 2009)
%%For: (vtamara) Vladimir
%%Title: G
%%Pages: (atend)
%%BoundingBox: (atend)
%%EndComments
save
%%BeginProlog
/DotDict 200 dict def
DotDict begin

/setupLatin1 {
mark
/EncodingVector 256 array def
 EncodingVector 0

ISOLatin1Encoding 0 255 getinterval putinterval
EncodingVector 45 /hyphen put

% Set up ISO Latin 1 character encoding
/starnetISO {
        dup dup findfont dup length dict begin
        { 1 index /FID ne { def }{ pop pop } ifelse
        } forall
        /Encoding EncodingVector def
        currentdict end definefont
} def
/Times-Roman starnetISO def
/Times-Italic starnetISO def
/Times-Bold starnetISO def
/Times-BoldItalic starnetISO def
/Helvetica starnetISO def
/Helvetica-Oblique starnetISO def
/Helvetica-Bold starnetISO def
/Helvetica-BoldOblique starnetISO def
/Courier starnetISO def
/Courier-Oblique starnetISO def
/Courier-Bold starnetISO def
/Courier-BoldOblique starnetISO def
cleartomark
} bind def

%%BeginResource: procset graphviz 0 0
/coord-font-family /Times-Roman def
/default-font-family /Times-Roman def
/coordfont coord-font-family findfont 8 scalefont def

/InvScaleFactor 1.0 def
/set_scale {
       dup 1 exch div /InvScaleFactor exch def
       scale
} bind def

% styles
/solid { [] 0 setdash } bind def
/dashed { [9 InvScaleFactor mul dup ] 0 setdash } bind def
/dotted { [1 InvScaleFactor mul 6 InvScaleFactor mul] 0 setdash } bind def
/invis {/fill {newpath} def /stroke {newpath} def /show {pop newpath} def} bind def
/bold { 2 setlinewidth } bind def
/filled { } bind def
/unfilled { } bind def
/rounded { } bind def
/diagonals { } bind def

% hooks for setting color 
/nodecolor { sethsbcolor } bind def
/edgecolor { sethsbcolor } bind def
/graphcolor { sethsbcolor } bind def
/nopcolor {pop pop pop} bind def

/beginpage {	% i j npages
	/npages exch def
	/j exch def
	/i exch def
	/str 10 string def
	npages 1 gt {
		gsave
			coordfont setfont
			0 0 moveto
			(\() show i str cvs show (,) show j str cvs show (\)) show
		grestore
	} if
} bind def

/set_font {
	findfont exch
	scalefont setfont
} def

% draw aligned label in bounding box aligned to current point
/alignedtext {			% width adj text
	/text exch def
	/adj exch def
	/width exch def
	gsave
		width 0 gt {
			text stringwidth pop adj mul 0 rmoveto
		} if
		[] 0 setdash
		text show
	grestore
} def

/boxprim {				% xcorner ycorner xsize ysize
		4 2 roll
		moveto
		2 copy
		exch 0 rlineto
		0 exch rlineto
		pop neg 0 rlineto
		closepath
} bind def

/ellipse_path {
	/ry exch def
	/rx exch def
	/y exch def
	/x exch def
	matrix currentmatrix
	newpath
	x y translate
	rx ry scale
	0 0 1 0 360 arc
	setmatrix
} bind def

/endpage { showpage } bind def
/showpage { } def

/layercolorseq
	[	% layer color sequence - darkest to lightest
		[0 0 0]
		[.2 .8 .8]
		[.4 .8 .8]
		[.6 .8 .8]
		[.8 .8 .8]
	]
def

/layerlen layercolorseq length def

/setlayer {/maxlayer exch def /curlayer exch def
	layercolorseq curlayer 1 sub layerlen mod get
	aload pop sethsbcolor
	/nodecolor {nopcolor} def
	/edgecolor {nopcolor} def
	/graphcolor {nopcolor} def
} bind def

/onlayer { curlayer ne {invis} if } def

/onlayers {
	/myupper exch def
	/mylower exch def
	curlayer mylower lt
	curlayer myupper gt
	or
	{invis} if
} def

/curlayer 0 def

%%EndResource
%%EndProlog
%%BeginSetup
14 default-font-family set_font
1 setmiterlimit
% /arrowlength 10 def
% /arrowwidth 5 def

% make sure pdfmark is harmless for PS-interpreters other than Distiller
/pdfmark where {pop} {userdict /pdfmark /cleartomark load put} ifelse
% make '<<' and '>>' safe on PS Level 1 devices
/languagelevel where {pop languagelevel}{1} ifelse
2 lt {
    userdict (<<) cvn ([) cvn load put
    userdict (>>) cvn ([) cvn load put
} if

%%EndSetup
setupLatin1
%%Page: 1 1
%%PageBoundingBox: 36 36 242 182
%%PageOrientation: Portrait
gsave
36 36 242 182 boxprim clip newpath
0 0 1 beginpage
1 1 set_scale 0 rotate 40 40 translate
% Node1
gsave
0.000 0.000 0.749 nodecolor
newpath 57 116 moveto
57 137 lineto
156 137 lineto
156 116 lineto
closepath fill
1 setlinewidth
filled
0.000 0.000 0.000 nodecolor
newpath 57 116 moveto
57 137 lineto
156 137 lineto
156 116 lineto
closepath stroke
0.000 0.000 0.000 nodecolor
10.00 /FreeSans.ttf set_font
106 123 moveto 83 -0.5 (tomsha256.cpp) alignedtext
grestore
% Node2
gsave
[ /Rect [ 0 59 78 79 ]
  /Border [ 0 0 0 ]
  /Action << /Subtype /URI /URI ($sha256_8hpp.html) >>
  /Subtype /Link
/ANN pdfmark
[ /Rect [ 0 59 78 79 ]
  /Border [ 0 0 0 ]
  /Action << /Subtype /URI /URI ($sha256_8hpp.html) >>
  /Subtype /Link
/ANN pdfmark
1 setlinewidth
0.000 0.000 0.000 nodecolor
newpath 0 58 moveto
0 79 lineto
78 79 lineto
78 58 lineto
closepath stroke
0.000 0.000 0.000 nodecolor
10.00 /FreeSans.ttf set_font
39 65 moveto 62 -0.5 (sha256.hpp) alignedtext
grestore
% Node1->Node2
gsave
1 setlinewidth
solid
0.667 0.776 0.439 edgecolor
newpath 93 116 moveto
83 107 70 95 59 86 curveto
stroke
0.667 0.776 0.439 edgecolor
newpath 60.8306 82.9511 moveto
51 79 lineto
56.221 88.2191 lineto
closepath fill
1 setlinewidth
solid
0.667 0.776 0.439 edgecolor
newpath 60.8306 82.9511 moveto
51 79 lineto
56.221 88.2191 lineto
closepath stroke
grestore
% Node4
gsave
1 setlinewidth
0.000 0.000 0.749 nodecolor
newpath 83 0 moveto
83 21 lineto
129 21 lineto
129 0 lineto
closepath stroke
0.000 0.000 0.000 nodecolor
10.00 /FreeSans.ttf set_font
106 7 moveto 30 -0.5 (string) alignedtext
grestore
% Node1->Node4
gsave
1 setlinewidth
solid
0.667 0.776 0.439 edgecolor
newpath 106 116 moveto
106 97 106 56 106 31 curveto
stroke
0.667 0.776 0.439 edgecolor
newpath 109.5 31 moveto
106 21 lineto
102.5 31 lineto
closepath fill
1 setlinewidth
solid
0.667 0.776 0.439 edgecolor
newpath 109.5 31 moveto
106 21 lineto
102.5 31 lineto
closepath stroke
grestore
% Node5
gsave
1 setlinewidth
0.000 0.000 0.749 nodecolor
newpath 134 58 moveto
134 79 lineto
198 79 lineto
198 58 lineto
closepath stroke
0.000 0.000 0.000 nodecolor
10.00 /FreeSans.ttf set_font
166 65 moveto 48 -0.5 (iostream) alignedtext
grestore
% Node1->Node5
gsave
1 setlinewidth
solid
0.667 0.776 0.439 edgecolor
newpath 118 116 moveto
127 107 138 96 148 86 curveto
stroke
0.667 0.776 0.439 edgecolor
newpath 150.779 88.2191 moveto
156 79 lineto
146.169 82.9511 lineto
closepath fill
1 setlinewidth
solid
0.667 0.776 0.439 edgecolor
newpath 150.779 88.2191 moveto
156 79 lineto
146.169 82.9511 lineto
closepath stroke
grestore
% Node3
gsave
1 setlinewidth
0.000 0.000 0.749 nodecolor
newpath 7 0 moveto
7 21 lineto
65 21 lineto
65 0 lineto
closepath stroke
0.000 0.000 0.000 nodecolor
10.00 /FreeSans.ttf set_font
36 7 moveto 42 -0.5 (signal.h) alignedtext
grestore
% Node2->Node3
gsave
1 setlinewidth
solid
0.667 0.776 0.439 edgecolor
newpath 38 58 moveto
38 50 38 40 37 31 curveto
stroke
0.667 0.776 0.439 edgecolor
newpath 40.5001 31 moveto
37 21 lineto
33.5001 31 lineto
closepath fill
1 setlinewidth
solid
0.667 0.776 0.439 edgecolor
newpath 40.5001 31 moveto
37 21 lineto
33.5001 31 lineto
closepath stroke
grestore
% Node2->Node4
gsave
1 setlinewidth
solid
0.667 0.776 0.439 edgecolor
newpath 52 58 moveto
62 49 75 37 86 28 curveto
stroke
0.667 0.776 0.439 edgecolor
newpath 88.779 30.2191 moveto
94 21 lineto
84.1694 24.9511 lineto
closepath fill
1 setlinewidth
solid
0.667 0.776 0.439 edgecolor
newpath 88.779 30.2191 moveto
94 21 lineto
84.1694 24.9511 lineto
closepath stroke
grestore
endpage
showpage
grestore
%%PageTrailer
%%EndPage: 1
%%Trailer
%%Pages: 1
%%BoundingBox: 36 36 242 182
end
restore
%%EOF
