%!PS-Adobe-2.0
%%Creator: Graphviz version 2.12 (Mon Nov 16 18:34:03 UTC 2009)
%%For: (vtamara) Vladimir
%%Title: G
%%Pages: (atend)
%%BoundingBox: (atend)
%%EndComments
save
%%BeginProlog
/DotDict 200 dict def
DotDict begin

/setupLatin1 {
mark
/EncodingVector 256 array def
 EncodingVector 0

ISOLatin1Encoding 0 255 getinterval putinterval
EncodingVector 45 /hyphen put

% Set up ISO Latin 1 character encoding
/starnetISO {
        dup dup findfont dup length dict begin
        { 1 index /FID ne { def }{ pop pop } ifelse
        } forall
        /Encoding EncodingVector def
        currentdict end definefont
} def
/Times-Roman starnetISO def
/Times-Italic starnetISO def
/Times-Bold starnetISO def
/Times-BoldItalic starnetISO def
/Helvetica starnetISO def
/Helvetica-Oblique starnetISO def
/Helvetica-Bold starnetISO def
/Helvetica-BoldOblique starnetISO def
/Courier starnetISO def
/Courier-Oblique starnetISO def
/Courier-Bold starnetISO def
/Courier-BoldOblique starnetISO def
cleartomark
} bind def

%%BeginResource: procset graphviz 0 0
/coord-font-family /Times-Roman def
/default-font-family /Times-Roman def
/coordfont coord-font-family findfont 8 scalefont def

/InvScaleFactor 1.0 def
/set_scale {
       dup 1 exch div /InvScaleFactor exch def
       scale
} bind def

% styles
/solid { [] 0 setdash } bind def
/dashed { [9 InvScaleFactor mul dup ] 0 setdash } bind def
/dotted { [1 InvScaleFactor mul 6 InvScaleFactor mul] 0 setdash } bind def
/invis {/fill {newpath} def /stroke {newpath} def /show {pop newpath} def} bind def
/bold { 2 setlinewidth } bind def
/filled { } bind def
/unfilled { } bind def
/rounded { } bind def
/diagonals { } bind def

% hooks for setting color 
/nodecolor { sethsbcolor } bind def
/edgecolor { sethsbcolor } bind def
/graphcolor { sethsbcolor } bind def
/nopcolor {pop pop pop} bind def

/beginpage {	% i j npages
	/npages exch def
	/j exch def
	/i exch def
	/str 10 string def
	npages 1 gt {
		gsave
			coordfont setfont
			0 0 moveto
			(\() show i str cvs show (,) show j str cvs show (\)) show
		grestore
	} if
} bind def

/set_font {
	findfont exch
	scalefont setfont
} def

% draw aligned label in bounding box aligned to current point
/alignedtext {			% width adj text
	/text exch def
	/adj exch def
	/width exch def
	gsave
		width 0 gt {
			text stringwidth pop adj mul 0 rmoveto
		} if
		[] 0 setdash
		text show
	grestore
} def

/boxprim {				% xcorner ycorner xsize ysize
		4 2 roll
		moveto
		2 copy
		exch 0 rlineto
		0 exch rlineto
		pop neg 0 rlineto
		closepath
} bind def

/ellipse_path {
	/ry exch def
	/rx exch def
	/y exch def
	/x exch def
	matrix currentmatrix
	newpath
	x y translate
	rx ry scale
	0 0 1 0 360 arc
	setmatrix
} bind def

/endpage { showpage } bind def
/showpage { } def

/layercolorseq
	[	% layer color sequence - darkest to lightest
		[0 0 0]
		[.2 .8 .8]
		[.4 .8 .8]
		[.6 .8 .8]
		[.8 .8 .8]
	]
def

/layerlen layercolorseq length def

/setlayer {/maxlayer exch def /curlayer exch def
	layercolorseq curlayer 1 sub layerlen mod get
	aload pop sethsbcolor
	/nodecolor {nopcolor} def
	/edgecolor {nopcolor} def
	/graphcolor {nopcolor} def
} bind def

/onlayer { curlayer ne {invis} if } def

/onlayers {
	/myupper exch def
	/mylower exch def
	curlayer mylower lt
	curlayer myupper gt
	or
	{invis} if
} def

/curlayer 0 def

%%EndResource
%%EndProlog
%%BeginSetup
14 default-font-family set_font
1 setmiterlimit
% /arrowlength 10 def
% /arrowwidth 5 def

% make sure pdfmark is harmless for PS-interpreters other than Distiller
/pdfmark where {pop} {userdict /pdfmark /cleartomark load put} ifelse
% make '<<' and '>>' safe on PS Level 1 devices
/languagelevel where {pop languagelevel}{1} ifelse
2 lt {
    userdict (<<) cvn ([) cvn load put
    userdict (>>) cvn ([) cvn load put
} if

%%EndSetup
setupLatin1
%%Page: 1 1
%%PageBoundingBox: 36 36 658 347
%%PageOrientation: Portrait
gsave
36 36 658 347 boxprim clip newpath
0 0 1 beginpage
1 1 set_scale 0 rotate 40 40 translate
% Node1
gsave
0.000 0.000 0.749 nodecolor
newpath 0 111 moveto
0 132 lineto
78 132 lineto
78 111 lineto
closepath fill
1 setlinewidth
filled
0.000 0.000 0.000 nodecolor
newpath 0 111 moveto
0 132 lineto
78 132 lineto
78 111 lineto
closepath stroke
0.000 0.000 0.000 nodecolor
10.00 /FreeSans.ttf set_font
39 118 moveto 62 -0.5 (buscaPlano) alignedtext
grestore
% Node2
gsave
[ /Rect [ 114 226 232 246 ]
  /Border [ 0 0 0 ]
  /Action << /Subtype /URI /URI ($TrieSDisco_8cpp.html#1281c095bc817935769ceb3707a089d4) >>
  /Subtype /Link
/ANN pdfmark
[ /Rect [ 114 226 232 246 ]
  /Border [ 0 0 0 ]
  /Action << /Subtype /URI /URI ($TrieSDisco_8cpp.html#1281c095bc817935769ceb3707a089d4) >>
  /Subtype /Link
/ANN pdfmark
1 setlinewidth
0.000 0.000 0.000 nodecolor
newpath 114 225 moveto
114 246 lineto
232 246 lineto
232 225 lineto
closepath stroke
0.000 0.000 0.000 nodecolor
10.00 /FreeSans.ttf set_font
173 232 moveto 102 -0.5 (buscaPlanoStream) alignedtext
grestore
% Node1->Node2
gsave
1 setlinewidth
solid
0.667 0.776 0.439 edgecolor
newpath 51 132 moveto
74 151 124 194 152 218 curveto
stroke
0.667 0.776 0.439 edgecolor
newpath 150.169 221.049 moveto
160 225 lineto
154.779 215.781 lineto
closepath fill
1 setlinewidth
solid
0.667 0.776 0.439 edgecolor
newpath 150.169 221.049 moveto
160 225 lineto
154.779 215.781 lineto
closepath stroke
grestore
% Node4
gsave
[ /Rect [ 526 150 614 170 ]
  /Border [ 0 0 0 ]
  /Action << /Subtype /URI /URI ($comun_8cpp.html#88ffeb20e447cad877c37bb473033590) >>
  /Subtype /Link
/ANN pdfmark
[ /Rect [ 526 150 614 170 ]
  /Border [ 0 0 0 ]
  /Action << /Subtype /URI /URI ($comun_8cpp.html#88ffeb20e447cad877c37bb473033590) >>
  /Subtype /Link
/ANN pdfmark
1 setlinewidth
0.000 0.000 0.000 nodecolor
newpath 526 149 moveto
526 170 lineto
614 170 lineto
614 149 lineto
closepath stroke
0.000 0.000 0.000 nodecolor
10.00 /FreeSans.ttf set_font
570 156 moveto 72 -0.5 (errorFormato) alignedtext
grestore
% Node1->Node4
gsave
1 setlinewidth
solid
0.667 0.776 0.439 edgecolor
newpath 78 125 moveto
172 132 409 149 516 156 curveto
stroke
0.667 0.776 0.439 edgecolor
newpath 515.701 159.488 moveto
526 157 lineto
516.398 152.522 lineto
closepath fill
1 setlinewidth
solid
0.667 0.776 0.439 edgecolor
newpath 515.701 159.488 moveto
526 157 lineto
516.398 152.522 lineto
closepath stroke
grestore
% Node9
gsave
[ /Rect [ 268 93 348 113 ]
  /Border [ 0 0 0 ]
  /Action << /Subtype /URI /URI ($TrieSDisco_8cpp.html#acdb9639784b2fb341e069b1f54c3455) >>
  /Subtype /Link
/ANN pdfmark
[ /Rect [ 268 93 348 113 ]
  /Border [ 0 0 0 ]
  /Action << /Subtype /URI /URI ($TrieSDisco_8cpp.html#acdb9639784b2fb341e069b1f54c3455) >>
  /Subtype /Link
/ANN pdfmark
1 setlinewidth
0.000 0.000 0.000 nodecolor
newpath 268 92 moveto
268 113 lineto
348 113 lineto
348 92 lineto
closepath stroke
0.000 0.000 0.000 nodecolor
10.00 /FreeSans.ttf set_font
308 99 moveto 64 -0.5 (leeRelacion) alignedtext
grestore
% Node1->Node9
gsave
1 setlinewidth
solid
0.667 0.776 0.439 edgecolor
newpath 78 119 moveto
126 116 205 110 258 107 curveto
stroke
0.667 0.776 0.439 edgecolor
newpath 258.398 110.478 moveto
268 106 lineto
257.701 103.512 lineto
closepath fill
1 setlinewidth
solid
0.667 0.776 0.439 edgecolor
newpath 258.398 110.478 moveto
268 106 lineto
257.701 103.512 lineto
closepath stroke
grestore
% Node11
gsave
[ /Rect [ 129 36 217 56 ]
  /Border [ 0 0 0 ]
  /Action << /Subtype /URI /URI ($TrieSDisco_8cpp.html#3b55801abcb3987a49125a0ddc9ff76c) >>
  /Subtype /Link
/ANN pdfmark
[ /Rect [ 129 36 217 56 ]
  /Border [ 0 0 0 ]
  /Action << /Subtype /URI /URI ($TrieSDisco_8cpp.html#3b55801abcb3987a49125a0ddc9ff76c) >>
  /Subtype /Link
/ANN pdfmark
1 setlinewidth
0.000 0.000 0.000 nodecolor
newpath 129 35 moveto
129 56 lineto
218 56 lineto
218 35 lineto
closepath stroke
0.000 0.000 0.000 nodecolor
10.00 /FreeSans.ttf set_font
173 42 moveto 73 -0.5 (verificaIndice) alignedtext
grestore
% Node1->Node11
gsave
1 setlinewidth
solid
0.667 0.776 0.439 edgecolor
newpath 58 111 moveto
82 98 120 76 146 61 curveto
stroke
0.667 0.776 0.439 edgecolor
newpath 147.958 63.916 moveto
155 56 lineto
144.559 57.7969 lineto
closepath fill
1 setlinewidth
solid
0.667 0.776 0.439 edgecolor
newpath 147.958 63.916 moveto
155 56 lineto
144.559 57.7969 lineto
closepath stroke
grestore
% Node2->Node2
gsave
1 setlinewidth
solid
0.667 0.776 0.439 edgecolor
newpath 131 246 moveto
112 255 126 264 173 264 curveto
209 264 226 259 223 252 curveto
stroke
0.667 0.776 0.439 edgecolor
newpath 225.1 249.2 moveto
215 246 lineto
220.9 254.8 lineto
closepath fill
1 setlinewidth
solid
0.667 0.776 0.439 edgecolor
newpath 225.1 249.2 moveto
215 246 lineto
220.9 254.8 lineto
closepath stroke
grestore
% Node3
gsave
[ /Rect [ 410 283 464 303 ]
  /Border [ 0 0 0 ]
  /Action << /Subtype /URI /URI ($comun_8cpp.html#4a359aa93f2dd4e34badd70c0e1f7082) >>
  /Subtype /Link
/ANN pdfmark
[ /Rect [ 410 283 464 303 ]
  /Border [ 0 0 0 ]
  /Action << /Subtype /URI /URI ($comun_8cpp.html#4a359aa93f2dd4e34badd70c0e1f7082) >>
  /Subtype /Link
/ANN pdfmark
1 setlinewidth
0.000 0.000 0.000 nodecolor
newpath 410 282 moveto
410 303 lineto
465 303 lineto
465 282 lineto
closepath stroke
0.000 0.000 0.000 nodecolor
10.00 /FreeSans.ttf set_font
437 289 moveto 39 -0.5 (leeCad) alignedtext
grestore
% Node2->Node3
gsave
1 setlinewidth
solid
0.667 0.776 0.439 edgecolor
newpath 194 246 moveto
213 255 242 267 268 274 curveto
312 285 365 289 400 291 curveto
stroke
0.667 0.776 0.439 edgecolor
newpath 399.701 294.488 moveto
410 292 lineto
400.398 287.522 lineto
closepath fill
1 setlinewidth
solid
0.667 0.776 0.439 edgecolor
newpath 399.701 294.488 moveto
410 292 lineto
400.398 287.522 lineto
closepath stroke
grestore
% Node5
gsave
[ /Rect [ 274 245 342 265 ]
  /Border [ 0 0 0 ]
  /Action << /Subtype /URI /URI ($comun_8hpp.html#9871d7357fc245ec5b7a227a9a62eb36) >>
  /Subtype /Link
/ANN pdfmark
[ /Rect [ 274 245 342 265 ]
  /Border [ 0 0 0 ]
  /Action << /Subtype /URI /URI ($comun_8hpp.html#9871d7357fc245ec5b7a227a9a62eb36) >>
  /Subtype /Link
/ANN pdfmark
1 setlinewidth
0.000 0.000 0.000 nodecolor
newpath 274 244 moveto
274 265 lineto
342 265 lineto
342 244 lineto
closepath stroke
0.000 0.000 0.000 nodecolor
10.00 /FreeSans.ttf set_font
308 251 moveto 52 -0.5 (leeNDesp) alignedtext
grestore
% Node2->Node5
gsave
1 setlinewidth
solid
0.667 0.776 0.439 edgecolor
newpath 232 244 moveto
242 246 254 247 264 249 curveto
stroke
0.667 0.776 0.439 edgecolor
newpath 263.701 252.488 moveto
274 250 lineto
264.398 245.522 lineto
closepath fill
1 setlinewidth
solid
0.667 0.776 0.439 edgecolor
newpath 263.701 252.488 moveto
274 250 lineto
264.398 245.522 lineto
closepath stroke
grestore
% Node7
gsave
[ /Rect [ 283 207 333 227 ]
  /Border [ 0 0 0 ]
  /Action << /Subtype /URI /URI ($Pos_8cpp.html#36b67a50cba6dc1789825a3111bee9d2) >>
  /Subtype /Link
/ANN pdfmark
[ /Rect [ 283 207 333 227 ]
  /Border [ 0 0 0 ]
  /Action << /Subtype /URI /URI ($Pos_8cpp.html#36b67a50cba6dc1789825a3111bee9d2) >>
  /Subtype /Link
/ANN pdfmark
1 setlinewidth
0.000 0.000 0.000 nodecolor
newpath 283 206 moveto
283 227 lineto
334 227 lineto
334 206 lineto
closepath stroke
0.000 0.000 0.000 nodecolor
10.00 /FreeSans.ttf set_font
308 213 moveto 35 -0.5 (leePos) alignedtext
grestore
% Node2->Node7
gsave
1 setlinewidth
solid
0.667 0.776 0.439 edgecolor
newpath 232 228 moveto
246 226 260 224 273 222 curveto
stroke
0.667 0.776 0.439 edgecolor
newpath 273.398 225.478 moveto
283 221 lineto
272.701 218.512 lineto
closepath fill
1 setlinewidth
solid
0.667 0.776 0.439 edgecolor
newpath 273.398 225.478 moveto
283 221 lineto
272.701 218.512 lineto
closepath stroke
grestore
% Node3->Node4
gsave
1 setlinewidth
solid
0.667 0.776 0.439 edgecolor
newpath 465 287 moveto
474 284 483 280 490 274 curveto
524 248 549 204 562 179 curveto
stroke
0.667 0.776 0.439 edgecolor
newpath 565.137 180.56 moveto
566 170 lineto
558.74 177.717 lineto
closepath fill
1 setlinewidth
solid
0.667 0.776 0.439 edgecolor
newpath 565.137 180.56 moveto
566 170 lineto
558.74 177.717 lineto
closepath stroke
grestore
% Node6
gsave
[ /Rect [ 407 245 467 265 ]
  /Border [ 0 0 0 ]
  /Action << /Subtype /URI /URI ($comun_8cpp.html#c7bf9e68bbdccea36ce786b806244ea1) >>
  /Subtype /Link
/ANN pdfmark
[ /Rect [ 407 245 467 265 ]
  /Border [ 0 0 0 ]
  /Action << /Subtype /URI /URI ($comun_8cpp.html#c7bf9e68bbdccea36ce786b806244ea1) >>
  /Subtype /Link
/ANN pdfmark
1 setlinewidth
0.000 0.000 0.000 nodecolor
newpath 407 244 moveto
407 265 lineto
467 265 lineto
467 244 lineto
closepath stroke
0.000 0.000 0.000 nodecolor
10.00 /FreeSans.ttf set_font
437 251 moveto 44 -0.5 (lee128b) alignedtext
grestore
% Node5->Node6
gsave
1 setlinewidth
solid
0.667 0.776 0.439 edgecolor
newpath 342 255 moveto
359 255 379 255 397 255 curveto
stroke
0.667 0.776 0.439 edgecolor
newpath 397 258.5 moveto
407 255 lineto
397 251.5 lineto
closepath fill
1 setlinewidth
solid
0.667 0.776 0.439 edgecolor
newpath 397 258.5 moveto
407 255 lineto
397 251.5 lineto
closepath stroke
grestore
% Node6->Node4
gsave
1 setlinewidth
solid
0.667 0.776 0.439 edgecolor
newpath 466 244 moveto
474 240 483 236 490 231 curveto
514 216 538 193 553 177 curveto
stroke
0.667 0.776 0.439 edgecolor
newpath 555.404 179.546 moveto
560 170 lineto
550.454 174.596 lineto
closepath fill
1 setlinewidth
solid
0.667 0.776 0.439 edgecolor
newpath 555.404 179.546 moveto
560 170 lineto
550.454 174.596 lineto
closepath stroke
grestore
% Node7->Node4
gsave
1 setlinewidth
solid
0.667 0.776 0.439 edgecolor
newpath 334 217 moveto
370 216 436 212 490 198 curveto
509 192 529 183 544 175 curveto
stroke
0.667 0.776 0.439 edgecolor
newpath 545.958 177.916 moveto
553 170 lineto
542.559 171.797 lineto
closepath fill
1 setlinewidth
solid
0.667 0.776 0.439 edgecolor
newpath 545.958 177.916 moveto
553 170 lineto
542.559 171.797 lineto
closepath stroke
grestore
% Node8
gsave
[ /Rect [ 384 169 490 189 ]
  /Border [ 0 0 0 ]
  /Action << /Subtype /URI /URI ($Elias_8cpp.html#95ee5a0ffb91f203612d2ce9d063ec36) >>
  /Subtype /Link
/ANN pdfmark
[ /Rect [ 384 169 490 189 ]
  /Border [ 0 0 0 ]
  /Action << /Subtype /URI /URI ($Elias_8cpp.html#95ee5a0ffb91f203612d2ce9d063ec36) >>
  /Subtype /Link
/ANN pdfmark
1 setlinewidth
0.000 0.000 0.000 nodecolor
newpath 384 168 moveto
384 189 lineto
490 189 lineto
490 168 lineto
closepath stroke
0.000 0.000 0.000 nodecolor
10.00 /FreeSans.ttf set_font
437 175 moveto 90 -0.5 (lee_elias_gama2) alignedtext
grestore
% Node7->Node8
gsave
1 setlinewidth
solid
0.667 0.776 0.439 edgecolor
newpath 334 209 moveto
351 204 373 197 393 192 curveto
stroke
0.667 0.776 0.439 edgecolor
newpath 394.427 195.226 moveto
403 189 lineto
392.416 188.521 lineto
closepath fill
1 setlinewidth
solid
0.667 0.776 0.439 edgecolor
newpath 394.427 195.226 moveto
403 189 lineto
392.416 188.521 lineto
closepath stroke
grestore
% Node8->Node4
gsave
1 setlinewidth
solid
0.667 0.776 0.439 edgecolor
newpath 490 171 moveto
499 170 507 169 516 167 curveto
stroke
0.667 0.776 0.439 edgecolor
newpath 516.398 170.478 moveto
526 166 lineto
515.701 163.512 lineto
closepath fill
1 setlinewidth
solid
0.667 0.776 0.439 edgecolor
newpath 516.398 170.478 moveto
526 166 lineto
515.701 163.512 lineto
closepath stroke
grestore
% Node9->Node4
gsave
1 setlinewidth
solid
0.667 0.776 0.439 edgecolor
newpath 348 105 moveto
386 108 443 114 490 127 curveto
507 131 525 138 539 144 curveto
stroke
0.667 0.776 0.439 edgecolor
newpath 537.559 147.203 moveto
548 149 lineto
540.958 141.084 lineto
closepath fill
1 setlinewidth
solid
0.667 0.776 0.439 edgecolor
newpath 537.559 147.203 moveto
548 149 lineto
540.958 141.084 lineto
closepath stroke
grestore
% Node10
gsave
[ /Rect [ 408 55 466 75 ]
  /Border [ 0 0 0 ]
  /Action << /Subtype /URI /URI ($Doc_8cpp.html#e4bfd9bdedc0dd4fe00bf5f17f8f9e23) >>
  /Subtype /Link
/ANN pdfmark
[ /Rect [ 408 55 466 75 ]
  /Border [ 0 0 0 ]
  /Action << /Subtype /URI /URI ($Doc_8cpp.html#e4bfd9bdedc0dd4fe00bf5f17f8f9e23) >>
  /Subtype /Link
/ANN pdfmark
1 setlinewidth
0.000 0.000 0.000 nodecolor
newpath 408 54 moveto
408 75 lineto
467 75 lineto
467 54 lineto
closepath stroke
0.000 0.000 0.000 nodecolor
10.00 /FreeSans.ttf set_font
437 61 moveto 43 -0.5 (leeDocs) alignedtext
grestore
% Node9->Node10
gsave
1 setlinewidth
solid
0.667 0.776 0.439 edgecolor
newpath 346 92 moveto
363 87 382 81 398 77 curveto
stroke
0.667 0.776 0.439 edgecolor
newpath 399.427 80.2259 moveto
408 74 lineto
397.416 73.5212 lineto
closepath fill
1 setlinewidth
solid
0.667 0.776 0.439 edgecolor
newpath 399.427 80.2259 moveto
408 74 lineto
397.416 73.5212 lineto
closepath stroke
grestore
% Node10->Node4
gsave
1 setlinewidth
solid
0.667 0.776 0.439 edgecolor
newpath 465 75 moveto
473 79 482 83 490 89 curveto
514 103 537 126 553 142 curveto
stroke
0.667 0.776 0.439 edgecolor
newpath 550.454 144.404 moveto
560 149 lineto
555.404 139.454 lineto
closepath fill
1 setlinewidth
solid
0.667 0.776 0.439 edgecolor
newpath 550.454 144.404 moveto
560 149 lineto
555.404 139.454 lineto
closepath stroke
grestore
% Node11->Node4
gsave
1 setlinewidth
solid
0.667 0.776 0.439 edgecolor
newpath 213 35 moveto
276 20 400 0 490 46 curveto
528 66 551 113 562 140 curveto
stroke
0.667 0.776 0.439 edgecolor
newpath 558.74 141.283 moveto
566 149 lineto
565.137 138.44 lineto
closepath fill
1 setlinewidth
solid
0.667 0.776 0.439 edgecolor
newpath 558.74 141.283 moveto
566 149 lineto
565.137 138.44 lineto
closepath stroke
grestore
endpage
showpage
grestore
%%PageTrailer
%%EndPage: 1
%%Trailer
%%Pages: 1
%%BoundingBox: 36 36 658 347
end
restore
%%EOF
