%!PS-Adobe-2.0
%%Creator: Graphviz version 2.12 (Mon Nov 16 18:34:03 UTC 2009)
%%For: (vtamara) Vladimir
%%Title: G
%%Pages: (atend)
%%BoundingBox: (atend)
%%EndComments
save
%%BeginProlog
/DotDict 200 dict def
DotDict begin

/setupLatin1 {
mark
/EncodingVector 256 array def
 EncodingVector 0

ISOLatin1Encoding 0 255 getinterval putinterval
EncodingVector 45 /hyphen put

% Set up ISO Latin 1 character encoding
/starnetISO {
        dup dup findfont dup length dict begin
        { 1 index /FID ne { def }{ pop pop } ifelse
        } forall
        /Encoding EncodingVector def
        currentdict end definefont
} def
/Times-Roman starnetISO def
/Times-Italic starnetISO def
/Times-Bold starnetISO def
/Times-BoldItalic starnetISO def
/Helvetica starnetISO def
/Helvetica-Oblique starnetISO def
/Helvetica-Bold starnetISO def
/Helvetica-BoldOblique starnetISO def
/Courier starnetISO def
/Courier-Oblique starnetISO def
/Courier-Bold starnetISO def
/Courier-BoldOblique starnetISO def
cleartomark
} bind def

%%BeginResource: procset graphviz 0 0
/coord-font-family /Times-Roman def
/default-font-family /Times-Roman def
/coordfont coord-font-family findfont 8 scalefont def

/InvScaleFactor 1.0 def
/set_scale {
       dup 1 exch div /InvScaleFactor exch def
       scale
} bind def

% styles
/solid { [] 0 setdash } bind def
/dashed { [9 InvScaleFactor mul dup ] 0 setdash } bind def
/dotted { [1 InvScaleFactor mul 6 InvScaleFactor mul] 0 setdash } bind def
/invis {/fill {newpath} def /stroke {newpath} def /show {pop newpath} def} bind def
/bold { 2 setlinewidth } bind def
/filled { } bind def
/unfilled { } bind def
/rounded { } bind def
/diagonals { } bind def

% hooks for setting color 
/nodecolor { sethsbcolor } bind def
/edgecolor { sethsbcolor } bind def
/graphcolor { sethsbcolor } bind def
/nopcolor {pop pop pop} bind def

/beginpage {	% i j npages
	/npages exch def
	/j exch def
	/i exch def
	/str 10 string def
	npages 1 gt {
		gsave
			coordfont setfont
			0 0 moveto
			(\() show i str cvs show (,) show j str cvs show (\)) show
		grestore
	} if
} bind def

/set_font {
	findfont exch
	scalefont setfont
} def

% draw aligned label in bounding box aligned to current point
/alignedtext {			% width adj text
	/text exch def
	/adj exch def
	/width exch def
	gsave
		width 0 gt {
			text stringwidth pop adj mul 0 rmoveto
		} if
		[] 0 setdash
		text show
	grestore
} def

/boxprim {				% xcorner ycorner xsize ysize
		4 2 roll
		moveto
		2 copy
		exch 0 rlineto
		0 exch rlineto
		pop neg 0 rlineto
		closepath
} bind def

/ellipse_path {
	/ry exch def
	/rx exch def
	/y exch def
	/x exch def
	matrix currentmatrix
	newpath
	x y translate
	rx ry scale
	0 0 1 0 360 arc
	setmatrix
} bind def

/endpage { showpage } bind def
/showpage { } def

/layercolorseq
	[	% layer color sequence - darkest to lightest
		[0 0 0]
		[.2 .8 .8]
		[.4 .8 .8]
		[.6 .8 .8]
		[.8 .8 .8]
	]
def

/layerlen layercolorseq length def

/setlayer {/maxlayer exch def /curlayer exch def
	layercolorseq curlayer 1 sub layerlen mod get
	aload pop sethsbcolor
	/nodecolor {nopcolor} def
	/edgecolor {nopcolor} def
	/graphcolor {nopcolor} def
} bind def

/onlayer { curlayer ne {invis} if } def

/onlayers {
	/myupper exch def
	/mylower exch def
	curlayer mylower lt
	curlayer myupper gt
	or
	{invis} if
} def

/curlayer 0 def

%%EndResource
%%EndProlog
%%BeginSetup
14 default-font-family set_font
1 setmiterlimit
% /arrowlength 10 def
% /arrowwidth 5 def

% make sure pdfmark is harmless for PS-interpreters other than Distiller
/pdfmark where {pop} {userdict /pdfmark /cleartomark load put} ifelse
% make '<<' and '>>' safe on PS Level 1 devices
/languagelevel where {pop languagelevel}{1} ifelse
2 lt {
    userdict (<<) cvn ([) cvn load put
    userdict (>>) cvn ([) cvn load put
} if

%%EndSetup
setupLatin1
%%Page: 1 1
%%PageBoundingBox: 36 36 686 191
%%PageOrientation: Portrait
gsave
36 36 686 191 boxprim clip newpath
0 0 1 beginpage
1 1 set_scale 0 rotate 40 40 translate
% Node1
gsave
0.000 0.000 0.749 nodecolor
newpath 0 66 moveto
0 87 lineto
118 87 lineto
118 66 lineto
closepath fill
1 setlinewidth
filled
0.000 0.000 0.000 nodecolor
newpath 0 66 moveto
0 87 lineto
118 87 lineto
118 66 lineto
closepath stroke
0.000 0.000 0.000 nodecolor
10.00 /FreeSans.ttf set_font
59 73 moveto 102 -0.5 (buscaPlanoStream) alignedtext
grestore
% Node2
gsave
[ /Rect [ 154 86 272 106 ]
  /Border [ 0 0 0 ]
  /Action << /Subtype /URI /URI ($TrieSDisco_8cpp.html#1281c095bc817935769ceb3707a089d4) >>
  /Subtype /Link
/ANN pdfmark
[ /Rect [ 154 86 272 106 ]
  /Border [ 0 0 0 ]
  /Action << /Subtype /URI /URI ($TrieSDisco_8cpp.html#1281c095bc817935769ceb3707a089d4) >>
  /Subtype /Link
/ANN pdfmark
1 setlinewidth
0.000 0.000 0.000 nodecolor
newpath 154 85 moveto
154 106 lineto
272 106 lineto
272 85 lineto
closepath stroke
0.000 0.000 0.000 nodecolor
10.00 /FreeSans.ttf set_font
213 92 moveto 102 -0.5 (buscaPlanoStream) alignedtext
grestore
% Node1->Node2
gsave
1 setlinewidth
solid
0.667 0.776 0.439 edgecolor
newpath 118 84 moveto
127 85 135 86 144 88 curveto
stroke
0.667 0.776 0.439 edgecolor
newpath 143.701 91.4875 moveto
154 89 lineto
144.398 84.5222 lineto
closepath fill
1 setlinewidth
solid
0.667 0.776 0.439 edgecolor
newpath 143.701 91.4875 moveto
154 89 lineto
144.398 84.5222 lineto
closepath stroke
grestore
% Node3
gsave
[ /Rect [ 315 114 369 134 ]
  /Border [ 0 0 0 ]
  /Action << /Subtype /URI /URI ($comun_8cpp.html#4a359aa93f2dd4e34badd70c0e1f7082) >>
  /Subtype /Link
/ANN pdfmark
[ /Rect [ 315 114 369 134 ]
  /Border [ 0 0 0 ]
  /Action << /Subtype /URI /URI ($comun_8cpp.html#4a359aa93f2dd4e34badd70c0e1f7082) >>
  /Subtype /Link
/ANN pdfmark
1 setlinewidth
0.000 0.000 0.000 nodecolor
newpath 315 113 moveto
315 134 lineto
370 134 lineto
370 113 lineto
closepath stroke
0.000 0.000 0.000 nodecolor
10.00 /FreeSans.ttf set_font
342 120 moveto 39 -0.5 (leeCad) alignedtext
grestore
% Node1->Node3
gsave
1 setlinewidth
solid
0.667 0.776 0.439 edgecolor
newpath 71 87 moveto
89 101 122 124 154 133 curveto
205 147 266 140 305 133 curveto
stroke
0.667 0.776 0.439 edgecolor
newpath 305.881 136.393 moveto
315 131 lineto
304.508 129.529 lineto
closepath fill
1 setlinewidth
solid
0.667 0.776 0.439 edgecolor
newpath 305.881 136.393 moveto
315 131 lineto
304.508 129.529 lineto
closepath stroke
grestore
% Node5
gsave
[ /Rect [ 308 76 376 96 ]
  /Border [ 0 0 0 ]
  /Action << /Subtype /URI /URI ($comun_8hpp.html#9871d7357fc245ec5b7a227a9a62eb36) >>
  /Subtype /Link
/ANN pdfmark
[ /Rect [ 308 76 376 96 ]
  /Border [ 0 0 0 ]
  /Action << /Subtype /URI /URI ($comun_8hpp.html#9871d7357fc245ec5b7a227a9a62eb36) >>
  /Subtype /Link
/ANN pdfmark
1 setlinewidth
0.000 0.000 0.000 nodecolor
newpath 308 75 moveto
308 96 lineto
376 96 lineto
376 75 lineto
closepath stroke
0.000 0.000 0.000 nodecolor
10.00 /FreeSans.ttf set_font
342 82 moveto 52 -0.5 (leeNDesp) alignedtext
grestore
% Node1->Node5
gsave
1 setlinewidth
solid
0.667 0.776 0.439 edgecolor
newpath 118 75 moveto
161 74 220 73 272 77 curveto
281 78 290 78 298 79 curveto
stroke
0.667 0.776 0.439 edgecolor
newpath 297.508 82.4708 moveto
308 81 lineto
298.881 75.6067 lineto
closepath fill
1 setlinewidth
solid
0.667 0.776 0.439 edgecolor
newpath 297.508 82.4708 moveto
308 81 lineto
298.881 75.6067 lineto
closepath stroke
grestore
% Node7
gsave
[ /Rect [ 317 19 367 39 ]
  /Border [ 0 0 0 ]
  /Action << /Subtype /URI /URI ($Pos_8cpp.html#36b67a50cba6dc1789825a3111bee9d2) >>
  /Subtype /Link
/ANN pdfmark
[ /Rect [ 317 19 367 39 ]
  /Border [ 0 0 0 ]
  /Action << /Subtype /URI /URI ($Pos_8cpp.html#36b67a50cba6dc1789825a3111bee9d2) >>
  /Subtype /Link
/ANN pdfmark
1 setlinewidth
0.000 0.000 0.000 nodecolor
newpath 317 18 moveto
317 39 lineto
368 39 lineto
368 18 lineto
closepath stroke
0.000 0.000 0.000 nodecolor
10.00 /FreeSans.ttf set_font
342 25 moveto 35 -0.5 (leePos) alignedtext
grestore
% Node1->Node7
gsave
1 setlinewidth
solid
0.667 0.776 0.439 edgecolor
newpath 118 67 moveto
175 58 260 43 307 35 curveto
stroke
0.667 0.776 0.439 edgecolor
newpath 307.881 38.3933 moveto
317 33 lineto
306.508 31.5292 lineto
closepath fill
1 setlinewidth
solid
0.667 0.776 0.439 edgecolor
newpath 307.881 38.3933 moveto
317 33 lineto
306.508 31.5292 lineto
closepath stroke
grestore
% Node2->Node2
gsave
1 setlinewidth
solid
0.667 0.776 0.439 edgecolor
newpath 173 106 moveto
155 115 168 124 213 124 curveto
247 124 262 119 261 113 curveto
stroke
0.667 0.776 0.439 edgecolor
newpath 262.831 109.951 moveto
253 106 lineto
258.221 115.219 lineto
closepath fill
1 setlinewidth
solid
0.667 0.776 0.439 edgecolor
newpath 262.831 109.951 moveto
253 106 lineto
258.221 115.219 lineto
closepath stroke
grestore
% Node2->Node3
gsave
1 setlinewidth
solid
0.667 0.776 0.439 edgecolor
newpath 259 106 moveto
274 109 291 113 305 116 curveto
stroke
0.667 0.776 0.439 edgecolor
newpath 304.508 119.471 moveto
315 118 lineto
305.881 112.607 lineto
closepath fill
1 setlinewidth
solid
0.667 0.776 0.439 edgecolor
newpath 304.508 119.471 moveto
315 118 lineto
305.881 112.607 lineto
closepath stroke
grestore
% Node2->Node5
gsave
1 setlinewidth
solid
0.667 0.776 0.439 edgecolor
newpath 272 91 moveto
280 90 289 90 298 89 curveto
stroke
0.667 0.776 0.439 edgecolor
newpath 298 92.5001 moveto
308 89 lineto
298 85.5001 lineto
closepath fill
1 setlinewidth
solid
0.667 0.776 0.439 edgecolor
newpath 298 92.5001 moveto
308 89 lineto
298 85.5001 lineto
closepath stroke
grestore
% Node2->Node7
gsave
1 setlinewidth
solid
0.667 0.776 0.439 edgecolor
newpath 234 85 moveto
256 74 290 56 314 44 curveto
stroke
0.667 0.776 0.439 edgecolor
newpath 315.958 46.916 moveto
323 39 lineto
312.559 40.7969 lineto
closepath fill
1 setlinewidth
solid
0.667 0.776 0.439 edgecolor
newpath 315.958 46.916 moveto
323 39 lineto
312.559 40.7969 lineto
closepath stroke
grestore
% Node4
gsave
[ /Rect [ 554 57 642 77 ]
  /Border [ 0 0 0 ]
  /Action << /Subtype /URI /URI ($comun_8cpp.html#88ffeb20e447cad877c37bb473033590) >>
  /Subtype /Link
/ANN pdfmark
[ /Rect [ 554 57 642 77 ]
  /Border [ 0 0 0 ]
  /Action << /Subtype /URI /URI ($comun_8cpp.html#88ffeb20e447cad877c37bb473033590) >>
  /Subtype /Link
/ANN pdfmark
1 setlinewidth
0.000 0.000 0.000 nodecolor
newpath 554 56 moveto
554 77 lineto
642 77 lineto
642 56 lineto
closepath stroke
0.000 0.000 0.000 nodecolor
10.00 /FreeSans.ttf set_font
598 63 moveto 72 -0.5 (errorFormato) alignedtext
grestore
% Node3->Node4
gsave
1 setlinewidth
solid
0.667 0.776 0.439 edgecolor
newpath 370 124 moveto
405 123 468 119 518 105 curveto
537 99 557 90 572 82 curveto
stroke
0.667 0.776 0.439 edgecolor
newpath 573.958 84.916 moveto
581 77 lineto
570.559 78.7969 lineto
closepath fill
1 setlinewidth
solid
0.667 0.776 0.439 edgecolor
newpath 573.958 84.916 moveto
581 77 lineto
570.559 78.7969 lineto
closepath stroke
grestore
% Node6
gsave
[ /Rect [ 435 76 495 96 ]
  /Border [ 0 0 0 ]
  /Action << /Subtype /URI /URI ($comun_8cpp.html#c7bf9e68bbdccea36ce786b806244ea1) >>
  /Subtype /Link
/ANN pdfmark
[ /Rect [ 435 76 495 96 ]
  /Border [ 0 0 0 ]
  /Action << /Subtype /URI /URI ($comun_8cpp.html#c7bf9e68bbdccea36ce786b806244ea1) >>
  /Subtype /Link
/ANN pdfmark
1 setlinewidth
0.000 0.000 0.000 nodecolor
newpath 435 75 moveto
435 96 lineto
495 96 lineto
495 75 lineto
closepath stroke
0.000 0.000 0.000 nodecolor
10.00 /FreeSans.ttf set_font
465 82 moveto 44 -0.5 (lee128b) alignedtext
grestore
% Node5->Node6
gsave
1 setlinewidth
solid
0.667 0.776 0.439 edgecolor
newpath 376 86 moveto
392 86 409 86 425 86 curveto
stroke
0.667 0.776 0.439 edgecolor
newpath 425 89.5001 moveto
435 86 lineto
425 82.5001 lineto
closepath fill
1 setlinewidth
solid
0.667 0.776 0.439 edgecolor
newpath 425 89.5001 moveto
435 86 lineto
425 82.5001 lineto
closepath stroke
grestore
% Node6->Node4
gsave
1 setlinewidth
solid
0.667 0.776 0.439 edgecolor
newpath 495 82 moveto
509 79 527 77 544 74 curveto
stroke
0.667 0.776 0.439 edgecolor
newpath 544.398 77.4778 moveto
554 73 lineto
543.701 70.5125 lineto
closepath fill
1 setlinewidth
solid
0.667 0.776 0.439 edgecolor
newpath 544.398 77.4778 moveto
554 73 lineto
543.701 70.5125 lineto
closepath stroke
grestore
% Node7->Node4
gsave
1 setlinewidth
solid
0.667 0.776 0.439 edgecolor
newpath 368 33 moveto
409 40 490 51 544 59 curveto
stroke
0.667 0.776 0.439 edgecolor
newpath 543.508 62.4708 moveto
554 61 lineto
544.881 55.6067 lineto
closepath fill
1 setlinewidth
solid
0.667 0.776 0.439 edgecolor
newpath 543.508 62.4708 moveto
554 61 lineto
544.881 55.6067 lineto
closepath stroke
grestore
% Node8
gsave
[ /Rect [ 412 0 518 20 ]
  /Border [ 0 0 0 ]
  /Action << /Subtype /URI /URI ($Elias_8cpp.html#95ee5a0ffb91f203612d2ce9d063ec36) >>
  /Subtype /Link
/ANN pdfmark
[ /Rect [ 412 0 518 20 ]
  /Border [ 0 0 0 ]
  /Action << /Subtype /URI /URI ($Elias_8cpp.html#95ee5a0ffb91f203612d2ce9d063ec36) >>
  /Subtype /Link
/ANN pdfmark
1 setlinewidth
0.000 0.000 0.000 nodecolor
newpath 412 -1 moveto
412 20 lineto
518 20 lineto
518 -1 lineto
closepath stroke
0.000 0.000 0.000 nodecolor
10.00 /FreeSans.ttf set_font
465 6 moveto 90 -0.5 (lee_elias_gama2) alignedtext
grestore
% Node7->Node8
gsave
1 setlinewidth
solid
0.667 0.776 0.439 edgecolor
newpath 368 25 moveto
378 23 390 21 402 19 curveto
stroke
0.667 0.776 0.439 edgecolor
newpath 402.398 22.4778 moveto
412 18 lineto
401.701 15.5125 lineto
closepath fill
1 setlinewidth
solid
0.667 0.776 0.439 edgecolor
newpath 402.398 22.4778 moveto
412 18 lineto
401.701 15.5125 lineto
closepath stroke
grestore
% Node8->Node4
gsave
1 setlinewidth
solid
0.667 0.776 0.439 edgecolor
newpath 488 20 moveto
509 29 540 42 564 52 curveto
stroke
0.667 0.776 0.439 edgecolor
newpath 562.44 55.1369 moveto
573 56 lineto
565.283 48.7402 lineto
closepath fill
1 setlinewidth
solid
0.667 0.776 0.439 edgecolor
newpath 562.44 55.1369 moveto
573 56 lineto
565.283 48.7402 lineto
closepath stroke
grestore
endpage
showpage
grestore
%%PageTrailer
%%EndPage: 1
%%Trailer
%%Pages: 1
%%BoundingBox: 36 36 686 191
end
restore
%%EOF
