%!PS-Adobe-2.0
%%Creator: Graphviz version 2.12 (Mon Nov 16 18:34:03 UTC 2009)
%%For: (vtamara) Vladimir
%%Title: G
%%Pages: (atend)
%%BoundingBox: (atend)
%%EndComments
save
%%BeginProlog
/DotDict 200 dict def
DotDict begin

/setupLatin1 {
mark
/EncodingVector 256 array def
 EncodingVector 0

ISOLatin1Encoding 0 255 getinterval putinterval
EncodingVector 45 /hyphen put

% Set up ISO Latin 1 character encoding
/starnetISO {
        dup dup findfont dup length dict begin
        { 1 index /FID ne { def }{ pop pop } ifelse
        } forall
        /Encoding EncodingVector def
        currentdict end definefont
} def
/Times-Roman starnetISO def
/Times-Italic starnetISO def
/Times-Bold starnetISO def
/Times-BoldItalic starnetISO def
/Helvetica starnetISO def
/Helvetica-Oblique starnetISO def
/Helvetica-Bold starnetISO def
/Helvetica-BoldOblique starnetISO def
/Courier starnetISO def
/Courier-Oblique starnetISO def
/Courier-Bold starnetISO def
/Courier-BoldOblique starnetISO def
cleartomark
} bind def

%%BeginResource: procset graphviz 0 0
/coord-font-family /Times-Roman def
/default-font-family /Times-Roman def
/coordfont coord-font-family findfont 8 scalefont def

/InvScaleFactor 1.0 def
/set_scale {
       dup 1 exch div /InvScaleFactor exch def
       scale
} bind def

% styles
/solid { [] 0 setdash } bind def
/dashed { [9 InvScaleFactor mul dup ] 0 setdash } bind def
/dotted { [1 InvScaleFactor mul 6 InvScaleFactor mul] 0 setdash } bind def
/invis {/fill {newpath} def /stroke {newpath} def /show {pop newpath} def} bind def
/bold { 2 setlinewidth } bind def
/filled { } bind def
/unfilled { } bind def
/rounded { } bind def
/diagonals { } bind def

% hooks for setting color 
/nodecolor { sethsbcolor } bind def
/edgecolor { sethsbcolor } bind def
/graphcolor { sethsbcolor } bind def
/nopcolor {pop pop pop} bind def

/beginpage {	% i j npages
	/npages exch def
	/j exch def
	/i exch def
	/str 10 string def
	npages 1 gt {
		gsave
			coordfont setfont
			0 0 moveto
			(\() show i str cvs show (,) show j str cvs show (\)) show
		grestore
	} if
} bind def

/set_font {
	findfont exch
	scalefont setfont
} def

% draw aligned label in bounding box aligned to current point
/alignedtext {			% width adj text
	/text exch def
	/adj exch def
	/width exch def
	gsave
		width 0 gt {
			text stringwidth pop adj mul 0 rmoveto
		} if
		[] 0 setdash
		text show
	grestore
} def

/boxprim {				% xcorner ycorner xsize ysize
		4 2 roll
		moveto
		2 copy
		exch 0 rlineto
		0 exch rlineto
		pop neg 0 rlineto
		closepath
} bind def

/ellipse_path {
	/ry exch def
	/rx exch def
	/y exch def
	/x exch def
	matrix currentmatrix
	newpath
	x y translate
	rx ry scale
	0 0 1 0 360 arc
	setmatrix
} bind def

/endpage { showpage } bind def
/showpage { } def

/layercolorseq
	[	% layer color sequence - darkest to lightest
		[0 0 0]
		[.2 .8 .8]
		[.4 .8 .8]
		[.6 .8 .8]
		[.8 .8 .8]
	]
def

/layerlen layercolorseq length def

/setlayer {/maxlayer exch def /curlayer exch def
	layercolorseq curlayer 1 sub layerlen mod get
	aload pop sethsbcolor
	/nodecolor {nopcolor} def
	/edgecolor {nopcolor} def
	/graphcolor {nopcolor} def
} bind def

/onlayer { curlayer ne {invis} if } def

/onlayers {
	/myupper exch def
	/mylower exch def
	curlayer mylower lt
	curlayer myupper gt
	or
	{invis} if
} def

/curlayer 0 def

%%EndResource
%%EndProlog
%%BeginSetup
14 default-font-family set_font
1 setmiterlimit
% /arrowlength 10 def
% /arrowwidth 5 def

% make sure pdfmark is harmless for PS-interpreters other than Distiller
/pdfmark where {pop} {userdict /pdfmark /cleartomark load put} ifelse
% make '<<' and '>>' safe on PS Level 1 devices
/languagelevel where {pop languagelevel}{1} ifelse
2 lt {
    userdict (<<) cvn ([) cvn load put
    userdict (>>) cvn ([) cvn load put
} if

%%EndSetup
setupLatin1
%%Page: 1 1
%%PageBoundingBox: 36 36 684 240
%%PageOrientation: Portrait
gsave
36 36 684 240 boxprim clip newpath
0 0 1 beginpage
1 1 set_scale 0 rotate 40 40 translate
% Node1
gsave
0.000 0.000 0.749 nodecolor
newpath 322 174 moveto
322 195 lineto
418 195 lineto
418 174 lineto
closepath fill
1 setlinewidth
filled
0.000 0.000 0.000 nodecolor
newpath 322 174 moveto
322 195 lineto
418 195 lineto
418 174 lineto
closepath stroke
0.000 0.000 0.000 nodecolor
10.00 /FreeSans.ttf set_font
370 181 moveto 80 -0.5 (TrieSDisco.hpp) alignedtext
grestore
% Node2
gsave
[ /Rect [ 89 117 177 137 ]
  /Border [ 0 0 0 ]
  /Action << /Subtype /URI /URI ($buscador_8cpp.html) >>
  /Subtype /Link
/ANN pdfmark
[ /Rect [ 89 117 177 137 ]
  /Border [ 0 0 0 ]
  /Action << /Subtype /URI /URI ($buscador_8cpp.html) >>
  /Subtype /Link
/ANN pdfmark
1 setlinewidth
0.000 0.000 0.000 nodecolor
newpath 89 116 moveto
89 137 lineto
178 137 lineto
178 116 lineto
closepath stroke
0.000 0.000 0.000 nodecolor
10.00 /FreeSans.ttf set_font
133 123 moveto 73 -0.5 (buscador.cpp) alignedtext
grestore
% Node1->Node2
gsave
1 setlinewidth
solid
0.667 0.776 0.439 edgecolor
newpath 315 172 moveto
272 161 213 146 174 137 curveto
stroke
0.667 0.776 0.439 edgecolor
newpath 314.508 175.471 moveto
325 174 lineto
315.881 168.607 lineto
closepath fill
1 setlinewidth
solid
0.667 0.776 0.439 edgecolor
newpath 314.508 175.471 moveto
325 174 lineto
315.881 168.607 lineto
closepath stroke
grestore
% Node3
gsave
[ /Rect [ 195 117 305 137 ]
  /Border [ 0 0 0 ]
  /Action << /Subtype /URI /URI ($depuraindice_8cpp.html) >>
  /Subtype /Link
/ANN pdfmark
[ /Rect [ 195 117 305 137 ]
  /Border [ 0 0 0 ]
  /Action << /Subtype /URI /URI ($depuraindice_8cpp.html) >>
  /Subtype /Link
/ANN pdfmark
1 setlinewidth
0.000 0.000 0.000 nodecolor
newpath 195 116 moveto
195 137 lineto
306 137 lineto
306 116 lineto
closepath stroke
0.000 0.000 0.000 nodecolor
10.00 /FreeSans.ttf set_font
250 123 moveto 95 -0.5 (depuraindice.cpp) alignedtext
grestore
% Node1->Node3
gsave
1 setlinewidth
solid
0.667 0.776 0.439 edgecolor
newpath 338 170 moveto
317 159 289 146 271 137 curveto
stroke
0.667 0.776 0.439 edgecolor
newpath 336.44 173.137 moveto
347 174 lineto
339.283 166.74 lineto
closepath fill
1 setlinewidth
solid
0.667 0.776 0.439 edgecolor
newpath 336.44 173.137 moveto
347 174 lineto
339.283 166.74 lineto
closepath stroke
grestore
% Node4
gsave
[ /Rect [ 323 117 417 137 ]
  /Border [ 0 0 0 ]
  /Action << /Subtype /URI /URI ($RamDisco_8hpp.html) >>
  /Subtype /Link
/ANN pdfmark
[ /Rect [ 323 117 417 137 ]
  /Border [ 0 0 0 ]
  /Action << /Subtype /URI /URI ($RamDisco_8hpp.html) >>
  /Subtype /Link
/ANN pdfmark
1 setlinewidth
0.000 0.000 0.000 nodecolor
newpath 323 116 moveto
323 137 lineto
417 137 lineto
417 116 lineto
closepath stroke
0.000 0.000 0.000 nodecolor
10.00 /FreeSans.ttf set_font
370 123 moveto 78 -0.5 (RamDisco.hpp) alignedtext
grestore
% Node1->Node4
gsave
1 setlinewidth
solid
0.667 0.776 0.439 edgecolor
newpath 370 164 moveto
370 154 370 144 370 137 curveto
stroke
0.667 0.776 0.439 edgecolor
newpath 366.5 164 moveto
370 174 lineto
373.5 164 lineto
closepath fill
1 setlinewidth
solid
0.667 0.776 0.439 edgecolor
newpath 366.5 164 moveto
370 174 lineto
373.5 164 lineto
closepath stroke
grestore
% Node11
gsave
[ /Rect [ 480 59 640 79 ]
  /Border [ 0 0 0 ]
  /Action << /Subtype /URI /URI ($TrieSDiscoCasoPrueba_8cpp.html) >>
  /Subtype /Link
/ANN pdfmark
[ /Rect [ 480 59 640 79 ]
  /Border [ 0 0 0 ]
  /Action << /Subtype /URI /URI ($TrieSDiscoCasoPrueba_8cpp.html) >>
  /Subtype /Link
/ANN pdfmark
1 setlinewidth
0.000 0.000 0.000 nodecolor
newpath 480 58 moveto
480 79 lineto
640 79 lineto
640 58 lineto
closepath stroke
0.000 0.000 0.000 nodecolor
10.00 /FreeSans.ttf set_font
560 65 moveto 144 -0.5 (TrieSDiscoCasoPrueba.cpp) alignedtext
grestore
% Node1->Node11
gsave
1 setlinewidth
solid
0.667 0.776 0.439 edgecolor
newpath 391 168 moveto
409 152 437 132 464 116 curveto
487 101 516 88 536 79 curveto
stroke
0.667 0.776 0.439 edgecolor
newpath 388.9 165.2 moveto
383 174 lineto
393.1 170.8 lineto
closepath fill
1 setlinewidth
solid
0.667 0.776 0.439 edgecolor
newpath 388.9 165.2 moveto
383 174 lineto
393.1 170.8 lineto
closepath stroke
grestore
% Node12
gsave
[ /Rect [ 473 117 567 137 ]
  /Border [ 0 0 0 ]
  /Action << /Subtype /URI /URI ($TrieSDisco_8cpp.html) >>
  /Subtype /Link
/ANN pdfmark
[ /Rect [ 473 117 567 137 ]
  /Border [ 0 0 0 ]
  /Action << /Subtype /URI /URI ($TrieSDisco_8cpp.html) >>
  /Subtype /Link
/ANN pdfmark
1 setlinewidth
0.000 0.000 0.000 nodecolor
newpath 473 116 moveto
473 137 lineto
568 137 lineto
568 116 lineto
closepath stroke
0.000 0.000 0.000 nodecolor
10.00 /FreeSans.ttf set_font
520 123 moveto 79 -0.5 (TrieSDisco.cpp) alignedtext
grestore
% Node1->Node12
gsave
1 setlinewidth
solid
0.667 0.776 0.439 edgecolor
newpath 408 170 moveto
435 160 470 146 494 137 curveto
stroke
0.667 0.776 0.439 edgecolor
newpath 406.717 166.74 moveto
399 174 lineto
409.56 173.137 lineto
closepath fill
1 setlinewidth
solid
0.667 0.776 0.439 edgecolor
newpath 406.717 166.74 moveto
399 174 lineto
409.56 173.137 lineto
closepath stroke
grestore
% Node5
gsave
[ /Rect [ 316 59 424 79 ]
  /Border [ 0 0 0 ]
  /Action << /Subtype /URI /URI ($Operaciones_8hpp.html) >>
  /Subtype /Link
/ANN pdfmark
[ /Rect [ 316 59 424 79 ]
  /Border [ 0 0 0 ]
  /Action << /Subtype /URI /URI ($Operaciones_8hpp.html) >>
  /Subtype /Link
/ANN pdfmark
1 setlinewidth
0.000 0.000 0.000 nodecolor
newpath 316 58 moveto
316 79 lineto
425 79 lineto
425 58 lineto
closepath stroke
0.000 0.000 0.000 nodecolor
10.00 /FreeSans.ttf set_font
370 65 moveto 93 -0.5 (Operaciones.hpp) alignedtext
grestore
% Node4->Node5
gsave
1 setlinewidth
solid
0.667 0.776 0.439 edgecolor
newpath 370 106 moveto
370 96 370 86 370 79 curveto
stroke
0.667 0.776 0.439 edgecolor
newpath 366.5 106 moveto
370 116 lineto
373.5 106 lineto
closepath fill
1 setlinewidth
solid
0.667 0.776 0.439 edgecolor
newpath 366.5 106 moveto
370 116 lineto
373.5 106 lineto
closepath stroke
grestore
% Node7
gsave
[ /Rect [ 398 1 506 21 ]
  /Border [ 0 0 0 ]
  /Action << /Subtype /URI /URI ($Operaciones_8cpp.html) >>
  /Subtype /Link
/ANN pdfmark
[ /Rect [ 398 1 506 21 ]
  /Border [ 0 0 0 ]
  /Action << /Subtype /URI /URI ($Operaciones_8cpp.html) >>
  /Subtype /Link
/ANN pdfmark
1 setlinewidth
0.000 0.000 0.000 nodecolor
newpath 398 0 moveto
398 21 lineto
506 21 lineto
506 0 lineto
closepath stroke
0.000 0.000 0.000 nodecolor
10.00 /FreeSans.ttf set_font
452 7 moveto 92 -0.5 (Operaciones.cpp) alignedtext
grestore
% Node4->Node7
gsave
1 setlinewidth
solid
0.667 0.776 0.439 edgecolor
newpath 400 111 moveto
412 103 424 92 433 80 curveto
445 61 449 35 451 21 curveto
stroke
0.667 0.776 0.439 edgecolor
newpath 398.042 108.084 moveto
391 116 lineto
401.441 114.203 lineto
closepath fill
1 setlinewidth
solid
0.667 0.776 0.439 edgecolor
newpath 398.042 108.084 moveto
391 116 lineto
401.441 114.203 lineto
closepath stroke
grestore
% Node8
gsave
[ /Rect [ 57 1 161 21 ]
  /Border [ 0 0 0 ]
  /Action << /Subtype /URI /URI ($operaindice_8cpp.html) >>
  /Subtype /Link
/ANN pdfmark
[ /Rect [ 57 1 161 21 ]
  /Border [ 0 0 0 ]
  /Action << /Subtype /URI /URI ($operaindice_8cpp.html) >>
  /Subtype /Link
/ANN pdfmark
1 setlinewidth
0.000 0.000 0.000 nodecolor
newpath 57 0 moveto
57 21 lineto
161 21 lineto
161 0 lineto
closepath stroke
0.000 0.000 0.000 nodecolor
10.00 /FreeSans.ttf set_font
109 7 moveto 88 -0.5 (operaindice.cpp) alignedtext
grestore
% Node4->Node8
gsave
1 setlinewidth
solid
0.667 0.776 0.439 edgecolor
newpath 313 116 moveto
233 107 63 127 21 80 curveto
0 55 44 33 78 21 curveto
stroke
0.667 0.776 0.439 edgecolor
newpath 312.701 119.488 moveto
323 117 lineto
313.398 112.522 lineto
closepath fill
1 setlinewidth
solid
0.667 0.776 0.439 edgecolor
newpath 312.701 119.488 moveto
323 117 lineto
313.398 112.522 lineto
closepath stroke
grestore
% Node9
gsave
[ /Rect [ 30 59 122 79 ]
  /Border [ 0 0 0 ]
  /Action << /Subtype /URI /URI ($RamDisco_8cpp.html) >>
  /Subtype /Link
/ANN pdfmark
[ /Rect [ 30 59 122 79 ]
  /Border [ 0 0 0 ]
  /Action << /Subtype /URI /URI ($RamDisco_8cpp.html) >>
  /Subtype /Link
/ANN pdfmark
1 setlinewidth
0.000 0.000 0.000 nodecolor
newpath 30 58 moveto
30 79 lineto
123 79 lineto
123 58 lineto
closepath stroke
0.000 0.000 0.000 nodecolor
10.00 /FreeSans.ttf set_font
76 65 moveto 77 -0.5 (RamDisco.cpp) alignedtext
grestore
% Node4->Node9
gsave
1 setlinewidth
solid
0.667 0.776 0.439 edgecolor
newpath 313 116 moveto
248 103 148 83 131 80 curveto
128 79 126 79 123 78 curveto
stroke
0.667 0.776 0.439 edgecolor
newpath 312.508 119.471 moveto
323 118 lineto
313.881 112.607 lineto
closepath fill
1 setlinewidth
solid
0.667 0.776 0.439 edgecolor
newpath 312.508 119.471 moveto
323 118 lineto
313.881 112.607 lineto
closepath stroke
grestore
% Node10
gsave
[ /Rect [ 140 59 298 79 ]
  /Border [ 0 0 0 ]
  /Action << /Subtype /URI /URI ($RamDiscoCasoPrueba_8cpp.html) >>
  /Subtype /Link
/ANN pdfmark
[ /Rect [ 140 59 298 79 ]
  /Border [ 0 0 0 ]
  /Action << /Subtype /URI /URI ($RamDiscoCasoPrueba_8cpp.html) >>
  /Subtype /Link
/ANN pdfmark
1 setlinewidth
0.000 0.000 0.000 nodecolor
newpath 140 58 moveto
140 79 lineto
298 79 lineto
298 58 lineto
closepath stroke
0.000 0.000 0.000 nodecolor
10.00 /FreeSans.ttf set_font
219 65 moveto 142 -0.5 (RamDiscoCasoPrueba.cpp) alignedtext
grestore
% Node4->Node10
gsave
1 setlinewidth
solid
0.667 0.776 0.439 edgecolor
newpath 331 112 moveto
304 102 269 88 245 79 curveto
stroke
0.667 0.776 0.439 edgecolor
newpath 330.415 115.536 moveto
341 116 lineto
333.015 109.036 lineto
closepath fill
1 setlinewidth
solid
0.667 0.776 0.439 edgecolor
newpath 330.415 115.536 moveto
341 116 lineto
333.015 109.036 lineto
closepath stroke
grestore
% Node4->Node11
gsave
1 setlinewidth
solid
0.667 0.776 0.439 edgecolor
newpath 416 113 moveto
450 102 496 88 527 79 curveto
stroke
0.667 0.776 0.439 edgecolor
newpath 414.573 109.774 moveto
406 116 lineto
416.584 116.479 lineto
closepath fill
1 setlinewidth
solid
0.667 0.776 0.439 edgecolor
newpath 414.573 109.774 moveto
406 116 lineto
416.584 116.479 lineto
closepath stroke
grestore
% Node6
gsave
[ /Rect [ 286 1 380 21 ]
  /Border [ 0 0 0 ]
  /Action << /Subtype /URI /URI ($indexador_8cpp.html) >>
  /Subtype /Link
/ANN pdfmark
[ /Rect [ 286 1 380 21 ]
  /Border [ 0 0 0 ]
  /Action << /Subtype /URI /URI ($indexador_8cpp.html) >>
  /Subtype /Link
/ANN pdfmark
1 setlinewidth
0.000 0.000 0.000 nodecolor
newpath 286 0 moveto
286 21 lineto
380 21 lineto
380 0 lineto
closepath stroke
0.000 0.000 0.000 nodecolor
10.00 /FreeSans.ttf set_font
333 7 moveto 78 -0.5 (indexador.cpp) alignedtext
grestore
% Node5->Node6
gsave
1 setlinewidth
solid
0.667 0.776 0.439 edgecolor
newpath 357 49 moveto
351 40 344 29 339 21 curveto
stroke
0.667 0.776 0.439 edgecolor
newpath 354.541 51.6209 moveto
363 58 lineto
360.365 47.738 lineto
closepath fill
1 setlinewidth
solid
0.667 0.776 0.439 edgecolor
newpath 354.541 51.6209 moveto
363 58 lineto
360.365 47.738 lineto
closepath stroke
grestore
% Node5->Node7
gsave
1 setlinewidth
solid
0.667 0.776 0.439 edgecolor
newpath 394 52 moveto
409 42 426 29 438 21 curveto
stroke
0.667 0.776 0.439 edgecolor
newpath 391.9 49.2 moveto
386 58 lineto
396.1 54.8 lineto
closepath fill
1 setlinewidth
solid
0.667 0.776 0.439 edgecolor
newpath 391.9 49.2 moveto
386 58 lineto
396.1 54.8 lineto
closepath stroke
grestore
% Node5->Node8
gsave
1 setlinewidth
solid
0.667 0.776 0.439 edgecolor
newpath 310 56 moveto
263 45 198 30 154 21 curveto
stroke
0.667 0.776 0.439 edgecolor
newpath 309.508 59.4708 moveto
320 58 lineto
310.881 52.6067 lineto
closepath fill
1 setlinewidth
solid
0.667 0.776 0.439 edgecolor
newpath 309.508 59.4708 moveto
320 58 lineto
310.881 52.6067 lineto
closepath stroke
grestore
endpage
showpage
grestore
%%PageTrailer
%%EndPage: 1
%%Trailer
%%Pages: 1
%%BoundingBox: 36 36 684 240
end
restore
%%EOF
