%!PS-Adobe-2.0
%%Creator: Graphviz version 2.12 (Mon Nov 16 18:34:03 UTC 2009)
%%For: (vtamara) Vladimir
%%Title: G
%%Pages: (atend)
%%BoundingBox: (atend)
%%EndComments
save
%%BeginProlog
/DotDict 200 dict def
DotDict begin

/setupLatin1 {
mark
/EncodingVector 256 array def
 EncodingVector 0

ISOLatin1Encoding 0 255 getinterval putinterval
EncodingVector 45 /hyphen put

% Set up ISO Latin 1 character encoding
/starnetISO {
        dup dup findfont dup length dict begin
        { 1 index /FID ne { def }{ pop pop } ifelse
        } forall
        /Encoding EncodingVector def
        currentdict end definefont
} def
/Times-Roman starnetISO def
/Times-Italic starnetISO def
/Times-Bold starnetISO def
/Times-BoldItalic starnetISO def
/Helvetica starnetISO def
/Helvetica-Oblique starnetISO def
/Helvetica-Bold starnetISO def
/Helvetica-BoldOblique starnetISO def
/Courier starnetISO def
/Courier-Oblique starnetISO def
/Courier-Bold starnetISO def
/Courier-BoldOblique starnetISO def
cleartomark
} bind def

%%BeginResource: procset graphviz 0 0
/coord-font-family /Times-Roman def
/default-font-family /Times-Roman def
/coordfont coord-font-family findfont 8 scalefont def

/InvScaleFactor 1.0 def
/set_scale {
       dup 1 exch div /InvScaleFactor exch def
       scale
} bind def

% styles
/solid { [] 0 setdash } bind def
/dashed { [9 InvScaleFactor mul dup ] 0 setdash } bind def
/dotted { [1 InvScaleFactor mul 6 InvScaleFactor mul] 0 setdash } bind def
/invis {/fill {newpath} def /stroke {newpath} def /show {pop newpath} def} bind def
/bold { 2 setlinewidth } bind def
/filled { } bind def
/unfilled { } bind def
/rounded { } bind def
/diagonals { } bind def

% hooks for setting color 
/nodecolor { sethsbcolor } bind def
/edgecolor { sethsbcolor } bind def
/graphcolor { sethsbcolor } bind def
/nopcolor {pop pop pop} bind def

/beginpage {	% i j npages
	/npages exch def
	/j exch def
	/i exch def
	/str 10 string def
	npages 1 gt {
		gsave
			coordfont setfont
			0 0 moveto
			(\() show i str cvs show (,) show j str cvs show (\)) show
		grestore
	} if
} bind def

/set_font {
	findfont exch
	scalefont setfont
} def

% draw aligned label in bounding box aligned to current point
/alignedtext {			% width adj text
	/text exch def
	/adj exch def
	/width exch def
	gsave
		width 0 gt {
			text stringwidth pop adj mul 0 rmoveto
		} if
		[] 0 setdash
		text show
	grestore
} def

/boxprim {				% xcorner ycorner xsize ysize
		4 2 roll
		moveto
		2 copy
		exch 0 rlineto
		0 exch rlineto
		pop neg 0 rlineto
		closepath
} bind def

/ellipse_path {
	/ry exch def
	/rx exch def
	/y exch def
	/x exch def
	matrix currentmatrix
	newpath
	x y translate
	rx ry scale
	0 0 1 0 360 arc
	setmatrix
} bind def

/endpage { showpage } bind def
/showpage { } def

/layercolorseq
	[	% layer color sequence - darkest to lightest
		[0 0 0]
		[.2 .8 .8]
		[.4 .8 .8]
		[.6 .8 .8]
		[.8 .8 .8]
	]
def

/layerlen layercolorseq length def

/setlayer {/maxlayer exch def /curlayer exch def
	layercolorseq curlayer 1 sub layerlen mod get
	aload pop sethsbcolor
	/nodecolor {nopcolor} def
	/edgecolor {nopcolor} def
	/graphcolor {nopcolor} def
} bind def

/onlayer { curlayer ne {invis} if } def

/onlayers {
	/myupper exch def
	/mylower exch def
	curlayer mylower lt
	curlayer myupper gt
	or
	{invis} if
} def

/curlayer 0 def

%%EndResource
%%EndProlog
%%BeginSetup
14 default-font-family set_font
1 setmiterlimit
% /arrowlength 10 def
% /arrowwidth 5 def

% make sure pdfmark is harmless for PS-interpreters other than Distiller
/pdfmark where {pop} {userdict /pdfmark /cleartomark load put} ifelse
% make '<<' and '>>' safe on PS Level 1 devices
/languagelevel where {pop languagelevel}{1} ifelse
2 lt {
    userdict (<<) cvn ([) cvn load put
    userdict (>>) cvn ([) cvn load put
} if

%%EndSetup
setupLatin1
%%Page: 1 1
%%PageBoundingBox: 36 36 870 292
%%PageOrientation: Portrait
gsave
36 36 870 292 boxprim clip newpath
0 0 1 beginpage
1 1 set_scale 0 rotate 40 40 translate
% Node1
gsave
0.000 0.000 0.749 nodecolor
newpath 0 94 moveto
0 115 lineto
116 115 lineto
116 94 lineto
closepath fill
1 setlinewidth
filled
0.000 0.000 0.000 nodecolor
newpath 0 94 moveto
0 115 lineto
116 115 lineto
116 94 lineto
closepath stroke
0.000 0.000 0.000 nodecolor
10.00 /FreeSans.ttf set_font
58 101 moveto 100 -0.5 (escribeCopiaNodo) alignedtext
grestore
% Node2
gsave
[ /Rect [ 152 171 236 191 ]
  /Border [ 0 0 0 ]
  /Action << /Subtype /URI /URI ($TrieSDisco_8cpp.html#95dfc28ebaa02e82d3d1ffce08251628) >>
  /Subtype /Link
/ANN pdfmark
[ /Rect [ 152 171 236 191 ]
  /Border [ 0 0 0 ]
  /Action << /Subtype /URI /URI ($TrieSDisco_8cpp.html#95dfc28ebaa02e82d3d1ffce08251628) >>
  /Subtype /Link
/ANN pdfmark
1 setlinewidth
0.000 0.000 0.000 nodecolor
newpath 152 170 moveto
152 191 lineto
236 191 lineto
236 170 lineto
closepath stroke
0.000 0.000 0.000 nodecolor
10.00 /FreeSans.ttf set_font
194 177 moveto 68 -0.5 (escribeNodo) alignedtext
grestore
% Node1->Node2
gsave
1 setlinewidth
solid
0.667 0.776 0.439 edgecolor
newpath 76 115 moveto
98 128 138 150 165 165 curveto
stroke
0.667 0.776 0.439 edgecolor
newpath 163.559 168.203 moveto
174 170 lineto
166.958 162.084 lineto
closepath fill
1 setlinewidth
solid
0.667 0.776 0.439 edgecolor
newpath 163.559 168.203 moveto
174 170 lineto
166.958 162.084 lineto
closepath stroke
grestore
% Node12
gsave
[ /Rect [ 167 114 221 134 ]
  /Border [ 0 0 0 ]
  /Action << /Subtype /URI /URI ($comun_8cpp.html#4a359aa93f2dd4e34badd70c0e1f7082) >>
  /Subtype /Link
/ANN pdfmark
[ /Rect [ 167 114 221 134 ]
  /Border [ 0 0 0 ]
  /Action << /Subtype /URI /URI ($comun_8cpp.html#4a359aa93f2dd4e34badd70c0e1f7082) >>
  /Subtype /Link
/ANN pdfmark
1 setlinewidth
0.000 0.000 0.000 nodecolor
newpath 167 113 moveto
167 134 lineto
222 134 lineto
222 113 lineto
closepath stroke
0.000 0.000 0.000 nodecolor
10.00 /FreeSans.ttf set_font
194 120 moveto 39 -0.5 (leeCad) alignedtext
grestore
% Node1->Node12
gsave
1 setlinewidth
solid
0.667 0.776 0.439 edgecolor
newpath 116 113 moveto
130 115 144 117 157 119 curveto
stroke
0.667 0.776 0.439 edgecolor
newpath 156.701 122.488 moveto
167 120 lineto
157.398 115.522 lineto
closepath fill
1 setlinewidth
solid
0.667 0.776 0.439 edgecolor
newpath 156.701 122.488 moveto
167 120 lineto
157.398 115.522 lineto
closepath stroke
grestore
% Node14
gsave
[ /Rect [ 160 76 228 96 ]
  /Border [ 0 0 0 ]
  /Action << /Subtype /URI /URI ($comun_8hpp.html#9871d7357fc245ec5b7a227a9a62eb36) >>
  /Subtype /Link
/ANN pdfmark
[ /Rect [ 160 76 228 96 ]
  /Border [ 0 0 0 ]
  /Action << /Subtype /URI /URI ($comun_8hpp.html#9871d7357fc245ec5b7a227a9a62eb36) >>
  /Subtype /Link
/ANN pdfmark
1 setlinewidth
0.000 0.000 0.000 nodecolor
newpath 160 75 moveto
160 96 lineto
228 96 lineto
228 75 lineto
closepath stroke
0.000 0.000 0.000 nodecolor
10.00 /FreeSans.ttf set_font
194 82 moveto 52 -0.5 (leeNDesp) alignedtext
grestore
% Node1->Node14
gsave
1 setlinewidth
solid
0.667 0.776 0.439 edgecolor
newpath 116 97 moveto
127 95 139 94 150 92 curveto
stroke
0.667 0.776 0.439 edgecolor
newpath 150.398 95.4778 moveto
160 91 lineto
149.701 88.5125 lineto
closepath fill
1 setlinewidth
solid
0.667 0.776 0.439 edgecolor
newpath 150.398 95.4778 moveto
160 91 lineto
149.701 88.5125 lineto
closepath stroke
grestore
% Node16
gsave
[ /Rect [ 169 38 219 58 ]
  /Border [ 0 0 0 ]
  /Action << /Subtype /URI /URI ($Pos_8cpp.html#36b67a50cba6dc1789825a3111bee9d2) >>
  /Subtype /Link
/ANN pdfmark
[ /Rect [ 169 38 219 58 ]
  /Border [ 0 0 0 ]
  /Action << /Subtype /URI /URI ($Pos_8cpp.html#36b67a50cba6dc1789825a3111bee9d2) >>
  /Subtype /Link
/ANN pdfmark
1 setlinewidth
0.000 0.000 0.000 nodecolor
newpath 169 37 moveto
169 58 lineto
220 58 lineto
220 37 lineto
closepath stroke
0.000 0.000 0.000 nodecolor
10.00 /FreeSans.ttf set_font
194 44 moveto 35 -0.5 (leePos) alignedtext
grestore
% Node1->Node16
gsave
1 setlinewidth
solid
0.667 0.776 0.439 edgecolor
newpath 85 94 moveto
106 84 137 72 161 62 curveto
stroke
0.667 0.776 0.439 edgecolor
newpath 162.283 65.2598 moveto
170 58 lineto
159.44 58.8631 lineto
closepath fill
1 setlinewidth
solid
0.667 0.776 0.439 edgecolor
newpath 162.283 65.2598 moveto
170 58 lineto
159.44 58.8631 lineto
closepath stroke
grestore
% Node3
gsave
[ /Rect [ 305 228 395 248 ]
  /Border [ 0 0 0 ]
  /Action << /Subtype /URI /URI ($comun_8hpp.html#96402bda6527bf98dd8e49d62ae182f8) >>
  /Subtype /Link
/ANN pdfmark
[ /Rect [ 305 228 395 248 ]
  /Border [ 0 0 0 ]
  /Action << /Subtype /URI /URI ($comun_8hpp.html#96402bda6527bf98dd8e49d62ae182f8) >>
  /Subtype /Link
/ANN pdfmark
1 setlinewidth
0.000 0.000 0.000 nodecolor
newpath 305 227 moveto
305 248 lineto
395 248 lineto
395 227 lineto
closepath stroke
0.000 0.000 0.000 nodecolor
10.00 /FreeSans.ttf set_font
350 234 moveto 74 -0.5 (escribeNDesp) alignedtext
grestore
% Node2->Node3
gsave
1 setlinewidth
solid
0.667 0.776 0.439 edgecolor
newpath 213 191 moveto
228 199 251 211 272 219 curveto
279 222 287 224 295 226 curveto
stroke
0.667 0.776 0.439 edgecolor
newpath 294.416 229.479 moveto
305 229 lineto
296.427 222.774 lineto
closepath fill
1 setlinewidth
solid
0.667 0.776 0.439 edgecolor
newpath 294.416 229.479 moveto
305 229 lineto
296.427 222.774 lineto
closepath stroke
grestore
% Node5
gsave
[ /Rect [ 314 190 386 210 ]
  /Border [ 0 0 0 ]
  /Action << /Subtype /URI /URI ($Pos_8cpp.html#42c2daaa880eeb397c024b6ffa22c8cf) >>
  /Subtype /Link
/ANN pdfmark
[ /Rect [ 314 190 386 210 ]
  /Border [ 0 0 0 ]
  /Action << /Subtype /URI /URI ($Pos_8cpp.html#42c2daaa880eeb397c024b6ffa22c8cf) >>
  /Subtype /Link
/ANN pdfmark
1 setlinewidth
0.000 0.000 0.000 nodecolor
newpath 314 189 moveto
314 210 lineto
387 210 lineto
387 189 lineto
closepath stroke
0.000 0.000 0.000 nodecolor
10.00 /FreeSans.ttf set_font
350 196 moveto 57 -0.5 (escribePos) alignedtext
grestore
% Node2->Node5
gsave
1 setlinewidth
solid
0.667 0.776 0.439 edgecolor
newpath 236 186 moveto
257 189 282 192 304 195 curveto
stroke
0.667 0.776 0.439 edgecolor
newpath 303.701 198.488 moveto
314 196 lineto
304.398 191.522 lineto
closepath fill
1 setlinewidth
solid
0.667 0.776 0.439 edgecolor
newpath 303.701 198.488 moveto
314 196 lineto
304.398 191.522 lineto
closepath stroke
grestore
% Node8
gsave
[ /Rect [ 272 152 428 172 ]
  /Border [ 0 0 0 ]
  /Action << /Subtype /URI /URI ($TrieSDisco_8cpp.html#453b277936104f13edb4f8158e015eba) >>
  /Subtype /Link
/ANN pdfmark
[ /Rect [ 272 152 428 172 ]
  /Border [ 0 0 0 ]
  /Action << /Subtype /URI /URI ($TrieSDisco_8cpp.html#453b277936104f13edb4f8158e015eba) >>
  /Subtype /Link
/ANN pdfmark
1 setlinewidth
0.000 0.000 0.000 nodecolor
newpath 272 151 moveto
272 172 lineto
428 172 lineto
428 151 lineto
closepath stroke
0.000 0.000 0.000 nodecolor
10.00 /FreeSans.ttf set_font
350 158 moveto 140 -0.5 (precalcula_escribe_actual) alignedtext
grestore
% Node2->Node8
gsave
1 setlinewidth
solid
0.667 0.776 0.439 edgecolor
newpath 236 176 moveto
244 175 253 174 262 173 curveto
stroke
0.667 0.776 0.439 edgecolor
newpath 262.881 176.393 moveto
272 171 lineto
261.508 169.529 lineto
closepath fill
1 setlinewidth
solid
0.667 0.776 0.439 edgecolor
newpath 262.881 176.393 moveto
272 171 lineto
261.508 169.529 lineto
closepath stroke
grestore
% Node4
gsave
[ /Rect [ 467 228 549 248 ]
  /Border [ 0 0 0 ]
  /Action << /Subtype /URI /URI ($comun_8cpp.html#b5388a972300b0a3d2e70c16097a3781) >>
  /Subtype /Link
/ANN pdfmark
[ /Rect [ 467 228 549 248 ]
  /Border [ 0 0 0 ]
  /Action << /Subtype /URI /URI ($comun_8cpp.html#b5388a972300b0a3d2e70c16097a3781) >>
  /Subtype /Link
/ANN pdfmark
1 setlinewidth
0.000 0.000 0.000 nodecolor
newpath 467 227 moveto
467 248 lineto
549 248 lineto
549 227 lineto
closepath stroke
0.000 0.000 0.000 nodecolor
10.00 /FreeSans.ttf set_font
508 234 moveto 66 -0.5 (escribe128b) alignedtext
grestore
% Node3->Node4
gsave
1 setlinewidth
solid
0.667 0.776 0.439 edgecolor
newpath 395 238 moveto
415 238 437 238 457 238 curveto
stroke
0.667 0.776 0.439 edgecolor
newpath 457 241.5 moveto
467 238 lineto
457 234.5 lineto
closepath fill
1 setlinewidth
solid
0.667 0.776 0.439 edgecolor
newpath 457 241.5 moveto
467 238 lineto
457 234.5 lineto
closepath stroke
grestore
% Node6
gsave
[ /Rect [ 588 180 716 200 ]
  /Border [ 0 0 0 ]
  /Action << /Subtype /URI /URI ($Elias_8cpp.html#59732ce42a1e75fbbb382a6964ef4620) >>
  /Subtype /Link
/ANN pdfmark
[ /Rect [ 588 180 716 200 ]
  /Border [ 0 0 0 ]
  /Action << /Subtype /URI /URI ($Elias_8cpp.html#59732ce42a1e75fbbb382a6964ef4620) >>
  /Subtype /Link
/ANN pdfmark
1 setlinewidth
0.000 0.000 0.000 nodecolor
newpath 588 179 moveto
588 200 lineto
716 200 lineto
716 179 lineto
closepath stroke
0.000 0.000 0.000 nodecolor
10.00 /FreeSans.ttf set_font
652 186 moveto 112 -0.5 (escribe_elias_gama2) alignedtext
grestore
% Node5->Node6
gsave
1 setlinewidth
solid
0.667 0.776 0.439 edgecolor
newpath 387 199 moveto
434 197 517 194 578 192 curveto
stroke
0.667 0.776 0.439 edgecolor
newpath 578 195.5 moveto
588 192 lineto
578 188.5 lineto
closepath fill
1 setlinewidth
solid
0.667 0.776 0.439 edgecolor
newpath 578 195.5 moveto
588 192 lineto
578 188.5 lineto
closepath stroke
grestore
% Node7
gsave
[ /Rect [ 753 156 825 176 ]
  /Border [ 0 0 0 ]
  /Action << /Subtype /URI /URI ($Elias_8cpp.html#7127ec8dff13cc2ad873693ca8933d38) >>
  /Subtype /Link
/ANN pdfmark
[ /Rect [ 753 156 825 176 ]
  /Border [ 0 0 0 ]
  /Action << /Subtype /URI /URI ($Elias_8cpp.html#7127ec8dff13cc2ad873693ca8933d38) >>
  /Subtype /Link
/ANN pdfmark
1 setlinewidth
0.000 0.000 0.000 nodecolor
newpath 753 155 moveto
753 176 lineto
826 176 lineto
826 155 lineto
closepath stroke
0.000 0.000 0.000 nodecolor
10.00 /FreeSans.ttf set_font
789 162 moveto 57 -0.5 (piso_logb2) alignedtext
grestore
% Node6->Node7
gsave
1 setlinewidth
solid
0.667 0.776 0.439 edgecolor
newpath 715 179 moveto
724 178 734 176 743 175 curveto
stroke
0.667 0.776 0.439 edgecolor
newpath 743.881 178.393 moveto
753 173 lineto
742.508 171.529 lineto
closepath fill
1 setlinewidth
solid
0.667 0.776 0.439 edgecolor
newpath 743.881 178.393 moveto
753 173 lineto
742.508 171.529 lineto
closepath stroke
grestore
% Node9
gsave
[ /Rect [ 471 152 545 172 ]
  /Border [ 0 0 0 ]
  /Action << /Subtype /URI /URI ($comun_8hpp.html#3f1f97c70ac3ffba1584b0fc02661cab) >>
  /Subtype /Link
/ANN pdfmark
[ /Rect [ 471 152 545 172 ]
  /Border [ 0 0 0 ]
  /Action << /Subtype /URI /URI ($comun_8hpp.html#3f1f97c70ac3ffba1584b0fc02661cab) >>
  /Subtype /Link
/ANN pdfmark
1 setlinewidth
0.000 0.000 0.000 nodecolor
newpath 471 151 moveto
471 172 lineto
546 172 lineto
546 151 lineto
closepath stroke
0.000 0.000 0.000 nodecolor
10.00 /FreeSans.ttf set_font
508 158 moveto 59 -0.5 (longNDesp) alignedtext
grestore
% Node8->Node9
gsave
1 setlinewidth
solid
0.667 0.776 0.439 edgecolor
newpath 428 162 moveto
439 162 450 162 461 162 curveto
stroke
0.667 0.776 0.439 edgecolor
newpath 461 165.5 moveto
471 162 lineto
461 158.5 lineto
closepath fill
1 setlinewidth
solid
0.667 0.776 0.439 edgecolor
newpath 461 165.5 moveto
471 162 lineto
461 158.5 lineto
closepath stroke
grestore
% Node10
gsave
[ /Rect [ 479 114 537 134 ]
  /Border [ 0 0 0 ]
  /Action << /Subtype /URI /URI ($Pos_8cpp.html#ad8740377e9e19836d654491a170ac9a) >>
  /Subtype /Link
/ANN pdfmark
[ /Rect [ 479 114 537 134 ]
  /Border [ 0 0 0 ]
  /Action << /Subtype /URI /URI ($Pos_8cpp.html#ad8740377e9e19836d654491a170ac9a) >>
  /Subtype /Link
/ANN pdfmark
1 setlinewidth
0.000 0.000 0.000 nodecolor
newpath 479 113 moveto
479 134 lineto
537 134 lineto
537 113 lineto
closepath stroke
0.000 0.000 0.000 nodecolor
10.00 /FreeSans.ttf set_font
508 120 moveto 42 -0.5 (longPos) alignedtext
grestore
% Node8->Node10
gsave
1 setlinewidth
solid
0.667 0.776 0.439 edgecolor
newpath 396 151 moveto
419 146 447 139 469 133 curveto
stroke
0.667 0.776 0.439 edgecolor
newpath 469.881 136.393 moveto
479 131 lineto
468.508 129.529 lineto
closepath fill
1 setlinewidth
solid
0.667 0.776 0.439 edgecolor
newpath 469.881 136.393 moveto
479 131 lineto
468.508 129.529 lineto
closepath stroke
grestore
% Node11
gsave
[ /Rect [ 599 133 705 153 ]
  /Border [ 0 0 0 ]
  /Action << /Subtype /URI /URI ($Elias_8cpp.html#214c4fd6adcbe1fe7de47c4ba521198a) >>
  /Subtype /Link
/ANN pdfmark
[ /Rect [ 599 133 705 153 ]
  /Border [ 0 0 0 ]
  /Action << /Subtype /URI /URI ($Elias_8cpp.html#214c4fd6adcbe1fe7de47c4ba521198a) >>
  /Subtype /Link
/ANN pdfmark
1 setlinewidth
0.000 0.000 0.000 nodecolor
newpath 599 132 moveto
599 153 lineto
706 153 lineto
706 132 lineto
closepath stroke
0.000 0.000 0.000 nodecolor
10.00 /FreeSans.ttf set_font
652 139 moveto 91 -0.5 (long_elias_gama) alignedtext
grestore
% Node10->Node11
gsave
1 setlinewidth
solid
0.667 0.776 0.439 edgecolor
newpath 537 128 moveto
552 130 571 132 589 135 curveto
stroke
0.667 0.776 0.439 edgecolor
newpath 588.701 138.488 moveto
599 136 lineto
589.398 131.522 lineto
closepath fill
1 setlinewidth
solid
0.667 0.776 0.439 edgecolor
newpath 588.701 138.488 moveto
599 136 lineto
589.398 131.522 lineto
closepath stroke
grestore
% Node11->Node7
gsave
1 setlinewidth
solid
0.667 0.776 0.439 edgecolor
newpath 706 152 moveto
718 154 731 157 743 159 curveto
stroke
0.667 0.776 0.439 edgecolor
newpath 742.701 162.488 moveto
753 160 lineto
743.398 155.522 lineto
closepath fill
1 setlinewidth
solid
0.667 0.776 0.439 edgecolor
newpath 742.701 162.488 moveto
753 160 lineto
743.398 155.522 lineto
closepath stroke
grestore
% Node13
gsave
[ /Rect [ 464 57 552 77 ]
  /Border [ 0 0 0 ]
  /Action << /Subtype /URI /URI ($comun_8cpp.html#88ffeb20e447cad877c37bb473033590) >>
  /Subtype /Link
/ANN pdfmark
[ /Rect [ 464 57 552 77 ]
  /Border [ 0 0 0 ]
  /Action << /Subtype /URI /URI ($comun_8cpp.html#88ffeb20e447cad877c37bb473033590) >>
  /Subtype /Link
/ANN pdfmark
1 setlinewidth
0.000 0.000 0.000 nodecolor
newpath 464 56 moveto
464 77 lineto
552 77 lineto
552 56 lineto
closepath stroke
0.000 0.000 0.000 nodecolor
10.00 /FreeSans.ttf set_font
508 63 moveto 72 -0.5 (errorFormato) alignedtext
grestore
% Node12->Node13
gsave
1 setlinewidth
solid
0.667 0.776 0.439 edgecolor
newpath 222 125 moveto
267 126 356 124 428 105 curveto
447 99 467 90 482 82 curveto
stroke
0.667 0.776 0.439 edgecolor
newpath 483.958 84.916 moveto
491 77 lineto
480.559 78.7969 lineto
closepath fill
1 setlinewidth
solid
0.667 0.776 0.439 edgecolor
newpath 483.958 84.916 moveto
491 77 lineto
480.559 78.7969 lineto
closepath stroke
grestore
% Node15
gsave
[ /Rect [ 320 76 380 96 ]
  /Border [ 0 0 0 ]
  /Action << /Subtype /URI /URI ($comun_8cpp.html#c7bf9e68bbdccea36ce786b806244ea1) >>
  /Subtype /Link
/ANN pdfmark
[ /Rect [ 320 76 380 96 ]
  /Border [ 0 0 0 ]
  /Action << /Subtype /URI /URI ($comun_8cpp.html#c7bf9e68bbdccea36ce786b806244ea1) >>
  /Subtype /Link
/ANN pdfmark
1 setlinewidth
0.000 0.000 0.000 nodecolor
newpath 320 75 moveto
320 96 lineto
380 96 lineto
380 75 lineto
closepath stroke
0.000 0.000 0.000 nodecolor
10.00 /FreeSans.ttf set_font
350 82 moveto 44 -0.5 (lee128b) alignedtext
grestore
% Node14->Node15
gsave
1 setlinewidth
solid
0.667 0.776 0.439 edgecolor
newpath 228 86 moveto
252 86 284 86 310 86 curveto
stroke
0.667 0.776 0.439 edgecolor
newpath 310 89.5001 moveto
320 86 lineto
310 82.5001 lineto
closepath fill
1 setlinewidth
solid
0.667 0.776 0.439 edgecolor
newpath 310 89.5001 moveto
320 86 lineto
310 82.5001 lineto
closepath stroke
grestore
% Node15->Node13
gsave
1 setlinewidth
solid
0.667 0.776 0.439 edgecolor
newpath 380 82 moveto
401 79 429 76 454 73 curveto
stroke
0.667 0.776 0.439 edgecolor
newpath 454.398 76.4778 moveto
464 72 lineto
453.701 69.5125 lineto
closepath fill
1 setlinewidth
solid
0.667 0.776 0.439 edgecolor
newpath 454.398 76.4778 moveto
464 72 lineto
453.701 69.5125 lineto
closepath stroke
grestore
% Node16->Node13
gsave
1 setlinewidth
solid
0.667 0.776 0.439 edgecolor
newpath 220 50 moveto
271 53 385 59 454 63 curveto
stroke
0.667 0.776 0.439 edgecolor
newpath 453.701 66.4875 moveto
464 64 lineto
454.398 59.5222 lineto
closepath fill
1 setlinewidth
solid
0.667 0.776 0.439 edgecolor
newpath 453.701 66.4875 moveto
464 64 lineto
454.398 59.5222 lineto
closepath stroke
grestore
% Node17
gsave
[ /Rect [ 297 0 403 20 ]
  /Border [ 0 0 0 ]
  /Action << /Subtype /URI /URI ($Elias_8cpp.html#95ee5a0ffb91f203612d2ce9d063ec36) >>
  /Subtype /Link
/ANN pdfmark
[ /Rect [ 297 0 403 20 ]
  /Border [ 0 0 0 ]
  /Action << /Subtype /URI /URI ($Elias_8cpp.html#95ee5a0ffb91f203612d2ce9d063ec36) >>
  /Subtype /Link
/ANN pdfmark
1 setlinewidth
0.000 0.000 0.000 nodecolor
newpath 297 -1 moveto
297 20 lineto
403 20 lineto
403 -1 lineto
closepath stroke
0.000 0.000 0.000 nodecolor
10.00 /FreeSans.ttf set_font
350 6 moveto 90 -0.5 (lee_elias_gama2) alignedtext
grestore
% Node16->Node17
gsave
1 setlinewidth
solid
0.667 0.776 0.439 edgecolor
newpath 220 42 moveto
242 37 273 29 299 22 curveto
stroke
0.667 0.776 0.439 edgecolor
newpath 299.881 25.3933 moveto
309 20 lineto
298.508 18.5292 lineto
closepath fill
1 setlinewidth
solid
0.667 0.776 0.439 edgecolor
newpath 299.881 25.3933 moveto
309 20 lineto
298.508 18.5292 lineto
closepath stroke
grestore
% Node17->Node13
gsave
1 setlinewidth
solid
0.667 0.776 0.439 edgecolor
newpath 385 20 moveto
398 24 414 29 428 34 curveto
443 40 459 46 473 52 curveto
stroke
0.667 0.776 0.439 edgecolor
newpath 471.44 55.1369 moveto
482 56 lineto
474.283 48.7402 lineto
closepath fill
1 setlinewidth
solid
0.667 0.776 0.439 edgecolor
newpath 471.44 55.1369 moveto
482 56 lineto
474.283 48.7402 lineto
closepath stroke
grestore
endpage
showpage
grestore
%%PageTrailer
%%EndPage: 1
%%Trailer
%%Pages: 1
%%BoundingBox: 36 36 870 292
end
restore
%%EOF
