%!PS-Adobe-2.0
%%Creator: Graphviz version 2.12 (Mon Nov 16 18:34:03 UTC 2009)
%%For: (vtamara) Vladimir
%%Title: G
%%Pages: (atend)
%%BoundingBox: (atend)
%%EndComments
save
%%BeginProlog
/DotDict 200 dict def
DotDict begin

/setupLatin1 {
mark
/EncodingVector 256 array def
 EncodingVector 0

ISOLatin1Encoding 0 255 getinterval putinterval
EncodingVector 45 /hyphen put

% Set up ISO Latin 1 character encoding
/starnetISO {
        dup dup findfont dup length dict begin
        { 1 index /FID ne { def }{ pop pop } ifelse
        } forall
        /Encoding EncodingVector def
        currentdict end definefont
} def
/Times-Roman starnetISO def
/Times-Italic starnetISO def
/Times-Bold starnetISO def
/Times-BoldItalic starnetISO def
/Helvetica starnetISO def
/Helvetica-Oblique starnetISO def
/Helvetica-Bold starnetISO def
/Helvetica-BoldOblique starnetISO def
/Courier starnetISO def
/Courier-Oblique starnetISO def
/Courier-Bold starnetISO def
/Courier-BoldOblique starnetISO def
cleartomark
} bind def

%%BeginResource: procset graphviz 0 0
/coord-font-family /Times-Roman def
/default-font-family /Times-Roman def
/coordfont coord-font-family findfont 8 scalefont def

/InvScaleFactor 1.0 def
/set_scale {
       dup 1 exch div /InvScaleFactor exch def
       scale
} bind def

% styles
/solid { [] 0 setdash } bind def
/dashed { [9 InvScaleFactor mul dup ] 0 setdash } bind def
/dotted { [1 InvScaleFactor mul 6 InvScaleFactor mul] 0 setdash } bind def
/invis {/fill {newpath} def /stroke {newpath} def /show {pop newpath} def} bind def
/bold { 2 setlinewidth } bind def
/filled { } bind def
/unfilled { } bind def
/rounded { } bind def
/diagonals { } bind def

% hooks for setting color 
/nodecolor { sethsbcolor } bind def
/edgecolor { sethsbcolor } bind def
/graphcolor { sethsbcolor } bind def
/nopcolor {pop pop pop} bind def

/beginpage {	% i j npages
	/npages exch def
	/j exch def
	/i exch def
	/str 10 string def
	npages 1 gt {
		gsave
			coordfont setfont
			0 0 moveto
			(\() show i str cvs show (,) show j str cvs show (\)) show
		grestore
	} if
} bind def

/set_font {
	findfont exch
	scalefont setfont
} def

% draw aligned label in bounding box aligned to current point
/alignedtext {			% width adj text
	/text exch def
	/adj exch def
	/width exch def
	gsave
		width 0 gt {
			text stringwidth pop adj mul 0 rmoveto
		} if
		[] 0 setdash
		text show
	grestore
} def

/boxprim {				% xcorner ycorner xsize ysize
		4 2 roll
		moveto
		2 copy
		exch 0 rlineto
		0 exch rlineto
		pop neg 0 rlineto
		closepath
} bind def

/ellipse_path {
	/ry exch def
	/rx exch def
	/y exch def
	/x exch def
	matrix currentmatrix
	newpath
	x y translate
	rx ry scale
	0 0 1 0 360 arc
	setmatrix
} bind def

/endpage { showpage } bind def
/showpage { } def

/layercolorseq
	[	% layer color sequence - darkest to lightest
		[0 0 0]
		[.2 .8 .8]
		[.4 .8 .8]
		[.6 .8 .8]
		[.8 .8 .8]
	]
def

/layerlen layercolorseq length def

/setlayer {/maxlayer exch def /curlayer exch def
	layercolorseq curlayer 1 sub layerlen mod get
	aload pop sethsbcolor
	/nodecolor {nopcolor} def
	/edgecolor {nopcolor} def
	/graphcolor {nopcolor} def
} bind def

/onlayer { curlayer ne {invis} if } def

/onlayers {
	/myupper exch def
	/mylower exch def
	curlayer mylower lt
	curlayer myupper gt
	or
	{invis} if
} def

/curlayer 0 def

%%EndResource
%%EndProlog
%%BeginSetup
14 default-font-family set_font
1 setmiterlimit
% /arrowlength 10 def
% /arrowwidth 5 def

% make sure pdfmark is harmless for PS-interpreters other than Distiller
/pdfmark where {pop} {userdict /pdfmark /cleartomark load put} ifelse
% make '<<' and '>>' safe on PS Level 1 devices
/languagelevel where {pop languagelevel}{1} ifelse
2 lt {
    userdict (<<) cvn ([) cvn load put
    userdict (>>) cvn ([) cvn load put
} if

%%EndSetup
setupLatin1
%%Page: 1 1
%%PageBoundingBox: 36 36 890 292
%%PageOrientation: Portrait
gsave
36 36 890 292 boxprim clip newpath
0 0 1 beginpage
1 1 set_scale 0 rotate 40 40 translate
% Node1
gsave
0.000 0.000 0.749 nodecolor
newpath 0 113 moveto
0 134 lineto
136 134 lineto
136 113 lineto
closepath fill
1 setlinewidth
filled
0.000 0.000 0.000 nodecolor
newpath 0 113 moveto
0 134 lineto
136 134 lineto
136 113 lineto
closepath stroke
0.000 0.000 0.000 nodecolor
10.00 /FreeSans.ttf set_font
68 120 moveto 120 -0.5 (escribeCopiaSubarbol) alignedtext
grestore
% Node1->Node1
gsave
1 setlinewidth
solid
0.667 0.776 0.439 edgecolor
newpath 22 134 moveto
2 143 17 152 68 152 curveto
107 152 125 147 122 140 curveto
stroke
0.667 0.776 0.439 edgecolor
newpath 124.1 137.2 moveto
114 134 lineto
119.9 142.8 lineto
closepath fill
1 setlinewidth
solid
0.667 0.776 0.439 edgecolor
newpath 124.1 137.2 moveto
114 134 lineto
119.9 142.8 lineto
closepath stroke
grestore
% Node2
gsave
[ /Rect [ 325 228 415 248 ]
  /Border [ 0 0 0 ]
  /Action << /Subtype /URI /URI ($comun_8hpp.html#96402bda6527bf98dd8e49d62ae182f8) >>
  /Subtype /Link
/ANN pdfmark
[ /Rect [ 325 228 415 248 ]
  /Border [ 0 0 0 ]
  /Action << /Subtype /URI /URI ($comun_8hpp.html#96402bda6527bf98dd8e49d62ae182f8) >>
  /Subtype /Link
/ANN pdfmark
1 setlinewidth
0.000 0.000 0.000 nodecolor
newpath 325 227 moveto
325 248 lineto
415 248 lineto
415 227 lineto
closepath stroke
0.000 0.000 0.000 nodecolor
10.00 /FreeSans.ttf set_font
370 234 moveto 74 -0.5 (escribeNDesp) alignedtext
grestore
% Node1->Node2
gsave
1 setlinewidth
solid
0.667 0.776 0.439 edgecolor
newpath 79 134 moveto
96 151 134 183 172 200 curveto
218 219 274 229 315 234 curveto
stroke
0.667 0.776 0.439 edgecolor
newpath 314.701 237.488 moveto
325 235 lineto
315.398 230.522 lineto
closepath fill
1 setlinewidth
solid
0.667 0.776 0.439 edgecolor
newpath 314.701 237.488 moveto
325 235 lineto
315.398 230.522 lineto
closepath stroke
grestore
% Node4
gsave
[ /Rect [ 172 171 256 191 ]
  /Border [ 0 0 0 ]
  /Action << /Subtype /URI /URI ($TrieSDisco_8cpp.html#95dfc28ebaa02e82d3d1ffce08251628) >>
  /Subtype /Link
/ANN pdfmark
[ /Rect [ 172 171 256 191 ]
  /Border [ 0 0 0 ]
  /Action << /Subtype /URI /URI ($TrieSDisco_8cpp.html#95dfc28ebaa02e82d3d1ffce08251628) >>
  /Subtype /Link
/ANN pdfmark
1 setlinewidth
0.000 0.000 0.000 nodecolor
newpath 172 170 moveto
172 191 lineto
256 191 lineto
256 170 lineto
closepath stroke
0.000 0.000 0.000 nodecolor
10.00 /FreeSans.ttf set_font
214 177 moveto 68 -0.5 (escribeNodo) alignedtext
grestore
% Node1->Node4
gsave
1 setlinewidth
solid
0.667 0.776 0.439 edgecolor
newpath 94 134 moveto
117 143 151 156 177 166 curveto
stroke
0.667 0.776 0.439 edgecolor
newpath 175.44 169.137 moveto
186 170 lineto
178.283 162.74 lineto
closepath fill
1 setlinewidth
solid
0.667 0.776 0.439 edgecolor
newpath 175.44 169.137 moveto
186 170 lineto
178.283 162.74 lineto
closepath stroke
grestore
% Node12
gsave
[ /Rect [ 187 114 241 134 ]
  /Border [ 0 0 0 ]
  /Action << /Subtype /URI /URI ($comun_8cpp.html#4a359aa93f2dd4e34badd70c0e1f7082) >>
  /Subtype /Link
/ANN pdfmark
[ /Rect [ 187 114 241 134 ]
  /Border [ 0 0 0 ]
  /Action << /Subtype /URI /URI ($comun_8cpp.html#4a359aa93f2dd4e34badd70c0e1f7082) >>
  /Subtype /Link
/ANN pdfmark
1 setlinewidth
0.000 0.000 0.000 nodecolor
newpath 187 113 moveto
187 134 lineto
242 134 lineto
242 113 lineto
closepath stroke
0.000 0.000 0.000 nodecolor
10.00 /FreeSans.ttf set_font
214 120 moveto 39 -0.5 (leeCad) alignedtext
grestore
% Node1->Node12
gsave
1 setlinewidth
solid
0.667 0.776 0.439 edgecolor
newpath 136 124 moveto
150 124 164 124 177 124 curveto
stroke
0.667 0.776 0.439 edgecolor
newpath 177 127.5 moveto
187 124 lineto
177 120.5 lineto
closepath fill
1 setlinewidth
solid
0.667 0.776 0.439 edgecolor
newpath 177 127.5 moveto
187 124 lineto
177 120.5 lineto
closepath stroke
grestore
% Node14
gsave
[ /Rect [ 180 76 248 96 ]
  /Border [ 0 0 0 ]
  /Action << /Subtype /URI /URI ($comun_8hpp.html#9871d7357fc245ec5b7a227a9a62eb36) >>
  /Subtype /Link
/ANN pdfmark
[ /Rect [ 180 76 248 96 ]
  /Border [ 0 0 0 ]
  /Action << /Subtype /URI /URI ($comun_8hpp.html#9871d7357fc245ec5b7a227a9a62eb36) >>
  /Subtype /Link
/ANN pdfmark
1 setlinewidth
0.000 0.000 0.000 nodecolor
newpath 180 75 moveto
180 96 lineto
248 96 lineto
248 75 lineto
closepath stroke
0.000 0.000 0.000 nodecolor
10.00 /FreeSans.ttf set_font
214 82 moveto 52 -0.5 (leeNDesp) alignedtext
grestore
% Node1->Node14
gsave
1 setlinewidth
solid
0.667 0.776 0.439 edgecolor
newpath 111 113 moveto
130 108 151 103 170 98 curveto
stroke
0.667 0.776 0.439 edgecolor
newpath 171.427 101.226 moveto
180 95 lineto
169.416 94.5212 lineto
closepath fill
1 setlinewidth
solid
0.667 0.776 0.439 edgecolor
newpath 171.427 101.226 moveto
180 95 lineto
169.416 94.5212 lineto
closepath stroke
grestore
% Node16
gsave
[ /Rect [ 189 38 239 58 ]
  /Border [ 0 0 0 ]
  /Action << /Subtype /URI /URI ($Pos_8cpp.html#36b67a50cba6dc1789825a3111bee9d2) >>
  /Subtype /Link
/ANN pdfmark
[ /Rect [ 189 38 239 58 ]
  /Border [ 0 0 0 ]
  /Action << /Subtype /URI /URI ($Pos_8cpp.html#36b67a50cba6dc1789825a3111bee9d2) >>
  /Subtype /Link
/ANN pdfmark
1 setlinewidth
0.000 0.000 0.000 nodecolor
newpath 189 37 moveto
189 58 lineto
240 58 lineto
240 37 lineto
closepath stroke
0.000 0.000 0.000 nodecolor
10.00 /FreeSans.ttf set_font
214 44 moveto 35 -0.5 (leePos) alignedtext
grestore
% Node1->Node16
gsave
1 setlinewidth
solid
0.667 0.776 0.439 edgecolor
newpath 87 113 moveto
108 101 142 82 172 67 curveto
175 66 178 64 181 63 curveto
stroke
0.667 0.776 0.439 edgecolor
newpath 182.958 65.916 moveto
190 58 lineto
179.559 59.7969 lineto
closepath fill
1 setlinewidth
solid
0.667 0.776 0.439 edgecolor
newpath 182.958 65.916 moveto
190 58 lineto
179.559 59.7969 lineto
closepath stroke
grestore
% Node3
gsave
[ /Rect [ 487 228 569 248 ]
  /Border [ 0 0 0 ]
  /Action << /Subtype /URI /URI ($comun_8cpp.html#b5388a972300b0a3d2e70c16097a3781) >>
  /Subtype /Link
/ANN pdfmark
[ /Rect [ 487 228 569 248 ]
  /Border [ 0 0 0 ]
  /Action << /Subtype /URI /URI ($comun_8cpp.html#b5388a972300b0a3d2e70c16097a3781) >>
  /Subtype /Link
/ANN pdfmark
1 setlinewidth
0.000 0.000 0.000 nodecolor
newpath 487 227 moveto
487 248 lineto
569 248 lineto
569 227 lineto
closepath stroke
0.000 0.000 0.000 nodecolor
10.00 /FreeSans.ttf set_font
528 234 moveto 66 -0.5 (escribe128b) alignedtext
grestore
% Node2->Node3
gsave
1 setlinewidth
solid
0.667 0.776 0.439 edgecolor
newpath 415 238 moveto
435 238 457 238 477 238 curveto
stroke
0.667 0.776 0.439 edgecolor
newpath 477 241.5 moveto
487 238 lineto
477 234.5 lineto
closepath fill
1 setlinewidth
solid
0.667 0.776 0.439 edgecolor
newpath 477 241.5 moveto
487 238 lineto
477 234.5 lineto
closepath stroke
grestore
% Node4->Node2
gsave
1 setlinewidth
solid
0.667 0.776 0.439 edgecolor
newpath 233 191 moveto
248 199 271 211 292 219 curveto
299 222 307 224 315 226 curveto
stroke
0.667 0.776 0.439 edgecolor
newpath 314.416 229.479 moveto
325 229 lineto
316.427 222.774 lineto
closepath fill
1 setlinewidth
solid
0.667 0.776 0.439 edgecolor
newpath 314.416 229.479 moveto
325 229 lineto
316.427 222.774 lineto
closepath stroke
grestore
% Node5
gsave
[ /Rect [ 334 190 406 210 ]
  /Border [ 0 0 0 ]
  /Action << /Subtype /URI /URI ($Pos_8cpp.html#42c2daaa880eeb397c024b6ffa22c8cf) >>
  /Subtype /Link
/ANN pdfmark
[ /Rect [ 334 190 406 210 ]
  /Border [ 0 0 0 ]
  /Action << /Subtype /URI /URI ($Pos_8cpp.html#42c2daaa880eeb397c024b6ffa22c8cf) >>
  /Subtype /Link
/ANN pdfmark
1 setlinewidth
0.000 0.000 0.000 nodecolor
newpath 334 189 moveto
334 210 lineto
407 210 lineto
407 189 lineto
closepath stroke
0.000 0.000 0.000 nodecolor
10.00 /FreeSans.ttf set_font
370 196 moveto 57 -0.5 (escribePos) alignedtext
grestore
% Node4->Node5
gsave
1 setlinewidth
solid
0.667 0.776 0.439 edgecolor
newpath 256 186 moveto
277 189 302 192 324 195 curveto
stroke
0.667 0.776 0.439 edgecolor
newpath 323.701 198.488 moveto
334 196 lineto
324.398 191.522 lineto
closepath fill
1 setlinewidth
solid
0.667 0.776 0.439 edgecolor
newpath 323.701 198.488 moveto
334 196 lineto
324.398 191.522 lineto
closepath stroke
grestore
% Node8
gsave
[ /Rect [ 292 152 448 172 ]
  /Border [ 0 0 0 ]
  /Action << /Subtype /URI /URI ($TrieSDisco_8cpp.html#453b277936104f13edb4f8158e015eba) >>
  /Subtype /Link
/ANN pdfmark
[ /Rect [ 292 152 448 172 ]
  /Border [ 0 0 0 ]
  /Action << /Subtype /URI /URI ($TrieSDisco_8cpp.html#453b277936104f13edb4f8158e015eba) >>
  /Subtype /Link
/ANN pdfmark
1 setlinewidth
0.000 0.000 0.000 nodecolor
newpath 292 151 moveto
292 172 lineto
448 172 lineto
448 151 lineto
closepath stroke
0.000 0.000 0.000 nodecolor
10.00 /FreeSans.ttf set_font
370 158 moveto 140 -0.5 (precalcula_escribe_actual) alignedtext
grestore
% Node4->Node8
gsave
1 setlinewidth
solid
0.667 0.776 0.439 edgecolor
newpath 256 176 moveto
264 175 273 174 282 173 curveto
stroke
0.667 0.776 0.439 edgecolor
newpath 282.881 176.393 moveto
292 171 lineto
281.508 169.529 lineto
closepath fill
1 setlinewidth
solid
0.667 0.776 0.439 edgecolor
newpath 282.881 176.393 moveto
292 171 lineto
281.508 169.529 lineto
closepath stroke
grestore
% Node6
gsave
[ /Rect [ 608 180 736 200 ]
  /Border [ 0 0 0 ]
  /Action << /Subtype /URI /URI ($Elias_8cpp.html#59732ce42a1e75fbbb382a6964ef4620) >>
  /Subtype /Link
/ANN pdfmark
[ /Rect [ 608 180 736 200 ]
  /Border [ 0 0 0 ]
  /Action << /Subtype /URI /URI ($Elias_8cpp.html#59732ce42a1e75fbbb382a6964ef4620) >>
  /Subtype /Link
/ANN pdfmark
1 setlinewidth
0.000 0.000 0.000 nodecolor
newpath 608 179 moveto
608 200 lineto
736 200 lineto
736 179 lineto
closepath stroke
0.000 0.000 0.000 nodecolor
10.00 /FreeSans.ttf set_font
672 186 moveto 112 -0.5 (escribe_elias_gama2) alignedtext
grestore
% Node5->Node6
gsave
1 setlinewidth
solid
0.667 0.776 0.439 edgecolor
newpath 407 199 moveto
454 197 537 194 598 192 curveto
stroke
0.667 0.776 0.439 edgecolor
newpath 598 195.5 moveto
608 192 lineto
598 188.5 lineto
closepath fill
1 setlinewidth
solid
0.667 0.776 0.439 edgecolor
newpath 598 195.5 moveto
608 192 lineto
598 188.5 lineto
closepath stroke
grestore
% Node7
gsave
[ /Rect [ 773 156 845 176 ]
  /Border [ 0 0 0 ]
  /Action << /Subtype /URI /URI ($Elias_8cpp.html#7127ec8dff13cc2ad873693ca8933d38) >>
  /Subtype /Link
/ANN pdfmark
[ /Rect [ 773 156 845 176 ]
  /Border [ 0 0 0 ]
  /Action << /Subtype /URI /URI ($Elias_8cpp.html#7127ec8dff13cc2ad873693ca8933d38) >>
  /Subtype /Link
/ANN pdfmark
1 setlinewidth
0.000 0.000 0.000 nodecolor
newpath 773 155 moveto
773 176 lineto
846 176 lineto
846 155 lineto
closepath stroke
0.000 0.000 0.000 nodecolor
10.00 /FreeSans.ttf set_font
809 162 moveto 57 -0.5 (piso_logb2) alignedtext
grestore
% Node6->Node7
gsave
1 setlinewidth
solid
0.667 0.776 0.439 edgecolor
newpath 735 179 moveto
744 178 754 176 763 175 curveto
stroke
0.667 0.776 0.439 edgecolor
newpath 763.881 178.393 moveto
773 173 lineto
762.508 171.529 lineto
closepath fill
1 setlinewidth
solid
0.667 0.776 0.439 edgecolor
newpath 763.881 178.393 moveto
773 173 lineto
762.508 171.529 lineto
closepath stroke
grestore
% Node9
gsave
[ /Rect [ 491 152 565 172 ]
  /Border [ 0 0 0 ]
  /Action << /Subtype /URI /URI ($comun_8hpp.html#3f1f97c70ac3ffba1584b0fc02661cab) >>
  /Subtype /Link
/ANN pdfmark
[ /Rect [ 491 152 565 172 ]
  /Border [ 0 0 0 ]
  /Action << /Subtype /URI /URI ($comun_8hpp.html#3f1f97c70ac3ffba1584b0fc02661cab) >>
  /Subtype /Link
/ANN pdfmark
1 setlinewidth
0.000 0.000 0.000 nodecolor
newpath 491 151 moveto
491 172 lineto
566 172 lineto
566 151 lineto
closepath stroke
0.000 0.000 0.000 nodecolor
10.00 /FreeSans.ttf set_font
528 158 moveto 59 -0.5 (longNDesp) alignedtext
grestore
% Node8->Node9
gsave
1 setlinewidth
solid
0.667 0.776 0.439 edgecolor
newpath 448 162 moveto
459 162 470 162 481 162 curveto
stroke
0.667 0.776 0.439 edgecolor
newpath 481 165.5 moveto
491 162 lineto
481 158.5 lineto
closepath fill
1 setlinewidth
solid
0.667 0.776 0.439 edgecolor
newpath 481 165.5 moveto
491 162 lineto
481 158.5 lineto
closepath stroke
grestore
% Node10
gsave
[ /Rect [ 499 114 557 134 ]
  /Border [ 0 0 0 ]
  /Action << /Subtype /URI /URI ($Pos_8cpp.html#ad8740377e9e19836d654491a170ac9a) >>
  /Subtype /Link
/ANN pdfmark
[ /Rect [ 499 114 557 134 ]
  /Border [ 0 0 0 ]
  /Action << /Subtype /URI /URI ($Pos_8cpp.html#ad8740377e9e19836d654491a170ac9a) >>
  /Subtype /Link
/ANN pdfmark
1 setlinewidth
0.000 0.000 0.000 nodecolor
newpath 499 113 moveto
499 134 lineto
557 134 lineto
557 113 lineto
closepath stroke
0.000 0.000 0.000 nodecolor
10.00 /FreeSans.ttf set_font
528 120 moveto 42 -0.5 (longPos) alignedtext
grestore
% Node8->Node10
gsave
1 setlinewidth
solid
0.667 0.776 0.439 edgecolor
newpath 416 151 moveto
439 146 467 139 489 133 curveto
stroke
0.667 0.776 0.439 edgecolor
newpath 489.881 136.393 moveto
499 131 lineto
488.508 129.529 lineto
closepath fill
1 setlinewidth
solid
0.667 0.776 0.439 edgecolor
newpath 489.881 136.393 moveto
499 131 lineto
488.508 129.529 lineto
closepath stroke
grestore
% Node11
gsave
[ /Rect [ 619 133 725 153 ]
  /Border [ 0 0 0 ]
  /Action << /Subtype /URI /URI ($Elias_8cpp.html#214c4fd6adcbe1fe7de47c4ba521198a) >>
  /Subtype /Link
/ANN pdfmark
[ /Rect [ 619 133 725 153 ]
  /Border [ 0 0 0 ]
  /Action << /Subtype /URI /URI ($Elias_8cpp.html#214c4fd6adcbe1fe7de47c4ba521198a) >>
  /Subtype /Link
/ANN pdfmark
1 setlinewidth
0.000 0.000 0.000 nodecolor
newpath 619 132 moveto
619 153 lineto
726 153 lineto
726 132 lineto
closepath stroke
0.000 0.000 0.000 nodecolor
10.00 /FreeSans.ttf set_font
672 139 moveto 91 -0.5 (long_elias_gama) alignedtext
grestore
% Node10->Node11
gsave
1 setlinewidth
solid
0.667 0.776 0.439 edgecolor
newpath 557 128 moveto
572 130 591 132 609 135 curveto
stroke
0.667 0.776 0.439 edgecolor
newpath 608.701 138.488 moveto
619 136 lineto
609.398 131.522 lineto
closepath fill
1 setlinewidth
solid
0.667 0.776 0.439 edgecolor
newpath 608.701 138.488 moveto
619 136 lineto
609.398 131.522 lineto
closepath stroke
grestore
% Node11->Node7
gsave
1 setlinewidth
solid
0.667 0.776 0.439 edgecolor
newpath 726 152 moveto
738 154 751 157 763 159 curveto
stroke
0.667 0.776 0.439 edgecolor
newpath 762.701 162.488 moveto
773 160 lineto
763.398 155.522 lineto
closepath fill
1 setlinewidth
solid
0.667 0.776 0.439 edgecolor
newpath 762.701 162.488 moveto
773 160 lineto
763.398 155.522 lineto
closepath stroke
grestore
% Node13
gsave
[ /Rect [ 484 57 572 77 ]
  /Border [ 0 0 0 ]
  /Action << /Subtype /URI /URI ($comun_8cpp.html#88ffeb20e447cad877c37bb473033590) >>
  /Subtype /Link
/ANN pdfmark
[ /Rect [ 484 57 572 77 ]
  /Border [ 0 0 0 ]
  /Action << /Subtype /URI /URI ($comun_8cpp.html#88ffeb20e447cad877c37bb473033590) >>
  /Subtype /Link
/ANN pdfmark
1 setlinewidth
0.000 0.000 0.000 nodecolor
newpath 484 56 moveto
484 77 lineto
572 77 lineto
572 56 lineto
closepath stroke
0.000 0.000 0.000 nodecolor
10.00 /FreeSans.ttf set_font
528 63 moveto 72 -0.5 (errorFormato) alignedtext
grestore
% Node12->Node13
gsave
1 setlinewidth
solid
0.667 0.776 0.439 edgecolor
newpath 242 125 moveto
287 126 376 124 448 105 curveto
467 99 487 90 502 82 curveto
stroke
0.667 0.776 0.439 edgecolor
newpath 503.958 84.916 moveto
511 77 lineto
500.559 78.7969 lineto
closepath fill
1 setlinewidth
solid
0.667 0.776 0.439 edgecolor
newpath 503.958 84.916 moveto
511 77 lineto
500.559 78.7969 lineto
closepath stroke
grestore
% Node15
gsave
[ /Rect [ 340 76 400 96 ]
  /Border [ 0 0 0 ]
  /Action << /Subtype /URI /URI ($comun_8cpp.html#c7bf9e68bbdccea36ce786b806244ea1) >>
  /Subtype /Link
/ANN pdfmark
[ /Rect [ 340 76 400 96 ]
  /Border [ 0 0 0 ]
  /Action << /Subtype /URI /URI ($comun_8cpp.html#c7bf9e68bbdccea36ce786b806244ea1) >>
  /Subtype /Link
/ANN pdfmark
1 setlinewidth
0.000 0.000 0.000 nodecolor
newpath 340 75 moveto
340 96 lineto
400 96 lineto
400 75 lineto
closepath stroke
0.000 0.000 0.000 nodecolor
10.00 /FreeSans.ttf set_font
370 82 moveto 44 -0.5 (lee128b) alignedtext
grestore
% Node14->Node15
gsave
1 setlinewidth
solid
0.667 0.776 0.439 edgecolor
newpath 248 86 moveto
272 86 304 86 330 86 curveto
stroke
0.667 0.776 0.439 edgecolor
newpath 330 89.5001 moveto
340 86 lineto
330 82.5001 lineto
closepath fill
1 setlinewidth
solid
0.667 0.776 0.439 edgecolor
newpath 330 89.5001 moveto
340 86 lineto
330 82.5001 lineto
closepath stroke
grestore
% Node15->Node13
gsave
1 setlinewidth
solid
0.667 0.776 0.439 edgecolor
newpath 400 82 moveto
421 79 449 76 474 73 curveto
stroke
0.667 0.776 0.439 edgecolor
newpath 474.398 76.4778 moveto
484 72 lineto
473.701 69.5125 lineto
closepath fill
1 setlinewidth
solid
0.667 0.776 0.439 edgecolor
newpath 474.398 76.4778 moveto
484 72 lineto
473.701 69.5125 lineto
closepath stroke
grestore
% Node16->Node13
gsave
1 setlinewidth
solid
0.667 0.776 0.439 edgecolor
newpath 240 50 moveto
291 53 405 59 474 63 curveto
stroke
0.667 0.776 0.439 edgecolor
newpath 473.701 66.4875 moveto
484 64 lineto
474.398 59.5222 lineto
closepath fill
1 setlinewidth
solid
0.667 0.776 0.439 edgecolor
newpath 473.701 66.4875 moveto
484 64 lineto
474.398 59.5222 lineto
closepath stroke
grestore
% Node17
gsave
[ /Rect [ 317 0 423 20 ]
  /Border [ 0 0 0 ]
  /Action << /Subtype /URI /URI ($Elias_8cpp.html#95ee5a0ffb91f203612d2ce9d063ec36) >>
  /Subtype /Link
/ANN pdfmark
[ /Rect [ 317 0 423 20 ]
  /Border [ 0 0 0 ]
  /Action << /Subtype /URI /URI ($Elias_8cpp.html#95ee5a0ffb91f203612d2ce9d063ec36) >>
  /Subtype /Link
/ANN pdfmark
1 setlinewidth
0.000 0.000 0.000 nodecolor
newpath 317 -1 moveto
317 20 lineto
423 20 lineto
423 -1 lineto
closepath stroke
0.000 0.000 0.000 nodecolor
10.00 /FreeSans.ttf set_font
370 6 moveto 90 -0.5 (lee_elias_gama2) alignedtext
grestore
% Node16->Node17
gsave
1 setlinewidth
solid
0.667 0.776 0.439 edgecolor
newpath 240 42 moveto
262 37 293 29 319 22 curveto
stroke
0.667 0.776 0.439 edgecolor
newpath 319.881 25.3933 moveto
329 20 lineto
318.508 18.5292 lineto
closepath fill
1 setlinewidth
solid
0.667 0.776 0.439 edgecolor
newpath 319.881 25.3933 moveto
329 20 lineto
318.508 18.5292 lineto
closepath stroke
grestore
% Node17->Node13
gsave
1 setlinewidth
solid
0.667 0.776 0.439 edgecolor
newpath 405 20 moveto
418 24 434 29 448 34 curveto
463 40 479 46 493 52 curveto
stroke
0.667 0.776 0.439 edgecolor
newpath 491.44 55.1369 moveto
502 56 lineto
494.283 48.7402 lineto
closepath fill
1 setlinewidth
solid
0.667 0.776 0.439 edgecolor
newpath 491.44 55.1369 moveto
502 56 lineto
494.283 48.7402 lineto
closepath stroke
grestore
endpage
showpage
grestore
%%PageTrailer
%%EndPage: 1
%%Trailer
%%Pages: 1
%%BoundingBox: 36 36 890 292
end
restore
%%EOF
