%!PS-Adobe-2.0
%%Creator: Graphviz version 2.12 (Mon Nov 16 18:34:03 UTC 2009)
%%For: (vtamara) Vladimir
%%Title: G
%%Pages: (atend)
%%BoundingBox: (atend)
%%EndComments
save
%%BeginProlog
/DotDict 200 dict def
DotDict begin

/setupLatin1 {
mark
/EncodingVector 256 array def
 EncodingVector 0

ISOLatin1Encoding 0 255 getinterval putinterval
EncodingVector 45 /hyphen put

% Set up ISO Latin 1 character encoding
/starnetISO {
        dup dup findfont dup length dict begin
        { 1 index /FID ne { def }{ pop pop } ifelse
        } forall
        /Encoding EncodingVector def
        currentdict end definefont
} def
/Times-Roman starnetISO def
/Times-Italic starnetISO def
/Times-Bold starnetISO def
/Times-BoldItalic starnetISO def
/Helvetica starnetISO def
/Helvetica-Oblique starnetISO def
/Helvetica-Bold starnetISO def
/Helvetica-BoldOblique starnetISO def
/Courier starnetISO def
/Courier-Oblique starnetISO def
/Courier-Bold starnetISO def
/Courier-BoldOblique starnetISO def
cleartomark
} bind def

%%BeginResource: procset graphviz 0 0
/coord-font-family /Times-Roman def
/default-font-family /Times-Roman def
/coordfont coord-font-family findfont 8 scalefont def

/InvScaleFactor 1.0 def
/set_scale {
       dup 1 exch div /InvScaleFactor exch def
       scale
} bind def

% styles
/solid { [] 0 setdash } bind def
/dashed { [9 InvScaleFactor mul dup ] 0 setdash } bind def
/dotted { [1 InvScaleFactor mul 6 InvScaleFactor mul] 0 setdash } bind def
/invis {/fill {newpath} def /stroke {newpath} def /show {pop newpath} def} bind def
/bold { 2 setlinewidth } bind def
/filled { } bind def
/unfilled { } bind def
/rounded { } bind def
/diagonals { } bind def

% hooks for setting color 
/nodecolor { sethsbcolor } bind def
/edgecolor { sethsbcolor } bind def
/graphcolor { sethsbcolor } bind def
/nopcolor {pop pop pop} bind def

/beginpage {	% i j npages
	/npages exch def
	/j exch def
	/i exch def
	/str 10 string def
	npages 1 gt {
		gsave
			coordfont setfont
			0 0 moveto
			(\() show i str cvs show (,) show j str cvs show (\)) show
		grestore
	} if
} bind def

/set_font {
	findfont exch
	scalefont setfont
} def

% draw aligned label in bounding box aligned to current point
/alignedtext {			% width adj text
	/text exch def
	/adj exch def
	/width exch def
	gsave
		width 0 gt {
			text stringwidth pop adj mul 0 rmoveto
		} if
		[] 0 setdash
		text show
	grestore
} def

/boxprim {				% xcorner ycorner xsize ysize
		4 2 roll
		moveto
		2 copy
		exch 0 rlineto
		0 exch rlineto
		pop neg 0 rlineto
		closepath
} bind def

/ellipse_path {
	/ry exch def
	/rx exch def
	/y exch def
	/x exch def
	matrix currentmatrix
	newpath
	x y translate
	rx ry scale
	0 0 1 0 360 arc
	setmatrix
} bind def

/endpage { showpage } bind def
/showpage { } def

/layercolorseq
	[	% layer color sequence - darkest to lightest
		[0 0 0]
		[.2 .8 .8]
		[.4 .8 .8]
		[.6 .8 .8]
		[.8 .8 .8]
	]
def

/layerlen layercolorseq length def

/setlayer {/maxlayer exch def /curlayer exch def
	layercolorseq curlayer 1 sub layerlen mod get
	aload pop sethsbcolor
	/nodecolor {nopcolor} def
	/edgecolor {nopcolor} def
	/graphcolor {nopcolor} def
} bind def

/onlayer { curlayer ne {invis} if } def

/onlayers {
	/myupper exch def
	/mylower exch def
	curlayer mylower lt
	curlayer myupper gt
	or
	{invis} if
} def

/curlayer 0 def

%%EndResource
%%EndProlog
%%BeginSetup
14 default-font-family set_font
1 setmiterlimit
% /arrowlength 10 def
% /arrowwidth 5 def

% make sure pdfmark is harmless for PS-interpreters other than Distiller
/pdfmark where {pop} {userdict /pdfmark /cleartomark load put} ifelse
% make '<<' and '>>' safe on PS Level 1 devices
/languagelevel where {pop languagelevel}{1} ifelse
2 lt {
    userdict (<<) cvn ([) cvn load put
    userdict (>>) cvn ([) cvn load put
} if

%%EndSetup
setupLatin1
%%Page: 1 1
%%PageBoundingBox: 36 36 1062 322
%%PageOrientation: Portrait
gsave
36 36 1062 322 boxprim clip newpath
0 0 1 beginpage
1 1 set_scale 0 rotate 40 40 translate
% Node1
gsave
0.000 0.000 0.749 nodecolor
newpath 0 92 moveto
0 113 lineto
136 113 lineto
136 92 lineto
closepath fill
1 setlinewidth
filled
0.000 0.000 0.000 nodecolor
newpath 0 92 moveto
0 113 lineto
136 113 lineto
136 92 lineto
closepath stroke
0.000 0.000 0.000 nodecolor
10.00 /FreeSans.ttf set_font
68 99 moveto 120 -0.5 (escribeCopiaSubarbol) alignedtext
grestore
% Node2
gsave
[ /Rect [ 172 112 308 132 ]
  /Border [ 0 0 0 ]
  /Action << /Subtype /URI /URI ($TrieSDisco_8cpp.html#485d02d9d7ec4ae0114122861420c1d1) >>
  /Subtype /Link
/ANN pdfmark
[ /Rect [ 172 112 308 132 ]
  /Border [ 0 0 0 ]
  /Action << /Subtype /URI /URI ($TrieSDisco_8cpp.html#485d02d9d7ec4ae0114122861420c1d1) >>
  /Subtype /Link
/ANN pdfmark
1 setlinewidth
0.000 0.000 0.000 nodecolor
newpath 172 111 moveto
172 132 lineto
308 132 lineto
308 111 lineto
closepath stroke
0.000 0.000 0.000 nodecolor
10.00 /FreeSans.ttf set_font
240 118 moveto 120 -0.5 (escribeCopiaSubarbol) alignedtext
grestore
% Node1->Node2
gsave
1 setlinewidth
solid
0.667 0.776 0.439 edgecolor
newpath 136 111 moveto
145 112 153 113 162 114 curveto
stroke
0.667 0.776 0.439 edgecolor
newpath 161.701 117.488 moveto
172 115 lineto
162.398 110.522 lineto
closepath fill
1 setlinewidth
solid
0.667 0.776 0.439 edgecolor
newpath 161.701 117.488 moveto
172 115 lineto
162.398 110.522 lineto
closepath stroke
grestore
% Node3
gsave
[ /Rect [ 497 161 587 181 ]
  /Border [ 0 0 0 ]
  /Action << /Subtype /URI /URI ($comun_8hpp.html#96402bda6527bf98dd8e49d62ae182f8) >>
  /Subtype /Link
/ANN pdfmark
[ /Rect [ 497 161 587 181 ]
  /Border [ 0 0 0 ]
  /Action << /Subtype /URI /URI ($comun_8hpp.html#96402bda6527bf98dd8e49d62ae182f8) >>
  /Subtype /Link
/ANN pdfmark
1 setlinewidth
0.000 0.000 0.000 nodecolor
newpath 497 160 moveto
497 181 lineto
587 181 lineto
587 160 lineto
closepath stroke
0.000 0.000 0.000 nodecolor
10.00 /FreeSans.ttf set_font
542 167 moveto 74 -0.5 (escribeNDesp) alignedtext
grestore
% Node1->Node3
gsave
1 setlinewidth
solid
0.667 0.776 0.439 edgecolor
newpath 82 113 moveto
101 127 138 149 172 159 curveto
281 188 413 183 487 177 curveto
stroke
0.667 0.776 0.439 edgecolor
newpath 487.398 180.478 moveto
497 176 lineto
486.701 173.512 lineto
closepath fill
1 setlinewidth
solid
0.667 0.776 0.439 edgecolor
newpath 487.398 180.478 moveto
497 176 lineto
486.701 173.512 lineto
closepath stroke
grestore
% Node5
gsave
[ /Rect [ 344 206 428 226 ]
  /Border [ 0 0 0 ]
  /Action << /Subtype /URI /URI ($TrieSDisco_8cpp.html#95dfc28ebaa02e82d3d1ffce08251628) >>
  /Subtype /Link
/ANN pdfmark
[ /Rect [ 344 206 428 226 ]
  /Border [ 0 0 0 ]
  /Action << /Subtype /URI /URI ($TrieSDisco_8cpp.html#95dfc28ebaa02e82d3d1ffce08251628) >>
  /Subtype /Link
/ANN pdfmark
1 setlinewidth
0.000 0.000 0.000 nodecolor
newpath 344 205 moveto
344 226 lineto
428 226 lineto
428 205 lineto
closepath stroke
0.000 0.000 0.000 nodecolor
10.00 /FreeSans.ttf set_font
386 212 moveto 68 -0.5 (escribeNodo) alignedtext
grestore
% Node1->Node5
gsave
1 setlinewidth
solid
0.667 0.776 0.439 edgecolor
newpath 76 113 moveto
92 132 131 173 172 192 curveto
224 214 289 218 334 218 curveto
stroke
0.667 0.776 0.439 edgecolor
newpath 334 221.5 moveto
344 218 lineto
334 214.5 lineto
closepath fill
1 setlinewidth
solid
0.667 0.776 0.439 edgecolor
newpath 334 221.5 moveto
344 218 lineto
334 214.5 lineto
closepath stroke
grestore
% Node13
gsave
[ /Rect [ 359 38 413 58 ]
  /Border [ 0 0 0 ]
  /Action << /Subtype /URI /URI ($comun_8cpp.html#4a359aa93f2dd4e34badd70c0e1f7082) >>
  /Subtype /Link
/ANN pdfmark
[ /Rect [ 359 38 413 58 ]
  /Border [ 0 0 0 ]
  /Action << /Subtype /URI /URI ($comun_8cpp.html#4a359aa93f2dd4e34badd70c0e1f7082) >>
  /Subtype /Link
/ANN pdfmark
1 setlinewidth
0.000 0.000 0.000 nodecolor
newpath 359 37 moveto
359 58 lineto
414 58 lineto
414 37 lineto
closepath stroke
0.000 0.000 0.000 nodecolor
10.00 /FreeSans.ttf set_font
386 44 moveto 39 -0.5 (leeCad) alignedtext
grestore
% Node1->Node13
gsave
1 setlinewidth
solid
0.667 0.776 0.439 edgecolor
newpath 132 92 moveto
197 81 296 63 349 55 curveto
stroke
0.667 0.776 0.439 edgecolor
newpath 349.881 58.3933 moveto
359 53 lineto
348.508 51.5292 lineto
closepath fill
1 setlinewidth
solid
0.667 0.776 0.439 edgecolor
newpath 349.881 58.3933 moveto
359 53 lineto
348.508 51.5292 lineto
closepath stroke
grestore
% Node15
gsave
[ /Rect [ 352 0 420 20 ]
  /Border [ 0 0 0 ]
  /Action << /Subtype /URI /URI ($comun_8hpp.html#9871d7357fc245ec5b7a227a9a62eb36) >>
  /Subtype /Link
/ANN pdfmark
[ /Rect [ 352 0 420 20 ]
  /Border [ 0 0 0 ]
  /Action << /Subtype /URI /URI ($comun_8hpp.html#9871d7357fc245ec5b7a227a9a62eb36) >>
  /Subtype /Link
/ANN pdfmark
1 setlinewidth
0.000 0.000 0.000 nodecolor
newpath 352 -1 moveto
352 20 lineto
420 20 lineto
420 -1 lineto
closepath stroke
0.000 0.000 0.000 nodecolor
10.00 /FreeSans.ttf set_font
386 6 moveto 52 -0.5 (leeNDesp) alignedtext
grestore
% Node1->Node15
gsave
1 setlinewidth
solid
0.667 0.776 0.439 edgecolor
newpath 92 92 moveto
113 83 144 69 172 60 curveto
230 42 298 27 342 18 curveto
stroke
0.667 0.776 0.439 edgecolor
newpath 342.881 21.3933 moveto
352 16 lineto
341.508 14.5292 lineto
closepath fill
1 setlinewidth
solid
0.667 0.776 0.439 edgecolor
newpath 342.881 21.3933 moveto
352 16 lineto
341.508 14.5292 lineto
closepath stroke
grestore
% Node17
gsave
[ /Rect [ 361 80 411 100 ]
  /Border [ 0 0 0 ]
  /Action << /Subtype /URI /URI ($Pos_8cpp.html#36b67a50cba6dc1789825a3111bee9d2) >>
  /Subtype /Link
/ANN pdfmark
[ /Rect [ 361 80 411 100 ]
  /Border [ 0 0 0 ]
  /Action << /Subtype /URI /URI ($Pos_8cpp.html#36b67a50cba6dc1789825a3111bee9d2) >>
  /Subtype /Link
/ANN pdfmark
1 setlinewidth
0.000 0.000 0.000 nodecolor
newpath 361 79 moveto
361 100 lineto
412 100 lineto
412 79 lineto
closepath stroke
0.000 0.000 0.000 nodecolor
10.00 /FreeSans.ttf set_font
386 86 moveto 35 -0.5 (leePos) alignedtext
grestore
% Node1->Node17
gsave
1 setlinewidth
solid
0.667 0.776 0.439 edgecolor
newpath 136 100 moveto
202 97 299 94 351 91 curveto
stroke
0.667 0.776 0.439 edgecolor
newpath 351 94.5001 moveto
361 91 lineto
351 87.5001 lineto
closepath fill
1 setlinewidth
solid
0.667 0.776 0.439 edgecolor
newpath 351 94.5001 moveto
361 91 lineto
351 87.5001 lineto
closepath stroke
grestore
% Node2->Node2
gsave
1 setlinewidth
solid
0.667 0.776 0.439 edgecolor
newpath 194 132 moveto
174 141 189 150 240 150 curveto
279 150 297 145 294 138 curveto
stroke
0.667 0.776 0.439 edgecolor
newpath 296.1 135.2 moveto
286 132 lineto
291.9 140.8 lineto
closepath fill
1 setlinewidth
solid
0.667 0.776 0.439 edgecolor
newpath 296.1 135.2 moveto
286 132 lineto
291.9 140.8 lineto
closepath stroke
grestore
% Node2->Node3
gsave
1 setlinewidth
solid
0.667 0.776 0.439 edgecolor
newpath 302 132 moveto
356 140 434 153 487 162 curveto
stroke
0.667 0.776 0.439 edgecolor
newpath 486.508 165.471 moveto
497 164 lineto
487.881 158.607 lineto
closepath fill
1 setlinewidth
solid
0.667 0.776 0.439 edgecolor
newpath 486.508 165.471 moveto
497 164 lineto
487.881 158.607 lineto
closepath stroke
grestore
% Node2->Node5
gsave
1 setlinewidth
solid
0.667 0.776 0.439 edgecolor
newpath 256 132 moveto
281 148 330 180 361 199 curveto
stroke
0.667 0.776 0.439 edgecolor
newpath 358.9 201.8 moveto
369 205 lineto
363.1 196.2 lineto
closepath fill
1 setlinewidth
solid
0.667 0.776 0.439 edgecolor
newpath 358.9 201.8 moveto
369 205 lineto
363.1 196.2 lineto
closepath stroke
grestore
% Node2->Node13
gsave
1 setlinewidth
solid
0.667 0.776 0.439 edgecolor
newpath 262 111 moveto
287 98 329 77 357 63 curveto
stroke
0.667 0.776 0.439 edgecolor
newpath 358.958 65.916 moveto
366 58 lineto
355.559 59.7969 lineto
closepath fill
1 setlinewidth
solid
0.667 0.776 0.439 edgecolor
newpath 358.958 65.916 moveto
366 58 lineto
355.559 59.7969 lineto
closepath stroke
grestore
% Node2->Node15
gsave
1 setlinewidth
solid
0.667 0.776 0.439 edgecolor
newpath 250 111 moveto
268 92 307 54 344 29 curveto
346 28 349 26 352 25 curveto
stroke
0.667 0.776 0.439 edgecolor
newpath 353.958 27.916 moveto
361 20 lineto
350.559 21.7969 lineto
closepath fill
1 setlinewidth
solid
0.667 0.776 0.439 edgecolor
newpath 353.958 27.916 moveto
361 20 lineto
350.559 21.7969 lineto
closepath stroke
grestore
% Node2->Node17
gsave
1 setlinewidth
solid
0.667 0.776 0.439 edgecolor
newpath 290 111 moveto
310 107 333 102 351 98 curveto
stroke
0.667 0.776 0.439 edgecolor
newpath 351.881 101.393 moveto
361 96 lineto
350.508 94.5292 lineto
closepath fill
1 setlinewidth
solid
0.667 0.776 0.439 edgecolor
newpath 351.881 101.393 moveto
361 96 lineto
350.508 94.5292 lineto
closepath stroke
grestore
% Node4
gsave
[ /Rect [ 659 144 741 164 ]
  /Border [ 0 0 0 ]
  /Action << /Subtype /URI /URI ($comun_8cpp.html#b5388a972300b0a3d2e70c16097a3781) >>
  /Subtype /Link
/ANN pdfmark
[ /Rect [ 659 144 741 164 ]
  /Border [ 0 0 0 ]
  /Action << /Subtype /URI /URI ($comun_8cpp.html#b5388a972300b0a3d2e70c16097a3781) >>
  /Subtype /Link
/ANN pdfmark
1 setlinewidth
0.000 0.000 0.000 nodecolor
newpath 659 143 moveto
659 164 lineto
741 164 lineto
741 143 lineto
closepath stroke
0.000 0.000 0.000 nodecolor
10.00 /FreeSans.ttf set_font
700 150 moveto 66 -0.5 (escribe128b) alignedtext
grestore
% Node3->Node4
gsave
1 setlinewidth
solid
0.667 0.776 0.439 edgecolor
newpath 587 166 moveto
607 164 629 162 649 159 curveto
stroke
0.667 0.776 0.439 edgecolor
newpath 649.398 162.478 moveto
659 158 lineto
648.701 155.512 lineto
closepath fill
1 setlinewidth
solid
0.667 0.776 0.439 edgecolor
newpath 649.398 162.478 moveto
659 158 lineto
648.701 155.512 lineto
closepath stroke
grestore
% Node5->Node3
gsave
1 setlinewidth
solid
0.667 0.776 0.439 edgecolor
newpath 424 205 moveto
446 199 475 190 498 184 curveto
stroke
0.667 0.776 0.439 edgecolor
newpath 499.427 187.226 moveto
508 181 lineto
497.416 180.521 lineto
closepath fill
1 setlinewidth
solid
0.667 0.776 0.439 edgecolor
newpath 499.427 187.226 moveto
508 181 lineto
497.416 180.521 lineto
closepath stroke
grestore
% Node6
gsave
[ /Rect [ 506 258 578 278 ]
  /Border [ 0 0 0 ]
  /Action << /Subtype /URI /URI ($Pos_8cpp.html#42c2daaa880eeb397c024b6ffa22c8cf) >>
  /Subtype /Link
/ANN pdfmark
[ /Rect [ 506 258 578 278 ]
  /Border [ 0 0 0 ]
  /Action << /Subtype /URI /URI ($Pos_8cpp.html#42c2daaa880eeb397c024b6ffa22c8cf) >>
  /Subtype /Link
/ANN pdfmark
1 setlinewidth
0.000 0.000 0.000 nodecolor
newpath 506 257 moveto
506 278 lineto
579 278 lineto
579 257 lineto
closepath stroke
0.000 0.000 0.000 nodecolor
10.00 /FreeSans.ttf set_font
542 264 moveto 57 -0.5 (escribePos) alignedtext
grestore
% Node5->Node6
gsave
1 setlinewidth
solid
0.667 0.776 0.439 edgecolor
newpath 416 226 moveto
439 234 473 245 499 254 curveto
stroke
0.667 0.776 0.439 edgecolor
newpath 498.416 257.479 moveto
509 257 lineto
500.427 250.774 lineto
closepath fill
1 setlinewidth
solid
0.667 0.776 0.439 edgecolor
newpath 498.416 257.479 moveto
509 257 lineto
500.427 250.774 lineto
closepath stroke
grestore
% Node9
gsave
[ /Rect [ 464 206 620 226 ]
  /Border [ 0 0 0 ]
  /Action << /Subtype /URI /URI ($TrieSDisco_8cpp.html#453b277936104f13edb4f8158e015eba) >>
  /Subtype /Link
/ANN pdfmark
[ /Rect [ 464 206 620 226 ]
  /Border [ 0 0 0 ]
  /Action << /Subtype /URI /URI ($TrieSDisco_8cpp.html#453b277936104f13edb4f8158e015eba) >>
  /Subtype /Link
/ANN pdfmark
1 setlinewidth
0.000 0.000 0.000 nodecolor
newpath 464 205 moveto
464 226 lineto
620 226 lineto
620 205 lineto
closepath stroke
0.000 0.000 0.000 nodecolor
10.00 /FreeSans.ttf set_font
542 212 moveto 140 -0.5 (precalcula_escribe_actual) alignedtext
grestore
% Node5->Node9
gsave
1 setlinewidth
solid
0.667 0.776 0.439 edgecolor
newpath 428 216 moveto
436 216 445 216 454 216 curveto
stroke
0.667 0.776 0.439 edgecolor
newpath 454 219.5 moveto
464 216 lineto
454 212.5 lineto
closepath fill
1 setlinewidth
solid
0.667 0.776 0.439 edgecolor
newpath 454 219.5 moveto
464 216 lineto
454 212.5 lineto
closepath stroke
grestore
% Node7
gsave
[ /Rect [ 780 248 908 268 ]
  /Border [ 0 0 0 ]
  /Action << /Subtype /URI /URI ($Elias_8cpp.html#59732ce42a1e75fbbb382a6964ef4620) >>
  /Subtype /Link
/ANN pdfmark
[ /Rect [ 780 248 908 268 ]
  /Border [ 0 0 0 ]
  /Action << /Subtype /URI /URI ($Elias_8cpp.html#59732ce42a1e75fbbb382a6964ef4620) >>
  /Subtype /Link
/ANN pdfmark
1 setlinewidth
0.000 0.000 0.000 nodecolor
newpath 780 247 moveto
780 268 lineto
908 268 lineto
908 247 lineto
closepath stroke
0.000 0.000 0.000 nodecolor
10.00 /FreeSans.ttf set_font
844 254 moveto 112 -0.5 (escribe_elias_gama2) alignedtext
grestore
% Node6->Node7
gsave
1 setlinewidth
solid
0.667 0.776 0.439 edgecolor
newpath 579 267 moveto
626 265 709 262 770 260 curveto
stroke
0.667 0.776 0.439 edgecolor
newpath 770 263.5 moveto
780 260 lineto
770 256.5 lineto
closepath fill
1 setlinewidth
solid
0.667 0.776 0.439 edgecolor
newpath 770 263.5 moveto
780 260 lineto
770 256.5 lineto
closepath stroke
grestore
% Node8
gsave
[ /Rect [ 945 224 1017 244 ]
  /Border [ 0 0 0 ]
  /Action << /Subtype /URI /URI ($Elias_8cpp.html#7127ec8dff13cc2ad873693ca8933d38) >>
  /Subtype /Link
/ANN pdfmark
[ /Rect [ 945 224 1017 244 ]
  /Border [ 0 0 0 ]
  /Action << /Subtype /URI /URI ($Elias_8cpp.html#7127ec8dff13cc2ad873693ca8933d38) >>
  /Subtype /Link
/ANN pdfmark
1 setlinewidth
0.000 0.000 0.000 nodecolor
newpath 945 223 moveto
945 244 lineto
1018 244 lineto
1018 223 lineto
closepath stroke
0.000 0.000 0.000 nodecolor
10.00 /FreeSans.ttf set_font
981 230 moveto 57 -0.5 (piso_logb2) alignedtext
grestore
% Node7->Node8
gsave
1 setlinewidth
solid
0.667 0.776 0.439 edgecolor
newpath 907 247 moveto
916 246 926 244 935 243 curveto
stroke
0.667 0.776 0.439 edgecolor
newpath 935.881 246.393 moveto
945 241 lineto
934.508 239.529 lineto
closepath fill
1 setlinewidth
solid
0.667 0.776 0.439 edgecolor
newpath 935.881 246.393 moveto
945 241 lineto
934.508 239.529 lineto
closepath stroke
grestore
% Node10
gsave
[ /Rect [ 663 220 737 240 ]
  /Border [ 0 0 0 ]
  /Action << /Subtype /URI /URI ($comun_8hpp.html#3f1f97c70ac3ffba1584b0fc02661cab) >>
  /Subtype /Link
/ANN pdfmark
[ /Rect [ 663 220 737 240 ]
  /Border [ 0 0 0 ]
  /Action << /Subtype /URI /URI ($comun_8hpp.html#3f1f97c70ac3ffba1584b0fc02661cab) >>
  /Subtype /Link
/ANN pdfmark
1 setlinewidth
0.000 0.000 0.000 nodecolor
newpath 663 219 moveto
663 240 lineto
738 240 lineto
738 219 lineto
closepath stroke
0.000 0.000 0.000 nodecolor
10.00 /FreeSans.ttf set_font
700 226 moveto 59 -0.5 (longNDesp) alignedtext
grestore
% Node9->Node10
gsave
1 setlinewidth
solid
0.667 0.776 0.439 edgecolor
newpath 620 223 moveto
631 224 642 225 653 226 curveto
stroke
0.667 0.776 0.439 edgecolor
newpath 652.701 229.488 moveto
663 227 lineto
653.398 222.522 lineto
closepath fill
1 setlinewidth
solid
0.667 0.776 0.439 edgecolor
newpath 652.701 229.488 moveto
663 227 lineto
653.398 222.522 lineto
closepath stroke
grestore
% Node11
gsave
[ /Rect [ 671 182 729 202 ]
  /Border [ 0 0 0 ]
  /Action << /Subtype /URI /URI ($Pos_8cpp.html#ad8740377e9e19836d654491a170ac9a) >>
  /Subtype /Link
/ANN pdfmark
[ /Rect [ 671 182 729 202 ]
  /Border [ 0 0 0 ]
  /Action << /Subtype /URI /URI ($Pos_8cpp.html#ad8740377e9e19836d654491a170ac9a) >>
  /Subtype /Link
/ANN pdfmark
1 setlinewidth
0.000 0.000 0.000 nodecolor
newpath 671 181 moveto
671 202 lineto
729 202 lineto
729 181 lineto
closepath stroke
0.000 0.000 0.000 nodecolor
10.00 /FreeSans.ttf set_font
700 188 moveto 42 -0.5 (longPos) alignedtext
grestore
% Node9->Node11
gsave
1 setlinewidth
solid
0.667 0.776 0.439 edgecolor
newpath 615 205 moveto
631 203 647 200 661 198 curveto
stroke
0.667 0.776 0.439 edgecolor
newpath 661.398 201.478 moveto
671 197 lineto
660.701 194.512 lineto
closepath fill
1 setlinewidth
solid
0.667 0.776 0.439 edgecolor
newpath 661.398 201.478 moveto
671 197 lineto
660.701 194.512 lineto
closepath stroke
grestore
% Node12
gsave
[ /Rect [ 791 201 897 221 ]
  /Border [ 0 0 0 ]
  /Action << /Subtype /URI /URI ($Elias_8cpp.html#214c4fd6adcbe1fe7de47c4ba521198a) >>
  /Subtype /Link
/ANN pdfmark
[ /Rect [ 791 201 897 221 ]
  /Border [ 0 0 0 ]
  /Action << /Subtype /URI /URI ($Elias_8cpp.html#214c4fd6adcbe1fe7de47c4ba521198a) >>
  /Subtype /Link
/ANN pdfmark
1 setlinewidth
0.000 0.000 0.000 nodecolor
newpath 791 200 moveto
791 221 lineto
898 221 lineto
898 200 lineto
closepath stroke
0.000 0.000 0.000 nodecolor
10.00 /FreeSans.ttf set_font
844 207 moveto 91 -0.5 (long_elias_gama) alignedtext
grestore
% Node11->Node12
gsave
1 setlinewidth
solid
0.667 0.776 0.439 edgecolor
newpath 729 196 moveto
744 198 763 200 781 203 curveto
stroke
0.667 0.776 0.439 edgecolor
newpath 780.701 206.488 moveto
791 204 lineto
781.398 199.522 lineto
closepath fill
1 setlinewidth
solid
0.667 0.776 0.439 edgecolor
newpath 780.701 206.488 moveto
791 204 lineto
781.398 199.522 lineto
closepath stroke
grestore
% Node12->Node8
gsave
1 setlinewidth
solid
0.667 0.776 0.439 edgecolor
newpath 898 220 moveto
910 222 923 225 935 227 curveto
stroke
0.667 0.776 0.439 edgecolor
newpath 934.701 230.488 moveto
945 228 lineto
935.398 223.522 lineto
closepath fill
1 setlinewidth
solid
0.667 0.776 0.439 edgecolor
newpath 934.701 230.488 moveto
945 228 lineto
935.398 223.522 lineto
closepath stroke
grestore
% Node14
gsave
[ /Rect [ 656 57 744 77 ]
  /Border [ 0 0 0 ]
  /Action << /Subtype /URI /URI ($comun_8cpp.html#88ffeb20e447cad877c37bb473033590) >>
  /Subtype /Link
/ANN pdfmark
[ /Rect [ 656 57 744 77 ]
  /Border [ 0 0 0 ]
  /Action << /Subtype /URI /URI ($comun_8cpp.html#88ffeb20e447cad877c37bb473033590) >>
  /Subtype /Link
/ANN pdfmark
1 setlinewidth
0.000 0.000 0.000 nodecolor
newpath 656 56 moveto
656 77 lineto
744 77 lineto
744 56 lineto
closepath stroke
0.000 0.000 0.000 nodecolor
10.00 /FreeSans.ttf set_font
700 63 moveto 72 -0.5 (errorFormato) alignedtext
grestore
% Node13->Node14
gsave
1 setlinewidth
solid
0.667 0.776 0.439 edgecolor
newpath 414 50 moveto
466 53 578 59 646 63 curveto
stroke
0.667 0.776 0.439 edgecolor
newpath 645.701 66.4875 moveto
656 64 lineto
646.398 59.5222 lineto
closepath fill
1 setlinewidth
solid
0.667 0.776 0.439 edgecolor
newpath 645.701 66.4875 moveto
656 64 lineto
646.398 59.5222 lineto
closepath stroke
grestore
% Node16
gsave
[ /Rect [ 512 0 572 20 ]
  /Border [ 0 0 0 ]
  /Action << /Subtype /URI /URI ($comun_8cpp.html#c7bf9e68bbdccea36ce786b806244ea1) >>
  /Subtype /Link
/ANN pdfmark
[ /Rect [ 512 0 572 20 ]
  /Border [ 0 0 0 ]
  /Action << /Subtype /URI /URI ($comun_8cpp.html#c7bf9e68bbdccea36ce786b806244ea1) >>
  /Subtype /Link
/ANN pdfmark
1 setlinewidth
0.000 0.000 0.000 nodecolor
newpath 512 -1 moveto
512 20 lineto
572 20 lineto
572 -1 lineto
closepath stroke
0.000 0.000 0.000 nodecolor
10.00 /FreeSans.ttf set_font
542 6 moveto 44 -0.5 (lee128b) alignedtext
grestore
% Node15->Node16
gsave
1 setlinewidth
solid
0.667 0.776 0.439 edgecolor
newpath 420 10 moveto
444 10 476 10 502 10 curveto
stroke
0.667 0.776 0.439 edgecolor
newpath 502 13.5001 moveto
512 10 lineto
502 6.5001 lineto
closepath fill
1 setlinewidth
solid
0.667 0.776 0.439 edgecolor
newpath 502 13.5001 moveto
512 10 lineto
502 6.5001 lineto
closepath stroke
grestore
% Node16->Node14
gsave
1 setlinewidth
solid
0.667 0.776 0.439 edgecolor
newpath 572 19 moveto
587 23 604 29 620 34 curveto
635 40 651 46 665 52 curveto
stroke
0.667 0.776 0.439 edgecolor
newpath 663.44 55.1369 moveto
674 56 lineto
666.283 48.7402 lineto
closepath fill
1 setlinewidth
solid
0.667 0.776 0.439 edgecolor
newpath 663.44 55.1369 moveto
674 56 lineto
666.283 48.7402 lineto
closepath stroke
grestore
% Node17->Node14
gsave
1 setlinewidth
solid
0.667 0.776 0.439 edgecolor
newpath 412 96 moveto
456 106 546 121 620 105 curveto
640 100 660 90 675 82 curveto
stroke
0.667 0.776 0.439 edgecolor
newpath 676.958 84.916 moveto
684 77 lineto
673.559 78.7969 lineto
closepath fill
1 setlinewidth
solid
0.667 0.776 0.439 edgecolor
newpath 676.958 84.916 moveto
684 77 lineto
673.559 78.7969 lineto
closepath stroke
grestore
% Node18
gsave
[ /Rect [ 489 76 595 96 ]
  /Border [ 0 0 0 ]
  /Action << /Subtype /URI /URI ($Elias_8cpp.html#95ee5a0ffb91f203612d2ce9d063ec36) >>
  /Subtype /Link
/ANN pdfmark
[ /Rect [ 489 76 595 96 ]
  /Border [ 0 0 0 ]
  /Action << /Subtype /URI /URI ($Elias_8cpp.html#95ee5a0ffb91f203612d2ce9d063ec36) >>
  /Subtype /Link
/ANN pdfmark
1 setlinewidth
0.000 0.000 0.000 nodecolor
newpath 489 75 moveto
489 96 lineto
595 96 lineto
595 75 lineto
closepath stroke
0.000 0.000 0.000 nodecolor
10.00 /FreeSans.ttf set_font
542 82 moveto 90 -0.5 (lee_elias_gama2) alignedtext
grestore
% Node17->Node18
gsave
1 setlinewidth
solid
0.667 0.776 0.439 edgecolor
newpath 412 89 moveto
430 89 455 88 479 87 curveto
stroke
0.667 0.776 0.439 edgecolor
newpath 479 90.5001 moveto
489 87 lineto
479 83.5001 lineto
closepath fill
1 setlinewidth
solid
0.667 0.776 0.439 edgecolor
newpath 479 90.5001 moveto
489 87 lineto
479 83.5001 lineto
closepath stroke
grestore
% Node18->Node14
gsave
1 setlinewidth
solid
0.667 0.776 0.439 edgecolor
newpath 595 80 moveto
612 78 629 76 646 73 curveto
stroke
0.667 0.776 0.439 edgecolor
newpath 646.398 76.4778 moveto
656 72 lineto
645.701 69.5125 lineto
closepath fill
1 setlinewidth
solid
0.667 0.776 0.439 edgecolor
newpath 646.398 76.4778 moveto
656 72 lineto
645.701 69.5125 lineto
closepath stroke
grestore
endpage
showpage
grestore
%%PageTrailer
%%EndPage: 1
%%Trailer
%%Pages: 1
%%BoundingBox: 36 36 1062 322
end
restore
%%EOF
