%!PS-Adobe-2.0
%%Creator: Graphviz version 2.12 (Mon Nov 16 18:34:03 UTC 2009)
%%For: (vtamara) Vladimir
%%Title: G
%%Pages: (atend)
%%BoundingBox: (atend)
%%EndComments
save
%%BeginProlog
/DotDict 200 dict def
DotDict begin

/setupLatin1 {
mark
/EncodingVector 256 array def
 EncodingVector 0

ISOLatin1Encoding 0 255 getinterval putinterval
EncodingVector 45 /hyphen put

% Set up ISO Latin 1 character encoding
/starnetISO {
        dup dup findfont dup length dict begin
        { 1 index /FID ne { def }{ pop pop } ifelse
        } forall
        /Encoding EncodingVector def
        currentdict end definefont
} def
/Times-Roman starnetISO def
/Times-Italic starnetISO def
/Times-Bold starnetISO def
/Times-BoldItalic starnetISO def
/Helvetica starnetISO def
/Helvetica-Oblique starnetISO def
/Helvetica-Bold starnetISO def
/Helvetica-BoldOblique starnetISO def
/Courier starnetISO def
/Courier-Oblique starnetISO def
/Courier-Bold starnetISO def
/Courier-BoldOblique starnetISO def
cleartomark
} bind def

%%BeginResource: procset graphviz 0 0
/coord-font-family /Times-Roman def
/default-font-family /Times-Roman def
/coordfont coord-font-family findfont 8 scalefont def

/InvScaleFactor 1.0 def
/set_scale {
       dup 1 exch div /InvScaleFactor exch def
       scale
} bind def

% styles
/solid { [] 0 setdash } bind def
/dashed { [9 InvScaleFactor mul dup ] 0 setdash } bind def
/dotted { [1 InvScaleFactor mul 6 InvScaleFactor mul] 0 setdash } bind def
/invis {/fill {newpath} def /stroke {newpath} def /show {pop newpath} def} bind def
/bold { 2 setlinewidth } bind def
/filled { } bind def
/unfilled { } bind def
/rounded { } bind def
/diagonals { } bind def

% hooks for setting color 
/nodecolor { sethsbcolor } bind def
/edgecolor { sethsbcolor } bind def
/graphcolor { sethsbcolor } bind def
/nopcolor {pop pop pop} bind def

/beginpage {	% i j npages
	/npages exch def
	/j exch def
	/i exch def
	/str 10 string def
	npages 1 gt {
		gsave
			coordfont setfont
			0 0 moveto
			(\() show i str cvs show (,) show j str cvs show (\)) show
		grestore
	} if
} bind def

/set_font {
	findfont exch
	scalefont setfont
} def

% draw aligned label in bounding box aligned to current point
/alignedtext {			% width adj text
	/text exch def
	/adj exch def
	/width exch def
	gsave
		width 0 gt {
			text stringwidth pop adj mul 0 rmoveto
		} if
		[] 0 setdash
		text show
	grestore
} def

/boxprim {				% xcorner ycorner xsize ysize
		4 2 roll
		moveto
		2 copy
		exch 0 rlineto
		0 exch rlineto
		pop neg 0 rlineto
		closepath
} bind def

/ellipse_path {
	/ry exch def
	/rx exch def
	/y exch def
	/x exch def
	matrix currentmatrix
	newpath
	x y translate
	rx ry scale
	0 0 1 0 360 arc
	setmatrix
} bind def

/endpage { showpage } bind def
/showpage { } def

/layercolorseq
	[	% layer color sequence - darkest to lightest
		[0 0 0]
		[.2 .8 .8]
		[.4 .8 .8]
		[.6 .8 .8]
		[.8 .8 .8]
	]
def

/layerlen layercolorseq length def

/setlayer {/maxlayer exch def /curlayer exch def
	layercolorseq curlayer 1 sub layerlen mod get
	aload pop sethsbcolor
	/nodecolor {nopcolor} def
	/edgecolor {nopcolor} def
	/graphcolor {nopcolor} def
} bind def

/onlayer { curlayer ne {invis} if } def

/onlayers {
	/myupper exch def
	/mylower exch def
	curlayer mylower lt
	curlayer myupper gt
	or
	{invis} if
} def

/curlayer 0 def

%%EndResource
%%EndProlog
%%BeginSetup
14 default-font-family set_font
1 setmiterlimit
% /arrowlength 10 def
% /arrowwidth 5 def

% make sure pdfmark is harmless for PS-interpreters other than Distiller
/pdfmark where {pop} {userdict /pdfmark /cleartomark load put} ifelse
% make '<<' and '>>' safe on PS Level 1 devices
/languagelevel where {pop languagelevel}{1} ifelse
2 lt {
    userdict (<<) cvn ([) cvn load put
    userdict (>>) cvn ([) cvn load put
} if

%%EndSetup
setupLatin1
%%Page: 1 1
%%PageBoundingBox: 36 36 1057 362
%%PageOrientation: Portrait
gsave
36 36 1057 362 boxprim clip newpath
0 0 1 beginpage
1 1 set_scale 0 rotate 40 40 translate
% Node1
gsave
0.000 0.000 0.749 nodecolor
newpath 35 132 moveto
35 153 lineto
111 153 lineto
111 132 lineto
closepath fill
1 setlinewidth
filled
0.000 0.000 0.000 nodecolor
newpath 35 132 moveto
35 153 lineto
111 153 lineto
111 132 lineto
closepath stroke
0.000 0.000 0.000 nodecolor
10.00 /FreeSans.ttf set_font
73 139 moveto 60 -0.5 (mezclaRec) alignedtext
grestore
% Node1->Node1
gsave
1 setlinewidth
solid
0.667 0.776 0.439 edgecolor
newpath 35 150 moveto
0 159 13 171 73 171 curveto
126 171 143 161 121 153 curveto
stroke
0.667 0.776 0.439 edgecolor
newpath 121.584 149.521 moveto
111 150 lineto
119.573 156.226 lineto
closepath fill
1 setlinewidth
solid
0.667 0.776 0.439 edgecolor
newpath 121.584 149.521 moveto
111 150 lineto
119.573 156.226 lineto
closepath stroke
grestore
% Node2
gsave
[ /Rect [ 167 114 283 134 ]
  /Border [ 0 0 0 ]
  /Action << /Subtype /URI /URI ($TrieSDisco_8cpp.html#4cc0e861f2e192242a40d6337c70fc5f) >>
  /Subtype /Link
/ANN pdfmark
[ /Rect [ 167 114 283 134 ]
  /Border [ 0 0 0 ]
  /Action << /Subtype /URI /URI ($TrieSDisco_8cpp.html#4cc0e861f2e192242a40d6337c70fc5f) >>
  /Subtype /Link
/ANN pdfmark
1 setlinewidth
0.000 0.000 0.000 nodecolor
newpath 167 113 moveto
167 134 lineto
283 134 lineto
283 113 lineto
closepath stroke
0.000 0.000 0.000 nodecolor
10.00 /FreeSans.ttf set_font
225 120 moveto 100 -0.5 (escribeCopiaNodo) alignedtext
grestore
% Node1->Node2
gsave
1 setlinewidth
solid
0.667 0.776 0.439 edgecolor
newpath 111 138 moveto
125 136 141 135 157 133 curveto
stroke
0.667 0.776 0.439 edgecolor
newpath 157.881 136.393 moveto
167 131 lineto
156.508 129.529 lineto
closepath fill
1 setlinewidth
solid
0.667 0.776 0.439 edgecolor
newpath 157.881 136.393 moveto
167 131 lineto
156.508 129.529 lineto
closepath stroke
grestore
% Node3
gsave
[ /Rect [ 339 194 423 214 ]
  /Border [ 0 0 0 ]
  /Action << /Subtype /URI /URI ($TrieSDisco_8cpp.html#95dfc28ebaa02e82d3d1ffce08251628) >>
  /Subtype /Link
/ANN pdfmark
[ /Rect [ 339 194 423 214 ]
  /Border [ 0 0 0 ]
  /Action << /Subtype /URI /URI ($TrieSDisco_8cpp.html#95dfc28ebaa02e82d3d1ffce08251628) >>
  /Subtype /Link
/ANN pdfmark
1 setlinewidth
0.000 0.000 0.000 nodecolor
newpath 339 193 moveto
339 214 lineto
423 214 lineto
423 193 lineto
closepath stroke
0.000 0.000 0.000 nodecolor
10.00 /FreeSans.ttf set_font
381 200 moveto 68 -0.5 (escribeNodo) alignedtext
grestore
% Node1->Node3
gsave
1 setlinewidth
solid
0.667 0.776 0.439 edgecolor
newpath 77 153 moveto
87 173 111 219 147 237 curveto
210 267 236 250 303 237 curveto
321 233 339 225 354 218 curveto
stroke
0.667 0.776 0.439 edgecolor
newpath 355.283 221.26 moveto
363 214 lineto
352.44 214.863 lineto
closepath fill
1 setlinewidth
solid
0.667 0.776 0.439 edgecolor
newpath 355.283 221.26 moveto
363 214 lineto
352.44 214.863 lineto
closepath stroke
grestore
% Node4
gsave
[ /Rect [ 492 275 582 295 ]
  /Border [ 0 0 0 ]
  /Action << /Subtype /URI /URI ($comun_8hpp.html#96402bda6527bf98dd8e49d62ae182f8) >>
  /Subtype /Link
/ANN pdfmark
[ /Rect [ 492 275 582 295 ]
  /Border [ 0 0 0 ]
  /Action << /Subtype /URI /URI ($comun_8hpp.html#96402bda6527bf98dd8e49d62ae182f8) >>
  /Subtype /Link
/ANN pdfmark
1 setlinewidth
0.000 0.000 0.000 nodecolor
newpath 492 274 moveto
492 295 lineto
582 295 lineto
582 274 lineto
closepath stroke
0.000 0.000 0.000 nodecolor
10.00 /FreeSans.ttf set_font
537 281 moveto 74 -0.5 (escribeNDesp) alignedtext
grestore
% Node1->Node4
gsave
1 setlinewidth
solid
0.667 0.776 0.439 edgecolor
newpath 76 153 moveto
84 176 106 233 147 257 curveto
252 318 402 308 482 296 curveto
stroke
0.667 0.776 0.439 edgecolor
newpath 482.881 299.393 moveto
492 294 lineto
481.508 292.529 lineto
closepath fill
1 setlinewidth
solid
0.667 0.776 0.439 edgecolor
newpath 482.881 299.393 moveto
492 294 lineto
481.508 292.529 lineto
closepath stroke
grestore
% Node13
gsave
[ /Rect [ 354 152 408 172 ]
  /Border [ 0 0 0 ]
  /Action << /Subtype /URI /URI ($comun_8cpp.html#4a359aa93f2dd4e34badd70c0e1f7082) >>
  /Subtype /Link
/ANN pdfmark
[ /Rect [ 354 152 408 172 ]
  /Border [ 0 0 0 ]
  /Action << /Subtype /URI /URI ($comun_8cpp.html#4a359aa93f2dd4e34badd70c0e1f7082) >>
  /Subtype /Link
/ANN pdfmark
1 setlinewidth
0.000 0.000 0.000 nodecolor
newpath 354 151 moveto
354 172 lineto
409 172 lineto
409 151 lineto
closepath stroke
0.000 0.000 0.000 nodecolor
10.00 /FreeSans.ttf set_font
381 158 moveto 39 -0.5 (leeCad) alignedtext
grestore
% Node1->Node13
gsave
1 setlinewidth
solid
0.667 0.776 0.439 edgecolor
newpath 111 145 moveto
170 149 285 156 344 159 curveto
stroke
0.667 0.776 0.439 edgecolor
newpath 343.701 162.488 moveto
354 160 lineto
344.398 155.522 lineto
closepath fill
1 setlinewidth
solid
0.667 0.776 0.439 edgecolor
newpath 343.701 162.488 moveto
354 160 lineto
344.398 155.522 lineto
closepath stroke
grestore
% Node15
gsave
[ /Rect [ 347 38 415 58 ]
  /Border [ 0 0 0 ]
  /Action << /Subtype /URI /URI ($comun_8hpp.html#9871d7357fc245ec5b7a227a9a62eb36) >>
  /Subtype /Link
/ANN pdfmark
[ /Rect [ 347 38 415 58 ]
  /Border [ 0 0 0 ]
  /Action << /Subtype /URI /URI ($comun_8hpp.html#9871d7357fc245ec5b7a227a9a62eb36) >>
  /Subtype /Link
/ANN pdfmark
1 setlinewidth
0.000 0.000 0.000 nodecolor
newpath 347 37 moveto
347 58 lineto
415 58 lineto
415 37 lineto
closepath stroke
0.000 0.000 0.000 nodecolor
10.00 /FreeSans.ttf set_font
381 44 moveto 52 -0.5 (leeNDesp) alignedtext
grestore
% Node1->Node15
gsave
1 setlinewidth
solid
0.667 0.776 0.439 edgecolor
newpath 86 132 moveto
100 120 124 102 147 92 curveto
210 66 288 55 337 51 curveto
stroke
0.667 0.776 0.439 edgecolor
newpath 337.398 54.4778 moveto
347 50 lineto
336.701 47.5125 lineto
closepath fill
1 setlinewidth
solid
0.667 0.776 0.439 edgecolor
newpath 337.398 54.4778 moveto
347 50 lineto
336.701 47.5125 lineto
closepath stroke
grestore
% Node17
gsave
[ /Rect [ 356 114 406 134 ]
  /Border [ 0 0 0 ]
  /Action << /Subtype /URI /URI ($Pos_8cpp.html#36b67a50cba6dc1789825a3111bee9d2) >>
  /Subtype /Link
/ANN pdfmark
[ /Rect [ 356 114 406 134 ]
  /Border [ 0 0 0 ]
  /Action << /Subtype /URI /URI ($Pos_8cpp.html#36b67a50cba6dc1789825a3111bee9d2) >>
  /Subtype /Link
/ANN pdfmark
1 setlinewidth
0.000 0.000 0.000 nodecolor
newpath 356 113 moveto
356 134 lineto
407 134 lineto
407 113 lineto
closepath stroke
0.000 0.000 0.000 nodecolor
10.00 /FreeSans.ttf set_font
381 120 moveto 35 -0.5 (leePos) alignedtext
grestore
% Node1->Node17
gsave
1 setlinewidth
solid
0.667 0.776 0.439 edgecolor
newpath 89 132 moveto
104 123 126 110 147 105 curveto
215 89 235 97 303 105 curveto
317 107 333 110 346 114 curveto
stroke
0.667 0.776 0.439 edgecolor
newpath 345.508 117.471 moveto
356 116 lineto
346.881 110.607 lineto
closepath fill
1 setlinewidth
solid
0.667 0.776 0.439 edgecolor
newpath 345.508 117.471 moveto
356 116 lineto
346.881 110.607 lineto
closepath stroke
grestore
% Node19
gsave
[ /Rect [ 157 190 293 210 ]
  /Border [ 0 0 0 ]
  /Action << /Subtype /URI /URI ($TrieSDisco_8cpp.html#485d02d9d7ec4ae0114122861420c1d1) >>
  /Subtype /Link
/ANN pdfmark
[ /Rect [ 157 190 293 210 ]
  /Border [ 0 0 0 ]
  /Action << /Subtype /URI /URI ($TrieSDisco_8cpp.html#485d02d9d7ec4ae0114122861420c1d1) >>
  /Subtype /Link
/ANN pdfmark
1 setlinewidth
0.000 0.000 0.000 nodecolor
newpath 157 189 moveto
157 210 lineto
293 210 lineto
293 189 lineto
closepath stroke
0.000 0.000 0.000 nodecolor
10.00 /FreeSans.ttf set_font
225 196 moveto 120 -0.5 (escribeCopiaSubarbol) alignedtext
grestore
% Node1->Node19
gsave
1 setlinewidth
solid
0.667 0.776 0.439 edgecolor
newpath 94 153 moveto
109 160 129 169 147 176 curveto
157 180 167 183 177 186 curveto
stroke
0.667 0.776 0.439 edgecolor
newpath 176.416 189.479 moveto
187 189 lineto
178.427 182.774 lineto
closepath fill
1 setlinewidth
solid
0.667 0.776 0.439 edgecolor
newpath 176.416 189.479 moveto
187 189 lineto
178.427 182.774 lineto
closepath stroke
grestore
% Node20
gsave
[ /Rect [ 148 0 302 20 ]
  /Border [ 0 0 0 ]
  /Action << /Subtype /URI /URI ($comun_8cpp.html#c74356d5b37d454e0ddce0de8fac34f8) >>
  /Subtype /Link
/ANN pdfmark
[ /Rect [ 148 0 302 20 ]
  /Border [ 0 0 0 ]
  /Action << /Subtype /URI /URI ($comun_8cpp.html#c74356d5b37d454e0ddce0de8fac34f8) >>
  /Subtype /Link
/ANN pdfmark
1 setlinewidth
0.000 0.000 0.000 nodecolor
newpath 148 -1 moveto
148 20 lineto
303 20 lineto
303 -1 lineto
closepath stroke
0.000 0.000 0.000 nodecolor
10.00 /FreeSans.ttf set_font
225 6 moveto 139 -0.5 (prefijo_comun_mas_largo) alignedtext
grestore
% Node1->Node20
gsave
1 setlinewidth
solid
0.667 0.776 0.439 edgecolor
newpath 78 132 moveto
87 110 111 61 147 34 curveto
153 30 160 26 166 24 curveto
stroke
0.667 0.776 0.439 edgecolor
newpath 168.015 26.9636 moveto
176 20 lineto
165.415 20.4643 lineto
closepath fill
1 setlinewidth
solid
0.667 0.776 0.439 edgecolor
newpath 168.015 26.9636 moveto
176 20 lineto
165.415 20.4643 lineto
closepath stroke
grestore
% Node2->Node3
gsave
1 setlinewidth
solid
0.667 0.776 0.439 edgecolor
newpath 245 134 moveto
271 148 319 172 350 188 curveto
stroke
0.667 0.776 0.439 edgecolor
newpath 348.559 191.203 moveto
359 193 lineto
351.958 185.084 lineto
closepath fill
1 setlinewidth
solid
0.667 0.776 0.439 edgecolor
newpath 348.559 191.203 moveto
359 193 lineto
351.958 185.084 lineto
closepath stroke
grestore
% Node2->Node13
gsave
1 setlinewidth
solid
0.667 0.776 0.439 edgecolor
newpath 266 134 moveto
290 140 321 147 344 153 curveto
stroke
0.667 0.776 0.439 edgecolor
newpath 343.508 156.471 moveto
354 155 lineto
344.881 149.607 lineto
closepath fill
1 setlinewidth
solid
0.667 0.776 0.439 edgecolor
newpath 343.508 156.471 moveto
354 155 lineto
344.881 149.607 lineto
closepath stroke
grestore
% Node2->Node15
gsave
1 setlinewidth
solid
0.667 0.776 0.439 edgecolor
newpath 248 113 moveto
275 99 321 77 351 62 curveto
stroke
0.667 0.776 0.439 edgecolor
newpath 352.283 65.2598 moveto
360 58 lineto
349.44 58.8631 lineto
closepath fill
1 setlinewidth
solid
0.667 0.776 0.439 edgecolor
newpath 352.283 65.2598 moveto
360 58 lineto
349.44 58.8631 lineto
closepath stroke
grestore
% Node2->Node17
gsave
1 setlinewidth
solid
0.667 0.776 0.439 edgecolor
newpath 283 124 moveto
304 124 327 124 346 124 curveto
stroke
0.667 0.776 0.439 edgecolor
newpath 346 127.5 moveto
356 124 lineto
346 120.5 lineto
closepath fill
1 setlinewidth
solid
0.667 0.776 0.439 edgecolor
newpath 346 127.5 moveto
356 124 lineto
346 120.5 lineto
closepath stroke
grestore
% Node3->Node4
gsave
1 setlinewidth
solid
0.667 0.776 0.439 edgecolor
newpath 396 214 moveto
418 229 456 255 459 257 curveto
469 262 481 267 491 270 curveto
stroke
0.667 0.776 0.439 edgecolor
newpath 490.415 273.536 moveto
501 274 lineto
493.015 267.036 lineto
closepath fill
1 setlinewidth
solid
0.667 0.776 0.439 edgecolor
newpath 490.415 273.536 moveto
501 274 lineto
493.015 267.036 lineto
closepath stroke
grestore
% Node6
gsave
[ /Rect [ 501 190 573 210 ]
  /Border [ 0 0 0 ]
  /Action << /Subtype /URI /URI ($Pos_8cpp.html#42c2daaa880eeb397c024b6ffa22c8cf) >>
  /Subtype /Link
/ANN pdfmark
[ /Rect [ 501 190 573 210 ]
  /Border [ 0 0 0 ]
  /Action << /Subtype /URI /URI ($Pos_8cpp.html#42c2daaa880eeb397c024b6ffa22c8cf) >>
  /Subtype /Link
/ANN pdfmark
1 setlinewidth
0.000 0.000 0.000 nodecolor
newpath 501 189 moveto
501 210 lineto
574 210 lineto
574 189 lineto
closepath stroke
0.000 0.000 0.000 nodecolor
10.00 /FreeSans.ttf set_font
537 196 moveto 57 -0.5 (escribePos) alignedtext
grestore
% Node3->Node6
gsave
1 setlinewidth
solid
0.667 0.776 0.439 edgecolor
newpath 423 203 moveto
444 202 469 202 491 201 curveto
stroke
0.667 0.776 0.439 edgecolor
newpath 491 204.5 moveto
501 201 lineto
491 197.5 lineto
closepath fill
1 setlinewidth
solid
0.667 0.776 0.439 edgecolor
newpath 491 204.5 moveto
501 201 lineto
491 197.5 lineto
closepath stroke
grestore
% Node9
gsave
[ /Rect [ 459 228 615 248 ]
  /Border [ 0 0 0 ]
  /Action << /Subtype /URI /URI ($TrieSDisco_8cpp.html#453b277936104f13edb4f8158e015eba) >>
  /Subtype /Link
/ANN pdfmark
[ /Rect [ 459 228 615 248 ]
  /Border [ 0 0 0 ]
  /Action << /Subtype /URI /URI ($TrieSDisco_8cpp.html#453b277936104f13edb4f8158e015eba) >>
  /Subtype /Link
/ANN pdfmark
1 setlinewidth
0.000 0.000 0.000 nodecolor
newpath 459 227 moveto
459 248 lineto
615 248 lineto
615 227 lineto
closepath stroke
0.000 0.000 0.000 nodecolor
10.00 /FreeSans.ttf set_font
537 234 moveto 140 -0.5 (precalcula_escribe_actual) alignedtext
grestore
% Node3->Node9
gsave
1 setlinewidth
solid
0.667 0.776 0.439 edgecolor
newpath 423 213 moveto
440 216 459 220 477 225 curveto
stroke
0.667 0.776 0.439 edgecolor
newpath 476.508 228.471 moveto
487 227 lineto
477.881 221.607 lineto
closepath fill
1 setlinewidth
solid
0.667 0.776 0.439 edgecolor
newpath 476.508 228.471 moveto
487 227 lineto
477.881 221.607 lineto
closepath stroke
grestore
% Node5
gsave
[ /Rect [ 654 275 736 295 ]
  /Border [ 0 0 0 ]
  /Action << /Subtype /URI /URI ($comun_8cpp.html#b5388a972300b0a3d2e70c16097a3781) >>
  /Subtype /Link
/ANN pdfmark
[ /Rect [ 654 275 736 295 ]
  /Border [ 0 0 0 ]
  /Action << /Subtype /URI /URI ($comun_8cpp.html#b5388a972300b0a3d2e70c16097a3781) >>
  /Subtype /Link
/ANN pdfmark
1 setlinewidth
0.000 0.000 0.000 nodecolor
newpath 654 274 moveto
654 295 lineto
736 295 lineto
736 274 lineto
closepath stroke
0.000 0.000 0.000 nodecolor
10.00 /FreeSans.ttf set_font
695 281 moveto 66 -0.5 (escribe128b) alignedtext
grestore
% Node4->Node5
gsave
1 setlinewidth
solid
0.667 0.776 0.439 edgecolor
newpath 582 285 moveto
602 285 624 285 644 285 curveto
stroke
0.667 0.776 0.439 edgecolor
newpath 644 288.5 moveto
654 285 lineto
644 281.5 lineto
closepath fill
1 setlinewidth
solid
0.667 0.776 0.439 edgecolor
newpath 644 288.5 moveto
654 285 lineto
644 281.5 lineto
closepath stroke
grestore
% Node7
gsave
[ /Rect [ 775 180 903 200 ]
  /Border [ 0 0 0 ]
  /Action << /Subtype /URI /URI ($Elias_8cpp.html#59732ce42a1e75fbbb382a6964ef4620) >>
  /Subtype /Link
/ANN pdfmark
[ /Rect [ 775 180 903 200 ]
  /Border [ 0 0 0 ]
  /Action << /Subtype /URI /URI ($Elias_8cpp.html#59732ce42a1e75fbbb382a6964ef4620) >>
  /Subtype /Link
/ANN pdfmark
1 setlinewidth
0.000 0.000 0.000 nodecolor
newpath 775 179 moveto
775 200 lineto
903 200 lineto
903 179 lineto
closepath stroke
0.000 0.000 0.000 nodecolor
10.00 /FreeSans.ttf set_font
839 186 moveto 112 -0.5 (escribe_elias_gama2) alignedtext
grestore
% Node6->Node7
gsave
1 setlinewidth
solid
0.667 0.776 0.439 edgecolor
newpath 574 196 moveto
597 194 626 191 651 190 curveto
688 188 730 188 765 188 curveto
stroke
0.667 0.776 0.439 edgecolor
newpath 765 191.5 moveto
775 188 lineto
765 184.5 lineto
closepath fill
1 setlinewidth
solid
0.667 0.776 0.439 edgecolor
newpath 765 191.5 moveto
775 188 lineto
765 184.5 lineto
closepath stroke
grestore
% Node8
gsave
[ /Rect [ 940 203 1012 223 ]
  /Border [ 0 0 0 ]
  /Action << /Subtype /URI /URI ($Elias_8cpp.html#7127ec8dff13cc2ad873693ca8933d38) >>
  /Subtype /Link
/ANN pdfmark
[ /Rect [ 940 203 1012 223 ]
  /Border [ 0 0 0 ]
  /Action << /Subtype /URI /URI ($Elias_8cpp.html#7127ec8dff13cc2ad873693ca8933d38) >>
  /Subtype /Link
/ANN pdfmark
1 setlinewidth
0.000 0.000 0.000 nodecolor
newpath 940 202 moveto
940 223 lineto
1013 223 lineto
1013 202 lineto
closepath stroke
0.000 0.000 0.000 nodecolor
10.00 /FreeSans.ttf set_font
976 209 moveto 57 -0.5 (piso_logb2) alignedtext
grestore
% Node7->Node8
gsave
1 setlinewidth
solid
0.667 0.776 0.439 edgecolor
newpath 899 200 moveto
909 202 920 204 930 205 curveto
stroke
0.667 0.776 0.439 edgecolor
newpath 929.508 208.471 moveto
940 207 lineto
930.881 201.607 lineto
closepath fill
1 setlinewidth
solid
0.667 0.776 0.439 edgecolor
newpath 929.508 208.471 moveto
940 207 lineto
930.881 201.607 lineto
closepath stroke
grestore
% Node10
gsave
[ /Rect [ 658 199 732 219 ]
  /Border [ 0 0 0 ]
  /Action << /Subtype /URI /URI ($comun_8hpp.html#3f1f97c70ac3ffba1584b0fc02661cab) >>
  /Subtype /Link
/ANN pdfmark
[ /Rect [ 658 199 732 219 ]
  /Border [ 0 0 0 ]
  /Action << /Subtype /URI /URI ($comun_8hpp.html#3f1f97c70ac3ffba1584b0fc02661cab) >>
  /Subtype /Link
/ANN pdfmark
1 setlinewidth
0.000 0.000 0.000 nodecolor
newpath 658 198 moveto
658 219 lineto
733 219 lineto
733 198 lineto
closepath stroke
0.000 0.000 0.000 nodecolor
10.00 /FreeSans.ttf set_font
695 205 moveto 59 -0.5 (longNDesp) alignedtext
grestore
% Node9->Node10
gsave
1 setlinewidth
solid
0.667 0.776 0.439 edgecolor
newpath 597 227 moveto
614 224 632 220 648 218 curveto
stroke
0.667 0.776 0.439 edgecolor
newpath 648.881 221.393 moveto
658 216 lineto
647.508 214.529 lineto
closepath fill
1 setlinewidth
solid
0.667 0.776 0.439 edgecolor
newpath 648.881 221.393 moveto
658 216 lineto
647.508 214.529 lineto
closepath stroke
grestore
% Node11
gsave
[ /Rect [ 666 237 724 257 ]
  /Border [ 0 0 0 ]
  /Action << /Subtype /URI /URI ($Pos_8cpp.html#ad8740377e9e19836d654491a170ac9a) >>
  /Subtype /Link
/ANN pdfmark
[ /Rect [ 666 237 724 257 ]
  /Border [ 0 0 0 ]
  /Action << /Subtype /URI /URI ($Pos_8cpp.html#ad8740377e9e19836d654491a170ac9a) >>
  /Subtype /Link
/ANN pdfmark
1 setlinewidth
0.000 0.000 0.000 nodecolor
newpath 666 236 moveto
666 257 lineto
724 257 lineto
724 236 lineto
closepath stroke
0.000 0.000 0.000 nodecolor
10.00 /FreeSans.ttf set_font
695 243 moveto 42 -0.5 (longPos) alignedtext
grestore
% Node9->Node11
gsave
1 setlinewidth
solid
0.667 0.776 0.439 edgecolor
newpath 615 242 moveto
629 243 643 244 656 245 curveto
stroke
0.667 0.776 0.439 edgecolor
newpath 656 248.5 moveto
666 245 lineto
656 241.5 lineto
closepath fill
1 setlinewidth
solid
0.667 0.776 0.439 edgecolor
newpath 656 248.5 moveto
666 245 lineto
656 241.5 lineto
closepath stroke
grestore
% Node12
gsave
[ /Rect [ 786 227 892 247 ]
  /Border [ 0 0 0 ]
  /Action << /Subtype /URI /URI ($Elias_8cpp.html#214c4fd6adcbe1fe7de47c4ba521198a) >>
  /Subtype /Link
/ANN pdfmark
[ /Rect [ 786 227 892 247 ]
  /Border [ 0 0 0 ]
  /Action << /Subtype /URI /URI ($Elias_8cpp.html#214c4fd6adcbe1fe7de47c4ba521198a) >>
  /Subtype /Link
/ANN pdfmark
1 setlinewidth
0.000 0.000 0.000 nodecolor
newpath 786 226 moveto
786 247 lineto
893 247 lineto
893 226 lineto
closepath stroke
0.000 0.000 0.000 nodecolor
10.00 /FreeSans.ttf set_font
839 233 moveto 91 -0.5 (long_elias_gama) alignedtext
grestore
% Node11->Node12
gsave
1 setlinewidth
solid
0.667 0.776 0.439 edgecolor
newpath 724 245 moveto
739 244 758 243 776 242 curveto
stroke
0.667 0.776 0.439 edgecolor
newpath 776.398 245.478 moveto
786 241 lineto
775.701 238.512 lineto
closepath fill
1 setlinewidth
solid
0.667 0.776 0.439 edgecolor
newpath 776.398 245.478 moveto
786 241 lineto
775.701 238.512 lineto
closepath stroke
grestore
% Node12->Node8
gsave
1 setlinewidth
solid
0.667 0.776 0.439 edgecolor
newpath 893 228 moveto
905 226 918 223 930 221 curveto
stroke
0.667 0.776 0.439 edgecolor
newpath 930.398 224.478 moveto
940 220 lineto
929.701 217.512 lineto
closepath fill
1 setlinewidth
solid
0.667 0.776 0.439 edgecolor
newpath 930.398 224.478 moveto
940 220 lineto
929.701 217.512 lineto
closepath stroke
grestore
% Node14
gsave
[ /Rect [ 651 95 739 115 ]
  /Border [ 0 0 0 ]
  /Action << /Subtype /URI /URI ($comun_8cpp.html#88ffeb20e447cad877c37bb473033590) >>
  /Subtype /Link
/ANN pdfmark
[ /Rect [ 651 95 739 115 ]
  /Border [ 0 0 0 ]
  /Action << /Subtype /URI /URI ($comun_8cpp.html#88ffeb20e447cad877c37bb473033590) >>
  /Subtype /Link
/ANN pdfmark
1 setlinewidth
0.000 0.000 0.000 nodecolor
newpath 651 94 moveto
651 115 lineto
739 115 lineto
739 94 lineto
closepath stroke
0.000 0.000 0.000 nodecolor
10.00 /FreeSans.ttf set_font
695 101 moveto 72 -0.5 (errorFormato) alignedtext
grestore
% Node13->Node14
gsave
1 setlinewidth
solid
0.667 0.776 0.439 edgecolor
newpath 409 160 moveto
453 155 542 146 615 130 curveto
629 127 644 122 657 118 curveto
stroke
0.667 0.776 0.439 edgecolor
newpath 658.427 121.226 moveto
667 115 lineto
656.416 114.521 lineto
closepath fill
1 setlinewidth
solid
0.667 0.776 0.439 edgecolor
newpath 658.427 121.226 moveto
667 115 lineto
656.416 114.521 lineto
closepath stroke
grestore
% Node16
gsave
[ /Rect [ 507 38 567 58 ]
  /Border [ 0 0 0 ]
  /Action << /Subtype /URI /URI ($comun_8cpp.html#c7bf9e68bbdccea36ce786b806244ea1) >>
  /Subtype /Link
/ANN pdfmark
[ /Rect [ 507 38 567 58 ]
  /Border [ 0 0 0 ]
  /Action << /Subtype /URI /URI ($comun_8cpp.html#c7bf9e68bbdccea36ce786b806244ea1) >>
  /Subtype /Link
/ANN pdfmark
1 setlinewidth
0.000 0.000 0.000 nodecolor
newpath 507 37 moveto
507 58 lineto
567 58 lineto
567 37 lineto
closepath stroke
0.000 0.000 0.000 nodecolor
10.00 /FreeSans.ttf set_font
537 44 moveto 44 -0.5 (lee128b) alignedtext
grestore
% Node15->Node16
gsave
1 setlinewidth
solid
0.667 0.776 0.439 edgecolor
newpath 415 48 moveto
439 48 471 48 497 48 curveto
stroke
0.667 0.776 0.439 edgecolor
newpath 497 51.5001 moveto
507 48 lineto
497 44.5001 lineto
closepath fill
1 setlinewidth
solid
0.667 0.776 0.439 edgecolor
newpath 497 51.5001 moveto
507 48 lineto
497 44.5001 lineto
closepath stroke
grestore
% Node16->Node14
gsave
1 setlinewidth
solid
0.667 0.776 0.439 edgecolor
newpath 567 54 moveto
582 57 600 62 615 67 curveto
632 73 650 82 665 89 curveto
stroke
0.667 0.776 0.439 edgecolor
newpath 663.559 92.2031 moveto
674 94 lineto
666.958 86.084 lineto
closepath fill
1 setlinewidth
solid
0.667 0.776 0.439 edgecolor
newpath 663.559 92.2031 moveto
674 94 lineto
666.958 86.084 lineto
closepath stroke
grestore
% Node17->Node14
gsave
1 setlinewidth
solid
0.667 0.776 0.439 edgecolor
newpath 407 122 moveto
458 119 572 113 641 109 curveto
stroke
0.667 0.776 0.439 edgecolor
newpath 641.398 112.478 moveto
651 108 lineto
640.701 105.512 lineto
closepath fill
1 setlinewidth
solid
0.667 0.776 0.439 edgecolor
newpath 641.398 112.478 moveto
651 108 lineto
640.701 105.512 lineto
closepath stroke
grestore
% Node18
gsave
[ /Rect [ 484 76 590 96 ]
  /Border [ 0 0 0 ]
  /Action << /Subtype /URI /URI ($Elias_8cpp.html#95ee5a0ffb91f203612d2ce9d063ec36) >>
  /Subtype /Link
/ANN pdfmark
[ /Rect [ 484 76 590 96 ]
  /Border [ 0 0 0 ]
  /Action << /Subtype /URI /URI ($Elias_8cpp.html#95ee5a0ffb91f203612d2ce9d063ec36) >>
  /Subtype /Link
/ANN pdfmark
1 setlinewidth
0.000 0.000 0.000 nodecolor
newpath 484 75 moveto
484 96 lineto
590 96 lineto
590 75 lineto
closepath stroke
0.000 0.000 0.000 nodecolor
10.00 /FreeSans.ttf set_font
537 82 moveto 90 -0.5 (lee_elias_gama2) alignedtext
grestore
% Node17->Node18
gsave
1 setlinewidth
solid
0.667 0.776 0.439 edgecolor
newpath 407 118 moveto
429 113 460 105 486 98 curveto
stroke
0.667 0.776 0.439 edgecolor
newpath 486.881 101.393 moveto
496 96 lineto
485.508 94.5292 lineto
closepath fill
1 setlinewidth
solid
0.667 0.776 0.439 edgecolor
newpath 486.881 101.393 moveto
496 96 lineto
485.508 94.5292 lineto
closepath stroke
grestore
% Node18->Node14
gsave
1 setlinewidth
solid
0.667 0.776 0.439 edgecolor
newpath 590 92 moveto
607 94 624 96 641 99 curveto
stroke
0.667 0.776 0.439 edgecolor
newpath 640.701 102.488 moveto
651 100 lineto
641.398 95.5222 lineto
closepath fill
1 setlinewidth
solid
0.667 0.776 0.439 edgecolor
newpath 640.701 102.488 moveto
651 100 lineto
641.398 95.5222 lineto
closepath stroke
grestore
% Node19->Node3
gsave
1 setlinewidth
solid
0.667 0.776 0.439 edgecolor
newpath 293 202 moveto
305 202 317 203 329 203 curveto
stroke
0.667 0.776 0.439 edgecolor
newpath 329 206.5 moveto
339 203 lineto
329 199.5 lineto
closepath fill
1 setlinewidth
solid
0.667 0.776 0.439 edgecolor
newpath 329 206.5 moveto
339 203 lineto
329 199.5 lineto
closepath stroke
grestore
% Node19->Node4
gsave
1 setlinewidth
solid
0.667 0.776 0.439 edgecolor
newpath 262 210 moveto
318 225 424 254 487 271 curveto
stroke
0.667 0.776 0.439 edgecolor
newpath 486.416 274.479 moveto
497 274 lineto
488.427 267.774 lineto
closepath fill
1 setlinewidth
solid
0.667 0.776 0.439 edgecolor
newpath 486.416 274.479 moveto
497 274 lineto
488.427 267.774 lineto
closepath stroke
grestore
% Node19->Node13
gsave
1 setlinewidth
solid
0.667 0.776 0.439 edgecolor
newpath 271 189 moveto
294 184 322 176 344 171 curveto
stroke
0.667 0.776 0.439 edgecolor
newpath 344.881 174.393 moveto
354 169 lineto
343.508 167.529 lineto
closepath fill
1 setlinewidth
solid
0.667 0.776 0.439 edgecolor
newpath 344.881 174.393 moveto
354 169 lineto
343.508 167.529 lineto
closepath stroke
grestore
% Node19->Node15
gsave
1 setlinewidth
solid
0.667 0.776 0.439 edgecolor
newpath 242 189 moveto
259 178 284 161 303 143 curveto
329 119 354 87 368 66 curveto
stroke
0.667 0.776 0.439 edgecolor
newpath 370.8 68.1 moveto
374 58 lineto
365.2 63.9 lineto
closepath fill
1 setlinewidth
solid
0.667 0.776 0.439 edgecolor
newpath 370.8 68.1 moveto
374 58 lineto
365.2 63.9 lineto
closepath stroke
grestore
% Node19->Node17
gsave
1 setlinewidth
solid
0.667 0.776 0.439 edgecolor
newpath 246 189 moveto
269 177 307 158 339 143 curveto
342 141 345 140 349 138 curveto
stroke
0.667 0.776 0.439 edgecolor
newpath 350.283 141.26 moveto
358 134 lineto
347.44 134.863 lineto
closepath fill
1 setlinewidth
solid
0.667 0.776 0.439 edgecolor
newpath 350.283 141.26 moveto
358 134 lineto
347.44 134.863 lineto
closepath stroke
grestore
% Node19->Node19
gsave
1 setlinewidth
solid
0.667 0.776 0.439 edgecolor
newpath 177 210 moveto
156 219 172 228 225 228 curveto
266 228 285 223 281 216 curveto
stroke
0.667 0.776 0.439 edgecolor
newpath 283.1 213.2 moveto
273 210 lineto
278.9 218.8 lineto
closepath fill
1 setlinewidth
solid
0.667 0.776 0.439 edgecolor
newpath 283.1 213.2 moveto
273 210 lineto
278.9 218.8 lineto
closepath stroke
grestore
endpage
showpage
grestore
%%PageTrailer
%%EndPage: 1
%%Trailer
%%Pages: 1
%%BoundingBox: 36 36 1057 362
end
restore
%%EOF
