%!PS-Adobe-2.0
%%Creator: Graphviz version 2.12 (Mon Nov 16 18:34:03 UTC 2009)
%%For: (vtamara) Vladimir
%%Title: G
%%Pages: (atend)
%%BoundingBox: (atend)
%%EndComments
save
%%BeginProlog
/DotDict 200 dict def
DotDict begin

/setupLatin1 {
mark
/EncodingVector 256 array def
 EncodingVector 0

ISOLatin1Encoding 0 255 getinterval putinterval
EncodingVector 45 /hyphen put

% Set up ISO Latin 1 character encoding
/starnetISO {
        dup dup findfont dup length dict begin
        { 1 index /FID ne { def }{ pop pop } ifelse
        } forall
        /Encoding EncodingVector def
        currentdict end definefont
} def
/Times-Roman starnetISO def
/Times-Italic starnetISO def
/Times-Bold starnetISO def
/Times-BoldItalic starnetISO def
/Helvetica starnetISO def
/Helvetica-Oblique starnetISO def
/Helvetica-Bold starnetISO def
/Helvetica-BoldOblique starnetISO def
/Courier starnetISO def
/Courier-Oblique starnetISO def
/Courier-Bold starnetISO def
/Courier-BoldOblique starnetISO def
cleartomark
} bind def

%%BeginResource: procset graphviz 0 0
/coord-font-family /Times-Roman def
/default-font-family /Times-Roman def
/coordfont coord-font-family findfont 8 scalefont def

/InvScaleFactor 1.0 def
/set_scale {
       dup 1 exch div /InvScaleFactor exch def
       scale
} bind def

% styles
/solid { [] 0 setdash } bind def
/dashed { [9 InvScaleFactor mul dup ] 0 setdash } bind def
/dotted { [1 InvScaleFactor mul 6 InvScaleFactor mul] 0 setdash } bind def
/invis {/fill {newpath} def /stroke {newpath} def /show {pop newpath} def} bind def
/bold { 2 setlinewidth } bind def
/filled { } bind def
/unfilled { } bind def
/rounded { } bind def
/diagonals { } bind def

% hooks for setting color 
/nodecolor { sethsbcolor } bind def
/edgecolor { sethsbcolor } bind def
/graphcolor { sethsbcolor } bind def
/nopcolor {pop pop pop} bind def

/beginpage {	% i j npages
	/npages exch def
	/j exch def
	/i exch def
	/str 10 string def
	npages 1 gt {
		gsave
			coordfont setfont
			0 0 moveto
			(\() show i str cvs show (,) show j str cvs show (\)) show
		grestore
	} if
} bind def

/set_font {
	findfont exch
	scalefont setfont
} def

% draw aligned label in bounding box aligned to current point
/alignedtext {			% width adj text
	/text exch def
	/adj exch def
	/width exch def
	gsave
		width 0 gt {
			text stringwidth pop adj mul 0 rmoveto
		} if
		[] 0 setdash
		text show
	grestore
} def

/boxprim {				% xcorner ycorner xsize ysize
		4 2 roll
		moveto
		2 copy
		exch 0 rlineto
		0 exch rlineto
		pop neg 0 rlineto
		closepath
} bind def

/ellipse_path {
	/ry exch def
	/rx exch def
	/y exch def
	/x exch def
	matrix currentmatrix
	newpath
	x y translate
	rx ry scale
	0 0 1 0 360 arc
	setmatrix
} bind def

/endpage { showpage } bind def
/showpage { } def

/layercolorseq
	[	% layer color sequence - darkest to lightest
		[0 0 0]
		[.2 .8 .8]
		[.4 .8 .8]
		[.6 .8 .8]
		[.8 .8 .8]
	]
def

/layerlen layercolorseq length def

/setlayer {/maxlayer exch def /curlayer exch def
	layercolorseq curlayer 1 sub layerlen mod get
	aload pop sethsbcolor
	/nodecolor {nopcolor} def
	/edgecolor {nopcolor} def
	/graphcolor {nopcolor} def
} bind def

/onlayer { curlayer ne {invis} if } def

/onlayers {
	/myupper exch def
	/mylower exch def
	curlayer mylower lt
	curlayer myupper gt
	or
	{invis} if
} def

/curlayer 0 def

%%EndResource
%%EndProlog
%%BeginSetup
14 default-font-family set_font
1 setmiterlimit
% /arrowlength 10 def
% /arrowwidth 5 def

% make sure pdfmark is harmless for PS-interpreters other than Distiller
/pdfmark where {pop} {userdict /pdfmark /cleartomark load put} ifelse
% make '<<' and '>>' safe on PS Level 1 devices
/languagelevel where {pop languagelevel}{1} ifelse
2 lt {
    userdict (<<) cvn ([) cvn load put
    userdict (>>) cvn ([) cvn load put
} if

%%EndSetup
setupLatin1
%%Page: 1 1
%%PageBoundingBox: 36 36 688 356
%%PageOrientation: Portrait
gsave
36 36 688 356 boxprim clip newpath
0 0 1 beginpage
1 1 set_scale 0 rotate 40 40 translate
% Node1
gsave
0.000 0.000 0.749 nodecolor
newpath 378 290 moveto
378 311 lineto
473 311 lineto
473 290 lineto
closepath fill
1 setlinewidth
filled
0.000 0.000 0.000 nodecolor
newpath 378 290 moveto
378 311 lineto
473 311 lineto
473 290 lineto
closepath stroke
0.000 0.000 0.000 nodecolor
10.00 /FreeSans.ttf set_font
425 297 moveto 79 -0.5 (TrieSDisco.cpp) alignedtext
grestore
% Node2
gsave
1 setlinewidth
0.000 0.000 0.749 nodecolor
newpath 0 174 moveto
0 195 lineto
64 195 lineto
64 174 lineto
closepath stroke
0.000 0.000 0.000 nodecolor
10.00 /FreeSans.ttf set_font
32 181 moveto 48 -0.5 (iostream) alignedtext
grestore
% Node1->Node2
gsave
1 setlinewidth
solid
0.667 0.776 0.439 edgecolor
newpath 378 294 moveto
331 286 257 273 195 254 curveto
147 239 94 215 61 200 curveto
stroke
0.667 0.776 0.439 edgecolor
newpath 62.4414 196.797 moveto
52 195 lineto
59.0418 202.916 lineto
closepath fill
1 setlinewidth
solid
0.667 0.776 0.439 edgecolor
newpath 62.4414 196.797 moveto
52 195 lineto
59.0418 202.916 lineto
closepath stroke
grestore
% Node3
gsave
1 setlinewidth
0.000 0.000 0.749 nodecolor
newpath 82 174 moveto
82 195 lineto
143 195 lineto
143 174 lineto
closepath stroke
0.000 0.000 0.000 nodecolor
10.00 /FreeSans.ttf set_font
112 181 moveto 45 -0.5 (iomanip) alignedtext
grestore
% Node1->Node3
gsave
1 setlinewidth
solid
0.667 0.776 0.439 edgecolor
newpath 378 292 moveto
341 283 289 270 246 254 curveto
207 239 164 216 138 200 curveto
stroke
0.667 0.776 0.439 edgecolor
newpath 139.441 196.797 moveto
129 195 lineto
136.042 202.916 lineto
closepath fill
1 setlinewidth
solid
0.667 0.776 0.439 edgecolor
newpath 139.441 196.797 moveto
129 195 lineto
136.042 202.916 lineto
closepath stroke
grestore
% Node4
gsave
1 setlinewidth
0.000 0.000 0.749 nodecolor
newpath 388 174 moveto
388 195 lineto
419 195 lineto
419 174 lineto
closepath stroke
0.000 0.000 0.000 nodecolor
10.00 /FreeSans.ttf set_font
403 181 moveto 15 -0.5 (list) alignedtext
grestore
% Node1->Node4
gsave
1 setlinewidth
solid
0.667 0.776 0.439 edgecolor
newpath 423 290 moveto
419 271 411 230 407 205 curveto
stroke
0.667 0.776 0.439 edgecolor
newpath 410.393 204.119 moveto
405 195 lineto
403.529 205.492 lineto
closepath fill
1 setlinewidth
solid
0.667 0.776 0.439 edgecolor
newpath 410.393 204.119 moveto
405 195 lineto
403.529 205.492 lineto
closepath stroke
grestore
% Node5
gsave
1 setlinewidth
0.000 0.000 0.749 nodecolor
newpath 312 116 moveto
312 137 lineto
362 137 lineto
362 116 lineto
closepath stroke
0.000 0.000 0.000 nodecolor
10.00 /FreeSans.ttf set_font
337 123 moveto 34 -0.5 (vector) alignedtext
grestore
% Node1->Node5
gsave
1 setlinewidth
solid
0.667 0.776 0.439 edgecolor
newpath 429 290 moveto
436 266 449 211 427 174 curveto
421 164 394 150 371 141 curveto
stroke
0.667 0.776 0.439 edgecolor
newpath 372.56 137.863 moveto
362 137 lineto
369.717 144.26 lineto
closepath fill
1 setlinewidth
solid
0.667 0.776 0.439 edgecolor
newpath 372.56 137.863 moveto
362 137 lineto
369.717 144.26 lineto
closepath stroke
grestore
% Node6
gsave
1 setlinewidth
0.000 0.000 0.749 nodecolor
newpath 512 232 moveto
512 253 lineto
570 253 lineto
570 232 lineto
closepath stroke
0.000 0.000 0.000 nodecolor
10.00 /FreeSans.ttf set_font
541 239 moveto 42 -0.5 (fstream) alignedtext
grestore
% Node1->Node6
gsave
1 setlinewidth
solid
0.667 0.776 0.439 edgecolor
newpath 447 290 moveto
466 281 492 267 512 257 curveto
stroke
0.667 0.776 0.439 edgecolor
newpath 513.283 260.26 moveto
521 253 lineto
510.44 253.863 lineto
closepath fill
1 setlinewidth
solid
0.667 0.776 0.439 edgecolor
newpath 513.283 260.26 moveto
521 253 lineto
510.44 253.863 lineto
closepath stroke
grestore
% Node7
gsave
1 setlinewidth
0.000 0.000 0.749 nodecolor
newpath 588 232 moveto
588 253 lineto
645 253 lineto
645 232 lineto
closepath stroke
0.000 0.000 0.000 nodecolor
10.00 /FreeSans.ttf set_font
616 239 moveto 41 -0.5 (istream) alignedtext
grestore
% Node1->Node7
gsave
1 setlinewidth
solid
0.667 0.776 0.439 edgecolor
newpath 461 290 moveto
495 280 544 265 578 255 curveto
stroke
0.667 0.776 0.439 edgecolor
newpath 579.427 258.226 moveto
588 252 lineto
577.416 251.521 lineto
closepath fill
1 setlinewidth
solid
0.667 0.776 0.439 edgecolor
newpath 579.427 258.226 moveto
588 252 lineto
577.416 251.521 lineto
closepath stroke
grestore
% Node8
gsave
1 setlinewidth
0.000 0.000 0.749 nodecolor
newpath 400 0 moveto
400 21 lineto
459 21 lineto
459 0 lineto
closepath stroke
0.000 0.000 0.000 nodecolor
10.00 /FreeSans.ttf set_font
429 7 moveto 43 -0.5 (sstream) alignedtext
grestore
% Node1->Node8
gsave
1 setlinewidth
solid
0.667 0.776 0.439 edgecolor
newpath 435 290 moveto
452 270 484 227 484 185 curveto
484 185 484 185 484 127 curveto
484 89 460 51 444 29 curveto
stroke
0.667 0.776 0.439 edgecolor
newpath 446.8 26.9 moveto
438 21 lineto
441.2 31.1 lineto
closepath fill
1 setlinewidth
solid
0.667 0.776 0.439 edgecolor
newpath 446.8 26.9 moveto
438 21 lineto
441.2 31.1 lineto
closepath stroke
grestore
% Node9
gsave
[ /Rect [ 255 233 351 253 ]
  /Border [ 0 0 0 ]
  /Action << /Subtype /URI /URI ($TrieSDisco_8hpp.html) >>
  /Subtype /Link
/ANN pdfmark
[ /Rect [ 255 233 351 253 ]
  /Border [ 0 0 0 ]
  /Action << /Subtype /URI /URI ($TrieSDisco_8hpp.html) >>
  /Subtype /Link
/ANN pdfmark
1 setlinewidth
0.000 0.000 0.000 nodecolor
newpath 255 232 moveto
255 253 lineto
351 253 lineto
351 232 lineto
closepath stroke
0.000 0.000 0.000 nodecolor
10.00 /FreeSans.ttf set_font
303 239 moveto 80 -0.5 (TrieSDisco.hpp) alignedtext
grestore
% Node1->Node9
gsave
1 setlinewidth
solid
0.667 0.776 0.439 edgecolor
newpath 402 290 moveto
382 280 355 267 333 257 curveto
stroke
0.667 0.776 0.439 edgecolor
newpath 334.56 253.863 moveto
324 253 lineto
331.717 260.26 lineto
closepath fill
1 setlinewidth
solid
0.667 0.776 0.439 edgecolor
newpath 334.56 253.863 moveto
324 253 lineto
331.717 260.26 lineto
closepath stroke
grestore
% Node9->Node2
gsave
1 setlinewidth
solid
0.667 0.776 0.439 edgecolor
newpath 255 234 moveto
210 225 142 211 74 196 curveto
stroke
0.667 0.776 0.439 edgecolor
newpath 74.4922 192.529 moveto
64 194 lineto
73.1194 199.393 lineto
closepath fill
1 setlinewidth
solid
0.667 0.776 0.439 edgecolor
newpath 74.4922 192.529 moveto
64 194 lineto
73.1194 199.393 lineto
closepath stroke
grestore
% Node9->Node3
gsave
1 setlinewidth
solid
0.667 0.776 0.439 edgecolor
newpath 267 232 moveto
234 222 187 208 153 197 curveto
stroke
0.667 0.776 0.439 edgecolor
newpath 153.584 193.521 moveto
143 194 lineto
151.573 200.226 lineto
closepath fill
1 setlinewidth
solid
0.667 0.776 0.439 edgecolor
newpath 153.584 193.521 moveto
143 194 lineto
151.573 200.226 lineto
closepath stroke
grestore
% Node9->Node4
gsave
1 setlinewidth
solid
0.667 0.776 0.439 edgecolor
newpath 322 232 moveto
338 223 361 209 379 199 curveto
stroke
0.667 0.776 0.439 edgecolor
newpath 380.958 201.916 moveto
388 194 lineto
377.559 195.797 lineto
closepath fill
1 setlinewidth
solid
0.667 0.776 0.439 edgecolor
newpath 380.958 201.916 moveto
388 194 lineto
377.559 195.797 lineto
closepath stroke
grestore
% Node9->Node5
gsave
1 setlinewidth
solid
0.667 0.776 0.439 edgecolor
newpath 306 232 moveto
312 213 324 172 331 147 curveto
stroke
0.667 0.776 0.439 edgecolor
newpath 334.479 147.584 moveto
334 137 lineto
327.774 145.573 lineto
closepath fill
1 setlinewidth
solid
0.667 0.776 0.439 edgecolor
newpath 334.479 147.584 moveto
334 137 lineto
327.774 145.573 lineto
closepath stroke
grestore
% Node10
gsave
[ /Rect [ 160 175 256 195 ]
  /Border [ 0 0 0 ]
  /Action << /Subtype /URI /URI ($NodoTrieS_8hpp.html) >>
  /Subtype /Link
/ANN pdfmark
[ /Rect [ 160 175 256 195 ]
  /Border [ 0 0 0 ]
  /Action << /Subtype /URI /URI ($NodoTrieS_8hpp.html) >>
  /Subtype /Link
/ANN pdfmark
1 setlinewidth
0.000 0.000 0.000 nodecolor
newpath 160 174 moveto
160 195 lineto
256 195 lineto
256 174 lineto
closepath stroke
0.000 0.000 0.000 nodecolor
10.00 /FreeSans.ttf set_font
208 181 moveto 80 -0.5 (NodoTrieS.hpp) alignedtext
grestore
% Node9->Node10
gsave
1 setlinewidth
solid
0.667 0.776 0.439 edgecolor
newpath 285 232 moveto
270 223 249 210 233 200 curveto
stroke
0.667 0.776 0.439 edgecolor
newpath 234.441 196.797 moveto
224 195 lineto
231.042 202.916 lineto
closepath fill
1 setlinewidth
solid
0.667 0.776 0.439 edgecolor
newpath 234.441 196.797 moveto
224 195 lineto
231.042 202.916 lineto
closepath stroke
grestore
% Node13
gsave
[ /Rect [ 236 117 294 137 ]
  /Border [ 0 0 0 ]
  /Action << /Subtype /URI /URI ($Pos_8hpp.html) >>
  /Subtype /Link
/ANN pdfmark
[ /Rect [ 236 117 294 137 ]
  /Border [ 0 0 0 ]
  /Action << /Subtype /URI /URI ($Pos_8hpp.html) >>
  /Subtype /Link
/ANN pdfmark
1 setlinewidth
0.000 0.000 0.000 nodecolor
newpath 236 116 moveto
236 137 lineto
294 137 lineto
294 116 lineto
closepath stroke
0.000 0.000 0.000 nodecolor
10.00 /FreeSans.ttf set_font
265 123 moveto 42 -0.5 (Pos.hpp) alignedtext
grestore
% Node9->Node13
gsave
1 setlinewidth
solid
0.667 0.776 0.439 edgecolor
newpath 299 232 moveto
293 213 280 171 271 146 curveto
stroke
0.667 0.776 0.439 edgecolor
newpath 274.483 145.38 moveto
268 137 lineto
267.842 147.594 lineto
closepath fill
1 setlinewidth
solid
0.667 0.776 0.439 edgecolor
newpath 274.483 145.38 moveto
268 137 lineto
267.842 147.594 lineto
closepath stroke
grestore
% Node16
gsave
[ /Rect [ 380 117 440 137 ]
  /Border [ 0 0 0 ]
  /Action << /Subtype /URI /URI ($Doc_8hpp.html) >>
  /Subtype /Link
/ANN pdfmark
[ /Rect [ 380 117 440 137 ]
  /Border [ 0 0 0 ]
  /Action << /Subtype /URI /URI ($Doc_8hpp.html) >>
  /Subtype /Link
/ANN pdfmark
1 setlinewidth
0.000 0.000 0.000 nodecolor
newpath 380 116 moveto
380 137 lineto
441 137 lineto
441 116 lineto
closepath stroke
0.000 0.000 0.000 nodecolor
10.00 /FreeSans.ttf set_font
410 123 moveto 45 -0.5 (Doc.hpp) alignedtext
grestore
% Node9->Node16
gsave
1 setlinewidth
solid
0.667 0.776 0.439 edgecolor
newpath 313 232 moveto
332 212 371 169 394 145 curveto
stroke
0.667 0.776 0.439 edgecolor
newpath 397.049 146.831 moveto
401 137 lineto
391.781 142.221 lineto
closepath fill
1 setlinewidth
solid
0.667 0.776 0.439 edgecolor
newpath 397.049 146.831 moveto
401 137 lineto
391.781 142.221 lineto
closepath stroke
grestore
% Node10->Node5
gsave
1 setlinewidth
solid
0.667 0.776 0.439 edgecolor
newpath 233 174 moveto
253 164 283 151 306 141 curveto
stroke
0.667 0.776 0.439 edgecolor
newpath 307.283 144.26 moveto
315 137 lineto
304.44 137.863 lineto
closepath fill
1 setlinewidth
solid
0.667 0.776 0.439 edgecolor
newpath 307.283 144.26 moveto
315 137 lineto
304.44 137.863 lineto
closepath stroke
grestore
% Node11
gsave
1 setlinewidth
0.000 0.000 0.749 nodecolor
newpath 154 0 moveto
154 21 lineto
186 21 lineto
186 0 lineto
closepath stroke
0.000 0.000 0.000 nodecolor
10.00 /FreeSans.ttf set_font
170 7 moveto 16 -0.5 (set) alignedtext
grestore
% Node10->Node11
gsave
1 setlinewidth
solid
0.667 0.776 0.439 edgecolor
newpath 206 174 moveto
200 145 183 68 174 31 curveto
stroke
0.667 0.776 0.439 edgecolor
newpath 177.393 30.1194 moveto
172 21 lineto
170.529 31.4922 lineto
closepath fill
1 setlinewidth
solid
0.667 0.776 0.439 edgecolor
newpath 177.393 30.1194 moveto
172 21 lineto
170.529 31.4922 lineto
closepath stroke
grestore
% Node12
gsave
1 setlinewidth
0.000 0.000 0.749 nodecolor
newpath 204 0 moveto
204 21 lineto
250 21 lineto
250 0 lineto
closepath stroke
0.000 0.000 0.000 nodecolor
10.00 /FreeSans.ttf set_font
227 7 moveto 30 -0.5 (string) alignedtext
grestore
% Node10->Node12
gsave
1 setlinewidth
solid
0.667 0.776 0.439 edgecolor
newpath 209 174 moveto
212 145 220 68 225 31 curveto
stroke
0.667 0.776 0.439 edgecolor
newpath 228.488 31.2987 moveto
226 21 lineto
221.522 30.6021 lineto
closepath fill
1 setlinewidth
solid
0.667 0.776 0.439 edgecolor
newpath 228.488 31.2987 moveto
226 21 lineto
221.522 30.6021 lineto
closepath stroke
grestore
% Node10->Node13
gsave
1 setlinewidth
solid
0.667 0.776 0.439 edgecolor
newpath 219 174 moveto
228 165 239 154 248 144 curveto
stroke
0.667 0.776 0.439 edgecolor
newpath 250.404 146.546 moveto
255 137 lineto
245.454 141.596 lineto
closepath fill
1 setlinewidth
solid
0.667 0.776 0.439 edgecolor
newpath 250.404 146.546 moveto
255 137 lineto
245.454 141.596 lineto
closepath stroke
grestore
% Node14
gsave
[ /Rect [ 248 59 326 79 ]
  /Border [ 0 0 0 ]
  /Action << /Subtype /URI /URI ($comun_8hpp.html) >>
  /Subtype /Link
/ANN pdfmark
[ /Rect [ 248 59 326 79 ]
  /Border [ 0 0 0 ]
  /Action << /Subtype /URI /URI ($comun_8hpp.html) >>
  /Subtype /Link
/ANN pdfmark
1 setlinewidth
0.000 0.000 0.000 nodecolor
newpath 248 58 moveto
248 79 lineto
326 79 lineto
326 58 lineto
closepath stroke
0.000 0.000 0.000 nodecolor
10.00 /FreeSans.ttf set_font
287 65 moveto 62 -0.5 (comun.hpp) alignedtext
grestore
% Node13->Node14
gsave
1 setlinewidth
solid
0.667 0.776 0.439 edgecolor
newpath 269 116 moveto
272 108 276 97 279 88 curveto
stroke
0.667 0.776 0.439 edgecolor
newpath 282.137 89.5596 moveto
283 79 lineto
275.74 86.7166 lineto
closepath fill
1 setlinewidth
solid
0.667 0.776 0.439 edgecolor
newpath 282.137 89.5596 moveto
283 79 lineto
275.74 86.7166 lineto
closepath stroke
grestore
% Node14->Node8
gsave
1 setlinewidth
solid
0.667 0.776 0.439 edgecolor
newpath 314 58 moveto
337 48 370 35 395 25 curveto
stroke
0.667 0.776 0.439 edgecolor
newpath 396.283 28.2598 moveto
404 21 lineto
393.44 21.8631 lineto
closepath fill
1 setlinewidth
solid
0.667 0.776 0.439 edgecolor
newpath 396.283 28.2598 moveto
404 21 lineto
393.44 21.8631 lineto
closepath stroke
grestore
% Node14->Node11
gsave
1 setlinewidth
solid
0.667 0.776 0.439 edgecolor
newpath 265 58 moveto
245 48 216 34 195 23 curveto
stroke
0.667 0.776 0.439 edgecolor
newpath 196.56 19.8631 moveto
186 19 lineto
193.717 26.2598 lineto
closepath fill
1 setlinewidth
solid
0.667 0.776 0.439 edgecolor
newpath 196.56 19.8631 moveto
186 19 lineto
193.717 26.2598 lineto
closepath stroke
grestore
% Node14->Node12
gsave
1 setlinewidth
solid
0.667 0.776 0.439 edgecolor
newpath 275 58 moveto
266 49 255 38 245 28 curveto
stroke
0.667 0.776 0.439 edgecolor
newpath 246.831 24.9511 moveto
237 21 lineto
242.221 30.2191 lineto
closepath fill
1 setlinewidth
solid
0.667 0.776 0.439 edgecolor
newpath 246.831 24.9511 moveto
237 21 lineto
242.221 30.2191 lineto
closepath stroke
grestore
% Node15
gsave
1 setlinewidth
0.000 0.000 0.749 nodecolor
newpath 268 0 moveto
268 21 lineto
329 21 lineto
329 0 lineto
closepath stroke
0.000 0.000 0.000 nodecolor
10.00 /FreeSans.ttf set_font
298 7 moveto 45 -0.5 (ostream) alignedtext
grestore
% Node14->Node15
gsave
1 setlinewidth
solid
0.667 0.776 0.439 edgecolor
newpath 289 58 moveto
290 50 292 40 294 31 curveto
stroke
0.667 0.776 0.439 edgecolor
newpath 297.471 31.4922 moveto
296 21 lineto
290.607 30.1194 lineto
closepath fill
1 setlinewidth
solid
0.667 0.776 0.439 edgecolor
newpath 297.471 31.4922 moveto
296 21 lineto
290.607 30.1194 lineto
closepath stroke
grestore
% Node16->Node14
gsave
1 setlinewidth
solid
0.667 0.776 0.439 edgecolor
newpath 387 116 moveto
367 106 339 93 317 83 curveto
stroke
0.667 0.776 0.439 edgecolor
newpath 318.56 79.8631 moveto
308 79 lineto
315.717 86.2598 lineto
closepath fill
1 setlinewidth
solid
0.667 0.776 0.439 edgecolor
newpath 318.56 79.8631 moveto
308 79 lineto
315.717 86.2598 lineto
closepath stroke
grestore
endpage
showpage
grestore
%%PageTrailer
%%EndPage: 1
%%Trailer
%%Pages: 1
%%BoundingBox: 36 36 688 356
end
restore
%%EOF
