%!PS-Adobe-2.0
%%Creator: Graphviz version 2.12 (Mon Nov 16 18:34:03 UTC 2009)
%%For: (vtamara) Vladimir
%%Title: G
%%Pages: (atend)
%%BoundingBox: (atend)
%%EndComments
save
%%BeginProlog
/DotDict 200 dict def
DotDict begin

/setupLatin1 {
mark
/EncodingVector 256 array def
 EncodingVector 0

ISOLatin1Encoding 0 255 getinterval putinterval
EncodingVector 45 /hyphen put

% Set up ISO Latin 1 character encoding
/starnetISO {
        dup dup findfont dup length dict begin
        { 1 index /FID ne { def }{ pop pop } ifelse
        } forall
        /Encoding EncodingVector def
        currentdict end definefont
} def
/Times-Roman starnetISO def
/Times-Italic starnetISO def
/Times-Bold starnetISO def
/Times-BoldItalic starnetISO def
/Helvetica starnetISO def
/Helvetica-Oblique starnetISO def
/Helvetica-Bold starnetISO def
/Helvetica-BoldOblique starnetISO def
/Courier starnetISO def
/Courier-Oblique starnetISO def
/Courier-Bold starnetISO def
/Courier-BoldOblique starnetISO def
cleartomark
} bind def

%%BeginResource: procset graphviz 0 0
/coord-font-family /Times-Roman def
/default-font-family /Times-Roman def
/coordfont coord-font-family findfont 8 scalefont def

/InvScaleFactor 1.0 def
/set_scale {
       dup 1 exch div /InvScaleFactor exch def
       scale
} bind def

% styles
/solid { [] 0 setdash } bind def
/dashed { [9 InvScaleFactor mul dup ] 0 setdash } bind def
/dotted { [1 InvScaleFactor mul 6 InvScaleFactor mul] 0 setdash } bind def
/invis {/fill {newpath} def /stroke {newpath} def /show {pop newpath} def} bind def
/bold { 2 setlinewidth } bind def
/filled { } bind def
/unfilled { } bind def
/rounded { } bind def
/diagonals { } bind def

% hooks for setting color 
/nodecolor { sethsbcolor } bind def
/edgecolor { sethsbcolor } bind def
/graphcolor { sethsbcolor } bind def
/nopcolor {pop pop pop} bind def

/beginpage {	% i j npages
	/npages exch def
	/j exch def
	/i exch def
	/str 10 string def
	npages 1 gt {
		gsave
			coordfont setfont
			0 0 moveto
			(\() show i str cvs show (,) show j str cvs show (\)) show
		grestore
	} if
} bind def

/set_font {
	findfont exch
	scalefont setfont
} def

% draw aligned label in bounding box aligned to current point
/alignedtext {			% width adj text
	/text exch def
	/adj exch def
	/width exch def
	gsave
		width 0 gt {
			text stringwidth pop adj mul 0 rmoveto
		} if
		[] 0 setdash
		text show
	grestore
} def

/boxprim {				% xcorner ycorner xsize ysize
		4 2 roll
		moveto
		2 copy
		exch 0 rlineto
		0 exch rlineto
		pop neg 0 rlineto
		closepath
} bind def

/ellipse_path {
	/ry exch def
	/rx exch def
	/y exch def
	/x exch def
	matrix currentmatrix
	newpath
	x y translate
	rx ry scale
	0 0 1 0 360 arc
	setmatrix
} bind def

/endpage { showpage } bind def
/showpage { } def

/layercolorseq
	[	% layer color sequence - darkest to lightest
		[0 0 0]
		[.2 .8 .8]
		[.4 .8 .8]
		[.6 .8 .8]
		[.8 .8 .8]
	]
def

/layerlen layercolorseq length def

/setlayer {/maxlayer exch def /curlayer exch def
	layercolorseq curlayer 1 sub layerlen mod get
	aload pop sethsbcolor
	/nodecolor {nopcolor} def
	/edgecolor {nopcolor} def
	/graphcolor {nopcolor} def
} bind def

/onlayer { curlayer ne {invis} if } def

/onlayers {
	/myupper exch def
	/mylower exch def
	curlayer mylower lt
	curlayer myupper gt
	or
	{invis} if
} def

/curlayer 0 def

%%EndResource
%%EndProlog
%%BeginSetup
14 default-font-family set_font
1 setmiterlimit
% /arrowlength 10 def
% /arrowwidth 5 def

% make sure pdfmark is harmless for PS-interpreters other than Distiller
/pdfmark where {pop} {userdict /pdfmark /cleartomark load put} ifelse
% make '<<' and '>>' safe on PS Level 1 devices
/languagelevel where {pop languagelevel}{1} ifelse
2 lt {
    userdict (<<) cvn ([) cvn load put
    userdict (>>) cvn ([) cvn load put
} if

%%EndSetup
setupLatin1
%%Page: 1 1
%%PageBoundingBox: 36 36 538 298
%%PageOrientation: Portrait
gsave
36 36 538 298 boxprim clip newpath
0 0 1 beginpage
1 1 set_scale 0 rotate 40 40 translate
% Node1
gsave
0.000 0.000 0.749 nodecolor
newpath 170 232 moveto
170 253 lineto
266 253 lineto
266 232 lineto
closepath fill
1 setlinewidth
filled
0.000 0.000 0.000 nodecolor
newpath 170 232 moveto
170 253 lineto
266 253 lineto
266 232 lineto
closepath stroke
0.000 0.000 0.000 nodecolor
10.00 /FreeSans.ttf set_font
218 239 moveto 80 -0.5 (TrieSDisco.hpp) alignedtext
grestore
% Node2
gsave
1 setlinewidth
0.000 0.000 0.749 nodecolor
newpath 0 174 moveto
0 195 lineto
64 195 lineto
64 174 lineto
closepath stroke
0.000 0.000 0.000 nodecolor
10.00 /FreeSans.ttf set_font
32 181 moveto 48 -0.5 (iostream) alignedtext
grestore
% Node1->Node2
gsave
1 setlinewidth
solid
0.667 0.776 0.439 edgecolor
newpath 183 232 moveto
152 222 107 208 74 198 curveto
stroke
0.667 0.776 0.439 edgecolor
newpath 74.584 194.521 moveto
64 195 lineto
72.5725 201.226 lineto
closepath fill
1 setlinewidth
solid
0.667 0.776 0.439 edgecolor
newpath 74.584 194.521 moveto
64 195 lineto
72.5725 201.226 lineto
closepath stroke
grestore
% Node3
gsave
1 setlinewidth
0.000 0.000 0.749 nodecolor
newpath 82 174 moveto
82 195 lineto
143 195 lineto
143 174 lineto
closepath stroke
0.000 0.000 0.000 nodecolor
10.00 /FreeSans.ttf set_font
112 181 moveto 45 -0.5 (iomanip) alignedtext
grestore
% Node1->Node3
gsave
1 setlinewidth
solid
0.667 0.776 0.439 edgecolor
newpath 198 232 moveto
181 223 157 210 139 200 curveto
stroke
0.667 0.776 0.439 edgecolor
newpath 140.441 196.797 moveto
130 195 lineto
137.042 202.916 lineto
closepath fill
1 setlinewidth
solid
0.667 0.776 0.439 edgecolor
newpath 140.441 196.797 moveto
130 195 lineto
137.042 202.916 lineto
closepath stroke
grestore
% Node4
gsave
1 setlinewidth
0.000 0.000 0.749 nodecolor
newpath 160 174 moveto
160 195 lineto
191 195 lineto
191 174 lineto
closepath stroke
0.000 0.000 0.000 nodecolor
10.00 /FreeSans.ttf set_font
175 181 moveto 15 -0.5 (list) alignedtext
grestore
% Node1->Node4
gsave
1 setlinewidth
solid
0.667 0.776 0.439 edgecolor
newpath 210 232 moveto
204 224 195 212 188 203 curveto
stroke
0.667 0.776 0.439 edgecolor
newpath 190.8 200.9 moveto
182 195 lineto
185.2 205.1 lineto
closepath fill
1 setlinewidth
solid
0.667 0.776 0.439 edgecolor
newpath 190.8 200.9 moveto
182 195 lineto
185.2 205.1 lineto
closepath stroke
grestore
% Node5
gsave
1 setlinewidth
0.000 0.000 0.749 nodecolor
newpath 193 116 moveto
193 137 lineto
243 137 lineto
243 116 lineto
closepath stroke
0.000 0.000 0.000 nodecolor
10.00 /FreeSans.ttf set_font
218 123 moveto 34 -0.5 (vector) alignedtext
grestore
% Node1->Node5
gsave
1 setlinewidth
solid
0.667 0.776 0.439 edgecolor
newpath 218 232 moveto
218 213 218 172 218 147 curveto
stroke
0.667 0.776 0.439 edgecolor
newpath 221.5 147 moveto
218 137 lineto
214.5 147 lineto
closepath fill
1 setlinewidth
solid
0.667 0.776 0.439 edgecolor
newpath 221.5 147 moveto
218 137 lineto
214.5 147 lineto
closepath stroke
grestore
% Node6
gsave
[ /Rect [ 246 175 342 195 ]
  /Border [ 0 0 0 ]
  /Action << /Subtype /URI /URI ($NodoTrieS_8hpp.html) >>
  /Subtype /Link
/ANN pdfmark
[ /Rect [ 246 175 342 195 ]
  /Border [ 0 0 0 ]
  /Action << /Subtype /URI /URI ($NodoTrieS_8hpp.html) >>
  /Subtype /Link
/ANN pdfmark
1 setlinewidth
0.000 0.000 0.000 nodecolor
newpath 246 174 moveto
246 195 lineto
342 195 lineto
342 174 lineto
closepath stroke
0.000 0.000 0.000 nodecolor
10.00 /FreeSans.ttf set_font
294 181 moveto 80 -0.5 (NodoTrieS.hpp) alignedtext
grestore
% Node1->Node6
gsave
1 setlinewidth
solid
0.667 0.776 0.439 edgecolor
newpath 233 232 moveto
244 223 260 211 273 201 curveto
stroke
0.667 0.776 0.439 edgecolor
newpath 275.1 203.8 moveto
281 195 lineto
270.9 198.2 lineto
closepath fill
1 setlinewidth
solid
0.667 0.776 0.439 edgecolor
newpath 275.1 203.8 moveto
281 195 lineto
270.9 198.2 lineto
closepath stroke
grestore
% Node9
gsave
[ /Rect [ 337 117 395 137 ]
  /Border [ 0 0 0 ]
  /Action << /Subtype /URI /URI ($Pos_8hpp.html) >>
  /Subtype /Link
/ANN pdfmark
[ /Rect [ 337 117 395 137 ]
  /Border [ 0 0 0 ]
  /Action << /Subtype /URI /URI ($Pos_8hpp.html) >>
  /Subtype /Link
/ANN pdfmark
1 setlinewidth
0.000 0.000 0.000 nodecolor
newpath 337 116 moveto
337 137 lineto
395 137 lineto
395 116 lineto
closepath stroke
0.000 0.000 0.000 nodecolor
10.00 /FreeSans.ttf set_font
366 123 moveto 42 -0.5 (Pos.hpp) alignedtext
grestore
% Node1->Node9
gsave
1 setlinewidth
solid
0.667 0.776 0.439 edgecolor
newpath 263 232 moveto
297 223 339 209 351 196 curveto
362 182 366 162 367 147 curveto
stroke
0.667 0.776 0.439 edgecolor
newpath 370.5 147 moveto
367 137 lineto
363.5 147 lineto
closepath fill
1 setlinewidth
solid
0.667 0.776 0.439 edgecolor
newpath 370.5 147 moveto
367 137 lineto
363.5 147 lineto
closepath stroke
grestore
% Node13
gsave
[ /Rect [ 413 117 473 137 ]
  /Border [ 0 0 0 ]
  /Action << /Subtype /URI /URI ($Doc_8hpp.html) >>
  /Subtype /Link
/ANN pdfmark
[ /Rect [ 413 117 473 137 ]
  /Border [ 0 0 0 ]
  /Action << /Subtype /URI /URI ($Doc_8hpp.html) >>
  /Subtype /Link
/ANN pdfmark
1 setlinewidth
0.000 0.000 0.000 nodecolor
newpath 413 116 moveto
413 137 lineto
474 137 lineto
474 116 lineto
closepath stroke
0.000 0.000 0.000 nodecolor
10.00 /FreeSans.ttf set_font
443 123 moveto 45 -0.5 (Doc.hpp) alignedtext
grestore
% Node1->Node13
gsave
1 setlinewidth
solid
0.667 0.776 0.439 edgecolor
newpath 266 233 moveto
296 226 335 214 367 196 curveto
390 182 413 160 427 144 curveto
stroke
0.667 0.776 0.439 edgecolor
newpath 429.404 146.546 moveto
434 137 lineto
424.454 141.596 lineto
closepath fill
1 setlinewidth
solid
0.667 0.776 0.439 edgecolor
newpath 429.404 146.546 moveto
434 137 lineto
424.454 141.596 lineto
closepath stroke
grestore
% Node6->Node5
gsave
1 setlinewidth
solid
0.667 0.776 0.439 edgecolor
newpath 279 174 moveto
268 165 252 153 239 143 curveto
stroke
0.667 0.776 0.439 edgecolor
newpath 241.1 140.2 moveto
231 137 lineto
236.9 145.8 lineto
closepath fill
1 setlinewidth
solid
0.667 0.776 0.439 edgecolor
newpath 241.1 140.2 moveto
231 137 lineto
236.9 145.8 lineto
closepath stroke
grestore
% Node7
gsave
1 setlinewidth
0.000 0.000 0.749 nodecolor
newpath 308 0 moveto
308 21 lineto
340 21 lineto
340 0 lineto
closepath stroke
0.000 0.000 0.000 nodecolor
10.00 /FreeSans.ttf set_font
324 7 moveto 16 -0.5 (set) alignedtext
grestore
% Node6->Node7
gsave
1 setlinewidth
solid
0.667 0.776 0.439 edgecolor
newpath 296 174 moveto
301 145 314 68 320 31 curveto
stroke
0.667 0.776 0.439 edgecolor
newpath 323.471 31.4922 moveto
322 21 lineto
316.607 30.1194 lineto
closepath fill
1 setlinewidth
solid
0.667 0.776 0.439 edgecolor
newpath 323.471 31.4922 moveto
322 21 lineto
316.607 30.1194 lineto
closepath stroke
grestore
% Node8
gsave
1 setlinewidth
0.000 0.000 0.749 nodecolor
newpath 244 0 moveto
244 21 lineto
290 21 lineto
290 0 lineto
closepath stroke
0.000 0.000 0.000 nodecolor
10.00 /FreeSans.ttf set_font
267 7 moveto 30 -0.5 (string) alignedtext
grestore
% Node6->Node8
gsave
1 setlinewidth
solid
0.667 0.776 0.439 edgecolor
newpath 292 174 moveto
287 145 276 68 270 31 curveto
stroke
0.667 0.776 0.439 edgecolor
newpath 273.478 30.6021 moveto
269 21 lineto
266.512 31.2987 lineto
closepath fill
1 setlinewidth
solid
0.667 0.776 0.439 edgecolor
newpath 273.478 30.6021 moveto
269 21 lineto
266.512 31.2987 lineto
closepath stroke
grestore
% Node6->Node9
gsave
1 setlinewidth
solid
0.667 0.776 0.439 edgecolor
newpath 308 174 moveto
319 165 334 153 346 143 curveto
stroke
0.667 0.776 0.439 edgecolor
newpath 348.1 145.8 moveto
354 137 lineto
343.9 140.2 lineto
closepath fill
1 setlinewidth
solid
0.667 0.776 0.439 edgecolor
newpath 348.1 145.8 moveto
354 137 lineto
343.9 140.2 lineto
closepath stroke
grestore
% Node10
gsave
[ /Rect [ 345 59 423 79 ]
  /Border [ 0 0 0 ]
  /Action << /Subtype /URI /URI ($comun_8hpp.html) >>
  /Subtype /Link
/ANN pdfmark
[ /Rect [ 345 59 423 79 ]
  /Border [ 0 0 0 ]
  /Action << /Subtype /URI /URI ($comun_8hpp.html) >>
  /Subtype /Link
/ANN pdfmark
1 setlinewidth
0.000 0.000 0.000 nodecolor
newpath 345 58 moveto
345 79 lineto
423 79 lineto
423 58 lineto
closepath stroke
0.000 0.000 0.000 nodecolor
10.00 /FreeSans.ttf set_font
384 65 moveto 62 -0.5 (comun.hpp) alignedtext
grestore
% Node9->Node10
gsave
1 setlinewidth
solid
0.667 0.776 0.439 edgecolor
newpath 369 116 moveto
372 108 375 98 378 89 curveto
stroke
0.667 0.776 0.439 edgecolor
newpath 381.479 89.584 moveto
381 79 lineto
374.774 87.5725 lineto
closepath fill
1 setlinewidth
solid
0.667 0.776 0.439 edgecolor
newpath 381.479 89.584 moveto
381 79 lineto
374.774 87.5725 lineto
closepath stroke
grestore
% Node10->Node7
gsave
1 setlinewidth
solid
0.667 0.776 0.439 edgecolor
newpath 372 58 moveto
363 49 352 38 342 28 curveto
stroke
0.667 0.776 0.439 edgecolor
newpath 343.831 24.9511 moveto
334 21 lineto
339.221 30.2191 lineto
closepath fill
1 setlinewidth
solid
0.667 0.776 0.439 edgecolor
newpath 343.831 24.9511 moveto
334 21 lineto
339.221 30.2191 lineto
closepath stroke
grestore
% Node10->Node8
gsave
1 setlinewidth
solid
0.667 0.776 0.439 edgecolor
newpath 362 58 moveto
343 49 317 35 296 25 curveto
stroke
0.667 0.776 0.439 edgecolor
newpath 297.56 21.8631 moveto
287 21 lineto
294.717 28.2598 lineto
closepath fill
1 setlinewidth
solid
0.667 0.776 0.439 edgecolor
newpath 297.56 21.8631 moveto
287 21 lineto
294.717 28.2598 lineto
closepath stroke
grestore
% Node11
gsave
1 setlinewidth
0.000 0.000 0.749 nodecolor
newpath 358 0 moveto
358 21 lineto
419 21 lineto
419 0 lineto
closepath stroke
0.000 0.000 0.000 nodecolor
10.00 /FreeSans.ttf set_font
388 7 moveto 45 -0.5 (ostream) alignedtext
grestore
% Node10->Node11
gsave
1 setlinewidth
solid
0.667 0.776 0.439 edgecolor
newpath 385 58 moveto
386 50 386 40 387 31 curveto
stroke
0.667 0.776 0.439 edgecolor
newpath 390.5 31 moveto
387 21 lineto
383.5 31 lineto
closepath fill
1 setlinewidth
solid
0.667 0.776 0.439 edgecolor
newpath 390.5 31 moveto
387 21 lineto
383.5 31 lineto
closepath stroke
grestore
% Node12
gsave
1 setlinewidth
0.000 0.000 0.749 nodecolor
newpath 436 0 moveto
436 21 lineto
495 21 lineto
495 0 lineto
closepath stroke
0.000 0.000 0.000 nodecolor
10.00 /FreeSans.ttf set_font
465 7 moveto 43 -0.5 (sstream) alignedtext
grestore
% Node10->Node12
gsave
1 setlinewidth
solid
0.667 0.776 0.439 edgecolor
newpath 400 58 moveto
412 49 429 37 443 27 curveto
stroke
0.667 0.776 0.439 edgecolor
newpath 445.1 29.8 moveto
451 21 lineto
440.9 24.2 lineto
closepath fill
1 setlinewidth
solid
0.667 0.776 0.439 edgecolor
newpath 445.1 29.8 moveto
451 21 lineto
440.9 24.2 lineto
closepath stroke
grestore
% Node13->Node10
gsave
1 setlinewidth
solid
0.667 0.776 0.439 edgecolor
newpath 432 116 moveto
423 107 411 96 401 86 curveto
stroke
0.667 0.776 0.439 edgecolor
newpath 403.546 83.5962 moveto
394 79 lineto
398.596 88.546 lineto
closepath fill
1 setlinewidth
solid
0.667 0.776 0.439 edgecolor
newpath 403.546 83.5962 moveto
394 79 lineto
398.596 88.546 lineto
closepath stroke
grestore
endpage
showpage
grestore
%%PageTrailer
%%EndPage: 1
%%Trailer
%%Pages: 1
%%BoundingBox: 36 36 538 298
end
restore
%%EOF
