%!PS-Adobe-2.0
%%Creator: Graphviz version 2.12 (Mon Nov 16 18:34:03 UTC 2009)
%%For: (vtamara) Vladimir
%%Title: G
%%Pages: (atend)
%%BoundingBox: (atend)
%%EndComments
save
%%BeginProlog
/DotDict 200 dict def
DotDict begin

/setupLatin1 {
mark
/EncodingVector 256 array def
 EncodingVector 0

ISOLatin1Encoding 0 255 getinterval putinterval
EncodingVector 45 /hyphen put

% Set up ISO Latin 1 character encoding
/starnetISO {
        dup dup findfont dup length dict begin
        { 1 index /FID ne { def }{ pop pop } ifelse
        } forall
        /Encoding EncodingVector def
        currentdict end definefont
} def
/Times-Roman starnetISO def
/Times-Italic starnetISO def
/Times-Bold starnetISO def
/Times-BoldItalic starnetISO def
/Helvetica starnetISO def
/Helvetica-Oblique starnetISO def
/Helvetica-Bold starnetISO def
/Helvetica-BoldOblique starnetISO def
/Courier starnetISO def
/Courier-Oblique starnetISO def
/Courier-Bold starnetISO def
/Courier-BoldOblique starnetISO def
cleartomark
} bind def

%%BeginResource: procset graphviz 0 0
/coord-font-family /Times-Roman def
/default-font-family /Times-Roman def
/coordfont coord-font-family findfont 8 scalefont def

/InvScaleFactor 1.0 def
/set_scale {
       dup 1 exch div /InvScaleFactor exch def
       scale
} bind def

% styles
/solid { [] 0 setdash } bind def
/dashed { [9 InvScaleFactor mul dup ] 0 setdash } bind def
/dotted { [1 InvScaleFactor mul 6 InvScaleFactor mul] 0 setdash } bind def
/invis {/fill {newpath} def /stroke {newpath} def /show {pop newpath} def} bind def
/bold { 2 setlinewidth } bind def
/filled { } bind def
/unfilled { } bind def
/rounded { } bind def
/diagonals { } bind def

% hooks for setting color 
/nodecolor { sethsbcolor } bind def
/edgecolor { sethsbcolor } bind def
/graphcolor { sethsbcolor } bind def
/nopcolor {pop pop pop} bind def

/beginpage {	% i j npages
	/npages exch def
	/j exch def
	/i exch def
	/str 10 string def
	npages 1 gt {
		gsave
			coordfont setfont
			0 0 moveto
			(\() show i str cvs show (,) show j str cvs show (\)) show
		grestore
	} if
} bind def

/set_font {
	findfont exch
	scalefont setfont
} def

% draw aligned label in bounding box aligned to current point
/alignedtext {			% width adj text
	/text exch def
	/adj exch def
	/width exch def
	gsave
		width 0 gt {
			text stringwidth pop adj mul 0 rmoveto
		} if
		[] 0 setdash
		text show
	grestore
} def

/boxprim {				% xcorner ycorner xsize ysize
		4 2 roll
		moveto
		2 copy
		exch 0 rlineto
		0 exch rlineto
		pop neg 0 rlineto
		closepath
} bind def

/ellipse_path {
	/ry exch def
	/rx exch def
	/y exch def
	/x exch def
	matrix currentmatrix
	newpath
	x y translate
	rx ry scale
	0 0 1 0 360 arc
	setmatrix
} bind def

/endpage { showpage } bind def
/showpage { } def

/layercolorseq
	[	% layer color sequence - darkest to lightest
		[0 0 0]
		[.2 .8 .8]
		[.4 .8 .8]
		[.6 .8 .8]
		[.8 .8 .8]
	]
def

/layerlen layercolorseq length def

/setlayer {/maxlayer exch def /curlayer exch def
	layercolorseq curlayer 1 sub layerlen mod get
	aload pop sethsbcolor
	/nodecolor {nopcolor} def
	/edgecolor {nopcolor} def
	/graphcolor {nopcolor} def
} bind def

/onlayer { curlayer ne {invis} if } def

/onlayers {
	/myupper exch def
	/mylower exch def
	curlayer mylower lt
	curlayer myupper gt
	or
	{invis} if
} def

/curlayer 0 def

%%EndResource
%%EndProlog
%%BeginSetup
14 default-font-family set_font
1 setmiterlimit
% /arrowlength 10 def
% /arrowwidth 5 def

% make sure pdfmark is harmless for PS-interpreters other than Distiller
/pdfmark where {pop} {userdict /pdfmark /cleartomark load put} ifelse
% make '<<' and '>>' safe on PS Level 1 devices
/languagelevel where {pop languagelevel}{1} ifelse
2 lt {
    userdict (<<) cvn ([) cvn load put
    userdict (>>) cvn ([) cvn load put
} if

%%EndSetup
setupLatin1
%%Page: 1 1
%%PageBoundingBox: 36 36 732 414
%%PageOrientation: Portrait
gsave
36 36 732 414 boxprim clip newpath
0 0 1 beginpage
1 1 set_scale 0 rotate 40 40 translate
% Node1
gsave
0.000 0.000 0.749 nodecolor
newpath 273 348 moveto
273 369 lineto
433 369 lineto
433 348 lineto
closepath fill
1 setlinewidth
filled
0.000 0.000 0.000 nodecolor
newpath 273 348 moveto
273 369 lineto
433 369 lineto
433 348 lineto
closepath stroke
0.000 0.000 0.000 nodecolor
10.00 /FreeSans.ttf set_font
353 355 moveto 144 -0.5 (TrieSDiscoCasoPrueba.cpp) alignedtext
grestore
% Node2
gsave
1 setlinewidth
0.000 0.000 0.749 nodecolor
newpath 0 0 moveto
0 21 lineto
59 21 lineto
59 0 lineto
closepath stroke
0.000 0.000 0.000 nodecolor
10.00 /FreeSans.ttf set_font
29 7 moveto 43 -0.5 (sstream) alignedtext
grestore
% Node1->Node2
gsave
1 setlinewidth
solid
0.667 0.776 0.439 edgecolor
newpath 273 348 moveto
171 332 8 298 8 243 curveto
8 243 8 243 8 127 curveto
8 93 17 54 23 31 curveto
stroke
0.667 0.776 0.439 edgecolor
newpath 26.4788 31.584 moveto
26 21 lineto
19.7741 29.5725 lineto
closepath fill
1 setlinewidth
solid
0.667 0.776 0.439 edgecolor
newpath 26.4788 31.584 moveto
26 21 lineto
19.7741 29.5725 lineto
closepath stroke
grestore
% Node3
gsave
[ /Rect [ 400 291 560 311 ]
  /Border [ 0 0 0 ]
  /Action << /Subtype /URI /URI ($TrieSDiscoCasoPrueba_8hpp.html) >>
  /Subtype /Link
/ANN pdfmark
[ /Rect [ 400 291 560 311 ]
  /Border [ 0 0 0 ]
  /Action << /Subtype /URI /URI ($TrieSDiscoCasoPrueba_8hpp.html) >>
  /Subtype /Link
/ANN pdfmark
1 setlinewidth
0.000 0.000 0.000 nodecolor
newpath 400 290 moveto
400 311 lineto
561 311 lineto
561 290 lineto
closepath stroke
0.000 0.000 0.000 nodecolor
10.00 /FreeSans.ttf set_font
480 297 moveto 145 -0.5 (TrieSDiscoCasoPrueba.hpp) alignedtext
grestore
% Node1->Node3
gsave
1 setlinewidth
solid
0.667 0.776 0.439 edgecolor
newpath 377 348 moveto
397 338 426 325 449 315 curveto
stroke
0.667 0.776 0.439 edgecolor
newpath 450.283 318.26 moveto
458 311 lineto
447.44 311.863 lineto
closepath fill
1 setlinewidth
solid
0.667 0.776 0.439 edgecolor
newpath 450.283 318.26 moveto
458 311 lineto
447.44 311.863 lineto
closepath stroke
grestore
% Node5
gsave
[ /Rect [ 362 233 458 253 ]
  /Border [ 0 0 0 ]
  /Action << /Subtype /URI /URI ($TrieSDisco_8hpp.html) >>
  /Subtype /Link
/ANN pdfmark
[ /Rect [ 362 233 458 253 ]
  /Border [ 0 0 0 ]
  /Action << /Subtype /URI /URI ($TrieSDisco_8hpp.html) >>
  /Subtype /Link
/ANN pdfmark
1 setlinewidth
0.000 0.000 0.000 nodecolor
newpath 362 232 moveto
362 253 lineto
458 253 lineto
458 232 lineto
closepath stroke
0.000 0.000 0.000 nodecolor
10.00 /FreeSans.ttf set_font
410 239 moveto 80 -0.5 (TrieSDisco.hpp) alignedtext
grestore
% Node1->Node5
gsave
1 setlinewidth
solid
0.667 0.776 0.439 edgecolor
newpath 358 348 moveto
369 329 388 287 400 262 curveto
stroke
0.667 0.776 0.439 edgecolor
newpath 403.203 263.441 moveto
405 253 lineto
397.084 260.042 lineto
closepath fill
1 setlinewidth
solid
0.667 0.776 0.439 edgecolor
newpath 403.203 263.441 moveto
405 253 lineto
397.084 260.042 lineto
closepath stroke
grestore
% Node10
gsave
[ /Rect [ 228 175 324 195 ]
  /Border [ 0 0 0 ]
  /Action << /Subtype /URI /URI ($NodoTrieS_8hpp.html) >>
  /Subtype /Link
/ANN pdfmark
[ /Rect [ 228 175 324 195 ]
  /Border [ 0 0 0 ]
  /Action << /Subtype /URI /URI ($NodoTrieS_8hpp.html) >>
  /Subtype /Link
/ANN pdfmark
1 setlinewidth
0.000 0.000 0.000 nodecolor
newpath 228 174 moveto
228 195 lineto
324 195 lineto
324 174 lineto
closepath stroke
0.000 0.000 0.000 nodecolor
10.00 /FreeSans.ttf set_font
276 181 moveto 80 -0.5 (NodoTrieS.hpp) alignedtext
grestore
% Node1->Node10
gsave
1 setlinewidth
solid
0.667 0.776 0.439 edgecolor
newpath 348 348 moveto
335 319 301 241 285 204 curveto
stroke
0.667 0.776 0.439 edgecolor
newpath 288.26 202.717 moveto
281 195 lineto
281.863 205.56 lineto
closepath fill
1 setlinewidth
solid
0.667 0.776 0.439 edgecolor
newpath 288.26 202.717 moveto
281 195 lineto
281.863 205.56 lineto
closepath stroke
grestore
% Node17
gsave
[ /Rect [ 211 291 305 311 ]
  /Border [ 0 0 0 ]
  /Action << /Subtype /URI /URI ($RamDisco_8hpp.html) >>
  /Subtype /Link
/ANN pdfmark
[ /Rect [ 211 291 305 311 ]
  /Border [ 0 0 0 ]
  /Action << /Subtype /URI /URI ($RamDisco_8hpp.html) >>
  /Subtype /Link
/ANN pdfmark
1 setlinewidth
0.000 0.000 0.000 nodecolor
newpath 211 290 moveto
211 311 lineto
305 311 lineto
305 290 lineto
closepath stroke
0.000 0.000 0.000 nodecolor
10.00 /FreeSans.ttf set_font
258 297 moveto 78 -0.5 (RamDisco.hpp) alignedtext
grestore
% Node1->Node17
gsave
1 setlinewidth
solid
0.667 0.776 0.439 edgecolor
newpath 335 348 moveto
320 339 299 326 283 316 curveto
stroke
0.667 0.776 0.439 edgecolor
newpath 284.441 312.797 moveto
274 311 lineto
281.042 318.916 lineto
closepath fill
1 setlinewidth
solid
0.667 0.776 0.439 edgecolor
newpath 284.441 312.797 moveto
274 311 lineto
281.042 318.916 lineto
closepath stroke
grestore
% Node18
gsave
[ /Rect [ 578 291 688 311 ]
  /Border [ 0 0 0 ]
  /Action << /Subtype /URI /URI ($CasosPrueba_8hpp.html) >>
  /Subtype /Link
/ANN pdfmark
[ /Rect [ 578 291 688 311 ]
  /Border [ 0 0 0 ]
  /Action << /Subtype /URI /URI ($CasosPrueba_8hpp.html) >>
  /Subtype /Link
/ANN pdfmark
1 setlinewidth
0.000 0.000 0.000 nodecolor
newpath 578 290 moveto
578 311 lineto
688 311 lineto
688 290 lineto
closepath stroke
0.000 0.000 0.000 nodecolor
10.00 /FreeSans.ttf set_font
633 297 moveto 94 -0.5 (CasosPrueba.hpp) alignedtext
grestore
% Node1->Node18
gsave
1 setlinewidth
solid
0.667 0.776 0.439 edgecolor
newpath 406 348 moveto
455 338 525 323 575 313 curveto
stroke
0.667 0.776 0.439 edgecolor
newpath 575.881 316.393 moveto
585 311 lineto
574.508 309.529 lineto
closepath fill
1 setlinewidth
solid
0.667 0.776 0.439 edgecolor
newpath 575.881 316.393 moveto
585 311 lineto
574.508 309.529 lineto
closepath stroke
grestore
% Node4
gsave
1 setlinewidth
0.000 0.000 0.749 nodecolor
newpath 476 232 moveto
476 253 lineto
681 253 lineto
681 232 lineto
closepath stroke
0.000 0.000 0.000 nodecolor
10.00 /FreeSans.ttf set_font
578 239 moveto 189 -0.5 (cppunit/extensions/HelperMacros.h) alignedtext
grestore
% Node3->Node4
gsave
1 setlinewidth
solid
0.667 0.776 0.439 edgecolor
newpath 499 290 moveto
514 281 536 268 552 258 curveto
stroke
0.667 0.776 0.439 edgecolor
newpath 553.958 260.916 moveto
561 253 lineto
550.559 254.797 lineto
closepath fill
1 setlinewidth
solid
0.667 0.776 0.439 edgecolor
newpath 553.958 260.916 moveto
561 253 lineto
550.559 254.797 lineto
closepath stroke
grestore
% Node6
gsave
1 setlinewidth
0.000 0.000 0.749 nodecolor
newpath 544 174 moveto
544 195 lineto
608 195 lineto
608 174 lineto
closepath stroke
0.000 0.000 0.000 nodecolor
10.00 /FreeSans.ttf set_font
576 181 moveto 48 -0.5 (iostream) alignedtext
grestore
% Node5->Node6
gsave
1 setlinewidth
solid
0.667 0.776 0.439 edgecolor
newpath 442 232 moveto
469 222 508 208 537 198 curveto
stroke
0.667 0.776 0.439 edgecolor
newpath 538.427 201.226 moveto
547 195 lineto
536.416 194.521 lineto
closepath fill
1 setlinewidth
solid
0.667 0.776 0.439 edgecolor
newpath 538.427 201.226 moveto
547 195 lineto
536.416 194.521 lineto
closepath stroke
grestore
% Node7
gsave
1 setlinewidth
0.000 0.000 0.749 nodecolor
newpath 380 174 moveto
380 195 lineto
441 195 lineto
441 174 lineto
closepath stroke
0.000 0.000 0.000 nodecolor
10.00 /FreeSans.ttf set_font
410 181 moveto 45 -0.5 (iomanip) alignedtext
grestore
% Node5->Node7
gsave
1 setlinewidth
solid
0.667 0.776 0.439 edgecolor
newpath 410 232 moveto
410 224 410 214 410 205 curveto
stroke
0.667 0.776 0.439 edgecolor
newpath 413.5 205 moveto
410 195 lineto
406.5 205 lineto
closepath fill
1 setlinewidth
solid
0.667 0.776 0.439 edgecolor
newpath 413.5 205 moveto
410 195 lineto
406.5 205 lineto
closepath stroke
grestore
% Node8
gsave
1 setlinewidth
0.000 0.000 0.749 nodecolor
newpath 496 174 moveto
496 195 lineto
527 195 lineto
527 174 lineto
closepath stroke
0.000 0.000 0.000 nodecolor
10.00 /FreeSans.ttf set_font
511 181 moveto 15 -0.5 (list) alignedtext
grestore
% Node5->Node8
gsave
1 setlinewidth
solid
0.667 0.776 0.439 edgecolor
newpath 429 232 moveto
446 223 469 209 487 199 curveto
stroke
0.667 0.776 0.439 edgecolor
newpath 488.958 201.916 moveto
496 194 lineto
485.559 195.797 lineto
closepath fill
1 setlinewidth
solid
0.667 0.776 0.439 edgecolor
newpath 488.958 201.916 moveto
496 194 lineto
485.559 195.797 lineto
closepath stroke
grestore
% Node9
gsave
1 setlinewidth
0.000 0.000 0.749 nodecolor
newpath 327 116 moveto
327 137 lineto
377 137 lineto
377 116 lineto
closepath stroke
0.000 0.000 0.000 nodecolor
10.00 /FreeSans.ttf set_font
352 123 moveto 34 -0.5 (vector) alignedtext
grestore
% Node5->Node9
gsave
1 setlinewidth
solid
0.667 0.776 0.439 edgecolor
newpath 424 232 moveto
439 218 461 193 449 174 curveto
435 152 408 140 387 134 curveto
stroke
0.667 0.776 0.439 edgecolor
newpath 387.584 130.521 moveto
377 131 lineto
385.573 137.226 lineto
closepath fill
1 setlinewidth
solid
0.667 0.776 0.439 edgecolor
newpath 387.584 130.521 moveto
377 131 lineto
385.573 137.226 lineto
closepath stroke
grestore
% Node5->Node10
gsave
1 setlinewidth
solid
0.667 0.776 0.439 edgecolor
newpath 384 232 moveto
363 222 332 209 308 199 curveto
stroke
0.667 0.776 0.439 edgecolor
newpath 309.56 195.863 moveto
299 195 lineto
306.717 202.26 lineto
closepath fill
1 setlinewidth
solid
0.667 0.776 0.439 edgecolor
newpath 309.56 195.863 moveto
299 195 lineto
306.717 202.26 lineto
closepath stroke
grestore
% Node13
gsave
[ /Rect [ 135 117 193 137 ]
  /Border [ 0 0 0 ]
  /Action << /Subtype /URI /URI ($Pos_8hpp.html) >>
  /Subtype /Link
/ANN pdfmark
[ /Rect [ 135 117 193 137 ]
  /Border [ 0 0 0 ]
  /Action << /Subtype /URI /URI ($Pos_8hpp.html) >>
  /Subtype /Link
/ANN pdfmark
1 setlinewidth
0.000 0.000 0.000 nodecolor
newpath 135 116 moveto
135 137 lineto
193 137 lineto
193 116 lineto
closepath stroke
0.000 0.000 0.000 nodecolor
10.00 /FreeSans.ttf set_font
164 123 moveto 42 -0.5 (Pos.hpp) alignedtext
grestore
% Node5->Node13
gsave
1 setlinewidth
solid
0.667 0.776 0.439 edgecolor
newpath 362 235 moveto
313 226 242 211 219 196 curveto
199 183 183 161 174 146 curveto
stroke
0.667 0.776 0.439 edgecolor
newpath 176.916 144.042 moveto
169 137 lineto
170.797 147.441 lineto
closepath fill
1 setlinewidth
solid
0.667 0.776 0.439 edgecolor
newpath 176.916 144.042 moveto
169 137 lineto
170.797 147.441 lineto
closepath stroke
grestore
% Node16
gsave
[ /Rect [ 74 175 134 195 ]
  /Border [ 0 0 0 ]
  /Action << /Subtype /URI /URI ($Doc_8hpp.html) >>
  /Subtype /Link
/ANN pdfmark
[ /Rect [ 74 175 134 195 ]
  /Border [ 0 0 0 ]
  /Action << /Subtype /URI /URI ($Doc_8hpp.html) >>
  /Subtype /Link
/ANN pdfmark
1 setlinewidth
0.000 0.000 0.000 nodecolor
newpath 74 174 moveto
74 195 lineto
135 195 lineto
135 174 lineto
closepath stroke
0.000 0.000 0.000 nodecolor
10.00 /FreeSans.ttf set_font
104 181 moveto 45 -0.5 (Doc.hpp) alignedtext
grestore
% Node5->Node16
gsave
1 setlinewidth
solid
0.667 0.776 0.439 edgecolor
newpath 362 234 moveto
303 223 202 203 145 193 curveto
stroke
0.667 0.776 0.439 edgecolor
newpath 145.492 189.529 moveto
135 191 lineto
144.119 196.393 lineto
closepath fill
1 setlinewidth
solid
0.667 0.776 0.439 edgecolor
newpath 145.492 189.529 moveto
135 191 lineto
144.119 196.393 lineto
closepath stroke
grestore
% Node10->Node9
gsave
1 setlinewidth
solid
0.667 0.776 0.439 edgecolor
newpath 291 174 moveto
302 165 318 153 331 143 curveto
stroke
0.667 0.776 0.439 edgecolor
newpath 333.1 145.8 moveto
339 137 lineto
328.9 140.2 lineto
closepath fill
1 setlinewidth
solid
0.667 0.776 0.439 edgecolor
newpath 333.1 145.8 moveto
339 137 lineto
328.9 140.2 lineto
closepath stroke
grestore
% Node11
gsave
1 setlinewidth
0.000 0.000 0.749 nodecolor
newpath 248 0 moveto
248 21 lineto
280 21 lineto
280 0 lineto
closepath stroke
0.000 0.000 0.000 nodecolor
10.00 /FreeSans.ttf set_font
264 7 moveto 16 -0.5 (set) alignedtext
grestore
% Node10->Node11
gsave
1 setlinewidth
solid
0.667 0.776 0.439 edgecolor
newpath 275 174 moveto
273 145 268 68 266 31 curveto
stroke
0.667 0.776 0.439 edgecolor
newpath 269.478 30.6021 moveto
265 21 lineto
262.512 31.2987 lineto
closepath fill
1 setlinewidth
solid
0.667 0.776 0.439 edgecolor
newpath 269.478 30.6021 moveto
265 21 lineto
262.512 31.2987 lineto
closepath stroke
grestore
% Node12
gsave
1 setlinewidth
0.000 0.000 0.749 nodecolor
newpath 181 0 moveto
181 21 lineto
227 21 lineto
227 0 lineto
closepath stroke
0.000 0.000 0.000 nodecolor
10.00 /FreeSans.ttf set_font
204 7 moveto 30 -0.5 (string) alignedtext
grestore
% Node10->Node12
gsave
1 setlinewidth
solid
0.667 0.776 0.439 edgecolor
newpath 271 174 moveto
259 145 227 68 212 31 curveto
stroke
0.667 0.776 0.439 edgecolor
newpath 214.964 28.9849 moveto
208 21 lineto
208.464 31.5847 lineto
closepath fill
1 setlinewidth
solid
0.667 0.776 0.439 edgecolor
newpath 214.964 28.9849 moveto
208 21 lineto
208.464 31.5847 lineto
closepath stroke
grestore
% Node10->Node13
gsave
1 setlinewidth
solid
0.667 0.776 0.439 edgecolor
newpath 255 174 moveto
237 165 212 151 192 142 curveto
stroke
0.667 0.776 0.439 edgecolor
newpath 193.441 138.797 moveto
183 137 lineto
190.042 144.916 lineto
closepath fill
1 setlinewidth
solid
0.667 0.776 0.439 edgecolor
newpath 193.441 138.797 moveto
183 137 lineto
190.042 144.916 lineto
closepath stroke
grestore
% Node14
gsave
[ /Rect [ 88 59 166 79 ]
  /Border [ 0 0 0 ]
  /Action << /Subtype /URI /URI ($comun_8hpp.html) >>
  /Subtype /Link
/ANN pdfmark
[ /Rect [ 88 59 166 79 ]
  /Border [ 0 0 0 ]
  /Action << /Subtype /URI /URI ($comun_8hpp.html) >>
  /Subtype /Link
/ANN pdfmark
1 setlinewidth
0.000 0.000 0.000 nodecolor
newpath 88 58 moveto
88 79 lineto
166 79 lineto
166 58 lineto
closepath stroke
0.000 0.000 0.000 nodecolor
10.00 /FreeSans.ttf set_font
127 65 moveto 62 -0.5 (comun.hpp) alignedtext
grestore
% Node13->Node14
gsave
1 setlinewidth
solid
0.667 0.776 0.439 edgecolor
newpath 157 116 moveto
152 108 145 97 139 87 curveto
stroke
0.667 0.776 0.439 edgecolor
newpath 141.8 84.9 moveto
133 79 lineto
136.2 89.1 lineto
closepath fill
1 setlinewidth
solid
0.667 0.776 0.439 edgecolor
newpath 141.8 84.9 moveto
133 79 lineto
136.2 89.1 lineto
closepath stroke
grestore
% Node14->Node2
gsave
1 setlinewidth
solid
0.667 0.776 0.439 edgecolor
newpath 108 58 moveto
93 49 71 36 55 26 curveto
stroke
0.667 0.776 0.439 edgecolor
newpath 56.4414 22.7969 moveto
46 21 lineto
53.0418 28.916 lineto
closepath fill
1 setlinewidth
solid
0.667 0.776 0.439 edgecolor
newpath 56.4414 22.7969 moveto
46 21 lineto
53.0418 28.916 lineto
closepath stroke
grestore
% Node14->Node11
gsave
1 setlinewidth
solid
0.667 0.776 0.439 edgecolor
newpath 153 58 moveto
178 47 215 32 239 22 curveto
stroke
0.667 0.776 0.439 edgecolor
newpath 240.283 25.2598 moveto
248 18 lineto
237.44 18.8631 lineto
closepath fill
1 setlinewidth
solid
0.667 0.776 0.439 edgecolor
newpath 240.283 25.2598 moveto
248 18 lineto
237.44 18.8631 lineto
closepath stroke
grestore
% Node14->Node12
gsave
1 setlinewidth
solid
0.667 0.776 0.439 edgecolor
newpath 142 58 moveto
153 49 170 37 183 27 curveto
stroke
0.667 0.776 0.439 edgecolor
newpath 185.1 29.8 moveto
191 21 lineto
180.9 24.2 lineto
closepath fill
1 setlinewidth
solid
0.667 0.776 0.439 edgecolor
newpath 185.1 29.8 moveto
191 21 lineto
180.9 24.2 lineto
closepath stroke
grestore
% Node15
gsave
1 setlinewidth
0.000 0.000 0.749 nodecolor
newpath 97 0 moveto
97 21 lineto
158 21 lineto
158 0 lineto
closepath stroke
0.000 0.000 0.000 nodecolor
10.00 /FreeSans.ttf set_font
127 7 moveto 45 -0.5 (ostream) alignedtext
grestore
% Node14->Node15
gsave
1 setlinewidth
solid
0.667 0.776 0.439 edgecolor
newpath 127 58 moveto
127 50 127 40 127 31 curveto
stroke
0.667 0.776 0.439 edgecolor
newpath 130.5 31 moveto
127 21 lineto
123.5 31 lineto
closepath fill
1 setlinewidth
solid
0.667 0.776 0.439 edgecolor
newpath 130.5 31 moveto
127 21 lineto
123.5 31 lineto
closepath stroke
grestore
% Node16->Node14
gsave
1 setlinewidth
solid
0.667 0.776 0.439 edgecolor
newpath 106 174 moveto
110 155 118 114 123 89 curveto
stroke
0.667 0.776 0.439 edgecolor
newpath 126.471 89.4922 moveto
125 79 lineto
119.607 88.1194 lineto
closepath fill
1 setlinewidth
solid
0.667 0.776 0.439 edgecolor
newpath 126.471 89.4922 moveto
125 79 lineto
119.607 88.1194 lineto
closepath stroke
grestore
% Node17->Node5
gsave
1 setlinewidth
solid
0.667 0.776 0.439 edgecolor
newpath 287 290 moveto
312 280 348 267 374 257 curveto
stroke
0.667 0.776 0.439 edgecolor
newpath 376.015 259.964 moveto
384 253 lineto
373.415 253.464 lineto
closepath fill
1 setlinewidth
solid
0.667 0.776 0.439 edgecolor
newpath 376.015 259.964 moveto
384 253 lineto
373.415 253.464 lineto
closepath stroke
grestore
% Node17->Node9
gsave
1 setlinewidth
solid
0.667 0.776 0.439 edgecolor
newpath 268 290 moveto
284 271 315 233 333 196 curveto
340 180 345 161 348 147 curveto
stroke
0.667 0.776 0.439 edgecolor
newpath 351.471 147.492 moveto
350 137 lineto
344.607 146.119 lineto
closepath fill
1 setlinewidth
solid
0.667 0.776 0.439 edgecolor
newpath 351.471 147.492 moveto
350 137 lineto
344.607 146.119 lineto
closepath stroke
grestore
% Node17->Node10
gsave
1 setlinewidth
solid
0.667 0.776 0.439 edgecolor
newpath 260 290 moveto
263 271 269 230 273 205 curveto
stroke
0.667 0.776 0.439 edgecolor
newpath 276.488 205.299 moveto
274 195 lineto
269.522 204.602 lineto
closepath fill
1 setlinewidth
solid
0.667 0.776 0.439 edgecolor
newpath 276.488 205.299 moveto
274 195 lineto
269.522 204.602 lineto
closepath stroke
grestore
% Node17->Node13
gsave
1 setlinewidth
solid
0.667 0.776 0.439 edgecolor
newpath 250 290 moveto
236 271 209 232 191 196 curveto
183 180 176 161 171 147 curveto
stroke
0.667 0.776 0.439 edgecolor
newpath 174.226 145.573 moveto
168 137 lineto
167.521 147.584 lineto
closepath fill
1 setlinewidth
solid
0.667 0.776 0.439 edgecolor
newpath 174.226 145.573 moveto
168 137 lineto
167.521 147.584 lineto
closepath stroke
grestore
% Node17->Node14
gsave
1 setlinewidth
solid
0.667 0.776 0.439 edgecolor
newpath 211 292 moveto
162 280 90 253 65 196 curveto
48 155 84 110 109 86 curveto
stroke
0.667 0.776 0.439 edgecolor
newpath 111.404 88.546 moveto
116 79 lineto
106.454 83.5962 lineto
closepath fill
1 setlinewidth
solid
0.667 0.776 0.439 edgecolor
newpath 111.404 88.546 moveto
116 79 lineto
106.454 83.5962 lineto
closepath stroke
grestore
% Node17->Node16
gsave
1 setlinewidth
solid
0.667 0.776 0.439 edgecolor
newpath 217 290 moveto
195 282 168 271 148 254 curveto
132 240 120 219 112 204 curveto
stroke
0.667 0.776 0.439 edgecolor
newpath 115.26 202.717 moveto
108 195 lineto
108.863 205.56 lineto
closepath fill
1 setlinewidth
solid
0.667 0.776 0.439 edgecolor
newpath 115.26 202.717 moveto
108 195 lineto
108.863 205.56 lineto
closepath stroke
grestore
endpage
showpage
grestore
%%PageTrailer
%%EndPage: 1
%%Trailer
%%Pages: 1
%%BoundingBox: 36 36 732 414
end
restore
%%EOF
