%!PS-Adobe-2.0
%%Creator: Graphviz version 2.12 (Mon Nov 16 18:34:03 UTC 2009)
%%For: (vtamara) Vladimir
%%Title: G
%%Pages: (atend)
%%BoundingBox: (atend)
%%EndComments
save
%%BeginProlog
/DotDict 200 dict def
DotDict begin

/setupLatin1 {
mark
/EncodingVector 256 array def
 EncodingVector 0

ISOLatin1Encoding 0 255 getinterval putinterval
EncodingVector 45 /hyphen put

% Set up ISO Latin 1 character encoding
/starnetISO {
        dup dup findfont dup length dict begin
        { 1 index /FID ne { def }{ pop pop } ifelse
        } forall
        /Encoding EncodingVector def
        currentdict end definefont
} def
/Times-Roman starnetISO def
/Times-Italic starnetISO def
/Times-Bold starnetISO def
/Times-BoldItalic starnetISO def
/Helvetica starnetISO def
/Helvetica-Oblique starnetISO def
/Helvetica-Bold starnetISO def
/Helvetica-BoldOblique starnetISO def
/Courier starnetISO def
/Courier-Oblique starnetISO def
/Courier-Bold starnetISO def
/Courier-BoldOblique starnetISO def
cleartomark
} bind def

%%BeginResource: procset graphviz 0 0
/coord-font-family /Times-Roman def
/default-font-family /Times-Roman def
/coordfont coord-font-family findfont 8 scalefont def

/InvScaleFactor 1.0 def
/set_scale {
       dup 1 exch div /InvScaleFactor exch def
       scale
} bind def

% styles
/solid { [] 0 setdash } bind def
/dashed { [9 InvScaleFactor mul dup ] 0 setdash } bind def
/dotted { [1 InvScaleFactor mul 6 InvScaleFactor mul] 0 setdash } bind def
/invis {/fill {newpath} def /stroke {newpath} def /show {pop newpath} def} bind def
/bold { 2 setlinewidth } bind def
/filled { } bind def
/unfilled { } bind def
/rounded { } bind def
/diagonals { } bind def

% hooks for setting color 
/nodecolor { sethsbcolor } bind def
/edgecolor { sethsbcolor } bind def
/graphcolor { sethsbcolor } bind def
/nopcolor {pop pop pop} bind def

/beginpage {	% i j npages
	/npages exch def
	/j exch def
	/i exch def
	/str 10 string def
	npages 1 gt {
		gsave
			coordfont setfont
			0 0 moveto
			(\() show i str cvs show (,) show j str cvs show (\)) show
		grestore
	} if
} bind def

/set_font {
	findfont exch
	scalefont setfont
} def

% draw aligned label in bounding box aligned to current point
/alignedtext {			% width adj text
	/text exch def
	/adj exch def
	/width exch def
	gsave
		width 0 gt {
			text stringwidth pop adj mul 0 rmoveto
		} if
		[] 0 setdash
		text show
	grestore
} def

/boxprim {				% xcorner ycorner xsize ysize
		4 2 roll
		moveto
		2 copy
		exch 0 rlineto
		0 exch rlineto
		pop neg 0 rlineto
		closepath
} bind def

/ellipse_path {
	/ry exch def
	/rx exch def
	/y exch def
	/x exch def
	matrix currentmatrix
	newpath
	x y translate
	rx ry scale
	0 0 1 0 360 arc
	setmatrix
} bind def

/endpage { showpage } bind def
/showpage { } def

/layercolorseq
	[	% layer color sequence - darkest to lightest
		[0 0 0]
		[.2 .8 .8]
		[.4 .8 .8]
		[.6 .8 .8]
		[.8 .8 .8]
	]
def

/layerlen layercolorseq length def

/setlayer {/maxlayer exch def /curlayer exch def
	layercolorseq curlayer 1 sub layerlen mod get
	aload pop sethsbcolor
	/nodecolor {nopcolor} def
	/edgecolor {nopcolor} def
	/graphcolor {nopcolor} def
} bind def

/onlayer { curlayer ne {invis} if } def

/onlayers {
	/myupper exch def
	/mylower exch def
	curlayer mylower lt
	curlayer myupper gt
	or
	{invis} if
} def

/curlayer 0 def

%%EndResource
%%EndProlog
%%BeginSetup
14 default-font-family set_font
1 setmiterlimit
% /arrowlength 10 def
% /arrowwidth 5 def

% make sure pdfmark is harmless for PS-interpreters other than Distiller
/pdfmark where {pop} {userdict /pdfmark /cleartomark load put} ifelse
% make '<<' and '>>' safe on PS Level 1 devices
/languagelevel where {pop languagelevel}{1} ifelse
2 lt {
    userdict (<<) cvn ([) cvn load put
    userdict (>>) cvn ([) cvn load put
} if

%%EndSetup
setupLatin1
%%Page: 1 1
%%PageBoundingBox: 36 36 1134 463
%%PageOrientation: Portrait
gsave
36 36 1134 463 boxprim clip newpath
0 0 1 beginpage
1 1 set_scale 0 rotate 40 40 translate
% Node1
gsave
0.000 0.000 0.749 nodecolor
newpath 0 209 moveto
0 230 lineto
76 230 lineto
76 209 lineto
closepath fill
1 setlinewidth
filled
0.000 0.000 0.000 nodecolor
newpath 0 209 moveto
0 230 lineto
76 230 lineto
76 209 lineto
closepath stroke
0.000 0.000 0.000 nodecolor
10.00 /FreeSans.ttf set_font
38 216 moveto 60 -0.5 (mezclaRec) alignedtext
grestore
% Node2
gsave
[ /Rect [ 244 351 360 371 ]
  /Border [ 0 0 0 ]
  /Action << /Subtype /URI /URI ($TrieSDisco_8cpp.html#4cc0e861f2e192242a40d6337c70fc5f) >>
  /Subtype /Link
/ANN pdfmark
[ /Rect [ 244 351 360 371 ]
  /Border [ 0 0 0 ]
  /Action << /Subtype /URI /URI ($TrieSDisco_8cpp.html#4cc0e861f2e192242a40d6337c70fc5f) >>
  /Subtype /Link
/ANN pdfmark
1 setlinewidth
0.000 0.000 0.000 nodecolor
newpath 244 350 moveto
244 371 lineto
360 371 lineto
360 350 lineto
closepath stroke
0.000 0.000 0.000 nodecolor
10.00 /FreeSans.ttf set_font
302 357 moveto 100 -0.5 (escribeCopiaNodo) alignedtext
grestore
% Node1->Node2
gsave
1 setlinewidth
solid
0.667 0.776 0.439 edgecolor
newpath 51 230 moveto
65 241 90 260 112 274 curveto
160 302 174 306 224 329 curveto
238 335 252 341 265 346 curveto
stroke
0.667 0.776 0.439 edgecolor
newpath 263.44 349.137 moveto
274 350 lineto
266.283 342.74 lineto
closepath fill
1 setlinewidth
solid
0.667 0.776 0.439 edgecolor
newpath 263.44 349.137 moveto
274 350 lineto
266.283 342.74 lineto
closepath stroke
grestore
% Node3
gsave
[ /Rect [ 416 219 500 239 ]
  /Border [ 0 0 0 ]
  /Action << /Subtype /URI /URI ($TrieSDisco_8cpp.html#95dfc28ebaa02e82d3d1ffce08251628) >>
  /Subtype /Link
/ANN pdfmark
[ /Rect [ 416 219 500 239 ]
  /Border [ 0 0 0 ]
  /Action << /Subtype /URI /URI ($TrieSDisco_8cpp.html#95dfc28ebaa02e82d3d1ffce08251628) >>
  /Subtype /Link
/ANN pdfmark
1 setlinewidth
0.000 0.000 0.000 nodecolor
newpath 416 218 moveto
416 239 lineto
500 239 lineto
500 218 lineto
closepath stroke
0.000 0.000 0.000 nodecolor
10.00 /FreeSans.ttf set_font
458 225 moveto 68 -0.5 (escribeNodo) alignedtext
grestore
% Node1->Node3
gsave
1 setlinewidth
solid
0.667 0.776 0.439 edgecolor
newpath 39 209 moveto
43 178 59 96 112 63 curveto
213 0 280 0 380 63 curveto
431 95 449 171 456 208 curveto
stroke
0.667 0.776 0.439 edgecolor
newpath 452.522 208.398 moveto
457 218 lineto
459.488 207.701 lineto
closepath fill
1 setlinewidth
solid
0.667 0.776 0.439 edgecolor
newpath 452.522 208.398 moveto
457 218 lineto
459.488 207.701 lineto
closepath stroke
grestore
% Node4
gsave
[ /Rect [ 569 149 659 169 ]
  /Border [ 0 0 0 ]
  /Action << /Subtype /URI /URI ($comun_8hpp.html#96402bda6527bf98dd8e49d62ae182f8) >>
  /Subtype /Link
/ANN pdfmark
[ /Rect [ 569 149 659 169 ]
  /Border [ 0 0 0 ]
  /Action << /Subtype /URI /URI ($comun_8hpp.html#96402bda6527bf98dd8e49d62ae182f8) >>
  /Subtype /Link
/ANN pdfmark
1 setlinewidth
0.000 0.000 0.000 nodecolor
newpath 569 148 moveto
569 169 lineto
659 169 lineto
659 148 lineto
closepath stroke
0.000 0.000 0.000 nodecolor
10.00 /FreeSans.ttf set_font
614 155 moveto 74 -0.5 (escribeNDesp) alignedtext
grestore
% Node1->Node4
gsave
1 setlinewidth
solid
0.667 0.776 0.439 edgecolor
newpath 41 209 moveto
50 171 81 47 112 24 curveto
138 5 371 13 380 15 curveto
468 40 556 108 594 141 curveto
stroke
0.667 0.776 0.439 edgecolor
newpath 592.169 144.049 moveto
602 148 lineto
596.779 138.781 lineto
closepath fill
1 setlinewidth
solid
0.667 0.776 0.439 edgecolor
newpath 592.169 144.049 moveto
602 148 lineto
596.779 138.781 lineto
closepath stroke
grestore
% Node13
gsave
[ /Rect [ 431 257 485 277 ]
  /Border [ 0 0 0 ]
  /Action << /Subtype /URI /URI ($comun_8cpp.html#4a359aa93f2dd4e34badd70c0e1f7082) >>
  /Subtype /Link
/ANN pdfmark
[ /Rect [ 431 257 485 277 ]
  /Border [ 0 0 0 ]
  /Action << /Subtype /URI /URI ($comun_8cpp.html#4a359aa93f2dd4e34badd70c0e1f7082) >>
  /Subtype /Link
/ANN pdfmark
1 setlinewidth
0.000 0.000 0.000 nodecolor
newpath 431 256 moveto
431 277 lineto
486 277 lineto
486 256 lineto
closepath stroke
0.000 0.000 0.000 nodecolor
10.00 /FreeSans.ttf set_font
458 263 moveto 39 -0.5 (leeCad) alignedtext
grestore
% Node1->Node13
gsave
1 setlinewidth
solid
0.667 0.776 0.439 edgecolor
newpath 47 209 moveto
61 194 86 166 112 149 curveto
212 80 285 21 380 96 curveto
435 139 372 194 416 248 curveto
418 250 420 252 422 253 curveto
stroke
0.667 0.776 0.439 edgecolor
newpath 420.559 256.203 moveto
431 258 lineto
423.958 250.084 lineto
closepath fill
1 setlinewidth
solid
0.667 0.776 0.439 edgecolor
newpath 420.559 256.203 moveto
431 258 lineto
423.958 250.084 lineto
closepath stroke
grestore
% Node15
gsave
[ /Rect [ 424 313 492 333 ]
  /Border [ 0 0 0 ]
  /Action << /Subtype /URI /URI ($comun_8hpp.html#9871d7357fc245ec5b7a227a9a62eb36) >>
  /Subtype /Link
/ANN pdfmark
[ /Rect [ 424 313 492 333 ]
  /Border [ 0 0 0 ]
  /Action << /Subtype /URI /URI ($comun_8hpp.html#9871d7357fc245ec5b7a227a9a62eb36) >>
  /Subtype /Link
/ANN pdfmark
1 setlinewidth
0.000 0.000 0.000 nodecolor
newpath 424 312 moveto
424 333 lineto
492 333 lineto
492 312 lineto
closepath stroke
0.000 0.000 0.000 nodecolor
10.00 /FreeSans.ttf set_font
458 319 moveto 52 -0.5 (leeNDesp) alignedtext
grestore
% Node1->Node15
gsave
1 setlinewidth
solid
0.667 0.776 0.439 edgecolor
newpath 45 230 moveto
67 261 138 354 224 380 curveto
291 400 315 401 380 380 curveto
404 372 426 354 441 340 curveto
stroke
0.667 0.776 0.439 edgecolor
newpath 443.404 342.546 moveto
448 333 lineto
438.454 337.596 lineto
closepath fill
1 setlinewidth
solid
0.667 0.776 0.439 edgecolor
newpath 443.404 342.546 moveto
448 333 lineto
438.454 337.596 lineto
closepath stroke
grestore
% Node17
gsave
[ /Rect [ 433 372 483 392 ]
  /Border [ 0 0 0 ]
  /Action << /Subtype /URI /URI ($Pos_8cpp.html#36b67a50cba6dc1789825a3111bee9d2) >>
  /Subtype /Link
/ANN pdfmark
[ /Rect [ 433 372 483 392 ]
  /Border [ 0 0 0 ]
  /Action << /Subtype /URI /URI ($Pos_8cpp.html#36b67a50cba6dc1789825a3111bee9d2) >>
  /Subtype /Link
/ANN pdfmark
1 setlinewidth
0.000 0.000 0.000 nodecolor
newpath 433 371 moveto
433 392 lineto
484 392 lineto
484 371 lineto
closepath stroke
0.000 0.000 0.000 nodecolor
10.00 /FreeSans.ttf set_font
458 378 moveto 35 -0.5 (leePos) alignedtext
grestore
% Node1->Node17
gsave
1 setlinewidth
solid
0.667 0.776 0.439 edgecolor
newpath 42 230 moveto
51 254 75 312 112 347 curveto
153 384 171 388 224 401 curveto
292 416 312 409 380 401 curveto
394 399 410 396 423 392 curveto
stroke
0.667 0.776 0.439 edgecolor
newpath 423.881 395.393 moveto
433 390 lineto
422.508 388.529 lineto
closepath fill
1 setlinewidth
solid
0.667 0.776 0.439 edgecolor
newpath 423.881 395.393 moveto
433 390 lineto
422.508 388.529 lineto
closepath stroke
grestore
% Node19
gsave
[ /Rect [ 234 257 370 277 ]
  /Border [ 0 0 0 ]
  /Action << /Subtype /URI /URI ($TrieSDisco_8cpp.html#485d02d9d7ec4ae0114122861420c1d1) >>
  /Subtype /Link
/ANN pdfmark
[ /Rect [ 234 257 370 277 ]
  /Border [ 0 0 0 ]
  /Action << /Subtype /URI /URI ($TrieSDisco_8cpp.html#485d02d9d7ec4ae0114122861420c1d1) >>
  /Subtype /Link
/ANN pdfmark
1 setlinewidth
0.000 0.000 0.000 nodecolor
newpath 234 256 moveto
234 277 lineto
370 277 lineto
370 256 lineto
closepath stroke
0.000 0.000 0.000 nodecolor
10.00 /FreeSans.ttf set_font
302 263 moveto 120 -0.5 (escribeCopiaSubarbol) alignedtext
grestore
% Node1->Node19
gsave
1 setlinewidth
solid
0.667 0.776 0.439 edgecolor
newpath 54 230 moveto
68 239 91 251 112 257 curveto
148 266 189 269 224 270 curveto
stroke
0.667 0.776 0.439 edgecolor
newpath 224 273.5 moveto
234 270 lineto
224 266.5 lineto
closepath fill
1 setlinewidth
solid
0.667 0.776 0.439 edgecolor
newpath 224 273.5 moveto
234 270 lineto
224 266.5 lineto
closepath stroke
grestore
% Node20
gsave
[ /Rect [ 112 210 188 230 ]
  /Border [ 0 0 0 ]
  /Action << /Subtype /URI /URI ($TrieSDisco_8cpp.html#2650ad438abcd85c2ac08ab5c207620d) >>
  /Subtype /Link
/ANN pdfmark
[ /Rect [ 112 210 188 230 ]
  /Border [ 0 0 0 ]
  /Action << /Subtype /URI /URI ($TrieSDisco_8cpp.html#2650ad438abcd85c2ac08ab5c207620d) >>
  /Subtype /Link
/ANN pdfmark
1 setlinewidth
0.000 0.000 0.000 nodecolor
newpath 112 209 moveto
112 230 lineto
188 230 lineto
188 209 lineto
closepath stroke
0.000 0.000 0.000 nodecolor
10.00 /FreeSans.ttf set_font
150 216 moveto 60 -0.5 (mezclaRec) alignedtext
grestore
% Node1->Node20
gsave
1 setlinewidth
solid
0.667 0.776 0.439 edgecolor
newpath 76 220 moveto
85 220 93 220 102 220 curveto
stroke
0.667 0.776 0.439 edgecolor
newpath 102 223.5 moveto
112 220 lineto
102 216.5 lineto
closepath fill
1 setlinewidth
solid
0.667 0.776 0.439 edgecolor
newpath 102 223.5 moveto
112 220 lineto
102 216.5 lineto
closepath stroke
grestore
% Node21
gsave
[ /Rect [ 225 105 379 125 ]
  /Border [ 0 0 0 ]
  /Action << /Subtype /URI /URI ($comun_8cpp.html#c74356d5b37d454e0ddce0de8fac34f8) >>
  /Subtype /Link
/ANN pdfmark
[ /Rect [ 225 105 379 125 ]
  /Border [ 0 0 0 ]
  /Action << /Subtype /URI /URI ($comun_8cpp.html#c74356d5b37d454e0ddce0de8fac34f8) >>
  /Subtype /Link
/ANN pdfmark
1 setlinewidth
0.000 0.000 0.000 nodecolor
newpath 225 104 moveto
225 125 lineto
380 125 lineto
380 104 lineto
closepath stroke
0.000 0.000 0.000 nodecolor
10.00 /FreeSans.ttf set_font
302 111 moveto 139 -0.5 (prefijo_comun_mas_largo) alignedtext
grestore
% Node1->Node21
gsave
1 setlinewidth
solid
0.667 0.776 0.439 edgecolor
newpath 61 209 moveto
96 193 164 161 224 139 curveto
235 135 246 131 256 128 curveto
stroke
0.667 0.776 0.439 edgecolor
newpath 257.427 131.226 moveto
266 125 lineto
255.416 124.521 lineto
closepath fill
1 setlinewidth
solid
0.667 0.776 0.439 edgecolor
newpath 257.427 131.226 moveto
266 125 lineto
255.416 124.521 lineto
closepath stroke
grestore
% Node2->Node3
gsave
1 setlinewidth
solid
0.667 0.776 0.439 edgecolor
newpath 321 350 moveto
338 339 363 323 380 304 curveto
401 282 394 267 416 248 curveto
417 247 419 246 420 245 curveto
stroke
0.667 0.776 0.439 edgecolor
newpath 422.621 247.459 moveto
429 239 lineto
418.738 241.635 lineto
closepath fill
1 setlinewidth
solid
0.667 0.776 0.439 edgecolor
newpath 422.621 247.459 moveto
429 239 lineto
418.738 241.635 lineto
closepath stroke
grestore
% Node2->Node13
gsave
1 setlinewidth
solid
0.667 0.776 0.439 edgecolor
newpath 321 350 moveto
348 333 401 301 432 282 curveto
stroke
0.667 0.776 0.439 edgecolor
newpath 433.958 284.916 moveto
441 277 lineto
430.559 278.797 lineto
closepath fill
1 setlinewidth
solid
0.667 0.776 0.439 edgecolor
newpath 433.958 284.916 moveto
441 277 lineto
430.559 278.797 lineto
closepath stroke
grestore
% Node2->Node15
gsave
1 setlinewidth
solid
0.667 0.776 0.439 edgecolor
newpath 348 350 moveto
369 345 393 339 414 334 curveto
stroke
0.667 0.776 0.439 edgecolor
newpath 414.881 337.393 moveto
424 332 lineto
413.508 330.529 lineto
closepath fill
1 setlinewidth
solid
0.667 0.776 0.439 edgecolor
newpath 414.881 337.393 moveto
424 332 lineto
413.508 330.529 lineto
closepath stroke
grestore
% Node2->Node17
gsave
1 setlinewidth
solid
0.667 0.776 0.439 edgecolor
newpath 360 369 moveto
381 372 404 375 423 378 curveto
stroke
0.667 0.776 0.439 edgecolor
newpath 422.701 381.488 moveto
433 379 lineto
423.398 374.522 lineto
closepath fill
1 setlinewidth
solid
0.667 0.776 0.439 edgecolor
newpath 422.701 381.488 moveto
433 379 lineto
423.398 374.522 lineto
closepath stroke
grestore
% Node3->Node4
gsave
1 setlinewidth
solid
0.667 0.776 0.439 edgecolor
newpath 478 218 moveto
485 214 493 209 500 205 curveto
517 194 518 186 536 178 curveto
543 174 551 171 559 169 curveto
stroke
0.667 0.776 0.439 edgecolor
newpath 559.881 172.393 moveto
569 167 lineto
558.508 165.529 lineto
closepath fill
1 setlinewidth
solid
0.667 0.776 0.439 edgecolor
newpath 559.881 172.393 moveto
569 167 lineto
558.508 165.529 lineto
closepath stroke
grestore
% Node6
gsave
[ /Rect [ 578 187 650 207 ]
  /Border [ 0 0 0 ]
  /Action << /Subtype /URI /URI ($Pos_8cpp.html#42c2daaa880eeb397c024b6ffa22c8cf) >>
  /Subtype /Link
/ANN pdfmark
[ /Rect [ 578 187 650 207 ]
  /Border [ 0 0 0 ]
  /Action << /Subtype /URI /URI ($Pos_8cpp.html#42c2daaa880eeb397c024b6ffa22c8cf) >>
  /Subtype /Link
/ANN pdfmark
1 setlinewidth
0.000 0.000 0.000 nodecolor
newpath 578 186 moveto
578 207 lineto
651 207 lineto
651 186 lineto
closepath stroke
0.000 0.000 0.000 nodecolor
10.00 /FreeSans.ttf set_font
614 193 moveto 57 -0.5 (escribePos) alignedtext
grestore
% Node3->Node6
gsave
1 setlinewidth
solid
0.667 0.776 0.439 edgecolor
newpath 500 220 moveto
521 216 547 211 568 206 curveto
stroke
0.667 0.776 0.439 edgecolor
newpath 568.881 209.393 moveto
578 204 lineto
567.508 202.529 lineto
closepath fill
1 setlinewidth
solid
0.667 0.776 0.439 edgecolor
newpath 568.881 209.393 moveto
578 204 lineto
567.508 202.529 lineto
closepath stroke
grestore
% Node9
gsave
[ /Rect [ 536 225 692 245 ]
  /Border [ 0 0 0 ]
  /Action << /Subtype /URI /URI ($TrieSDisco_8cpp.html#453b277936104f13edb4f8158e015eba) >>
  /Subtype /Link
/ANN pdfmark
[ /Rect [ 536 225 692 245 ]
  /Border [ 0 0 0 ]
  /Action << /Subtype /URI /URI ($TrieSDisco_8cpp.html#453b277936104f13edb4f8158e015eba) >>
  /Subtype /Link
/ANN pdfmark
1 setlinewidth
0.000 0.000 0.000 nodecolor
newpath 536 224 moveto
536 245 lineto
692 245 lineto
692 224 lineto
closepath stroke
0.000 0.000 0.000 nodecolor
10.00 /FreeSans.ttf set_font
614 231 moveto 140 -0.5 (precalcula_escribe_actual) alignedtext
grestore
% Node3->Node9
gsave
1 setlinewidth
solid
0.667 0.776 0.439 edgecolor
newpath 500 231 moveto
508 231 517 232 526 232 curveto
stroke
0.667 0.776 0.439 edgecolor
newpath 526 235.5 moveto
536 232 lineto
526 228.5 lineto
closepath fill
1 setlinewidth
solid
0.667 0.776 0.439 edgecolor
newpath 526 235.5 moveto
536 232 lineto
526 228.5 lineto
closepath stroke
grestore
% Node5
gsave
[ /Rect [ 731 149 813 169 ]
  /Border [ 0 0 0 ]
  /Action << /Subtype /URI /URI ($comun_8cpp.html#b5388a972300b0a3d2e70c16097a3781) >>
  /Subtype /Link
/ANN pdfmark
[ /Rect [ 731 149 813 169 ]
  /Border [ 0 0 0 ]
  /Action << /Subtype /URI /URI ($comun_8cpp.html#b5388a972300b0a3d2e70c16097a3781) >>
  /Subtype /Link
/ANN pdfmark
1 setlinewidth
0.000 0.000 0.000 nodecolor
newpath 731 148 moveto
731 169 lineto
813 169 lineto
813 148 lineto
closepath stroke
0.000 0.000 0.000 nodecolor
10.00 /FreeSans.ttf set_font
772 155 moveto 66 -0.5 (escribe128b) alignedtext
grestore
% Node4->Node5
gsave
1 setlinewidth
solid
0.667 0.776 0.439 edgecolor
newpath 659 159 moveto
679 159 701 159 721 159 curveto
stroke
0.667 0.776 0.439 edgecolor
newpath 721 162.5 moveto
731 159 lineto
721 155.5 lineto
closepath fill
1 setlinewidth
solid
0.667 0.776 0.439 edgecolor
newpath 721 162.5 moveto
731 159 lineto
721 155.5 lineto
closepath stroke
grestore
% Node7
gsave
[ /Rect [ 852 206 980 226 ]
  /Border [ 0 0 0 ]
  /Action << /Subtype /URI /URI ($Elias_8cpp.html#59732ce42a1e75fbbb382a6964ef4620) >>
  /Subtype /Link
/ANN pdfmark
[ /Rect [ 852 206 980 226 ]
  /Border [ 0 0 0 ]
  /Action << /Subtype /URI /URI ($Elias_8cpp.html#59732ce42a1e75fbbb382a6964ef4620) >>
  /Subtype /Link
/ANN pdfmark
1 setlinewidth
0.000 0.000 0.000 nodecolor
newpath 852 205 moveto
852 226 lineto
980 226 lineto
980 205 lineto
closepath stroke
0.000 0.000 0.000 nodecolor
10.00 /FreeSans.ttf set_font
916 212 moveto 112 -0.5 (escribe_elias_gama2) alignedtext
grestore
% Node6->Node7
gsave
1 setlinewidth
solid
0.667 0.776 0.439 edgecolor
newpath 651 199 moveto
698 202 781 207 842 211 curveto
stroke
0.667 0.776 0.439 edgecolor
newpath 841.701 214.488 moveto
852 212 lineto
842.398 207.522 lineto
closepath fill
1 setlinewidth
solid
0.667 0.776 0.439 edgecolor
newpath 841.701 214.488 moveto
852 212 lineto
842.398 207.522 lineto
closepath stroke
grestore
% Node8
gsave
[ /Rect [ 1017 229 1089 249 ]
  /Border [ 0 0 0 ]
  /Action << /Subtype /URI /URI ($Elias_8cpp.html#7127ec8dff13cc2ad873693ca8933d38) >>
  /Subtype /Link
/ANN pdfmark
[ /Rect [ 1017 229 1089 249 ]
  /Border [ 0 0 0 ]
  /Action << /Subtype /URI /URI ($Elias_8cpp.html#7127ec8dff13cc2ad873693ca8933d38) >>
  /Subtype /Link
/ANN pdfmark
1 setlinewidth
0.000 0.000 0.000 nodecolor
newpath 1017 228 moveto
1017 249 lineto
1090 249 lineto
1090 228 lineto
closepath stroke
0.000 0.000 0.000 nodecolor
10.00 /FreeSans.ttf set_font
1053 235 moveto 57 -0.5 (piso_logb2) alignedtext
grestore
% Node7->Node8
gsave
1 setlinewidth
solid
0.667 0.776 0.439 edgecolor
newpath 976 226 moveto
986 228 997 230 1007 231 curveto
stroke
0.667 0.776 0.439 edgecolor
newpath 1006.51 234.471 moveto
1017 233 lineto
1007.88 227.607 lineto
closepath fill
1 setlinewidth
solid
0.667 0.776 0.439 edgecolor
newpath 1006.51 234.471 moveto
1017 233 lineto
1007.88 227.607 lineto
closepath stroke
grestore
% Node10
gsave
[ /Rect [ 735 225 809 245 ]
  /Border [ 0 0 0 ]
  /Action << /Subtype /URI /URI ($comun_8hpp.html#3f1f97c70ac3ffba1584b0fc02661cab) >>
  /Subtype /Link
/ANN pdfmark
[ /Rect [ 735 225 809 245 ]
  /Border [ 0 0 0 ]
  /Action << /Subtype /URI /URI ($comun_8hpp.html#3f1f97c70ac3ffba1584b0fc02661cab) >>
  /Subtype /Link
/ANN pdfmark
1 setlinewidth
0.000 0.000 0.000 nodecolor
newpath 735 224 moveto
735 245 lineto
810 245 lineto
810 224 lineto
closepath stroke
0.000 0.000 0.000 nodecolor
10.00 /FreeSans.ttf set_font
772 231 moveto 59 -0.5 (longNDesp) alignedtext
grestore
% Node9->Node10
gsave
1 setlinewidth
solid
0.667 0.776 0.439 edgecolor
newpath 692 235 moveto
703 235 714 235 725 235 curveto
stroke
0.667 0.776 0.439 edgecolor
newpath 725 238.5 moveto
735 235 lineto
725 231.5 lineto
closepath fill
1 setlinewidth
solid
0.667 0.776 0.439 edgecolor
newpath 725 238.5 moveto
735 235 lineto
725 231.5 lineto
closepath stroke
grestore
% Node11
gsave
[ /Rect [ 743 263 801 283 ]
  /Border [ 0 0 0 ]
  /Action << /Subtype /URI /URI ($Pos_8cpp.html#ad8740377e9e19836d654491a170ac9a) >>
  /Subtype /Link
/ANN pdfmark
[ /Rect [ 743 263 801 283 ]
  /Border [ 0 0 0 ]
  /Action << /Subtype /URI /URI ($Pos_8cpp.html#ad8740377e9e19836d654491a170ac9a) >>
  /Subtype /Link
/ANN pdfmark
1 setlinewidth
0.000 0.000 0.000 nodecolor
newpath 743 262 moveto
743 283 lineto
801 283 lineto
801 262 lineto
closepath stroke
0.000 0.000 0.000 nodecolor
10.00 /FreeSans.ttf set_font
772 269 moveto 42 -0.5 (longPos) alignedtext
grestore
% Node9->Node11
gsave
1 setlinewidth
solid
0.667 0.776 0.439 edgecolor
newpath 656 245 moveto
680 250 710 258 733 264 curveto
stroke
0.667 0.776 0.439 edgecolor
newpath 732.508 267.471 moveto
743 266 lineto
733.881 260.607 lineto
closepath fill
1 setlinewidth
solid
0.667 0.776 0.439 edgecolor
newpath 732.508 267.471 moveto
743 266 lineto
733.881 260.607 lineto
closepath stroke
grestore
% Node12
gsave
[ /Rect [ 863 253 969 273 ]
  /Border [ 0 0 0 ]
  /Action << /Subtype /URI /URI ($Elias_8cpp.html#214c4fd6adcbe1fe7de47c4ba521198a) >>
  /Subtype /Link
/ANN pdfmark
[ /Rect [ 863 253 969 273 ]
  /Border [ 0 0 0 ]
  /Action << /Subtype /URI /URI ($Elias_8cpp.html#214c4fd6adcbe1fe7de47c4ba521198a) >>
  /Subtype /Link
/ANN pdfmark
1 setlinewidth
0.000 0.000 0.000 nodecolor
newpath 863 252 moveto
863 273 lineto
970 273 lineto
970 252 lineto
closepath stroke
0.000 0.000 0.000 nodecolor
10.00 /FreeSans.ttf set_font
916 259 moveto 91 -0.5 (long_elias_gama) alignedtext
grestore
% Node11->Node12
gsave
1 setlinewidth
solid
0.667 0.776 0.439 edgecolor
newpath 801 271 moveto
816 270 835 269 853 268 curveto
stroke
0.667 0.776 0.439 edgecolor
newpath 853.398 271.478 moveto
863 267 lineto
852.701 264.512 lineto
closepath fill
1 setlinewidth
solid
0.667 0.776 0.439 edgecolor
newpath 853.398 271.478 moveto
863 267 lineto
852.701 264.512 lineto
closepath stroke
grestore
% Node12->Node8
gsave
1 setlinewidth
solid
0.667 0.776 0.439 edgecolor
newpath 970 254 moveto
982 252 995 249 1007 247 curveto
stroke
0.667 0.776 0.439 edgecolor
newpath 1007.4 250.478 moveto
1017 246 lineto
1006.7 243.512 lineto
closepath fill
1 setlinewidth
solid
0.667 0.776 0.439 edgecolor
newpath 1007.4 250.478 moveto
1017 246 lineto
1006.7 243.512 lineto
closepath stroke
grestore
% Node14
gsave
[ /Rect [ 728 310 816 330 ]
  /Border [ 0 0 0 ]
  /Action << /Subtype /URI /URI ($comun_8cpp.html#88ffeb20e447cad877c37bb473033590) >>
  /Subtype /Link
/ANN pdfmark
[ /Rect [ 728 310 816 330 ]
  /Border [ 0 0 0 ]
  /Action << /Subtype /URI /URI ($comun_8cpp.html#88ffeb20e447cad877c37bb473033590) >>
  /Subtype /Link
/ANN pdfmark
1 setlinewidth
0.000 0.000 0.000 nodecolor
newpath 728 309 moveto
728 330 lineto
816 330 lineto
816 309 lineto
closepath stroke
0.000 0.000 0.000 nodecolor
10.00 /FreeSans.ttf set_font
772 316 moveto 72 -0.5 (errorFormato) alignedtext
grestore
% Node13->Node14
gsave
1 setlinewidth
solid
0.667 0.776 0.439 edgecolor
newpath 486 269 moveto
530 273 619 281 692 297 curveto
704 299 717 303 729 306 curveto
stroke
0.667 0.776 0.439 edgecolor
newpath 728.416 309.479 moveto
739 309 lineto
730.427 302.774 lineto
closepath fill
1 setlinewidth
solid
0.667 0.776 0.439 edgecolor
newpath 728.416 309.479 moveto
739 309 lineto
730.427 302.774 lineto
closepath stroke
grestore
% Node16
gsave
[ /Rect [ 584 306 644 326 ]
  /Border [ 0 0 0 ]
  /Action << /Subtype /URI /URI ($comun_8cpp.html#c7bf9e68bbdccea36ce786b806244ea1) >>
  /Subtype /Link
/ANN pdfmark
[ /Rect [ 584 306 644 326 ]
  /Border [ 0 0 0 ]
  /Action << /Subtype /URI /URI ($comun_8cpp.html#c7bf9e68bbdccea36ce786b806244ea1) >>
  /Subtype /Link
/ANN pdfmark
1 setlinewidth
0.000 0.000 0.000 nodecolor
newpath 584 305 moveto
584 326 lineto
644 326 lineto
644 305 lineto
closepath stroke
0.000 0.000 0.000 nodecolor
10.00 /FreeSans.ttf set_font
614 312 moveto 44 -0.5 (lee128b) alignedtext
grestore
% Node15->Node16
gsave
1 setlinewidth
solid
0.667 0.776 0.439 edgecolor
newpath 492 321 moveto
516 320 548 318 574 317 curveto
stroke
0.667 0.776 0.439 edgecolor
newpath 574 320.5 moveto
584 317 lineto
574 313.5 lineto
closepath fill
1 setlinewidth
solid
0.667 0.776 0.439 edgecolor
newpath 574 320.5 moveto
584 317 lineto
574 313.5 lineto
closepath stroke
grestore
% Node16->Node14
gsave
1 setlinewidth
solid
0.667 0.776 0.439 edgecolor
newpath 644 317 moveto
665 318 693 318 718 319 curveto
stroke
0.667 0.776 0.439 edgecolor
newpath 718 322.5 moveto
728 319 lineto
718 315.5 lineto
closepath fill
1 setlinewidth
solid
0.667 0.776 0.439 edgecolor
newpath 718 322.5 moveto
728 319 lineto
718 315.5 lineto
closepath stroke
grestore
% Node17->Node14
gsave
1 setlinewidth
solid
0.667 0.776 0.439 edgecolor
newpath 484 377 moveto
535 367 649 344 718 331 curveto
stroke
0.667 0.776 0.439 edgecolor
newpath 718.881 334.393 moveto
728 329 lineto
717.508 327.529 lineto
closepath fill
1 setlinewidth
solid
0.667 0.776 0.439 edgecolor
newpath 718.881 334.393 moveto
728 329 lineto
717.508 327.529 lineto
closepath stroke
grestore
% Node18
gsave
[ /Rect [ 561 382 667 402 ]
  /Border [ 0 0 0 ]
  /Action << /Subtype /URI /URI ($Elias_8cpp.html#95ee5a0ffb91f203612d2ce9d063ec36) >>
  /Subtype /Link
/ANN pdfmark
[ /Rect [ 561 382 667 402 ]
  /Border [ 0 0 0 ]
  /Action << /Subtype /URI /URI ($Elias_8cpp.html#95ee5a0ffb91f203612d2ce9d063ec36) >>
  /Subtype /Link
/ANN pdfmark
1 setlinewidth
0.000 0.000 0.000 nodecolor
newpath 561 381 moveto
561 402 lineto
667 402 lineto
667 381 lineto
closepath stroke
0.000 0.000 0.000 nodecolor
10.00 /FreeSans.ttf set_font
614 388 moveto 90 -0.5 (lee_elias_gama2) alignedtext
grestore
% Node17->Node18
gsave
1 setlinewidth
solid
0.667 0.776 0.439 edgecolor
newpath 484 384 moveto
502 385 527 387 551 388 curveto
stroke
0.667 0.776 0.439 edgecolor
newpath 550.701 391.488 moveto
561 389 lineto
551.398 384.522 lineto
closepath fill
1 setlinewidth
solid
0.667 0.776 0.439 edgecolor
newpath 550.701 391.488 moveto
561 389 lineto
551.398 384.522 lineto
closepath stroke
grestore
% Node18->Node14
gsave
1 setlinewidth
solid
0.667 0.776 0.439 edgecolor
newpath 656 381 moveto
668 377 681 373 692 368 curveto
712 359 734 346 749 336 curveto
stroke
0.667 0.776 0.439 edgecolor
newpath 751.621 338.459 moveto
758 330 lineto
747.738 332.635 lineto
closepath fill
1 setlinewidth
solid
0.667 0.776 0.439 edgecolor
newpath 751.621 338.459 moveto
758 330 lineto
747.738 332.635 lineto
closepath stroke
grestore
% Node19->Node3
gsave
1 setlinewidth
solid
0.667 0.776 0.439 edgecolor
newpath 348 256 moveto
367 252 389 246 408 241 curveto
stroke
0.667 0.776 0.439 edgecolor
newpath 408.881 244.393 moveto
418 239 lineto
407.508 237.529 lineto
closepath fill
1 setlinewidth
solid
0.667 0.776 0.439 edgecolor
newpath 408.881 244.393 moveto
418 239 lineto
407.508 237.529 lineto
closepath stroke
grestore
% Node19->Node4
gsave
1 setlinewidth
solid
0.667 0.776 0.439 edgecolor
newpath 321 256 moveto
344 243 382 223 416 210 curveto
468 190 483 191 536 178 curveto
545 176 553 174 562 171 curveto
stroke
0.667 0.776 0.439 edgecolor
newpath 562.881 174.393 moveto
572 169 lineto
561.508 167.529 lineto
closepath fill
1 setlinewidth
solid
0.667 0.776 0.439 edgecolor
newpath 562.881 174.393 moveto
572 169 lineto
561.508 167.529 lineto
closepath stroke
grestore
% Node19->Node13
gsave
1 setlinewidth
solid
0.667 0.776 0.439 edgecolor
newpath 370 267 moveto
387 267 405 267 421 267 curveto
stroke
0.667 0.776 0.439 edgecolor
newpath 421 270.5 moveto
431 267 lineto
421 263.5 lineto
closepath fill
1 setlinewidth
solid
0.667 0.776 0.439 edgecolor
newpath 421 270.5 moveto
431 267 lineto
421 263.5 lineto
closepath stroke
grestore
% Node19->Node15
gsave
1 setlinewidth
solid
0.667 0.776 0.439 edgecolor
newpath 330 277 moveto
355 286 390 299 417 309 curveto
stroke
0.667 0.776 0.439 edgecolor
newpath 416.416 312.479 moveto
427 312 lineto
418.427 305.774 lineto
closepath fill
1 setlinewidth
solid
0.667 0.776 0.439 edgecolor
newpath 416.416 312.479 moveto
427 312 lineto
418.427 305.774 lineto
closepath stroke
grestore
% Node19->Node17
gsave
1 setlinewidth
solid
0.667 0.776 0.439 edgecolor
newpath 316 277 moveto
343 296 402 341 435 365 curveto
stroke
0.667 0.776 0.439 edgecolor
newpath 432.9 367.8 moveto
443 371 lineto
437.1 362.2 lineto
closepath fill
1 setlinewidth
solid
0.667 0.776 0.439 edgecolor
newpath 432.9 367.8 moveto
443 371 lineto
437.1 362.2 lineto
closepath stroke
grestore
% Node19->Node19
gsave
1 setlinewidth
solid
0.667 0.776 0.439 edgecolor
newpath 254 277 moveto
233 286 249 295 302 295 curveto
343 295 362 290 358 283 curveto
stroke
0.667 0.776 0.439 edgecolor
newpath 360.1 280.2 moveto
350 277 lineto
355.9 285.8 lineto
closepath fill
1 setlinewidth
solid
0.667 0.776 0.439 edgecolor
newpath 360.1 280.2 moveto
350 277 lineto
355.9 285.8 lineto
closepath stroke
grestore
% Node20->Node2
gsave
1 setlinewidth
solid
0.667 0.776 0.439 edgecolor
newpath 154 230 moveto
162 253 186 307 224 337 curveto
228 340 233 343 239 346 curveto
stroke
0.667 0.776 0.439 edgecolor
newpath 237.44 349.137 moveto
248 350 lineto
240.283 342.74 lineto
closepath fill
1 setlinewidth
solid
0.667 0.776 0.439 edgecolor
newpath 237.44 349.137 moveto
248 350 lineto
240.283 342.74 lineto
closepath stroke
grestore
% Node20->Node3
gsave
1 setlinewidth
solid
0.667 0.776 0.439 edgecolor
newpath 188 216 moveto
234 213 313 208 380 215 curveto
389 216 397 217 406 218 curveto
stroke
0.667 0.776 0.439 edgecolor
newpath 405.508 221.471 moveto
416 220 lineto
406.881 214.607 lineto
closepath fill
1 setlinewidth
solid
0.667 0.776 0.439 edgecolor
newpath 405.508 221.471 moveto
416 220 lineto
406.881 214.607 lineto
closepath stroke
grestore
% Node20->Node4
gsave
1 setlinewidth
solid
0.667 0.776 0.439 edgecolor
newpath 188 212 moveto
200 210 212 208 224 206 curveto
343 187 483 171 559 164 curveto
stroke
0.667 0.776 0.439 edgecolor
newpath 559.398 167.478 moveto
569 163 lineto
558.701 160.512 lineto
closepath fill
1 setlinewidth
solid
0.667 0.776 0.439 edgecolor
newpath 559.398 167.478 moveto
569 163 lineto
558.701 160.512 lineto
closepath stroke
grestore
% Node20->Node13
gsave
1 setlinewidth
solid
0.667 0.776 0.439 edgecolor
newpath 188 223 moveto
234 227 313 235 380 248 curveto
393 250 408 253 421 256 curveto
stroke
0.667 0.776 0.439 edgecolor
newpath 420.416 259.479 moveto
431 259 lineto
422.427 252.774 lineto
closepath fill
1 setlinewidth
solid
0.667 0.776 0.439 edgecolor
newpath 420.416 259.479 moveto
431 259 lineto
422.427 252.774 lineto
closepath stroke
grestore
% Node20->Node15
gsave
1 setlinewidth
solid
0.667 0.776 0.439 edgecolor
newpath 156 230 moveto
166 249 191 287 224 304 curveto
285 334 365 333 414 329 curveto
stroke
0.667 0.776 0.439 edgecolor
newpath 414.398 332.478 moveto
424 328 lineto
413.701 325.512 lineto
closepath fill
1 setlinewidth
solid
0.667 0.776 0.439 edgecolor
newpath 414.398 332.478 moveto
424 328 lineto
413.701 325.512 lineto
closepath stroke
grestore
% Node20->Node17
gsave
1 setlinewidth
solid
0.667 0.776 0.439 edgecolor
newpath 151 230 moveto
155 260 171 345 224 380 curveto
285 419 374 404 423 392 curveto
stroke
0.667 0.776 0.439 edgecolor
newpath 423.881 395.393 moveto
433 390 lineto
422.508 388.529 lineto
closepath fill
1 setlinewidth
solid
0.667 0.776 0.439 edgecolor
newpath 423.881 395.393 moveto
433 390 lineto
422.508 388.529 lineto
closepath stroke
grestore
% Node20->Node19
gsave
1 setlinewidth
solid
0.667 0.776 0.439 edgecolor
newpath 184 230 moveto
197 234 211 239 224 243 curveto
235 246 247 250 257 253 curveto
stroke
0.667 0.776 0.439 edgecolor
newpath 256.416 256.479 moveto
267 256 lineto
258.427 249.774 lineto
closepath fill
1 setlinewidth
solid
0.667 0.776 0.439 edgecolor
newpath 256.416 256.479 moveto
267 256 lineto
258.427 249.774 lineto
closepath stroke
grestore
% Node20->Node20
gsave
1 setlinewidth
solid
0.667 0.776 0.439 edgecolor
newpath 115 230 moveto
99 239 111 248 150 248 curveto
178 248 192 243 192 237 curveto
stroke
0.667 0.776 0.439 edgecolor
newpath 194.546 234.596 moveto
185 230 lineto
189.596 239.546 lineto
closepath fill
1 setlinewidth
solid
0.667 0.776 0.439 edgecolor
newpath 194.546 234.596 moveto
185 230 lineto
189.596 239.546 lineto
closepath stroke
grestore
% Node20->Node21
gsave
1 setlinewidth
solid
0.667 0.776 0.439 edgecolor
newpath 157 209 moveto
169 191 195 158 224 139 curveto
230 135 237 132 244 129 curveto
stroke
0.667 0.776 0.439 edgecolor
newpath 246.015 131.964 moveto
254 125 lineto
243.415 125.464 lineto
closepath fill
1 setlinewidth
solid
0.667 0.776 0.439 edgecolor
newpath 246.015 131.964 moveto
254 125 lineto
243.415 125.464 lineto
closepath stroke
grestore
endpage
showpage
grestore
%%PageTrailer
%%EndPage: 1
%%Trailer
%%Pages: 1
%%BoundingBox: 36 36 1134 463
end
restore
%%EOF
