%!PS-Adobe-2.0
%%Creator: Graphviz version 2.12 (Mon Nov 16 18:34:03 UTC 2009)
%%For: (vtamara) Vladimir
%%Title: G
%%Pages: (atend)
%%BoundingBox: (atend)
%%EndComments
save
%%BeginProlog
/DotDict 200 dict def
DotDict begin

/setupLatin1 {
mark
/EncodingVector 256 array def
 EncodingVector 0

ISOLatin1Encoding 0 255 getinterval putinterval
EncodingVector 45 /hyphen put

% Set up ISO Latin 1 character encoding
/starnetISO {
        dup dup findfont dup length dict begin
        { 1 index /FID ne { def }{ pop pop } ifelse
        } forall
        /Encoding EncodingVector def
        currentdict end definefont
} def
/Times-Roman starnetISO def
/Times-Italic starnetISO def
/Times-Bold starnetISO def
/Times-BoldItalic starnetISO def
/Helvetica starnetISO def
/Helvetica-Oblique starnetISO def
/Helvetica-Bold starnetISO def
/Helvetica-BoldOblique starnetISO def
/Courier starnetISO def
/Courier-Oblique starnetISO def
/Courier-Bold starnetISO def
/Courier-BoldOblique starnetISO def
cleartomark
} bind def

%%BeginResource: procset graphviz 0 0
/coord-font-family /Times-Roman def
/default-font-family /Times-Roman def
/coordfont coord-font-family findfont 8 scalefont def

/InvScaleFactor 1.0 def
/set_scale {
       dup 1 exch div /InvScaleFactor exch def
       scale
} bind def

% styles
/solid { [] 0 setdash } bind def
/dashed { [9 InvScaleFactor mul dup ] 0 setdash } bind def
/dotted { [1 InvScaleFactor mul 6 InvScaleFactor mul] 0 setdash } bind def
/invis {/fill {newpath} def /stroke {newpath} def /show {pop newpath} def} bind def
/bold { 2 setlinewidth } bind def
/filled { } bind def
/unfilled { } bind def
/rounded { } bind def
/diagonals { } bind def

% hooks for setting color 
/nodecolor { sethsbcolor } bind def
/edgecolor { sethsbcolor } bind def
/graphcolor { sethsbcolor } bind def
/nopcolor {pop pop pop} bind def

/beginpage {	% i j npages
	/npages exch def
	/j exch def
	/i exch def
	/str 10 string def
	npages 1 gt {
		gsave
			coordfont setfont
			0 0 moveto
			(\() show i str cvs show (,) show j str cvs show (\)) show
		grestore
	} if
} bind def

/set_font {
	findfont exch
	scalefont setfont
} def

% draw aligned label in bounding box aligned to current point
/alignedtext {			% width adj text
	/text exch def
	/adj exch def
	/width exch def
	gsave
		width 0 gt {
			text stringwidth pop adj mul 0 rmoveto
		} if
		[] 0 setdash
		text show
	grestore
} def

/boxprim {				% xcorner ycorner xsize ysize
		4 2 roll
		moveto
		2 copy
		exch 0 rlineto
		0 exch rlineto
		pop neg 0 rlineto
		closepath
} bind def

/ellipse_path {
	/ry exch def
	/rx exch def
	/y exch def
	/x exch def
	matrix currentmatrix
	newpath
	x y translate
	rx ry scale
	0 0 1 0 360 arc
	setmatrix
} bind def

/endpage { showpage } bind def
/showpage { } def

/layercolorseq
	[	% layer color sequence - darkest to lightest
		[0 0 0]
		[.2 .8 .8]
		[.4 .8 .8]
		[.6 .8 .8]
		[.8 .8 .8]
	]
def

/layerlen layercolorseq length def

/setlayer {/maxlayer exch def /curlayer exch def
	layercolorseq curlayer 1 sub layerlen mod get
	aload pop sethsbcolor
	/nodecolor {nopcolor} def
	/edgecolor {nopcolor} def
	/graphcolor {nopcolor} def
} bind def

/onlayer { curlayer ne {invis} if } def

/onlayers {
	/myupper exch def
	/mylower exch def
	curlayer mylower lt
	curlayer myupper gt
	or
	{invis} if
} def

/curlayer 0 def

%%EndResource
%%EndProlog
%%BeginSetup
14 default-font-family set_font
1 setmiterlimit
% /arrowlength 10 def
% /arrowwidth 5 def

% make sure pdfmark is harmless for PS-interpreters other than Distiller
/pdfmark where {pop} {userdict /pdfmark /cleartomark load put} ifelse
% make '<<' and '>>' safe on PS Level 1 devices
/languagelevel where {pop languagelevel}{1} ifelse
2 lt {
    userdict (<<) cvn ([) cvn load put
    userdict (>>) cvn ([) cvn load put
} if

%%EndSetup
setupLatin1
%%Page: 1 1
%%PageBoundingBox: 36 36 764 356
%%PageOrientation: Portrait
gsave
36 36 764 356 boxprim clip newpath
0 0 1 beginpage
1 1 set_scale 0 rotate 40 40 translate
% Node1
gsave
0.000 0.000 0.749 nodecolor
newpath 338 290 moveto
338 311 lineto
423 311 lineto
423 290 lineto
closepath fill
1 setlinewidth
filled
0.000 0.000 0.000 nodecolor
newpath 338 290 moveto
338 311 lineto
423 311 lineto
423 290 lineto
closepath stroke
0.000 0.000 0.000 nodecolor
10.00 /FreeSans.ttf set_font
380 297 moveto 69 -0.5 (txtdeodt.cpp) alignedtext
grestore
% Node2
gsave
1 setlinewidth
0.000 0.000 0.749 nodecolor
newpath 0 232 moveto
0 253 lineto
74 253 lineto
74 232 lineto
closepath stroke
0.000 0.000 0.000 nodecolor
10.00 /FreeSans.ttf set_font
37 239 moveto 58 -0.5 (sys/types.h) alignedtext
grestore
% Node1->Node2
gsave
1 setlinewidth
solid
0.667 0.776 0.439 edgecolor
newpath 338 295 moveto
282 287 180 273 84 254 curveto
stroke
0.667 0.776 0.439 edgecolor
newpath 84.4922 250.529 moveto
74 252 lineto
83.1194 257.393 lineto
closepath fill
1 setlinewidth
solid
0.667 0.776 0.439 edgecolor
newpath 84.4922 250.529 moveto
74 252 lineto
83.1194 257.393 lineto
closepath stroke
grestore
% Node3
gsave
1 setlinewidth
0.000 0.000 0.749 nodecolor
newpath 92 232 moveto
92 253 lineto
157 253 lineto
157 232 lineto
closepath stroke
0.000 0.000 0.000 nodecolor
10.00 /FreeSans.ttf set_font
124 239 moveto 49 -0.5 (sys/stat.h) alignedtext
grestore
% Node1->Node3
gsave
1 setlinewidth
solid
0.667 0.776 0.439 edgecolor
newpath 338 292 moveto
296 283 232 269 167 254 curveto
stroke
0.667 0.776 0.439 edgecolor
newpath 167.492 250.529 moveto
157 252 lineto
166.119 257.393 lineto
closepath fill
1 setlinewidth
solid
0.667 0.776 0.439 edgecolor
newpath 167.492 250.529 moveto
157 252 lineto
166.119 257.393 lineto
closepath stroke
grestore
% Node4
gsave
1 setlinewidth
0.000 0.000 0.749 nodecolor
newpath 174 232 moveto
174 253 lineto
233 253 lineto
233 232 lineto
closepath stroke
0.000 0.000 0.000 nodecolor
10.00 /FreeSans.ttf set_font
203 239 moveto 43 -0.5 (unistd.h) alignedtext
grestore
% Node1->Node4
gsave
1 setlinewidth
solid
0.667 0.776 0.439 edgecolor
newpath 346 290 moveto
317 280 274 266 243 256 curveto
stroke
0.667 0.776 0.439 edgecolor
newpath 243.584 252.521 moveto
233 253 lineto
241.573 259.226 lineto
closepath fill
1 setlinewidth
solid
0.667 0.776 0.439 edgecolor
newpath 243.584 252.521 moveto
233 253 lineto
241.573 259.226 lineto
closepath stroke
grestore
% Node5
gsave
1 setlinewidth
0.000 0.000 0.749 nodecolor
newpath 250 232 moveto
250 253 lineto
305 253 lineto
305 232 lineto
closepath stroke
0.000 0.000 0.000 nodecolor
10.00 /FreeSans.ttf set_font
277 239 moveto 39 -0.5 (stdlib.h) alignedtext
grestore
% Node1->Node5
gsave
1 setlinewidth
solid
0.667 0.776 0.439 edgecolor
newpath 360 290 moveto
344 281 322 268 304 258 curveto
stroke
0.667 0.776 0.439 edgecolor
newpath 305.441 254.797 moveto
295 253 lineto
302.042 260.916 lineto
closepath fill
1 setlinewidth
solid
0.667 0.776 0.439 edgecolor
newpath 305.441 254.797 moveto
295 253 lineto
302.042 260.916 lineto
closepath stroke
grestore
% Node6
gsave
1 setlinewidth
0.000 0.000 0.749 nodecolor
newpath 322 232 moveto
322 253 lineto
374 253 lineto
374 232 lineto
closepath stroke
0.000 0.000 0.000 nodecolor
10.00 /FreeSans.ttf set_font
348 239 moveto 36 -0.5 (stdio.h) alignedtext
grestore
% Node1->Node6
gsave
1 setlinewidth
solid
0.667 0.776 0.439 edgecolor
newpath 374 290 moveto
370 282 364 271 359 262 curveto
stroke
0.667 0.776 0.439 edgecolor
newpath 361.916 260.042 moveto
354 253 lineto
355.797 263.441 lineto
closepath fill
1 setlinewidth
solid
0.667 0.776 0.439 edgecolor
newpath 361.916 260.042 moveto
354 253 lineto
355.797 263.441 lineto
closepath stroke
grestore
% Node7
gsave
1 setlinewidth
0.000 0.000 0.749 nodecolor
newpath 392 232 moveto
392 253 lineto
433 253 lineto
433 232 lineto
closepath stroke
0.000 0.000 0.000 nodecolor
10.00 /FreeSans.ttf set_font
412 239 moveto 25 -0.5 (err.h) alignedtext
grestore
% Node1->Node7
gsave
1 setlinewidth
solid
0.667 0.776 0.439 edgecolor
newpath 386 290 moveto
390 282 396 271 401 262 curveto
stroke
0.667 0.776 0.439 edgecolor
newpath 404.203 263.441 moveto
406 253 lineto
398.084 260.042 lineto
closepath fill
1 setlinewidth
solid
0.667 0.776 0.439 edgecolor
newpath 404.203 263.441 moveto
406 253 lineto
398.084 260.042 lineto
closepath stroke
grestore
% Node8
gsave
1 setlinewidth
0.000 0.000 0.749 nodecolor
newpath 591 0 moveto
591 21 lineto
637 21 lineto
637 0 lineto
closepath stroke
0.000 0.000 0.000 nodecolor
10.00 /FreeSans.ttf set_font
614 7 moveto 30 -0.5 (string) alignedtext
grestore
% Node1->Node8
gsave
1 setlinewidth
solid
0.667 0.776 0.439 edgecolor
newpath 423 297 moveto
505 289 677 271 697 254 curveto
720 232 716 216 716 185 curveto
716 185 716 185 716 127 curveto
716 82 672 45 642 26 curveto
stroke
0.667 0.776 0.439 edgecolor
newpath 643.441 22.7969 moveto
633 21 lineto
640.042 28.916 lineto
closepath fill
1 setlinewidth
solid
0.667 0.776 0.439 edgecolor
newpath 643.441 22.7969 moveto
633 21 lineto
640.042 28.916 lineto
closepath stroke
grestore
% Node9
gsave
1 setlinewidth
0.000 0.000 0.749 nodecolor
newpath 548 232 moveto
548 253 lineto
612 253 lineto
612 232 lineto
closepath stroke
0.000 0.000 0.000 nodecolor
10.00 /FreeSans.ttf set_font
580 239 moveto 48 -0.5 (iostream) alignedtext
grestore
% Node1->Node9
gsave
1 setlinewidth
solid
0.667 0.776 0.439 edgecolor
newpath 418 290 moveto
453 280 503 265 538 255 curveto
stroke
0.667 0.776 0.439 edgecolor
newpath 539.427 258.226 moveto
548 252 lineto
537.416 251.521 lineto
closepath fill
1 setlinewidth
solid
0.667 0.776 0.439 edgecolor
newpath 539.427 258.226 moveto
548 252 lineto
537.416 251.521 lineto
closepath stroke
grestore
% Node10
gsave
1 setlinewidth
0.000 0.000 0.749 nodecolor
newpath 630 232 moveto
630 253 lineto
688 253 lineto
688 232 lineto
closepath stroke
0.000 0.000 0.000 nodecolor
10.00 /FreeSans.ttf set_font
659 239 moveto 42 -0.5 (fstream) alignedtext
grestore
% Node1->Node10
gsave
1 setlinewidth
solid
0.667 0.776 0.439 edgecolor
newpath 423 294 moveto
469 285 545 271 620 253 curveto
stroke
0.667 0.776 0.439 edgecolor
newpath 620.881 256.393 moveto
630 251 lineto
619.508 249.529 lineto
closepath fill
1 setlinewidth
solid
0.667 0.776 0.439 edgecolor
newpath 620.881 256.393 moveto
630 251 lineto
619.508 249.529 lineto
closepath stroke
grestore
% Node11
gsave
[ /Rect [ 450 233 530 253 ]
  /Border [ 0 0 0 ]
  /Action << /Subtype /URI /URI ($leeODT_8hpp.html) >>
  /Subtype /Link
/ANN pdfmark
[ /Rect [ 450 233 530 253 ]
  /Border [ 0 0 0 ]
  /Action << /Subtype /URI /URI ($leeODT_8hpp.html) >>
  /Subtype /Link
/ANN pdfmark
1 setlinewidth
0.000 0.000 0.000 nodecolor
newpath 450 232 moveto
450 253 lineto
531 253 lineto
531 232 lineto
closepath stroke
0.000 0.000 0.000 nodecolor
10.00 /FreeSans.ttf set_font
490 239 moveto 65 -0.5 (leeODT.hpp) alignedtext
grestore
% Node1->Node11
gsave
1 setlinewidth
solid
0.667 0.776 0.439 edgecolor
newpath 401 290 moveto
418 281 443 268 462 258 curveto
stroke
0.667 0.776 0.439 edgecolor
newpath 463.958 260.916 moveto
471 253 lineto
460.559 254.797 lineto
closepath fill
1 setlinewidth
solid
0.667 0.776 0.439 edgecolor
newpath 463.958 260.916 moveto
471 253 lineto
460.559 254.797 lineto
closepath stroke
grestore
% Node11->Node8
gsave
1 setlinewidth
solid
0.667 0.776 0.439 edgecolor
newpath 506 232 moveto
519 223 535 210 547 196 curveto
583 151 587 135 603 80 curveto
607 64 610 45 612 31 curveto
stroke
0.667 0.776 0.439 edgecolor
newpath 615.488 31.2987 moveto
613 21 lineto
608.522 30.6021 lineto
closepath fill
1 setlinewidth
solid
0.667 0.776 0.439 edgecolor
newpath 615.488 31.2987 moveto
613 21 lineto
608.522 30.6021 lineto
closepath stroke
grestore
% Node12
gsave
[ /Rect [ 442 175 538 195 ]
  /Border [ 0 0 0 ]
  /Action << /Subtype /URI /URI ($NodoTrieS_8hpp.html) >>
  /Subtype /Link
/ANN pdfmark
[ /Rect [ 442 175 538 195 ]
  /Border [ 0 0 0 ]
  /Action << /Subtype /URI /URI ($NodoTrieS_8hpp.html) >>
  /Subtype /Link
/ANN pdfmark
1 setlinewidth
0.000 0.000 0.000 nodecolor
newpath 442 174 moveto
442 195 lineto
538 195 lineto
538 174 lineto
closepath stroke
0.000 0.000 0.000 nodecolor
10.00 /FreeSans.ttf set_font
490 181 moveto 80 -0.5 (NodoTrieS.hpp) alignedtext
grestore
% Node11->Node12
gsave
1 setlinewidth
solid
0.667 0.776 0.439 edgecolor
newpath 490 232 moveto
490 224 490 214 490 205 curveto
stroke
0.667 0.776 0.439 edgecolor
newpath 493.5 205 moveto
490 195 lineto
486.5 205 lineto
closepath fill
1 setlinewidth
solid
0.667 0.776 0.439 edgecolor
newpath 493.5 205 moveto
490 195 lineto
486.5 205 lineto
closepath stroke
grestore
% Node12->Node8
gsave
1 setlinewidth
solid
0.667 0.776 0.439 edgecolor
newpath 513 174 moveto
528 166 547 153 560 138 curveto
586 105 602 58 609 31 curveto
stroke
0.667 0.776 0.439 edgecolor
newpath 612.479 31.584 moveto
612 21 lineto
605.774 29.5725 lineto
closepath fill
1 setlinewidth
solid
0.667 0.776 0.439 edgecolor
newpath 612.479 31.584 moveto
612 21 lineto
605.774 29.5725 lineto
closepath stroke
grestore
% Node13
gsave
1 setlinewidth
0.000 0.000 0.749 nodecolor
newpath 383 0 moveto
383 21 lineto
415 21 lineto
415 0 lineto
closepath stroke
0.000 0.000 0.000 nodecolor
10.00 /FreeSans.ttf set_font
399 7 moveto 16 -0.5 (set) alignedtext
grestore
% Node12->Node13
gsave
1 setlinewidth
solid
0.667 0.776 0.439 edgecolor
newpath 461 174 moveto
445 166 426 154 416 138 curveto
395 106 395 58 397 31 curveto
stroke
0.667 0.776 0.439 edgecolor
newpath 400.488 31.2987 moveto
398 21 lineto
393.522 30.6021 lineto
closepath fill
1 setlinewidth
solid
0.667 0.776 0.439 edgecolor
newpath 400.488 31.2987 moveto
398 21 lineto
393.522 30.6021 lineto
closepath stroke
grestore
% Node14
gsave
1 setlinewidth
0.000 0.000 0.749 nodecolor
newpath 501 116 moveto
501 137 lineto
551 137 lineto
551 116 lineto
closepath stroke
0.000 0.000 0.000 nodecolor
10.00 /FreeSans.ttf set_font
526 123 moveto 34 -0.5 (vector) alignedtext
grestore
% Node12->Node14
gsave
1 setlinewidth
solid
0.667 0.776 0.439 edgecolor
newpath 497 174 moveto
502 166 508 155 514 145 curveto
stroke
0.667 0.776 0.439 edgecolor
newpath 516.8 147.1 moveto
520 137 lineto
511.2 142.9 lineto
closepath fill
1 setlinewidth
solid
0.667 0.776 0.439 edgecolor
newpath 516.8 147.1 moveto
520 137 lineto
511.2 142.9 lineto
closepath stroke
grestore
% Node15
gsave
[ /Rect [ 425 117 483 137 ]
  /Border [ 0 0 0 ]
  /Action << /Subtype /URI /URI ($Pos_8hpp.html) >>
  /Subtype /Link
/ANN pdfmark
[ /Rect [ 425 117 483 137 ]
  /Border [ 0 0 0 ]
  /Action << /Subtype /URI /URI ($Pos_8hpp.html) >>
  /Subtype /Link
/ANN pdfmark
1 setlinewidth
0.000 0.000 0.000 nodecolor
newpath 425 116 moveto
425 137 lineto
483 137 lineto
483 116 lineto
closepath stroke
0.000 0.000 0.000 nodecolor
10.00 /FreeSans.ttf set_font
454 123 moveto 42 -0.5 (Pos.hpp) alignedtext
grestore
% Node12->Node15
gsave
1 setlinewidth
solid
0.667 0.776 0.439 edgecolor
newpath 483 174 moveto
479 166 472 155 466 145 curveto
stroke
0.667 0.776 0.439 edgecolor
newpath 468.8 142.9 moveto
460 137 lineto
463.2 147.1 lineto
closepath fill
1 setlinewidth
solid
0.667 0.776 0.439 edgecolor
newpath 468.8 142.9 moveto
460 137 lineto
463.2 147.1 lineto
closepath stroke
grestore
% Node16
gsave
[ /Rect [ 425 59 503 79 ]
  /Border [ 0 0 0 ]
  /Action << /Subtype /URI /URI ($comun_8hpp.html) >>
  /Subtype /Link
/ANN pdfmark
[ /Rect [ 425 59 503 79 ]
  /Border [ 0 0 0 ]
  /Action << /Subtype /URI /URI ($comun_8hpp.html) >>
  /Subtype /Link
/ANN pdfmark
1 setlinewidth
0.000 0.000 0.000 nodecolor
newpath 425 58 moveto
425 79 lineto
503 79 lineto
503 58 lineto
closepath stroke
0.000 0.000 0.000 nodecolor
10.00 /FreeSans.ttf set_font
464 65 moveto 62 -0.5 (comun.hpp) alignedtext
grestore
% Node15->Node16
gsave
1 setlinewidth
solid
0.667 0.776 0.439 edgecolor
newpath 456 116 moveto
457 108 459 98 461 89 curveto
stroke
0.667 0.776 0.439 edgecolor
newpath 464.488 89.2987 moveto
462 79 lineto
457.522 88.6021 lineto
closepath fill
1 setlinewidth
solid
0.667 0.776 0.439 edgecolor
newpath 464.488 89.2987 moveto
462 79 lineto
457.522 88.6021 lineto
closepath stroke
grestore
% Node16->Node8
gsave
1 setlinewidth
solid
0.667 0.776 0.439 edgecolor
newpath 493 58 moveto
518 48 555 34 582 24 curveto
stroke
0.667 0.776 0.439 edgecolor
newpath 583.283 27.2598 moveto
591 20 lineto
580.44 20.8631 lineto
closepath fill
1 setlinewidth
solid
0.667 0.776 0.439 edgecolor
newpath 583.283 27.2598 moveto
591 20 lineto
580.44 20.8631 lineto
closepath stroke
grestore
% Node16->Node13
gsave
1 setlinewidth
solid
0.667 0.776 0.439 edgecolor
newpath 451 58 moveto
442 49 429 37 418 28 curveto
stroke
0.667 0.776 0.439 edgecolor
newpath 419.831 24.9511 moveto
410 21 lineto
415.221 30.2191 lineto
closepath fill
1 setlinewidth
solid
0.667 0.776 0.439 edgecolor
newpath 419.831 24.9511 moveto
410 21 lineto
415.221 30.2191 lineto
closepath stroke
grestore
% Node17
gsave
1 setlinewidth
0.000 0.000 0.749 nodecolor
newpath 510 0 moveto
510 21 lineto
571 21 lineto
571 0 lineto
closepath stroke
0.000 0.000 0.000 nodecolor
10.00 /FreeSans.ttf set_font
540 7 moveto 45 -0.5 (ostream) alignedtext
grestore
% Node16->Node17
gsave
1 setlinewidth
solid
0.667 0.776 0.439 edgecolor
newpath 479 58 moveto
490 49 506 37 519 27 curveto
stroke
0.667 0.776 0.439 edgecolor
newpath 521.1 29.8 moveto
527 21 lineto
516.9 24.2 lineto
closepath fill
1 setlinewidth
solid
0.667 0.776 0.439 edgecolor
newpath 521.1 29.8 moveto
527 21 lineto
516.9 24.2 lineto
closepath stroke
grestore
% Node18
gsave
1 setlinewidth
0.000 0.000 0.749 nodecolor
newpath 434 0 moveto
434 21 lineto
493 21 lineto
493 0 lineto
closepath stroke
0.000 0.000 0.000 nodecolor
10.00 /FreeSans.ttf set_font
463 7 moveto 43 -0.5 (sstream) alignedtext
grestore
% Node16->Node18
gsave
1 setlinewidth
solid
0.667 0.776 0.439 edgecolor
newpath 464 58 moveto
464 50 464 40 464 31 curveto
stroke
0.667 0.776 0.439 edgecolor
newpath 467.478 30.6021 moveto
463 21 lineto
460.512 31.2987 lineto
closepath fill
1 setlinewidth
solid
0.667 0.776 0.439 edgecolor
newpath 467.478 30.6021 moveto
463 21 lineto
460.512 31.2987 lineto
closepath stroke
grestore
endpage
showpage
grestore
%%PageTrailer
%%EndPage: 1
%%Trailer
%%Pages: 1
%%BoundingBox: 36 36 764 356
end
restore
%%EOF
