%!PS-Adobe-2.0
%%Creator: Graphviz version 2.12 (Mon Nov 16 18:34:03 UTC 2009)
%%For: (vtamara) Vladimir
%%Title: G
%%Pages: (atend)
%%BoundingBox: (atend)
%%EndComments
save
%%BeginProlog
/DotDict 200 dict def
DotDict begin

/setupLatin1 {
mark
/EncodingVector 256 array def
 EncodingVector 0

ISOLatin1Encoding 0 255 getinterval putinterval
EncodingVector 45 /hyphen put

% Set up ISO Latin 1 character encoding
/starnetISO {
        dup dup findfont dup length dict begin
        { 1 index /FID ne { def }{ pop pop } ifelse
        } forall
        /Encoding EncodingVector def
        currentdict end definefont
} def
/Times-Roman starnetISO def
/Times-Italic starnetISO def
/Times-Bold starnetISO def
/Times-BoldItalic starnetISO def
/Helvetica starnetISO def
/Helvetica-Oblique starnetISO def
/Helvetica-Bold starnetISO def
/Helvetica-BoldOblique starnetISO def
/Courier starnetISO def
/Courier-Oblique starnetISO def
/Courier-Bold starnetISO def
/Courier-BoldOblique starnetISO def
cleartomark
} bind def

%%BeginResource: procset graphviz 0 0
/coord-font-family /Times-Roman def
/default-font-family /Times-Roman def
/coordfont coord-font-family findfont 8 scalefont def

/InvScaleFactor 1.0 def
/set_scale {
       dup 1 exch div /InvScaleFactor exch def
       scale
} bind def

% styles
/solid { [] 0 setdash } bind def
/dashed { [9 InvScaleFactor mul dup ] 0 setdash } bind def
/dotted { [1 InvScaleFactor mul 6 InvScaleFactor mul] 0 setdash } bind def
/invis {/fill {newpath} def /stroke {newpath} def /show {pop newpath} def} bind def
/bold { 2 setlinewidth } bind def
/filled { } bind def
/unfilled { } bind def
/rounded { } bind def
/diagonals { } bind def

% hooks for setting color 
/nodecolor { sethsbcolor } bind def
/edgecolor { sethsbcolor } bind def
/graphcolor { sethsbcolor } bind def
/nopcolor {pop pop pop} bind def

/beginpage {	% i j npages
	/npages exch def
	/j exch def
	/i exch def
	/str 10 string def
	npages 1 gt {
		gsave
			coordfont setfont
			0 0 moveto
			(\() show i str cvs show (,) show j str cvs show (\)) show
		grestore
	} if
} bind def

/set_font {
	findfont exch
	scalefont setfont
} def

% draw aligned label in bounding box aligned to current point
/alignedtext {			% width adj text
	/text exch def
	/adj exch def
	/width exch def
	gsave
		width 0 gt {
			text stringwidth pop adj mul 0 rmoveto
		} if
		[] 0 setdash
		text show
	grestore
} def

/boxprim {				% xcorner ycorner xsize ysize
		4 2 roll
		moveto
		2 copy
		exch 0 rlineto
		0 exch rlineto
		pop neg 0 rlineto
		closepath
} bind def

/ellipse_path {
	/ry exch def
	/rx exch def
	/y exch def
	/x exch def
	matrix currentmatrix
	newpath
	x y translate
	rx ry scale
	0 0 1 0 360 arc
	setmatrix
} bind def

/endpage { showpage } bind def
/showpage { } def

/layercolorseq
	[	% layer color sequence - darkest to lightest
		[0 0 0]
		[.2 .8 .8]
		[.4 .8 .8]
		[.6 .8 .8]
		[.8 .8 .8]
	]
def

/layerlen layercolorseq length def

/setlayer {/maxlayer exch def /curlayer exch def
	layercolorseq curlayer 1 sub layerlen mod get
	aload pop sethsbcolor
	/nodecolor {nopcolor} def
	/edgecolor {nopcolor} def
	/graphcolor {nopcolor} def
} bind def

/onlayer { curlayer ne {invis} if } def

/onlayers {
	/myupper exch def
	/mylower exch def
	curlayer mylower lt
	curlayer myupper gt
	or
	{invis} if
} def

/curlayer 0 def

%%EndResource
%%EndProlog
%%BeginSetup
14 default-font-family set_font
1 setmiterlimit
% /arrowlength 10 def
% /arrowwidth 5 def

% make sure pdfmark is harmless for PS-interpreters other than Distiller
/pdfmark where {pop} {userdict /pdfmark /cleartomark load put} ifelse
% make '<<' and '>>' safe on PS Level 1 devices
/languagelevel where {pop languagelevel}{1} ifelse
2 lt {
    userdict (<<) cvn ([) cvn load put
    userdict (>>) cvn ([) cvn load put
} if

%%EndSetup
setupLatin1
%%Page: 1 1
%%PageBoundingBox: 36 36 532 178
%%PageOrientation: Portrait
gsave
36 36 532 178 boxprim clip newpath
0 0 1 beginpage
1 1 set_scale 0 rotate 40 40 translate
% Node1
gsave
0.000 0.000 0.749 nodecolor
newpath 0 75 moveto
0 96 lineto
44 96 lineto
44 75 lineto
closepath fill
1 setlinewidth
filled
0.000 0.000 0.000 nodecolor
newpath 0 75 moveto
0 96 lineto
44 96 lineto
44 75 lineto
closepath stroke
0.000 0.000 0.000 nodecolor
10.00 /FreeSans.ttf set_font
22 82 moveto 28 -0.5 (main) alignedtext
grestore
% Node2
gsave
[ /Rect [ 81 114 155 134 ]
  /Border [ 0 0 0 ]
  /Action << /Subtype /URI /URI ($leeODT_8cpp.html#481a5a769b145674dc3274f02d21fdbb) >>
  /Subtype /Link
/ANN pdfmark
[ /Rect [ 81 114 155 134 ]
  /Border [ 0 0 0 ]
  /Action << /Subtype /URI /URI ($leeODT_8cpp.html#481a5a769b145674dc3274f02d21fdbb) >>
  /Subtype /Link
/ANN pdfmark
1 setlinewidth
0.000 0.000 0.000 nodecolor
newpath 81 113 moveto
81 134 lineto
156 134 lineto
156 113 lineto
closepath stroke
0.000 0.000 0.000 nodecolor
10.00 /FreeSans.ttf set_font
118 120 moveto 59 -0.5 (aplicaXSLT) alignedtext
grestore
% Node1->Node2
gsave
1 setlinewidth
solid
0.667 0.776 0.439 edgecolor
newpath 44 95 moveto
55 99 69 104 81 109 curveto
stroke
0.667 0.776 0.439 edgecolor
newpath 79.4404 112.137 moveto
90 113 lineto
82.2834 105.74 lineto
closepath fill
1 setlinewidth
solid
0.667 0.776 0.439 edgecolor
newpath 79.4404 112.137 moveto
90 113 lineto
82.2834 105.74 lineto
closepath stroke
grestore
% Node3
gsave
[ /Rect [ 88 76 148 96 ]
  /Border [ 0 0 0 ]
  /Action << /Subtype /URI /URI ($txtdeodt_8cpp.html#cccfb5af7d3cbc5c2d0638b1e4cbf5e9) >>
  /Subtype /Link
/ANN pdfmark
[ /Rect [ 88 76 148 96 ]
  /Border [ 0 0 0 ]
  /Action << /Subtype /URI /URI ($txtdeodt_8cpp.html#cccfb5af7d3cbc5c2d0638b1e4cbf5e9) >>
  /Subtype /Link
/ANN pdfmark
1 setlinewidth
0.000 0.000 0.000 nodecolor
newpath 88 75 moveto
88 96 lineto
149 96 lineto
149 75 lineto
closepath stroke
0.000 0.000 0.000 nodecolor
10.00 /FreeSans.ttf set_font
118 82 moveto 45 -0.5 (muestra) alignedtext
grestore
% Node1->Node3
gsave
1 setlinewidth
solid
0.667 0.776 0.439 edgecolor
newpath 44 86 moveto
54 86 66 86 78 86 curveto
stroke
0.667 0.776 0.439 edgecolor
newpath 78 89.5001 moveto
88 86 lineto
78 82.5001 lineto
closepath fill
1 setlinewidth
solid
0.667 0.776 0.439 edgecolor
newpath 78 89.5001 moveto
88 86 lineto
78 82.5001 lineto
closepath stroke
grestore
% Node4
gsave
[ /Rect [ 89 38 147 58 ]
  /Border [ 0 0 0 ]
  /Action << /Subtype /URI /URI ($leeODT_8cpp.html#b61277e3d14b11c5a54b80773dcae95a) >>
  /Subtype /Link
/ANN pdfmark
[ /Rect [ 89 38 147 58 ]
  /Border [ 0 0 0 ]
  /Action << /Subtype /URI /URI ($leeODT_8cpp.html#b61277e3d14b11c5a54b80773dcae95a) >>
  /Subtype /Link
/ANN pdfmark
1 setlinewidth
0.000 0.000 0.000 nodecolor
newpath 89 37 moveto
89 58 lineto
148 58 lineto
148 37 lineto
closepath stroke
0.000 0.000 0.000 nodecolor
10.00 /FreeSans.ttf set_font
118 44 moveto 43 -0.5 (prepara) alignedtext
grestore
% Node1->Node4
gsave
1 setlinewidth
solid
0.667 0.776 0.439 edgecolor
newpath 44 77 moveto
56 72 70 67 83 62 curveto
stroke
0.667 0.776 0.439 edgecolor
newpath 85.0151 64.9636 moveto
93 58 lineto
82.4153 58.4643 lineto
closepath fill
1 setlinewidth
solid
0.667 0.776 0.439 edgecolor
newpath 85.0151 64.9636 moveto
93 58 lineto
82.4153 58.4643 lineto
closepath stroke
grestore
% Node5
gsave
[ /Rect [ 192 57 294 77 ]
  /Border [ 0 0 0 ]
  /Action << /Subtype /URI /URI ($comun_8cpp.html#55db9e79615822cbc40390b2c2ab10fd) >>
  /Subtype /Link
/ANN pdfmark
[ /Rect [ 192 57 294 77 ]
  /Border [ 0 0 0 ]
  /Action << /Subtype /URI /URI ($comun_8cpp.html#55db9e79615822cbc40390b2c2ab10fd) >>
  /Subtype /Link
/ANN pdfmark
1 setlinewidth
0.000 0.000 0.000 nodecolor
newpath 192 56 moveto
192 77 lineto
294 77 lineto
294 56 lineto
closepath stroke
0.000 0.000 0.000 nodecolor
10.00 /FreeSans.ttf set_font
243 63 moveto 86 -0.5 (directorio_temp) alignedtext
grestore
% Node4->Node5
gsave
1 setlinewidth
solid
0.667 0.776 0.439 edgecolor
newpath 148 53 moveto
158 55 170 56 182 58 curveto
stroke
0.667 0.776 0.439 edgecolor
newpath 181.701 61.4875 moveto
192 59 lineto
182.398 54.5222 lineto
closepath fill
1 setlinewidth
solid
0.667 0.776 0.439 edgecolor
newpath 181.701 61.4875 moveto
192 59 lineto
182.398 54.5222 lineto
closepath stroke
grestore
% Node6
gsave
[ /Rect [ 210 19 276 39 ]
  /Border [ 0 0 0 ]
  /Action << /Subtype /URI /URI ($leeODT_8cpp.html#bb9f8e651699cb8afeaa92e4c360c47a) >>
  /Subtype /Link
/ANN pdfmark
[ /Rect [ 210 19 276 39 ]
  /Border [ 0 0 0 ]
  /Action << /Subtype /URI /URI ($leeODT_8cpp.html#bb9f8e651699cb8afeaa92e4c360c47a) >>
  /Subtype /Link
/ANN pdfmark
1 setlinewidth
0.000 0.000 0.000 nodecolor
newpath 210 18 moveto
210 39 lineto
277 39 lineto
277 18 lineto
closepath stroke
0.000 0.000 0.000 nodecolor
10.00 /FreeSans.ttf set_font
243 25 moveto 51 -0.5 (extraezip) alignedtext
grestore
% Node4->Node6
gsave
1 setlinewidth
solid
0.667 0.776 0.439 edgecolor
newpath 148 43 moveto
164 41 183 38 200 36 curveto
stroke
0.667 0.776 0.439 edgecolor
newpath 200.881 39.3933 moveto
210 34 lineto
199.508 32.5292 lineto
closepath fill
1 setlinewidth
solid
0.667 0.776 0.439 edgecolor
newpath 200.881 39.3933 moveto
210 34 lineto
199.508 32.5292 lineto
closepath stroke
grestore
% Node7
gsave
[ /Rect [ 330 19 398 39 ]
  /Border [ 0 0 0 ]
  /Action << /Subtype /URI /URI ($funzipuno_8cpp.html#4f263e043a55b1ad587682abcd279c9b) >>
  /Subtype /Link
/ANN pdfmark
[ /Rect [ 330 19 398 39 ]
  /Border [ 0 0 0 ]
  /Action << /Subtype /URI /URI ($funzipuno_8cpp.html#4f263e043a55b1ad587682abcd279c9b) >>
  /Subtype /Link
/ANN pdfmark
1 setlinewidth
0.000 0.000 0.000 nodecolor
newpath 330 18 moveto
330 39 lineto
398 39 lineto
398 18 lineto
closepath stroke
0.000 0.000 0.000 nodecolor
10.00 /FreeSans.ttf set_font
364 25 moveto 52 -0.5 (unzipUno) alignedtext
grestore
% Node6->Node7
gsave
1 setlinewidth
solid
0.667 0.776 0.439 edgecolor
newpath 277 29 moveto
291 29 306 29 320 29 curveto
stroke
0.667 0.776 0.439 edgecolor
newpath 320 32.5001 moveto
330 29 lineto
320 25.5001 lineto
closepath fill
1 setlinewidth
solid
0.667 0.776 0.439 edgecolor
newpath 320 32.5001 moveto
330 29 lineto
320 25.5001 lineto
closepath stroke
grestore
% Node8
gsave
[ /Rect [ 446 38 476 58 ]
  /Border [ 0 0 0 ]
  /Action << /Subtype /URI /URI ($funzipuno_8cpp.html#324627cf8964a10784459105e5f8a183) >>
  /Subtype /Link
/ANN pdfmark
[ /Rect [ 446 38 476 58 ]
  /Border [ 0 0 0 ]
  /Action << /Subtype /URI /URI ($funzipuno_8cpp.html#324627cf8964a10784459105e5f8a183) >>
  /Subtype /Link
/ANN pdfmark
1 setlinewidth
0.000 0.000 0.000 nodecolor
newpath 446 37 moveto
446 58 lineto
477 58 lineto
477 37 lineto
closepath stroke
0.000 0.000 0.000 nodecolor
10.00 /FreeSans.ttf set_font
461 44 moveto 15 -0.5 (err) alignedtext
grestore
% Node7->Node8
gsave
1 setlinewidth
solid
0.667 0.776 0.439 edgecolor
newpath 398 36 moveto
410 38 424 41 436 43 curveto
stroke
0.667 0.776 0.439 edgecolor
newpath 435.508 46.4708 moveto
446 45 lineto
436.881 39.6067 lineto
closepath fill
1 setlinewidth
solid
0.667 0.776 0.439 edgecolor
newpath 435.508 46.4708 moveto
446 45 lineto
436.881 39.6067 lineto
closepath stroke
grestore
% Node9
gsave
[ /Rect [ 435 0 487 20 ]
  /Border [ 0 0 0 ]
  /Action << /Subtype /URI /URI ($funzipuno_8cpp.html#ecb1826a5ec50e6578954980daf315b0) >>
  /Subtype /Link
/ANN pdfmark
[ /Rect [ 435 0 487 20 ]
  /Border [ 0 0 0 ]
  /Action << /Subtype /URI /URI ($funzipuno_8cpp.html#ecb1826a5ec50e6578954980daf315b0) >>
  /Subtype /Link
/ANN pdfmark
1 setlinewidth
0.000 0.000 0.000 nodecolor
newpath 435 -1 moveto
435 20 lineto
488 20 lineto
488 -1 lineto
closepath stroke
0.000 0.000 0.000 nodecolor
10.00 /FreeSans.ttf set_font
461 6 moveto 37 -0.5 (updcrc) alignedtext
grestore
% Node7->Node9
gsave
1 setlinewidth
solid
0.667 0.776 0.439 edgecolor
newpath 398 22 moveto
407 21 416 19 425 17 curveto
stroke
0.667 0.776 0.439 edgecolor
newpath 425.881 20.3933 moveto
435 15 lineto
424.508 13.5292 lineto
closepath fill
1 setlinewidth
solid
0.667 0.776 0.439 edgecolor
newpath 425.881 20.3933 moveto
435 15 lineto
424.508 13.5292 lineto
closepath stroke
grestore
endpage
showpage
grestore
%%PageTrailer
%%EndPage: 1
%%Trailer
%%Pages: 1
%%BoundingBox: 36 36 532 178
end
restore
%%EOF
